"Date","VIX / VXV","VIX / CM45","Front Month Roll","Daily Roll","VIX / VXV (smoothed)","VIX / CM45 (smoothed)","Front Month Roll (smoothed)","Daily Roll (smoothed)"
"2015-01-26","0.861","0.891","0.977","-0.074","0.953","0.996","1.002","0.0"
"2015-01-27","0.901","0.959","0.989","-0.029","0.941","0.99","0.99","-0.007"
"2015-01-28","0.953","1.006","1.017","-0.003","0.882","0.914","0.99","-0.054"
"2015-01-29","0.938","0.988","1.011","-0.017","0.882","0.914","0.99","-0.054"
"2015-01-30","0.961","1.017","1.037","-0.004","0.882","0.914","0.99","-0.054"
"2015-02-02","0.929","0.989","1.018","-0.036","0.901","0.959","0.99","-0.029"
"2015-02-03","0.889","0.909","0.99","-0.101","0.938","0.988","1.011","-0.017"
"2015-02-04","0.897","0.924","0.998","-0.105","0.938","0.988","1.011","-0.017"
"2015-02-05","0.874","0.883","0.982","-0.142","0.938","0.988","1.011","-0.017"
"2015-02-06","0.87","0.882","0.979","-0.155","0.929","0.988","1.011","-0.036"
"2015-02-09","0.897","0.928","0.99","-0.038","0.897","0.924","0.998","-0.101"
"2015-02-10","0.873","0.898","0.978","-0.052","0.889","0.909","0.99","-0.105"
"2015-02-11","0.86","0.884","0.98","-0.061","0.889","0.909","0.99","-0.105"
"2015-02-12","0.836","0.835","0.973","-0.086","0.874","0.898","0.982","-0.105"
"2015-02-13","0.81","0.807","0.978","-0.103","0.873","0.884","0.98","-0.061"
"2015-02-17","0.86","0.857","0.973","-0.084","0.87","0.884","0.979","-0.061"
"2015-02-18","0.828","0.851","0.962","-0.087","0.86","0.884","0.978","-0.061"
"2015-02-19","0.849","0.851","0.951","-0.086","0.86","0.857","0.978","-0.084"
"2015-02-20","0.827","0.827","0.947","-0.1","0.836","0.851","0.973","-0.086"
"2015-02-23","0.83","0.831","0.947","-0.108","0.836","0.851","0.973","-0.086"
"2015-02-24","0.819","0.819","0.931","-0.11","0.83","0.851","0.962","-0.087"
"2015-02-25","0.82","0.811","0.929","-0.122","0.828","0.851","0.951","-0.087"
"2015-02-26","0.826","0.828","0.917","-0.104","0.828","0.831","0.947","-0.1"
"2015-02-27","0.79","0.797","0.911","-0.132","0.827","0.827","0.947","-0.108"
"2015-03-02","0.792","0.769","0.903","-0.141","0.826","0.827","0.931","-0.108"
"2015-03-03","0.826","0.8","0.913","-0.129","0.82","0.819","0.929","-0.11"
"2015-03-04","0.842","0.819","0.908","-0.109","0.82","0.811","0.917","-0.122"
"2015-03-05","0.844","0.822","0.9","-0.101","0.82","0.8","0.913","-0.129"
"2015-03-06","0.868","0.853","0.91","-0.083","0.826","0.8","0.911","-0.129"
"2015-03-09","0.87","0.853","0.983","-0.069","0.826","0.8","0.91","-0.129"
"2015-03-10","0.914","0.906","0.992","-0.047","0.842","0.819","0.91","-0.109"
"2015-03-11","0.91","0.907","0.987","-0.048","0.844","0.822","0.91","-0.101"
"2015-03-12","0.887","0.878","0.972","-0.06","0.868","0.853","0.91","-0.083"
"2015-03-13","0.894","0.889","0.981","-0.058","0.87","0.853","0.983","-0.069"
"2015-03-16","0.897","0.885","0.969","-0.061","0.887","0.878","0.983","-0.06"
"2015-03-17","0.896","0.89","0.969","-0.06","0.894","0.889","0.983","-0.06"
"2015-03-18","0.85","0.828","0.943","-0.09","0.894","0.889","0.981","-0.06"
"2015-03-19","0.829","0.828","0.938","-0.092","0.894","0.889","0.972","-0.06"
"2015-03-20","0.779","0.776","0.915","-0.12","0.894","0.885","0.969","-0.06"
"2015-03-23","0.811","0.795","0.912","-0.117","0.894","0.885","0.969","-0.061"
"2015-03-24","0.821","0.815","0.903","-0.101","0.85","0.828","0.943","-0.09"
"2015-03-25","0.879","0.888","0.919","-0.055","0.829","0.828","0.938","-0.092"
"2015-03-26","0.899","0.917","0.926","-0.035","0.821","0.815","0.915","-0.101"
"2015-03-27","0.867","0.882","0.918","-0.062","0.821","0.815","0.915","-0.101"
"2015-03-30","0.858","0.864","0.911","-0.081","0.821","0.815","0.915","-0.101"
"2015-03-31","0.872","0.882","0.913","-0.067","0.867","0.882","0.918","-0.062"
"2015-04-01","0.871","0.881","0.909","-0.067","0.867","0.882","0.918","-0.062"
"2015-04-02","0.852","0.867","0.897","-0.075","0.867","0.882","0.918","-0.062"
"2015-04-06","0.876","0.861","0.961","-0.054","0.871","0.882","0.913","-0.067"
"2015-04-07","0.88","0.865","0.961","-0.053","0.871","0.881","0.913","-0.067"
"2015-04-08","0.852","0.832","0.953","-0.066","0.871","0.867","0.913","-0.067"
"2015-04-09","0.817","0.806","0.942","-0.075","0.871","0.867","0.913","-0.067"
"2015-04-10","0.814","0.811","0.936","-0.07","0.871","0.865","0.953","-0.066"
"2015-04-13","0.854","0.859","0.944","-0.057","0.852","0.861","0.953","-0.066"
"2015-04-14","0.862","0.864","0.931","-0.054","0.852","0.832","0.953","-0.066"
"2015-04-15","0.818","0.824","0.924","-0.07","0.852","0.832","0.944","-0.066"
"2015-04-16","0.822","0.814","0.918","-0.075","0.852","0.832","0.942","-0.066"
"2015-04-17","0.861","0.869","0.926","-0.053","0.852","0.832","0.936","-0.066"
"2015-04-20","0.854","0.851","0.913","-0.062","0.852","0.832","0.931","-0.066"
"2015-04-21","0.854","0.848","0.912","-0.064","0.854","0.848","0.926","-0.064"
"2015-04-22","0.822","0.822","0.914","-0.08","0.854","0.848","0.924","-0.064"
"2015-04-23","0.823","0.815","0.913","-0.084","0.854","0.848","0.918","-0.064"
"2015-04-24","0.805","0.804","0.907","-0.091","0.854","0.848","0.914","-0.064"
"2015-04-27","0.824","0.831","0.921","-0.088","0.854","0.848","0.913","-0.064"
"2015-04-28","0.811","0.814","0.909","-0.095","0.823","0.822","0.913","-0.08"
"2015-04-29","0.838","0.848","0.915","-0.079","0.823","0.822","0.913","-0.084"
"2015-04-30","0.883","0.902","0.931","-0.047","0.823","0.822","0.913","-0.088"
"2015-05-01","0.826","0.829","0.906","-0.092","0.823","0.822","0.913","-0.088"
"2015-05-04","0.833","0.805","0.906","-0.1","0.824","0.829","0.913","-0.088"
"2015-05-05","0.877","0.863","0.921","-0.063","0.826","0.831","0.915","-0.088"
"2015-05-06","0.906","0.905","0.94","-0.039","0.833","0.831","0.915","-0.088"
"2015-05-07","0.904","0.914","0.933","-0.021","0.838","0.848","0.915","-0.079"
"2015-05-08","0.826","0.804","0.906","-0.128","0.877","0.863","0.921","-0.063"
"2015-05-11","0.86","0.838","0.956","-0.069","0.877","0.863","0.921","-0.063"
"2015-05-12","0.845","0.85","0.953","-0.064","0.877","0.863","0.921","-0.063"
"2015-05-13","0.845","0.855","0.946","-0.061","0.877","0.863","0.933","-0.063"
"2015-05-14","0.801","0.804","0.94","-0.084","0.86","0.85","0.94","-0.064"
"2015-05-15","0.795","0.786","0.942","-0.095","0.845","0.85","0.946","-0.064"
"2015-05-18","0.836","0.83","0.938","-0.076","0.845","0.838","0.946","-0.069"
"2015-05-19","0.841","0.842","0.937","-0.071","0.845","0.838","0.946","-0.069"
"2015-05-20","0.85","0.842","0.934","-0.072","0.836","0.83","0.942","-0.076"
"2015-05-21","0.829","0.818","0.926","-0.083","0.836","0.83","0.94","-0.076"
"2015-05-22","0.838","0.81","0.92","-0.089","0.836","0.83","0.938","-0.076"
"2015-05-26","0.908","0.909","0.937","-0.04","0.836","0.83","0.937","-0.076"
"2015-05-27","0.885","0.875","0.927","-0.061","0.838","0.83","0.934","-0.076"
"2015-05-28","0.887","0.878","0.924","-0.059","0.841","0.842","0.934","-0.072"
"2015-05-29","0.9","0.904","0.927","-0.043","0.85","0.842","0.927","-0.072"
"2015-06-01","0.907","0.91","0.926","-0.039","0.885","0.875","0.927","-0.061"
"2015-06-02","0.906","0.909","0.928","-0.044","0.887","0.878","0.927","-0.059"
"2015-06-03","0.889","0.895","0.92","-0.053","0.9","0.904","0.927","-0.044"
"2015-06-04","0.904","0.933","0.929","-0.018","0.9","0.904","0.927","-0.044"
"2015-06-05","0.89","0.907","0.922","-0.045","0.9","0.904","0.927","-0.044"
"2015-06-08","0.921","0.94","0.964","-0.022","0.904","0.909","0.927","-0.044"
"2015-06-09","0.89","0.9","0.962","-0.037","0.904","0.909","0.927","-0.044"
"2015-06-10","0.862","0.855","0.952","-0.052","0.904","0.909","0.928","-0.043"
"2015-06-11","0.851","0.845","0.952","-0.056","0.89","0.907","0.929","-0.044"
"2015-06-12","0.883","0.89","0.957","-0.041","0.89","0.907","0.952","-0.041"
"2015-06-15","0.926","0.956","0.965","-0.016","0.89","0.9","0.952","-0.041"
"2015-06-16","0.914","0.94","0.954","-0.022","0.883","0.89","0.954","-0.041"
"2015-06-17","0.894","0.917","0.954","-0.033","0.883","0.89","0.954","-0.041"
"2015-06-18","0.854","0.867","0.943","-0.053","0.883","0.89","0.954","-0.041"
"2015-06-19","0.877","0.89","0.945","-0.045","0.894","0.917","0.954","-0.033"
"2015-06-22","0.85","0.856","0.936","-0.06","0.894","0.917","0.954","-0.033"
"2015-06-23","0.833","0.835","0.925","-0.069","0.894","0.917","0.954","-0.033"
"2015-06-24","0.874","0.886","0.933","-0.047","0.877","0.89","0.945","-0.045"
"2015-06-25","0.903","0.932","0.938","-0.024","0.874","0.886","0.943","-0.047"
"2015-06-26","0.907","0.939","0.941","-0.02","0.874","0.886","0.936","-0.047"
"2015-06-29","1.007","1.083","0.999","0.063","0.874","0.886","0.936","-0.047"
"2015-06-30","0.987","1.05","0.996","0.041","0.874","0.886","0.936","-0.047"
"2015-07-01","0.958","1.002","0.983","0.008","0.903","0.932","0.938","-0.024"
"2015-07-02","0.95","0.99","0.993","-0.005","0.907","0.939","0.941","-0.02"
"2015-07-06","0.943","0.977","0.991","-0.015","0.958","1.002","0.983","0.008"
"2015-07-07","0.945","0.964","0.98","-0.017","0.958","1.002","0.991","0.008"
"2015-07-08","1.021","1.08","1.014","0.086","0.958","1.002","0.991","0.008"
"2015-07-09","1.01","1.07","1.01","0.087","0.95","0.99","0.993","-0.005"
"2015-07-10","0.949","0.979","0.977","0.007","0.95","0.99","0.991","-0.005"
"2015-07-13","0.872","0.886","0.962","-0.045","0.95","0.99","0.991","-0.005"
"2015-07-14","0.865","0.851","0.955","-0.061","0.949","0.979","0.991","0.007"
"2015-07-15","0.848","0.852","0.957","-0.061","0.949","0.979","0.98","0.007"
"2015-07-16","0.822","0.824","0.94","-0.07","0.949","0.979","0.977","0.007"
"2015-07-17","0.818","0.813","0.937","-0.075","0.872","0.886","0.962","-0.045"
"2015-07-20","0.825","0.842","0.936","-0.066","0.865","0.852","0.957","-0.061"
"2015-07-21","0.828","0.84","0.934","-0.068","0.848","0.851","0.955","-0.061"
"2015-07-22","0.818","0.829","0.928","-0.074","0.825","0.842","0.94","-0.066"
"2015-07-23","0.847","0.859","0.924","-0.06","0.825","0.84","0.937","-0.068"
"2015-07-24","0.878","0.899","0.949","-0.047","0.825","0.84","0.936","-0.068"
"2015-07-27","0.93","0.972","0.966","-0.008","0.825","0.84","0.934","-0.068"
"2015-07-28","0.871","0.898","0.929","-0.044","0.828","0.842","0.934","-0.066"
"2015-07-29","0.838","0.848","0.915","-0.074","0.847","0.859","0.934","-0.06"
"2015-07-30","0.825","0.825","0.911","-0.091","0.871","0.898","0.929","-0.047"
"2015-07-31","0.813","0.822","0.915","-0.099","0.871","0.898","0.929","-0.047"
"2015-08-03","0.846","0.831","0.921","-0.084","0.871","0.898","0.929","-0.047"
"2015-08-04","0.859","0.851","0.928","-0.077","0.838","0.848","0.915","-0.074"
"2015-08-05","0.841","0.82","0.918","-0.103","0.838","0.831","0.915","-0.084"
"2015-08-06","0.886","0.891","0.942","-0.056","0.838","0.831","0.915","-0.084"
"2015-08-07","0.868","0.876","0.938","-0.072","0.841","0.831","0.918","-0.084"
"2015-08-10","0.816","0.815","0.946","-0.071","0.846","0.831","0.921","-0.084"
"2015-08-11","0.86","0.88","0.96","-0.048","0.859","0.851","0.928","-0.077"
"2015-08-12","0.858","0.883","0.953","-0.047","0.859","0.851","0.938","-0.072"
"2015-08-13","0.857","0.885","0.95","-0.046","0.859","0.876","0.942","-0.071"
"2015-08-14","0.827","0.839","0.956","-0.069","0.859","0.88","0.946","-0.056"
"2015-08-17","0.856","0.854","0.952","-0.066","0.858","0.88","0.95","-0.048"
"2015-08-18","0.883","0.89","0.947","-0.049","0.857","0.88","0.952","-0.048"
"2015-08-19","0.924","0.957","0.963","-0.016","0.857","0.88","0.952","-0.048"
"2015-08-20","1.016","1.105","0.997","0.068","0.857","0.883","0.953","-0.049"
"2015-08-21","1.194","1.447","1.067","0.313","0.857","0.885","0.953","-0.049"
"2015-08-24","1.308","1.708","1.118","0.678","0.883","0.89","0.956","-0.049"
"2015-08-25","1.218","1.504","1.122","0.485","0.924","0.957","0.963","-0.016"
"2015-08-26","1.182","1.346","1.102","0.315","1.016","1.105","0.997","0.068"
"2015-08-27","1.05","1.15","1.126","0.095","1.194","1.447","1.067","0.313"
"2015-08-28","1.028","1.136","1.117","0.087","1.194","1.447","1.102","0.315"
"2015-08-31","1.072","1.16","1.128","0.124","1.194","1.447","1.118","0.315"
"2015-09-01","1.063","1.157","1.149","0.113","1.182","1.346","1.118","0.315"
"2015-09-02","0.996","1.065","1.088","0.01","1.072","1.16","1.122","0.124"
"2015-09-03","0.977","1.049","1.073","-0.003","1.063","1.157","1.122","0.113"
"2015-09-04","0.99","1.054","1.083","-0.012","1.05","1.15","1.122","0.095"
"2015-09-08","0.969","1.056","1.017","0.03","1.028","1.136","1.117","0.087"
"2015-09-09","0.997","1.086","1.023","0.048","0.996","1.065","1.088","0.01"
"2015-09-10","0.95","1.043","1.017","0.024","0.99","1.056","1.083","0.01"
"2015-09-11","0.94","1.012","1.011","0.006","0.99","1.056","1.073","0.01"
"2015-09-14","1.023","1.061","1.011","0.036","0.977","1.056","1.023","0.024"
"2015-09-15","0.975","1.1","0.991","0.058","0.975","1.056","1.017","0.024"
"2015-09-16","0.956","1.12","0.984","0.067","0.969","1.056","1.017","0.03"
"2015-09-17","1.0","1.04","1.015","0.022","0.969","1.061","1.011","0.036"
"2015-09-18","0.96","1.043","1.026","0.024","0.975","1.061","1.011","0.036"
"2015-09-21","0.933","1.021","0.993","0.015","0.975","1.061","1.011","0.036"
"2015-09-22","0.964","1.042","1.029","0.024","0.96","1.061","1.011","0.036"
"2015-09-23","0.967","1.056","1.019","0.037","0.964","1.043","1.011","0.024"
"2015-09-24","1.0","1.086","1.034","0.058","0.964","1.043","1.015","0.024"
"2015-09-25","0.968","1.071","1.032","0.049","0.964","1.043","1.019","0.024"
"2015-09-28","1.047","1.181","1.058","0.156","0.964","1.043","1.026","0.024"
"2015-09-29","1.032","1.153","1.051","0.135","0.967","1.056","1.029","0.037"
"2015-09-30","0.99","1.086","1.04","0.07","0.968","1.071","1.032","0.049"
"2015-10-01","0.946","1.037","1.037","0.018","0.99","1.086","1.034","0.058"
"2015-10-02","0.927","1.01","1.027","-0.006","0.99","1.086","1.04","0.07"
"2015-10-05","0.916","1.002","1.021","-0.022","0.99","1.086","1.04","0.07"
"2015-10-06","0.899","0.972","1.018","-0.06","0.99","1.086","1.04","0.07"
"2015-10-07","0.888","0.958","1.013","-0.075","0.946","1.037","1.037","0.018"
"2015-10-08","0.867","0.939","0.996","-0.079","0.927","1.01","1.027","-0.006"
"2015-10-09","0.86","0.926","0.986","-0.089","0.916","1.002","1.021","-0.022"
"2015-10-12","0.84","0.936","0.974","-0.028","0.899","0.972","1.018","-0.06"
"2015-10-13","0.862","0.943","0.986","-0.028","0.888","0.958","1.013","-0.075"
"2015-10-14","0.866","0.959","0.979","-0.02","0.867","0.939","0.996","-0.075"
"2015-10-15","0.826","0.929","0.972","-0.032","0.862","0.939","0.986","-0.075"
"2015-10-16","0.806","0.871","0.964","-0.062","0.862","0.939","0.986","-0.028"
"2015-10-19","0.839","0.922","0.955","-0.034","0.86","0.936","0.979","-0.028"
"2015-10-20","0.847","0.915","0.966","-0.043","0.84","0.936","0.974","-0.028"
"2015-10-21","0.858","0.91","0.978","-0.054","0.839","0.929","0.972","-0.032"
"2015-10-22","0.842","0.884","0.955","-0.059","0.839","0.922","0.966","-0.034"
"2015-10-23","0.827","0.855","0.965","-0.084","0.839","0.915","0.966","-0.043"
"2015-10-26","0.85","0.889","0.966","-0.07","0.842","0.91","0.966","-0.054"
"2015-10-27","0.851","0.917","0.962","-0.049","0.842","0.91","0.965","-0.054"
"2015-10-28","0.819","0.872","0.952","-0.08","0.842","0.889","0.965","-0.059"
"2015-10-29","0.82","0.879","0.952","-0.078","0.842","0.889","0.965","-0.059"
"2015-10-30","0.819","0.885","0.962","-0.083","0.842","0.885","0.962","-0.07"
"2015-11-02","0.812","0.851","0.958","-0.109","0.827","0.884","0.962","-0.078"
"2015-11-03","0.832","0.857","0.953","-0.106","0.82","0.879","0.962","-0.078"
"2015-11-04","0.847","0.889","0.963","-0.089","0.82","0.879","0.958","-0.08"
"2015-11-05","0.845","0.892","0.955","-0.077","0.82","0.879","0.958","-0.083"
"2015-11-06","0.821","0.863","0.952","-0.114","0.82","0.879","0.958","-0.089"
"2015-11-09","0.876","0.94","0.966","-0.026","0.832","0.879","0.955","-0.089"
"2015-11-10","0.849","0.896","0.955","-0.045","0.832","0.885","0.955","-0.089"
"2015-11-11","0.87","0.916","0.967","-0.038","0.845","0.889","0.955","-0.089"
"2015-11-12","0.911","0.975","0.981","-0.011","0.847","0.892","0.955","-0.077"
"2015-11-13","0.93","1.007","0.986","0.006","0.849","0.896","0.955","-0.045"
"2015-11-16","0.909","1.006","0.967","0.01","0.87","0.916","0.966","-0.038"
"2015-11-17","0.922","1.011","0.988","0.01","0.876","0.94","0.967","-0.026"
"2015-11-18","0.877","0.936","0.97","-0.034","0.909","0.975","0.967","-0.011"
"2015-11-19","0.865","0.922","0.963","-0.043","0.909","1.006","0.97","0.006"
"2015-11-20","0.817","0.87","0.951","-0.074","0.909","1.006","0.97","0.006"
"2015-11-23","0.838","0.898","0.955","-0.06","0.909","1.006","0.97","0.006"
"2015-11-24","0.851","0.891","0.954","-0.069","0.877","0.936","0.967","-0.034"
"2015-11-25","0.835","0.878","0.946","-0.077","0.865","0.922","0.963","-0.043"
"2015-11-27","0.871","0.855","0.953","-0.109","0.851","0.898","0.955","-0.06"
"2015-11-30","0.872","0.921","0.955","-0.054","0.851","0.891","0.954","-0.069"
"2015-12-01","0.834","0.874","0.944","-0.099","0.851","0.891","0.954","-0.069"
"2015-12-02","0.868","0.919","0.957","-0.064","0.851","0.878","0.953","-0.074"
"2015-12-03","0.901","0.981","0.992","-0.018","0.851","0.878","0.953","-0.074"
"2015-12-04","0.815","0.87","0.939","-0.12","0.868","0.891","0.954","-0.069"
"2015-12-07","0.849","0.904","0.965","-0.038","0.868","0.904","0.955","-0.064"
"2015-12-08","0.877","0.961","0.975","-0.016","0.868","0.919","0.955","-0.064"
"2015-12-09","0.932","1.03","0.985","0.014","0.868","0.919","0.957","-0.064"
"2015-12-10","0.932","1.011","0.98","0.006","0.868","0.919","0.965","-0.038"
"2015-12-11","1.0","1.113","1.016","0.061","0.877","0.961","0.975","-0.018"
"2015-12-14","0.976","1.113","0.999","0.062","0.877","0.961","0.975","-0.016"
"2015-12-15","0.958","1.104","0.979","0.057","0.932","1.011","0.98","0.006"
"2015-12-16","0.913","0.98","0.968","-0.007","0.932","1.03","0.98","0.014"
"2015-12-17","0.93","0.978","0.985","-0.011","0.958","1.104","0.985","0.057"
"2015-12-18","0.974","1.012","0.992","0.009","0.958","1.104","0.985","0.057"
"2015-12-21","0.886","0.986","0.977","-0.004","0.958","1.104","0.985","0.057"
"2015-12-22","0.837","0.919","0.967","-0.043","0.958","1.012","0.98","0.009"
"2015-12-23","0.805","0.857","0.962","-0.083","0.93","0.986","0.979","-0.004"
"2015-12-24","0.799","0.851","0.968","-0.093","0.913","0.98","0.977","-0.007"
"2015-12-28","0.859","0.937","0.973","-0.039","0.886","0.978","0.977","-0.011"
"2015-12-29","0.842","0.904","0.97","-0.065","0.837","0.919","0.968","-0.043"
"2015-12-30","0.883","0.931","0.973","-0.048","0.837","0.919","0.968","-0.043"
"2015-12-31","0.92","0.974","0.981","-0.014","0.837","0.919","0.968","-0.048"
"2016-01-04","0.94","1.059","1.013","0.056","0.842","0.919","0.97","-0.048"
"2016-01-05","0.942","1.002","1.008","-0.007","0.859","0.931","0.973","-0.048"
"2016-01-06","0.968","1.038","1.025","0.018","0.883","0.937","0.973","-0.039"
"2016-01-07","1.015","1.151","1.082","0.112","0.92","0.974","0.981","-0.014"
"2016-01-08","1.03","1.174","1.093","0.147","0.94","1.002","1.008","-0.007"
"2016-01-11","0.983","1.111","1.019","0.064","0.942","1.038","1.013","0.018"
"2016-01-12","0.997","1.068","1.015","0.038","0.968","1.059","1.025","0.056"
"2016-01-13","1.013","1.096","1.028","0.059","0.983","1.111","1.025","0.064"
"2016-01-14","1.018","1.079","1.021","0.049","0.997","1.111","1.025","0.064"
"2016-01-15","1.005","1.119","1.031","0.081","1.005","1.111","1.025","0.064"
"2016-01-19","0.985","1.094","1.029","0.069","1.005","1.096","1.025","0.059"
"2016-01-20","0.992","1.131","1.033","0.103","1.005","1.096","1.028","0.059"
"2016-01-21","0.999","1.081","1.041","0.059","1.005","1.096","1.028","0.059"
"2016-01-22","0.92","0.993","1.023","-0.014","1.005","1.094","1.029","0.069"
"2016-01-25","0.956","1.023","1.034","0.007","0.999","1.094","1.031","0.069"
"2016-01-26","0.966","0.997","1.034","-0.02","0.992","1.094","1.031","0.069"
"2016-01-27","0.944","0.992","1.037","-0.03","0.985","1.081","1.033","0.059"
"2016-01-28","0.933","0.983","1.036","-0.041","0.966","1.023","1.034","0.007"
"2016-01-29","0.891","0.941","1.014","-0.076","0.956","0.997","1.034","-0.014"
"2016-02-01","0.908","0.942","1.017","-0.098","0.944","0.993","1.034","-0.02"
"2016-02-02","0.939","0.982","1.033","-0.078","0.944","0.992","1.034","-0.03"
"2016-02-03","0.933","0.976","1.025","-0.079","0.933","0.983","1.034","-0.041"
"2016-02-04","0.923","0.971","1.024","-0.093","0.933","0.982","1.033","-0.076"
"2016-02-05","0.955","1.014","1.045","-0.062","0.933","0.976","1.025","-0.078"
"2016-02-08","1.001","1.089","1.018","0.055","0.933","0.976","1.025","-0.078"
"2016-02-09","0.99","1.088","1.023","0.057","0.933","0.976","1.025","-0.078"
"2016-02-10","0.984","1.073","1.023","0.047","0.939","0.982","1.024","-0.078"
"2016-02-11","1.015","1.096","1.022","0.069","0.955","1.014","1.024","-0.062"
"2016-02-12","0.968","1.014","1.009","0.009","0.984","1.073","1.023","0.047"
"2016-02-16","0.964","1.011","0.999","0.009","0.984","1.073","1.023","0.047"
"2016-02-17","0.947","0.971","0.993","-0.022","0.984","1.073","1.022","0.047"
"2016-02-18","0.933","0.943","0.984","-0.043","0.984","1.073","1.022","0.047"
"2016-02-19","0.9","0.911","0.982","-0.071","0.968","1.014","1.009","0.009"
"2016-02-22","0.896","0.91","0.972","-0.07","0.964","1.011","0.999","0.009"
"2016-02-23","0.935","0.94","0.984","-0.053","0.947","0.971","0.993","-0.022"
"2016-02-24","0.927","0.943","0.982","-0.049","0.933","0.943","0.984","-0.043"
"2016-02-25","0.9","0.903","0.972","-0.086","0.933","0.94","0.984","-0.053"
"2016-02-26","0.906","0.914","0.986","-0.089","0.927","0.94","0.982","-0.053"
"2016-02-29","0.918","0.933","0.982","-0.077","0.918","0.933","0.982","-0.07"
"2016-03-01","0.873","0.885","0.956","-0.113","0.906","0.914","0.982","-0.07"
"2016-03-02","0.858","0.856","0.953","-0.158","0.906","0.914","0.982","-0.077"
"2016-03-03","0.857","0.871","0.941","-0.127","0.906","0.914","0.982","-0.086"
"2016-03-04","0.859","0.855","0.948","-0.174","0.9","0.903","0.972","-0.089"
"2016-03-07","0.872","0.876","0.974","-0.056","0.873","0.885","0.956","-0.113"
"2016-03-08","0.887","0.903","0.981","-0.046","0.859","0.871","0.953","-0.127"
"2016-03-09","0.884","0.909","0.978","-0.043","0.859","0.871","0.953","-0.127"
"2016-03-10","0.872","0.904","0.976","-0.046","0.859","0.871","0.953","-0.127"
"2016-03-11","0.847","0.863","0.965","-0.064","0.872","0.876","0.974","-0.056"
"2016-03-14","0.871","0.894","0.967","-0.051","0.872","0.903","0.976","-0.046"
"2016-03-15","0.871","0.877","0.963","-0.061","0.872","0.903","0.976","-0.046"
"2016-03-16","0.811","0.812","0.953","-0.093","0.872","0.903","0.976","-0.046"
"2016-03-17","0.796","0.801","0.946","-0.098","0.871","0.894","0.967","-0.051"
"2016-03-18","0.782","0.777","0.942","-0.113","0.871","0.877","0.965","-0.061"
"2016-03-21","0.784","0.79","0.925","-0.107","0.847","0.863","0.963","-0.064"
"2016-03-22","0.798","0.815","0.918","-0.092","0.811","0.812","0.953","-0.093"
"2016-03-23","0.816","0.816","0.924","-0.1","0.796","0.801","0.946","-0.098"
"2016-03-24","0.807","0.816","0.913","-0.099","0.796","0.801","0.942","-0.098"
"2016-03-28","0.833","0.85","0.914","-0.083","0.796","0.801","0.925","-0.099"
"2016-03-29","0.802","0.816","0.902","-0.101","0.798","0.815","0.924","-0.099"
"2016-03-30","0.801","0.811","0.907","-0.109","0.807","0.816","0.918","-0.1"
"2016-03-31","0.817","0.826","0.902","-0.099","0.807","0.816","0.914","-0.099"
"2016-04-01","0.794","0.797","0.898","-0.122","0.807","0.816","0.913","-0.099"
"2016-04-04","0.82","0.801","0.906","-0.114","0.807","0.816","0.907","-0.1"
"2016-04-05","0.839","0.834","0.911","-0.092","0.807","0.816","0.906","-0.101"
"2016-04-06","0.815","0.807","0.899","-0.111","0.807","0.811","0.902","-0.109"
"2016-04-07","0.857","0.853","0.915","-0.085","0.817","0.811","0.902","-0.109"
"2016-04-08","0.838","0.826","0.903","-0.112","0.817","0.811","0.906","-0.111"
"2016-04-11","0.861","0.849","0.96","-0.074","0.82","0.811","0.906","-0.111"
"2016-04-12","0.826","0.805","0.949","-0.094","0.838","0.826","0.906","-0.111"
"2016-04-13","0.802","0.781","0.936","-0.103","0.838","0.826","0.911","-0.094"
"2016-04-14","0.796","0.781","0.931","-0.104","0.838","0.826","0.915","-0.094"
"2016-04-15","0.794","0.781","0.924","-0.105","0.838","0.826","0.936","-0.094"
"2016-04-18","0.809","0.802","0.927","-0.096","0.826","0.805","0.936","-0.103"
"2016-04-19","0.804","0.791","0.918","-0.103","0.802","0.781","0.936","-0.103"
"2016-04-20","0.8","0.781","0.919","-0.113","0.802","0.781","0.931","-0.103"
"2016-04-21","0.814","0.799","0.911","-0.106","0.802","0.781","0.927","-0.103"
"2016-04-22","0.794","0.779","0.9","-0.115","0.802","0.781","0.924","-0.104"
"2016-04-25","0.818","0.82","0.895","-0.094","0.804","0.791","0.919","-0.105"
"2016-04-26","0.825","0.821","0.886","-0.09","0.804","0.791","0.918","-0.106"
"2016-04-27","0.821","0.83","0.878","-0.08","0.804","0.791","0.911","-0.106"
"2016-04-28","0.856","0.865","0.893","-0.064","0.814","0.799","0.9","-0.106"
"2016-04-29","0.851","0.868","0.892","-0.063","0.818","0.82","0.895","-0.094"
"2016-05-02","0.826","0.807","0.87","-0.07","0.821","0.821","0.893","-0.09"
"2016-05-03","0.84","0.822","0.878","-0.068","0.825","0.83","0.892","-0.08"
"2016-05-04","0.849","0.84","0.887","-0.061","0.826","0.83","0.887","-0.07"
"2016-05-05","0.841","0.832","0.879","-0.065","0.84","0.83","0.886","-0.068"
"2016-05-06","0.806","0.798","0.859","-0.084","0.84","0.83","0.879","-0.068"
"2016-05-09","0.807","0.799","0.934","-0.093","0.84","0.83","0.879","-0.068"
"2016-05-10","0.793","0.783","0.928","-0.098","0.84","0.822","0.879","-0.068"
"2016-05-11","0.815","0.806","0.936","-0.093","0.84","0.822","0.879","-0.068"
"2016-05-12","0.812","0.809","0.93","-0.09","0.807","0.799","0.887","-0.084"
"2016-05-13","0.824","0.819","0.941","-0.092","0.807","0.799","0.928","-0.093"
"2016-05-16","0.829","0.825","0.935","-0.091","0.807","0.799","0.93","-0.093"
"2016-05-17","0.845","0.844","0.934","-0.084","0.812","0.806","0.934","-0.093"
"2016-05-18","0.86","0.858","0.933","-0.077","0.815","0.809","0.934","-0.092"
"2016-05-19","0.87","0.882","0.933","-0.062","0.824","0.819","0.934","-0.091"
"2016-05-20","0.842","0.843","0.916","-0.083","0.829","0.825","0.934","-0.09"
"2016-05-23","0.872","0.864","0.924","-0.077","0.845","0.844","0.934","-0.084"
"2016-05-24","0.844","0.83","0.907","-0.095","0.845","0.844","0.933","-0.083"
"2016-05-25","0.829","0.81","0.9","-0.11","0.845","0.844","0.933","-0.083"
"2016-05-26","0.811","0.793","0.89","-0.121","0.845","0.844","0.924","-0.083"
"2016-05-27","0.804","0.787","0.875","-0.12","0.844","0.843","0.916","-0.083"
"2016-05-31","0.853","0.848","0.877","-0.074","0.842","0.83","0.907","-0.095"
"2016-06-01","0.85","0.844","0.873","-0.079","0.829","0.81","0.9","-0.11"
"2016-06-02","0.833","0.827","0.866","-0.094","0.829","0.81","0.89","-0.11"
"2016-06-03","0.817","0.818","0.863","-0.107","0.829","0.81","0.877","-0.11"
"2016-06-06","0.83","0.809","0.938","-0.073","0.833","0.827","0.875","-0.094"
"2016-06-07","0.845","0.831","0.932","-0.065","0.833","0.827","0.873","-0.094"
"2016-06-08","0.839","0.831","0.93","-0.066","0.833","0.827","0.873","-0.079"
"2016-06-09","0.845","0.847","0.933","-0.062","0.833","0.827","0.873","-0.079"
"2016-06-10","0.899","0.918","0.956","-0.035","0.833","0.827","0.93","-0.073"
"2016-06-13","0.959","0.987","1.0","-0.008","0.839","0.831","0.932","-0.066"
"2016-06-14","0.934","0.982","0.995","-0.01","0.845","0.831","0.933","-0.065"
"2016-06-15","0.923","0.978","0.994","-0.012","0.845","0.847","0.933","-0.062"
"2016-06-16","0.915","0.962","0.983","-0.02","0.899","0.918","0.956","-0.035"
"2016-06-17","0.911","0.961","0.983","-0.021","0.923","0.978","0.994","-0.012"
"2016-06-20","0.927","0.98","0.961","-0.004","0.923","0.978","0.994","-0.012"
"2016-06-21","0.939","0.977","0.969","-0.008","0.923","0.978","0.994","-0.012"
"2016-06-22","1.004","1.084","0.988","0.061","0.923","0.978","0.983","-0.012"
"2016-06-23","0.936","1.011","0.949","0.02","0.923","0.978","0.983","-0.012"
"2016-06-24","1.076","1.148","1.027","0.118","0.927","0.978","0.983","-0.008"
"2016-06-27","1.007","1.021","1.03","0.007","0.936","0.98","0.983","-0.004"
"2016-06-28","0.925","0.98","0.977","-0.007","0.939","1.011","0.983","0.02"
"2016-06-29","0.888","0.922","0.943","-0.04","0.939","1.011","0.977","0.02"
"2016-06-30","0.864","0.881","0.926","-0.067","0.939","1.011","0.977","0.02"
"2016-07-01","0.837","0.839","0.923","-0.107","0.936","1.011","0.977","0.007"
"2016-07-05","0.854","0.849","0.921","-0.085","0.925","0.98","0.977","-0.007"
"2016-07-06","0.843","0.837","0.907","-0.085","0.888","0.922","0.943","-0.04"
"2016-07-07","0.831","0.829","0.901","-0.092","0.864","0.881","0.926","-0.067"
"2016-07-08","0.8","0.78","0.883","-0.133","0.854","0.849","0.923","-0.085"
"2016-07-11","0.821","0.796","0.921","-0.087","0.843","0.839","0.921","-0.085"
"2016-07-12","0.838","0.82","0.911","-0.074","0.837","0.837","0.907","-0.087"
"2016-07-13","0.817","0.789","0.915","-0.09","0.831","0.829","0.907","-0.087"
"2016-07-14","0.808","0.778","0.916","-0.097","0.831","0.82","0.907","-0.09"
"2016-07-15","0.792","0.759","0.917","-0.11","0.821","0.796","0.911","-0.09"
"2016-07-18","0.789","0.765","0.911","-0.11","0.817","0.789","0.915","-0.09"
"2016-07-19","0.76","0.736","0.902","-0.127","0.817","0.789","0.915","-0.09"
"2016-07-20","0.762","0.729","0.899","-0.133","0.808","0.778","0.915","-0.097"
"2016-07-21","0.791","0.767","0.892","-0.115","0.792","0.765","0.915","-0.11"
"2016-07-22","0.761","0.738","0.88","-0.13","0.789","0.759","0.911","-0.11"
"2016-07-25","0.791","0.784","0.875","-0.108","0.789","0.759","0.902","-0.115"
"2016-07-26","0.8","0.798","0.871","-0.098","0.789","0.759","0.899","-0.115"
"2016-07-27","0.797","0.797","0.858","-0.094","0.789","0.759","0.892","-0.115"
"2016-07-28","0.795","0.805","0.851","-0.084","0.791","0.767","0.88","-0.115"
"2016-07-29","0.77","0.775","0.845","-0.104","0.791","0.784","0.875","-0.108"
"2016-08-01","0.792","0.813","0.843","-0.076","0.795","0.797","0.871","-0.098"
"2016-08-02","0.816","0.843","0.856","-0.059","0.795","0.797","0.858","-0.098"
"2016-08-03","0.8","0.83","0.851","-0.069","0.795","0.798","0.851","-0.094"
"2016-08-04","0.791","0.819","0.849","-0.079","0.795","0.805","0.851","-0.084"
"2016-08-05","0.752","0.775","0.84","-0.126","0.795","0.813","0.851","-0.076"
"2016-08-08","0.759","0.758","0.888","-0.082","0.792","0.819","0.851","-0.076"
"2016-08-09","0.772","0.781","0.889","-0.074","0.792","0.819","0.851","-0.076"
"2016-08-10","0.782","0.79","0.901","-0.074","0.791","0.819","0.851","-0.079"
"2016-08-11","0.763","0.766","0.896","-0.083","0.772","0.781","0.851","-0.079"
"2016-08-12","0.757","0.76","0.898","-0.086","0.772","0.781","0.888","-0.079"
"2016-08-15","0.768","0.782","0.895","-0.081","0.768","0.781","0.889","-0.081"
"2016-08-16","0.789","0.806","0.905","-0.075","0.768","0.781","0.896","-0.081"
"2016-08-17","0.785","0.801","0.889","-0.075","0.768","0.781","0.896","-0.081"
"2016-08-18","0.754","0.76","0.878","-0.092","0.768","0.782","0.896","-0.081"
"2016-08-19","0.75","0.744","0.88","-0.102","0.768","0.782","0.896","-0.081"
"2016-08-22","0.792","0.796","0.879","-0.082","0.768","0.782","0.895","-0.081"
"2016-08-23","0.803","0.8","0.872","-0.08","0.768","0.782","0.889","-0.081"
"2016-08-24","0.841","0.847","0.885","-0.06","0.785","0.796","0.88","-0.082"
"2016-08-25","0.845","0.865","0.882","-0.049","0.785","0.796","0.88","-0.082"
"2016-08-26","0.841","0.856","0.89","-0.058","0.792","0.796","0.88","-0.082"
"2016-08-29","0.812","0.823","0.875","-0.077","0.803","0.8","0.88","-0.08"
"2016-08-30","0.818","0.837","0.869","-0.065","0.841","0.847","0.882","-0.06"
"2016-08-31","0.831","0.853","0.873","-0.056","0.841","0.847","0.882","-0.06"
"2016-09-01","0.826","0.856","0.877","-0.056","0.841","0.847","0.882","-0.06"
"2016-09-02","0.765","0.781","0.853","-0.104","0.831","0.847","0.875","-0.06"
"2016-09-06","0.772","0.753","0.84","-0.089","0.826","0.847","0.875","-0.06"
"2016-09-07","0.771","0.753","0.84","-0.093","0.818","0.837","0.873","-0.065"
"2016-09-08","0.791","0.779","0.839","-0.068","0.818","0.837","0.869","-0.065"
"2016-09-09","0.929","0.972","0.92","0.087","0.772","0.781","0.853","-0.089"
"2016-09-12","0.878","0.886","0.942","-0.048","0.772","0.779","0.84","-0.089"
"2016-09-13","0.937","0.968","0.976","-0.014","0.772","0.779","0.84","-0.089"
"2016-09-14","0.937","0.956","0.979","-0.021","0.791","0.779","0.84","-0.068"
"2016-09-15","0.896","0.887","0.967","-0.057","0.878","0.886","0.92","-0.048"
"2016-09-16","0.86","0.866","0.959","-0.066","0.896","0.887","0.942","-0.048"
"2016-09-19","0.873","0.891","0.953","-0.054","0.896","0.891","0.967","-0.048"
"2016-09-20","0.885","0.899","0.955","-0.052","0.896","0.891","0.967","-0.048"
"2016-09-21","0.798","0.801","0.92","-0.099","0.896","0.891","0.967","-0.054"
"2016-09-22","0.754","0.755","0.907","-0.121","0.885","0.887","0.959","-0.054"
"2016-09-23","0.766","0.759","0.911","-0.125","0.873","0.887","0.955","-0.057"
"2016-09-26","0.839","0.862","0.937","-0.077","0.86","0.866","0.953","-0.066"
"2016-09-27","0.796","0.808","0.92","-0.11","0.798","0.801","0.92","-0.099"
"2016-09-28","0.774","0.773","0.913","-0.136","0.798","0.801","0.92","-0.099"
"2016-09-29","0.831","0.847","0.935","-0.096","0.796","0.801","0.92","-0.11"
"2016-09-30","0.812","0.806","0.93","-0.132","0.796","0.801","0.92","-0.11"
"2016-10-03","0.827","0.809","0.924","-0.12","0.796","0.808","0.92","-0.11"
"2016-10-04","0.828","0.82","0.924","-0.114","0.812","0.808","0.924","-0.12"
"2016-10-05","0.801","0.779","0.91","-0.154","0.812","0.808","0.924","-0.12"
"2016-10-06","0.799","0.775","0.908","-0.166","0.812","0.808","0.924","-0.12"
"2016-10-07","0.82","0.803","0.918","-0.156","0.82","0.808","0.924","-0.12"
"2016-10-10","0.839","0.814","0.963","-0.079","0.82","0.806","0.924","-0.132"
"2016-10-11","0.907","0.899","0.975","-0.046","0.82","0.803","0.918","-0.154"
"2016-10-12","0.935","0.92","0.976","-0.037","0.82","0.803","0.918","-0.154"
"2016-10-13","0.949","0.948","0.982","-0.024","0.82","0.803","0.918","-0.154"
"2016-10-14","0.925","0.927","0.981","-0.036","0.839","0.814","0.963","-0.079"
"2016-10-17","0.928","0.942","0.981","-0.03","0.907","0.899","0.975","-0.046"
"2016-10-18","0.903","0.908","0.971","-0.047","0.925","0.92","0.976","-0.037"
"2016-10-19","0.875","0.881","0.956","-0.06","0.925","0.927","0.981","-0.036"
"2016-10-20","0.847","0.852","0.949","-0.076","0.925","0.927","0.981","-0.036"
"2016-10-21","0.832","0.835","0.943","-0.086","0.925","0.927","0.981","-0.036"
"2016-10-24","0.834","0.841","0.931","-0.084","0.903","0.908","0.971","-0.047"
"2016-10-25","0.851","0.855","0.94","-0.081","0.875","0.881","0.956","-0.06"
"2016-10-26","0.876","0.885","0.95","-0.067","0.847","0.852","0.949","-0.076"
"2016-10-27","0.907","0.93","0.954","-0.037","0.847","0.852","0.943","-0.081"
"2016-10-28","0.932","0.958","0.975","-0.024","0.847","0.852","0.943","-0.081"
"2016-10-31","0.956","0.983","0.991","-0.012","0.851","0.855","0.943","-0.081"
"2016-11-01","0.99","1.038","0.997","0.047","0.876","0.885","0.95","-0.067"
"2016-11-02","1.007","1.053","1.016","0.055","0.907","0.93","0.954","-0.037"
"2016-11-03","1.067","1.148","1.042","0.175","0.932","0.958","0.975","-0.024"
"2016-11-04","1.065","1.18","1.018","0.266","0.956","0.983","0.991","-0.012"
"2016-11-07","1.031","1.127","0.937","0.048","0.99","1.038","0.997","0.047"
"2016-11-08","1.035","1.126","0.938","0.05","1.007","1.053","1.016","0.055"
"2016-11-09","0.883","0.909","0.924","-0.032","1.031","1.127","1.016","0.055"
"2016-11-10","0.88","0.9","0.935","-0.037","1.031","1.127","1.016","0.055"
"2016-11-11","0.859","0.872","0.928","-0.048","1.031","1.127","0.938","0.05"
"2016-11-14","0.867","0.893","0.925","-0.041","1.031","1.126","0.937","0.048"
"2016-11-15","0.849","0.856","0.905","-0.054","0.883","0.909","0.935","-0.032"
"2016-11-16","0.854","0.862","0.915","-0.054","0.88","0.9","0.928","-0.037"
"2016-11-17","0.854","0.865","0.902","-0.049","0.867","0.893","0.925","-0.041"
"2016-11-18","0.828","0.834","0.898","-0.064","0.859","0.872","0.925","-0.048"
"2016-11-21","0.811","0.825","0.888","-0.068","0.854","0.865","0.915","-0.049"
"2016-11-22","0.808","0.822","0.889","-0.07","0.854","0.862","0.905","-0.054"
"2016-11-23","0.806","0.819","0.884","-0.072","0.849","0.856","0.902","-0.054"
"2016-11-25","0.796","0.817","0.883","-0.076","0.828","0.834","0.898","-0.064"
"2016-11-28","0.821","0.858","0.888","-0.056","0.811","0.825","0.889","-0.068"
"2016-11-29","0.811","0.844","0.882","-0.064","0.808","0.822","0.888","-0.07"
"2016-11-30","0.828","0.862","0.89","-0.056","0.808","0.822","0.888","-0.07"
"2016-12-01","0.844","0.881","0.902","-0.049","0.808","0.822","0.888","-0.07"
"2016-12-02","0.841","0.879","0.9","-0.051","0.811","0.844","0.888","-0.064"
"2016-12-05","0.77","0.774","0.863","-0.085","0.821","0.858","0.888","-0.056"
"2016-12-06","0.762","0.763","0.851","-0.087","0.828","0.862","0.89","-0.056"
"2016-12-07","0.789","0.787","0.861","-0.077","0.828","0.862","0.89","-0.056"
"2016-12-08","0.804","0.808","0.865","-0.061","0.828","0.862","0.89","-0.056"
"2016-12-09","0.772","0.766","0.858","-0.108","0.789","0.787","0.863","-0.077"
"2016-12-12","0.804","0.802","0.929","-0.079","0.789","0.787","0.863","-0.077"
"2016-12-13","0.81","0.81","0.923","-0.076","0.789","0.787","0.863","-0.077"
"2016-12-14","0.831","0.846","0.927","-0.061","0.789","0.787","0.863","-0.077"
"2016-12-15","0.812","0.83","0.919","-0.068","0.804","0.802","0.865","-0.077"
"2016-12-16","0.784","0.794","0.916","-0.085","0.804","0.808","0.923","-0.076"
"2016-12-19","0.765","0.781","0.905","-0.092","0.81","0.81","0.923","-0.076"
"2016-12-20","0.756","0.775","0.904","-0.096","0.81","0.81","0.923","-0.076"
"2016-12-21","0.747","0.769","0.897","-0.099","0.81","0.81","0.919","-0.076"
"2016-12-22","0.748","0.764","0.892","-0.106","0.784","0.794","0.916","-0.085"
"2016-12-23","0.75","0.762","0.893","-0.11","0.765","0.781","0.905","-0.092"
"2016-12-27","0.781","0.804","0.886","-0.091","0.756","0.775","0.904","-0.096"
"2016-12-28","0.813","0.837","0.902","-0.08","0.75","0.769","0.897","-0.099"
"2016-12-29","0.827","0.852","0.907","-0.074","0.75","0.769","0.893","-0.099"
"2016-12-30","0.849","0.88","0.911","-0.056","0.75","0.769","0.893","-0.099"
"2017-01-03","0.826","0.823","0.887","-0.063","0.781","0.804","0.893","-0.091"
"2017-01-04","0.799","0.787","0.881","-0.096","0.813","0.837","0.902","-0.08"
"2017-01-05","0.794","0.782","0.882","-0.106","0.826","0.837","0.902","-0.074"
"2017-01-06","0.777","0.765","0.881","-0.132","0.826","0.837","0.902","-0.074"
"2017-01-09","0.79","0.784","0.914","-0.079","0.826","0.823","0.887","-0.074"
"2017-01-10","0.784","0.779","0.921","-0.084","0.799","0.787","0.882","-0.096"
"2017-01-11","0.778","0.774","0.913","-0.085","0.794","0.784","0.882","-0.096"
"2017-01-12","0.791","0.785","0.911","-0.083","0.79","0.782","0.882","-0.096"
"2017-01-13","0.772","0.769","0.903","-0.09","0.784","0.779","0.913","-0.085"
"2017-01-17","0.797","0.805","0.903","-0.08","0.784","0.779","0.913","-0.084"
"2017-01-18","0.835","0.847","0.91","-0.061","0.784","0.779","0.913","-0.084"
"2017-01-19","0.851","0.865","0.916","-0.054","0.784","0.779","0.911","-0.084"
"2017-01-20","0.796","0.801","0.907","-0.088","0.791","0.785","0.91","-0.083"
"2017-01-23","0.809","0.827","0.906","-0.077","0.797","0.805","0.91","-0.08"
"2017-01-24","0.798","0.807","0.906","-0.089","0.797","0.805","0.907","-0.08"
"2017-01-25","0.794","0.801","0.9","-0.092","0.798","0.807","0.907","-0.08"
"2017-01-26","0.78","0.787","0.898","-0.103","0.798","0.807","0.907","-0.08"
"2017-01-27","0.773","0.786","0.889","-0.104","0.798","0.807","0.906","-0.088"
"2017-01-30","0.824","0.86","0.901","-0.064","0.796","0.801","0.906","-0.089"
"2017-01-31","0.828","0.865","0.905","-0.064","0.794","0.801","0.9","-0.092"
"2017-02-01","0.826","0.87","0.907","-0.062","0.794","0.801","0.9","-0.092"
"2017-02-02","0.818","0.863","0.911","-0.076","0.794","0.801","0.9","-0.092"
"2017-02-03","0.781","0.81","0.895","-0.125","0.824","0.86","0.901","-0.064"
"2017-02-06","0.798","0.813","0.914","-0.059","0.824","0.863","0.905","-0.064"
"2017-02-07","0.787","0.806","0.91","-0.062","0.824","0.863","0.905","-0.064"
"2017-02-08","0.786","0.814","0.905","-0.06","0.818","0.863","0.907","-0.064"
"2017-02-09","0.768","0.785","0.898","-0.069","0.798","0.813","0.907","-0.062"
"2017-02-10","0.78","0.8","0.884","-0.063","0.787","0.813","0.907","-0.062"
"2017-02-13","0.809","0.829","0.884","-0.054","0.786","0.81","0.905","-0.062"
"2017-02-14","0.814","0.85","0.879","-0.043","0.786","0.81","0.905","-0.062"
"2017-02-15","0.893","0.913","0.915","-0.025","0.786","0.81","0.898","-0.062"
"2017-02-16","0.863","0.888","0.916","-0.035","0.786","0.814","0.884","-0.06"
"2017-02-17","0.837","0.85","0.93","-0.053","0.809","0.829","0.884","-0.054"
"2017-02-21","0.824","0.847","0.91","-0.056","0.814","0.85","0.884","-0.043"
"2017-02-22","0.816","0.854","0.902","-0.053","0.837","0.85","0.915","-0.043"
"2017-02-23","0.794","0.824","0.888","-0.067","0.837","0.85","0.915","-0.043"
"2017-02-24","0.777","0.812","0.878","-0.072","0.837","0.85","0.915","-0.053"
"2017-02-27","0.811","0.853","0.881","-0.053","0.824","0.85","0.91","-0.053"
"2017-02-28","0.846","0.895","0.882","-0.027","0.816","0.85","0.902","-0.053"
"2017-03-01","0.844","0.881","0.881","-0.035","0.811","0.85","0.888","-0.053"
"2017-03-02","0.8","0.829","0.882","-0.072","0.811","0.853","0.882","-0.053"
"2017-03-03","0.769","0.791","0.881","-0.099","0.811","0.853","0.881","-0.053"
"2017-03-06","0.784","0.779","0.878","-0.088","0.811","0.853","0.881","-0.053"
"2017-03-07","0.795","0.79","0.875","-0.079","0.811","0.853","0.881","-0.053"
"2017-03-08","0.816","0.817","0.877","-0.058","0.8","0.829","0.881","-0.072"
"2017-03-09","0.832","0.847","0.886","-0.038","0.795","0.791","0.881","-0.079"
"2017-03-10","0.811","0.815","0.884","-0.074","0.795","0.791","0.878","-0.079"
"2017-03-13","0.79","0.809","0.931","-0.068","0.795","0.791","0.878","-0.079"
"2017-03-14","0.841","0.862","0.938","-0.049","0.811","0.815","0.878","-0.074"
"2017-03-15","0.819","0.835","0.932","-0.059","0.811","0.815","0.884","-0.068"
"2017-03-16","0.813","0.83","0.925","-0.06","0.813","0.817","0.886","-0.06"
"2017-03-17","0.81","0.835","0.931","-0.06","0.813","0.83","0.931","-0.06"
"2017-03-20","0.816","0.84","0.932","-0.061","0.816","0.835","0.931","-0.06"
"2017-03-21","0.853","0.888","0.946","-0.045","0.816","0.835","0.931","-0.06"
"2017-03-22","0.873","0.904","0.955","-0.04","0.816","0.835","0.932","-0.06"
"2017-03-23","0.88","0.906","0.968","-0.044","0.816","0.835","0.932","-0.06"
"2017-03-24","0.891","0.918","0.972","-0.038","0.816","0.84","0.932","-0.06"
"2017-03-27","0.878","0.904","0.968","-0.048","0.853","0.888","0.946","-0.045"
"2017-03-28","0.843","0.87","0.953","-0.063","0.873","0.904","0.955","-0.044"
"2017-03-29","0.85","0.863","0.959","-0.072","0.878","0.904","0.968","-0.044"
"2017-03-30","0.863","0.88","0.96","-0.064","0.878","0.904","0.968","-0.044"
"2017-03-31","0.91","0.919","0.978","-0.048","0.878","0.904","0.968","-0.048"
"2017-04-03","0.906","0.911","0.993","-0.069","0.863","0.88","0.96","-0.063"
"2017-04-04","0.882","0.88","0.99","-0.097","0.863","0.88","0.96","-0.063"
"2017-04-05","0.913","0.928","1.004","-0.072","0.863","0.88","0.96","-0.064"
"2017-04-06","0.907","0.911","1.004","-0.093","0.882","0.88","0.978","-0.069"
"2017-04-07","0.915","0.923","1.014","-0.098","0.906","0.911","0.99","-0.069"
"2017-04-10","0.964","0.975","0.969","-0.008","0.907","0.911","0.993","-0.072"
"2017-04-11","0.994","1.032","0.976","0.015","0.907","0.911","1.004","-0.072"
"2017-04-12","1.032","1.054","0.995","0.023","0.913","0.923","1.004","-0.072"
"2017-04-13","1.013","1.049","0.995","0.022","0.915","0.928","1.004","-0.072"
"2017-04-17","0.987","1.019","0.983","0.012","0.964","0.975","0.995","-0.008"
"2017-04-18","0.977","1.002","0.985","0.003","0.994","1.032","0.995","0.015"
"2017-04-19","0.99","1.025","1.003","0.012","0.994","1.032","0.995","0.015"
"2017-04-20","0.974","0.988","0.999","-0.006","0.994","1.032","0.995","0.015"
"2017-04-21","0.992","1.025","1.004","0.013","0.99","1.025","0.995","0.012"
"2017-04-24","0.84","0.835","0.953","-0.08","0.987","1.019","0.995","0.012"
"2017-04-25","0.837","0.84","0.954","-0.079","0.987","1.019","0.999","0.012"
"2017-04-26","0.836","0.848","0.936","-0.071","0.977","1.002","0.999","0.003"
"2017-04-27","0.809","0.81","0.947","-0.102","0.974","0.988","0.999","-0.006"
"2017-04-28","0.837","0.849","0.934","-0.075","0.84","0.848","0.954","-0.071"
"2017-05-01","0.8","0.82","0.94","-0.109","0.837","0.84","0.953","-0.079"
"2017-05-02","0.825","0.849","0.92","-0.081","0.837","0.84","0.947","-0.079"
"2017-05-03","0.816","0.842","0.934","-0.101","0.836","0.84","0.94","-0.079"
"2017-05-04","0.815","0.844","0.926","-0.098","0.825","0.842","0.936","-0.081"
"2017-05-05","0.823","0.85","0.93","-0.101","0.816","0.844","0.934","-0.098"
"2017-05-08","0.776","0.78","0.912","-0.062","0.816","0.844","0.934","-0.098"
"2017-05-09","0.784","0.795","0.913","-0.059","0.816","0.844","0.93","-0.098"
"2017-05-10","0.791","0.813","0.912","-0.054","0.816","0.844","0.926","-0.098"
"2017-05-11","0.815","0.834","0.921","-0.049","0.815","0.842","0.926","-0.098"
"2017-05-12","0.802","0.829","0.912","-0.05","0.791","0.813","0.913","-0.062"
"2017-05-15","0.815","0.843","0.91","-0.047","0.791","0.813","0.913","-0.059"
"2017-05-16","0.842","0.864","0.915","-0.04","0.791","0.813","0.912","-0.054"
"2017-05-17","0.999","1.089","0.973","0.039","0.802","0.829","0.912","-0.05"
"2017-05-18","0.979","1.023","0.976","0.012","0.815","0.834","0.912","-0.049"
"2017-05-19","0.893","0.931","0.948","-0.022","0.815","0.843","0.915","-0.047"
"2017-05-22","0.843","0.873","0.928","-0.042","0.842","0.864","0.915","-0.04"
"2017-05-23","0.831","0.845","0.928","-0.056","0.893","0.931","0.948","-0.022"
"2017-05-24","0.796","0.811","0.92","-0.069","0.893","0.931","0.948","-0.022"
"2017-05-25","0.799","0.803","0.925","-0.076","0.893","0.931","0.948","-0.022"
"2017-05-26","0.789","0.793","0.924","-0.082","0.843","0.873","0.928","-0.042"
"2017-05-30","0.815","0.845","0.929","-0.066","0.831","0.845","0.928","-0.056"
"2017-05-31","0.824","0.848","0.929","-0.066","0.799","0.811","0.925","-0.069"
"2017-06-01","0.796","0.82","0.938","-0.087","0.799","0.811","0.925","-0.069"
"2017-06-02","0.783","0.803","0.93","-0.099","0.799","0.811","0.925","-0.069"
"2017-06-05","0.784","0.797","0.935","-0.107","0.799","0.82","0.929","-0.076"
"2017-06-06","0.799","0.811","0.93","-0.1","0.796","0.82","0.929","-0.082"
"2017-06-07","0.794","0.813","0.935","-0.107","0.796","0.82","0.93","-0.087"
"2017-06-08","0.796","0.808","0.927","-0.111","0.796","0.811","0.93","-0.099"
"2017-06-09","0.826","0.847","0.935","-0.086","0.796","0.811","0.93","-0.1"
"2017-06-12","0.862","0.895","0.946","-0.033","0.796","0.811","0.935","-0.1"
"2017-06-13","0.819","0.839","0.935","-0.051","0.796","0.811","0.935","-0.1"
"2017-06-14","0.833","0.854","0.946","-0.047","0.799","0.813","0.935","-0.1"
"2017-06-15","0.844","0.865","0.947","-0.045","0.819","0.839","0.935","-0.086"
"2017-06-16","0.817","0.83","0.953","-0.059","0.826","0.847","0.935","-0.051"
"2017-06-19","0.836","0.84","0.953","-0.059","0.833","0.847","0.946","-0.051"
"2017-06-20","0.856","0.881","0.951","-0.043","0.833","0.854","0.946","-0.047"
"2017-06-21","0.842","0.865","0.952","-0.052","0.833","0.854","0.947","-0.047"
"2017-06-22","0.83","0.853","0.943","-0.056","0.836","0.854","0.951","-0.051"
"2017-06-23","0.811","0.821","0.942","-0.072","0.836","0.853","0.951","-0.052"
"2017-06-26","0.807","0.827","0.939","-0.074","0.836","0.853","0.951","-0.056"
"2017-06-27","0.853","0.895","0.953","-0.045","0.836","0.853","0.951","-0.056"
"2017-06-28","0.809","0.827","0.936","-0.08","0.83","0.853","0.943","-0.056"
"2017-06-29","0.87","0.926","0.949","-0.028","0.83","0.853","0.943","-0.056"
"2017-06-30","0.851","0.892","0.969","-0.059","0.83","0.853","0.943","-0.059"
"2017-07-03","0.843","0.862","0.965","-0.083","0.83","0.853","0.943","-0.059"
"2017-07-05","0.832","0.852","0.954","-0.09","0.843","0.862","0.949","-0.072"
"2017-07-06","0.889","0.929","0.972","-0.039","0.851","0.892","0.953","-0.059"
"2017-07-07","0.828","0.848","0.96","-0.114","0.851","0.892","0.954","-0.059"
"2017-07-10","0.832","0.854","0.935","-0.047","0.843","0.862","0.96","-0.08"
"2017-07-11","0.828","0.848","0.933","-0.049","0.843","0.862","0.96","-0.08"
"2017-07-12","0.806","0.816","0.925","-0.06","0.832","0.854","0.96","-0.059"
"2017-07-13","0.789","0.785","0.927","-0.073","0.832","0.852","0.954","-0.06"
"2017-07-14","0.778","0.774","0.93","-0.077","0.828","0.848","0.935","-0.06"
"2017-07-17","0.8","0.801","0.92","-0.07","0.828","0.848","0.933","-0.06"
"2017-07-18","0.807","0.813","0.911","-0.064","0.806","0.816","0.93","-0.06"
"2017-07-19","0.816","0.817","0.909","-0.063","0.8","0.801","0.927","-0.07"
"2017-07-20","0.796","0.8","0.903","-0.07","0.8","0.801","0.925","-0.07"
"2017-07-21","0.776","0.785","0.901","-0.078","0.8","0.801","0.92","-0.07"
"2017-07-24","0.783","0.792","0.903","-0.082","0.8","0.801","0.911","-0.07"
"2017-07-25","0.783","0.794","0.888","-0.078","0.8","0.801","0.909","-0.07"
"2017-07-26","0.793","0.799","0.894","-0.081","0.796","0.8","0.903","-0.07"
"2017-07-27","0.814","0.835","0.907","-0.067","0.783","0.794","0.903","-0.078"
"2017-07-28","0.818","0.851","0.899","-0.056","0.783","0.794","0.901","-0.078"
"2017-07-31","0.823","0.852","0.902","-0.062","0.783","0.794","0.901","-0.078"
"2017-08-01","0.814","0.84","0.907","-0.077","0.793","0.799","0.901","-0.078"
"2017-08-02","0.818","0.843","0.897","-0.073","0.814","0.835","0.901","-0.067"
"2017-08-03","0.819","0.848","0.894","-0.07","0.814","0.84","0.899","-0.067"
"2017-08-04","0.787","0.811","0.886","-0.106","0.818","0.843","0.899","-0.067"
"2017-08-07","0.784","0.79","0.94","-0.06","0.818","0.843","0.899","-0.07"
"2017-08-08","0.83","0.847","0.943","-0.045","0.818","0.843","0.897","-0.07"
"2017-08-09","0.824","0.846","0.949","-0.047","0.818","0.843","0.897","-0.07"
"2017-08-10","0.99","1.055","1.0","0.02","0.818","0.843","0.897","-0.07"
"2017-08-11","0.946","1.012","0.984","0.005","0.819","0.846","0.94","-0.06"
"2017-08-14","0.886","0.927","0.957","-0.024","0.824","0.846","0.943","-0.047"
"2017-08-15","0.866","0.901","0.943","-0.032","0.83","0.847","0.949","-0.045"
"2017-08-16","0.865","0.886","0.953","-0.039","0.886","0.927","0.957","-0.024"
"2017-08-17","0.963","1.041","0.995","0.019","0.886","0.927","0.957","-0.024"
"2017-08-18","0.911","0.95","0.989","-0.022","0.886","0.927","0.957","-0.024"
"2017-08-21","0.88","0.925","0.966","-0.03","0.886","0.927","0.957","-0.024"
"2017-08-22","0.833","0.86","0.949","-0.055","0.886","0.927","0.957","-0.024"
"2017-08-23","0.855","0.885","0.954","-0.048","0.88","0.925","0.966","-0.03"
"2017-08-24","0.85","0.893","0.948","-0.043","0.88","0.925","0.966","-0.03"
"2017-08-25","0.806","0.837","0.934","-0.07","0.88","0.925","0.966","-0.03"
"2017-08-28","0.809","0.84","0.938","-0.075","0.855","0.893","0.954","-0.043"
"2017-08-29","0.829","0.86","0.943","-0.068","0.85","0.885","0.949","-0.048"
"2017-08-30","0.793","0.822","0.934","-0.092","0.833","0.86","0.948","-0.055"
"2017-08-31","0.767","0.802","0.92","-0.1","0.829","0.86","0.943","-0.068"
"2017-09-01","0.745","0.764","0.916","-0.13","0.809","0.84","0.938","-0.07"
"2017-09-05","0.839","0.871","0.941","-0.064","0.806","0.837","0.934","-0.075"
"2017-09-06","0.808","0.817","0.926","-0.109","0.793","0.822","0.934","-0.092"
"2017-09-07","0.807","0.819","0.915","-0.1","0.793","0.822","0.934","-0.092"
"2017-09-08","0.825","0.842","0.924","-0.094","0.793","0.819","0.926","-0.1"
"2017-09-11","0.774","0.777","0.95","-0.08","0.807","0.819","0.926","-0.1"
"2017-09-12","0.78","0.783","0.945","-0.077","0.807","0.817","0.926","-0.1"
"2017-09-13","0.794","0.801","0.94","-0.069","0.807","0.817","0.926","-0.094"
"2017-09-14","0.793","0.79","0.949","-0.077","0.807","0.817","0.926","-0.094"
"2017-09-15","0.785","0.776","0.945","-0.083","0.794","0.801","0.94","-0.08"
"2017-09-18","0.8","0.799","0.937","-0.076","0.793","0.79","0.945","-0.077"
"2017-09-19","0.8","0.801","0.934","-0.077","0.793","0.79","0.945","-0.077"
"2017-09-20","0.773","0.774","0.933","-0.09","0.793","0.79","0.945","-0.077"
"2017-09-21","0.764","0.761","0.931","-0.099","0.793","0.79","0.94","-0.077"
"2017-09-22","0.746","0.746","0.929","-0.11","0.793","0.79","0.937","-0.077"
"2017-09-25","0.782","0.794","0.929","-0.095","0.785","0.776","0.934","-0.083"
"2017-09-26","0.781","0.796","0.923","-0.095","0.773","0.774","0.933","-0.09"
"2017-09-27","0.765","0.774","0.919","-0.11","0.773","0.774","0.931","-0.095"
"2017-09-28","0.748","0.76","0.908","-0.117","0.773","0.774","0.929","-0.095"
"2017-09-29","0.761","0.764","0.9","-0.115","0.765","0.774","0.929","-0.099"
"2017-10-02","0.765","0.743","0.894","-0.119","0.765","0.774","0.923","-0.11"
"2017-10-03","0.773","0.744","0.894","-0.126","0.765","0.774","0.919","-0.11"
"2017-10-04","0.778","0.75","0.887","-0.123","0.765","0.764","0.908","-0.115"
"2017-10-05","0.755","0.735","0.867","-0.124","0.765","0.76","0.9","-0.117"
"2017-10-06","0.776","0.768","0.868","-0.1","0.765","0.75","0.894","-0.119"
"2017-10-09","0.811","0.813","0.955","-0.061","0.765","0.75","0.894","-0.123"
"2017-10-10","0.808","0.81","0.946","-0.062","0.773","0.75","0.887","-0.123"
"2017-10-11","0.805","0.799","0.948","-0.067","0.776","0.75","0.887","-0.123"
"2017-10-12","0.808","0.809","0.944","-0.064","0.778","0.768","0.887","-0.1"
"2017-10-13","0.802","0.798","0.94","-0.068","0.805","0.799","0.946","-0.067"
"2017-10-16","0.83","0.832","0.944","-0.059","0.808","0.809","0.946","-0.064"
"2017-10-17","0.856","0.864","0.947","-0.048","0.808","0.809","0.946","-0.064"
"2017-10-18","0.845","0.849","0.943","-0.055","0.808","0.809","0.944","-0.064"
"2017-10-19","0.84","0.853","0.943","-0.054","0.808","0.809","0.944","-0.064"
"2017-10-20","0.841","0.853","0.934","-0.053","0.83","0.832","0.944","-0.059"
"2017-10-23","0.882","0.912","0.944","-0.032","0.84","0.849","0.943","-0.055"
"2017-10-24","0.881","0.911","0.951","-0.035","0.841","0.853","0.943","-0.054"
"2017-10-25","0.867","0.912","0.952","-0.037","0.845","0.853","0.943","-0.053"
"2017-10-26","0.874","0.909","0.954","-0.04","0.845","0.853","0.943","-0.053"
"2017-10-27","0.801","0.824","0.937","-0.087","0.867","0.911","0.944","-0.037"
"2017-10-30","0.835","0.872","0.942","-0.068","0.867","0.911","0.951","-0.037"
"2017-10-31","0.822","0.857","0.925","-0.073","0.867","0.911","0.951","-0.037"
"2017-11-01","0.811","0.851","0.931","-0.086","0.867","0.909","0.951","-0.04"
"2017-11-02","0.783","0.832","0.91","-0.094","0.835","0.872","0.942","-0.068"
"2017-11-03","0.736","0.765","0.89","-0.151","0.822","0.857","0.937","-0.073"
"2017-11-06","0.748","0.772","0.91","-0.062","0.811","0.851","0.931","-0.086"
"2017-11-07","0.775","0.802","0.911","-0.056","0.811","0.851","0.925","-0.086"
"2017-11-08","0.759","0.792","0.91","-0.059","0.783","0.832","0.91","-0.086"
