"Date","VIX / VXV","VIX / CM45","Front Month Roll","Daily Roll","VIX / VXV (smoothed)","VIX / CM45 (smoothed)","Front Month Roll (smoothed)","Daily Roll (smoothed)"
"2017-09-05","0.839","0.89","0.941","-0.064","0.806","0.837","0.934","-0.075"
"2017-09-06","0.808","0.838","0.926","-0.109","0.793","0.822","0.934","-0.092"
"2017-09-07","0.807","0.843","0.915","-0.1","0.793","0.822","0.934","-0.092"
"2017-09-08","0.825","0.863","0.924","-0.094","0.793","0.822","0.926","-0.1"
"2017-09-11","0.774","0.803","NaN","-0.045","0.807","0.838","0.926","-0.1"
"2017-09-12","0.78","0.809","NaN","-0.043","0.807","0.838","0.926","-0.1"
"2017-09-13","0.794","0.827","NaN","-0.038","0.807","0.838","0.926","-0.094"
"2017-09-14","0.793","0.813","NaN","-0.042","0.807","0.838","0.926","-0.094"
"2017-09-15","0.785","0.801","NaN","-0.045","0.794","0.827","NaN","-0.045"
"2017-09-18","0.8","0.822","NaN","-0.039","0.793","0.813","NaN","-0.043"
"2017-09-19","0.8","0.823","NaN","-0.039","0.793","0.813","NaN","-0.043"
