date,adjClose,adjHigh,adjLow,adjOpen,adjVolume,close,divCash,high,low,open,splitFactor,volume,log_price
2015-07-01T00:00:00.000Z,15.4084634486,15.5671211583,13.6258974167,14.9324903197,11665424,16.51,0.0,16.68,14.6,16.0,1.0,11665424,2.734916933043194
2015-07-02T00:00:00.000Z,15.4084634486,15.4084634486,14.8391622552,15.333800997,6632011,16.51,0.0,16.51,15.9,16.43,1.0,6632011,2.734916933043194
2015-07-06T00:00:00.000Z,14.9698215455,15.1004808358,14.6151749004,14.9324903197,3389442,16.04,0.0,16.18,15.66,16.0,1.0,3389442,2.7060362775522004
2015-07-07T00:00:00.000Z,13.9898768683,15.0444839971,13.8125535457,14.8298294487,4827355,14.99,0.0,16.12,14.8,15.89,1.0,4827355,2.6383339872305083
2015-07-08T00:00:00.000Z,12.1513139976,13.1592570942,11.4980175462,13.1312586749,9970744,13.02,0.0,14.1,12.32,14.07,1.0,9970744,2.4974373118896067
2015-07-09T00:00:00.000Z,11.0220444172,12.3473029331,11.0220444172,12.1699796105,10485197,11.81,0.0,13.23,11.81,13.04,1.0,10485197,2.3998973053204615
2015-07-10T00:00:00.000Z,10.8820523205,11.4325945729,10.4014127883,11.1247052882,8528108,11.66,0.0,12.2499,11.145,11.92,1.0,8528108,2.3871148560378397
2015-07-13T00:00:00.000Z,10.6393993528,10.8820523205,10.3220839335,10.4807416431,6951504,11.4,0.0,11.66,11.06,11.23,1.0,6951504,2.364564030515524
2015-07-14T00:00:00.000Z,11.8153329655,11.90866103,10.4900744496,10.4900744496,6311922,12.66,0.0,12.76,11.24,11.24,1.0,6311922,2.469398091832975
2015-07-15T00:00:00.000Z,12.1233155783,12.7206151911,11.6660080623,11.8713298042,4837710,12.99,0.0,13.63,12.5,12.72,1.0,4837710,2.495130505795759
2015-07-16T00:00:00.000Z,12.2353092557,12.2913060944,11.90866103,11.9646578686,4385392,13.11,0.0,13.17,12.76,12.82,1.0,4385392,2.504325972889048
2015-07-17T00:00:00.000Z,12.1699796105,12.2259764492,12.0579859331,12.1699796105,2720572,13.04,0.0,13.1,12.92,13.04,1.0,2720572,2.4989722316077283
2015-07-20T00:00:00.000Z,11.6566752558,12.0673187396,11.5633471913,12.0019890944,4101929,12.49,0.0,12.93,12.39,12.86,1.0,4101929,2.4558789992499115
2015-07-21T00:00:00.000Z,11.5540143849,11.7126720945,11.5073503526,11.5446815784,2186561,12.38,0.0,12.55,12.33,12.37,1.0,2186561,2.447032942373012
2015-07-22T00:00:00.000Z,11.2366989656,11.61934403,10.8633867076,11.3393598365,3388808,12.04,0.0,12.45,11.64,12.15,1.0,3388808,2.4191851149967483
2015-07-23T00:00:00.000Z,11.059375643,11.3953566752,10.9473819656,11.2553645785,2225339,11.85,0.0,12.21,11.73,12.06,1.0,2225339,2.4032785426924073
2015-07-24T00:00:00.000Z,10.5554040947,10.975380385,10.4900744496,10.9193835463,3445432,11.31,0.0,11.76,11.24,11.7,1.0,3445432,2.356637965238217
2015-07-27T00:00:00.000Z,10.0327669335,10.499407256,9.9441052723,10.4900744496,3738880,10.75,0.0,11.25,10.655,11.24,1.0,3738880,2.305856429682626
2015-07-28T00:00:00.000Z,10.5460712883,10.5554040947,9.2021471595,9.6594546755,3192896,11.3,0.0,11.31,9.86,10.35,1.0,3192896,2.3557534008332026
2015-07-29T00:00:00.000Z,11.3766910623,11.4793519333,10.2268893077,10.3034183206,2757389,12.19,0.0,12.3,10.958,11.04,1.0,2757389,2.4315666186050775
2015-07-30T00:00:00.000Z,11.3300270301,11.6721762501,10.995209579,11.2909242621,2405609,11.59,0.55,11.94,11.2475,11.55,1.0,2405609,2.4274564607475724
2015-07-31T00:00:00.000Z,10.6750556659,11.242045802,10.5772987459,11.222494418,2664835,10.92,0.0,11.5,10.82,11.48,1.0,2664835,2.367909773705308
2015-08-03T00:00:00.000Z,10.4013362899,10.7043827419,10.2253738339,10.6457285899,2471747,10.64,0.0,10.95,10.46,10.89,1.0,2471747,2.341934287306731
2015-08-04T00:00:00.000Z,9.7463649258,10.4313476643,9.6388323138,10.2644766019,3585467,9.97,0.0,10.6707,9.86,10.5,1.0,3585467,2.276894387368995
2015-08-05T00:00:00.000Z,9.2575803257,9.9321030738,9.1207206377,9.5410753937,7573048,9.47,0.0,10.16,9.33,9.76,1.0,7573048,2.225442710592184
2015-08-06T00:00:00.000Z,10.851018122,11.9849983942,9.2966830937,9.3455615537,7460966,11.1,0.0,12.26,9.51,9.56,1.0,7460966,2.3842589117131667
2015-08-07T00:00:00.000Z,10.763036894,11.026980578,10.0200843018,10.958550734,3591612,11.01,0.0,11.28,10.25,11.21,1.0,3591612,2.3761177541309735
2015-08-10T00:00:00.000Z,10.851018122,11.242045802,10.5577473619,10.811915354,2924021,11.1,0.0,11.5,10.8,11.06,1.0,2924021,2.3842589117131667
2015-08-11T00:00:00.000Z,10.4502147499,10.89012089,10.2254715908,10.753261202,1639161,10.69,0.0,11.14,10.4601,11.0,1.0,1639161,2.3466225284293323
2015-08-12T00:00:00.000Z,9.7952433858,10.4111119819,9.5410753937,10.0298599938,2454861,10.02,0.0,10.65,9.76,10.26,1.0,2454861,2.281896899051045
2015-08-13T00:00:00.000Z,10.5479716699,10.978102118,9.4042157057,9.6877107738,2375536,10.79,0.0,11.23,9.62,9.91,1.0,2375536,2.3559335826607364
2015-08-14T00:00:00.000Z,10.3720092139,10.753261202,10.0396356858,10.3817849059,1290347,10.61,0.0,11.0,10.27,10.62,1.0,1290347,2.339110756019641
2015-08-17T00:00:00.000Z,10.733709818,10.8736977274,10.3231307539,10.3426821379,2152081,10.98,0.0,11.1232,10.56,10.58,1.0,2152081,2.373389239478277
2015-08-18T00:00:00.000Z,9.7952433858,10.5479716699,9.6412762368,10.5381959779,3776452,10.02,0.0,10.79,9.8625,10.78,1.0,3776452,2.281896899051045
2015-08-19T00:00:00.000Z,9.5410753937,9.7365892338,9.4042157057,9.7072621578,1829399,9.76,0.0,9.96,9.62,9.93,1.0,1829399,2.2556062038137417
2015-08-20T00:00:00.000Z,9.4042157057,9.8050190778,9.1304963297,9.8050190778,3043303,9.62,0.0,10.03,9.34,10.03,1.0,3043303,2.2411580680689487
2015-08-21T00:00:00.000Z,8.9936366416,9.5312997017,8.8567769536,9.2869074017,2015844,9.2,0.0,9.75,9.06,9.5,1.0,2015844,2.196517287443462
2015-08-24T00:00:00.000Z,8.9936366416,9.3700007837,8.1138243615,8.6319360376,2239663,9.2,0.0,9.585,8.3,8.83,1.0,2239663,2.196517287443462
2015-08-25T00:00:00.000Z,8.1236000535,9.3064587857,8.1138243615,9.2282532497,2858997,8.31,0.0,9.52,8.3,9.44,1.0,2858997,2.0947734122625676
2015-08-26T00:00:00.000Z,8.9154311056,8.9349824896,8.1724785135,8.3484409695,2748377,9.12,0.0,9.14,8.36,8.54,1.0,2748377,2.187783607476268
2015-08-27T00:00:00.000Z,9.3553372457,9.5117483177,8.9349824896,9.0131880256,2765408,9.57,0.0,9.73,9.14,9.22,1.0,2765408,2.235947008857141
2015-08-28T00:00:00.000Z,9.4628698577,9.4921969337,8.8470012616,8.8470012616,1947622,9.68,0.0,9.71,9.05,9.05,1.0,1947622,2.247375704678699
2015-08-31T00:00:00.000Z,9.4530941657,9.5997295457,9.1598234057,9.1598234057,1878976,9.67,0.0,9.82,9.37,9.37,1.0,1878976,2.246342112855602
2015-09-01T00:00:00.000Z,9.1598234057,9.4335427817,9.0522907936,9.0718421777,2239685,9.37,0.0,9.65,9.26,9.28,1.0,2239685,2.2148268996464875
2015-09-02T00:00:00.000Z,8.4755249655,9.2087018657,8.4461978895,9.0718421777,3103692,8.67,0.0,9.42,8.64,9.28,1.0,3103692,2.1371825941799942
2015-09-03T00:00:00.000Z,9.1793747897,9.8050190778,8.5146277336,8.6026089616,3929241,9.39,0.0,10.03,8.71,8.8,1.0,3929241,2.216959096615933
2015-09-04T00:00:00.000Z,8.7687957256,9.1304963297,8.7590200336,9.0620664857,1683627,8.97,0.0,9.34,8.96,9.27,1.0,1683627,2.1711994794637337
2015-09-08T00:00:00.000Z,8.9154311056,8.9545338736,8.7883471096,8.8470012616,2074476,9.12,0.0,9.16,8.99,9.05,1.0,2074476,2.187783607476268
2015-09-09T00:00:00.000Z,9.0913935617,9.4139913977,9.0522907936,9.1402720217,2977988,9.3,0.0,9.63,9.26,9.35,1.0,2977988,2.207328203556764
2015-09-10T00:00:00.000Z,8.9545338736,9.2673560177,8.8518891076,9.1891504817,2363085,9.16,0.0,9.48,9.055,9.4,1.0,2363085,2.192159982075283
2015-09-11T00:00:00.000Z,8.8665526456,9.1598234057,8.8274498776,9.0229637176,2222903,9.07,0.0,9.37,9.03,9.23,1.0,2222903,2.1822860675180626
2015-09-14T00:00:00.000Z,8.7590200336,8.8958797216,8.5928332696,8.8958797216,1665983,8.96,0.0,9.1,8.79,9.1,1.0,1665983,2.170084030380072
2015-09-15T00:00:00.000Z,9.1891504817,9.2282532497,8.8274498776,8.8274498776,1911614,9.4,0.0,9.44,9.03,9.03,1.0,1911614,2.2180234926715228
2015-09-16T00:00:00.000Z,9.3944400137,9.5704024697,9.1500477137,9.2380289417,1925278,9.61,0.0,9.79,9.36,9.45,1.0,1925278,2.240118026373723
2015-09-17T00:00:00.000Z,9.2380289417,9.6388323138,9.1891504817,9.4042157057,1228319,9.45,0.0,9.86,9.4,9.62,1.0,1228319,2.223328544900237
2015-09-18T00:00:00.000Z,8.5635061936,9.1598234057,8.5244034256,9.1109449457,3589777,8.76,0.0,9.37,8.72,9.32,1.0,3589777,2.1475097083457033
2015-09-21T00:00:00.000Z,8.9349824896,8.9838609496,8.5341791176,8.7394686496,1975788,9.14,0.0,9.19,8.73,8.94,1.0,1975788,2.1899741888556936
2015-09-22T00:00:00.000Z,8.4950763495,8.8176741856,8.2800111255,8.7981228016,1576753,8.69,0.0,9.02,8.47,9.0,1.0,1576753,2.1394867426644373
2015-09-23T00:00:00.000Z,7.8010022174,8.9447581816,7.7130209894,8.4461978895,2612664,7.98,0.0,9.15,7.89,8.64,1.0,2612664,2.0542522148517453
2015-09-24T00:00:00.000Z,7.4099745373,7.7912265254,7.0384982413,7.7618994494,4411818,7.58,0.0,7.97,7.2,7.94,1.0,4411818,2.002827003040283
2015-09-25T00:00:00.000Z,6.9016385533,7.5663856094,6.8918628613,7.5468342254,3415131,7.06,0.0,7.74,7.05,7.72,1.0,3415131,1.9317588549040754
2015-09-28T00:00:00.000Z,6.3346484172,6.8820871693,6.2906578031,6.8429844012,4068528,6.48,0.0,7.04,6.435,7.0,1.0,4068528,1.8460343137641815
2015-09-29T00:00:00.000Z,6.0413776571,6.5497136412,6.0120505811,6.4128539532,4047597,6.18,0.0,6.7,6.15,6.56,1.0,4047597,1.7986320748622409
2015-09-30T00:00:00.000Z,6.3248727252,6.3444241092,5.8067610491,6.1098075011,4616618,6.47,0.0,6.49,5.94,6.25,1.0,4616618,1.8444899119131
2015-10-01T00:00:00.000Z,6.4226296452,6.4812837972,6.1684616531,6.3541998012,2215632,6.57,0.0,6.63,6.31,6.5,1.0,2215632,1.859827635893922
2015-10-02T00:00:00.000Z,6.9211899373,7.0531617793,6.3150970331,6.3541998012,2886126,7.08,0.0,7.215,6.46,6.5,1.0,2886126,1.934587711104021
2015-10-05T00:00:00.000Z,7.3904231533,7.5859369934,6.9897175382,7.0678253173,4462637,7.56,0.0,7.76,7.1501,7.23,1.0,4462637,2.000184993577909
2015-10-06T00:00:00.000Z,8.0258431335,8.2702354335,7.3806474613,7.4001988453,3942014,8.21,0.0,8.46,7.55,7.57,1.0,3942014,2.0826667268617967
2015-10-07T00:00:00.000Z,7.6934696054,8.4070951215,7.5712734554,8.0649459015,4312411,7.87,0.0,8.6,7.745,8.25,1.0,4312411,2.040371865821848
2015-10-08T00:00:00.000Z,8.2409083575,8.3875437375,6.8429844012,8.0747215935,6624110,8.43,0.0,8.58,7.0,8.26,1.0,6624110,2.1091105754063464
2015-10-09T00:00:00.000Z,7.8498806774,8.4853006575,7.7522215143,8.3582166615,2952243,8.03,0.0,8.68,7.9301,8.55,1.0,2952243,2.060498331347581
2015-10-12T00:00:00.000Z,7.8694320614,7.9671889815,7.6201519154,7.8498806774,1297624,8.05,0.0,8.15,7.795,8.03,1.0,1297624,2.0629858948189392
2015-10-13T00:00:00.000Z,7.1753579293,7.8107779094,7.1558065453,7.7521237574,1585753,7.34,0.0,7.99,7.32,7.93,1.0,1585753,1.9706526460181635
2015-10-14T00:00:00.000Z,7.0482739333,7.2633391573,6.9700683973,7.1851336213,2139884,7.21,0.0,7.43,7.13,7.35,1.0,2139884,1.9527827546918637
2015-10-15T00:00:00.000Z,6.9114142453,7.0384982413,6.7452274812,7.0384982413,2159477,7.07,0.0,7.2,6.9,7.2,1.0,2159477,1.9331742833071397
2015-10-16T00:00:00.000Z,6.2466671891,7.0091711653,6.2075644211,6.9407413213,2677765,6.39,0.0,7.17,6.35,7.1,1.0,2677765,1.832048071776101
2015-10-19T00:00:00.000Z,5.9436207371,6.3150970331,5.8165367411,6.2466671891,2638338,6.08,0.0,6.46,5.95,6.39,1.0,2638338,1.7823184993737118
2015-10-20T00:00:00.000Z,6.2662185731,6.3248727252,5.8751908931,5.9729478131,2369377,6.41,0.0,6.47,6.01,6.11,1.0,2369377,1.8351730743186867
2015-10-21T00:00:00.000Z,6.1195831931,6.4030782612,6.0609290411,6.3541998012,1373430,6.26,0.0,6.55,6.2,6.5,1.0,1373430,1.8114939885023218
2015-10-22T00:00:00.000Z,6.2075644211,6.3933025692,6.0902561171,6.2564428811,1437392,6.35,0.0,6.54,6.23,6.4,1.0,1437392,1.8257686162923672
2015-10-23T00:00:00.000Z,6.4128539532,6.5106108732,6.1977887291,6.2759942651,1340952,6.56,0.0,6.66,6.34,6.42,1.0,1340952,1.8583044063536855
2015-10-26T00:00:00.000Z,6.3053213411,6.5985921012,6.2759942651,6.5985921012,1120143,6.45,0.0,6.75,6.42,6.75,1.0,1120143,1.8413939341927006
2015-10-27T00:00:00.000Z,6.4128539532,6.4226296452,6.0739307115,6.2857699571,1143144,6.56,0.0,6.57,6.2133,6.43,1.0,1143144,1.8583044063536855
2015-10-28T00:00:00.000Z,6.5106108732,6.6767976372,6.3834291202,6.4910594892,1762326,6.66,0.0,6.83,6.5299,6.64,1.0,1762326,1.873433287947176
2015-10-29T00:00:00.000Z,6.7550031732,6.7892180952,6.4421810292,6.4910594892,1358181,6.91,0.0,6.945,6.59,6.64,1.0,1358181,1.9102834411677885
2015-10-30T00:00:00.000Z,6.7745545572,6.8429844012,6.5497136412,6.6279191772,1407404,6.93,0.0,7.0,6.7,6.78,1.0,1407404,1.913173616589509
2015-11-02T00:00:00.000Z,7.4295259214,7.5468342254,6.6963490212,6.7452274812,2071317,7.6,0.0,7.72,6.85,6.9,1.0,2071317,2.0054620506912864
2015-11-03T00:00:00.000Z,8.2897868175,8.5244034256,7.1851336213,7.1851336213,3794066,8.48,0.0,8.72,7.35,7.35,1.0,3794066,2.1150242531953207
2015-11-04T00:00:00.000Z,7.9476375974,8.6026089616,7.8694320614,8.2506840495,4209655,8.13,0.0,8.8,8.05,8.44,1.0,4209655,2.072874726946436
2015-11-05T00:00:00.000Z,7.3513203853,8.4559735815,7.1363529182,8.1333757455,2561136,7.52,0.0,8.65,7.3001,8.32,1.0,2561136,1.9948799413491511
2015-11-06T00:00:00.000Z,6.5790407172,7.3317690013,6.5154987192,7.2046850053,2997336,6.73,0.0,7.5,6.665,7.37,1.0,2997336,1.8838889470495974
2015-11-09T00:00:00.000Z,6.2857699571,6.5301622572,6.2076621781,6.4519567212,1819126,6.43,0.0,6.68,6.3501,6.6,1.0,1819126,1.8382883416350901
2015-11-10T00:00:00.000Z,6.0413776571,6.3066088713,5.9922607656,6.2181984666,2550455,6.15,0.03,6.42,6.1,6.33,1.0,2550455,1.7986320748622409
2015-11-11T00:00:00.000Z,5.7957931995,6.1003179269,5.7957931995,6.070847792,3530902,5.9,0.0,6.21,5.9,6.18,1.0,3530902,1.75713234395647
2015-11-12T00:00:00.000Z,5.746676308,5.844910091,5.6484425249,5.8154399561,2166341,5.85,0.0,5.95,5.75,5.92,1.0,2166341,1.748621654292248
2015-11-13T00:00:00.000Z,5.5895022551,5.7957931995,5.5305619853,5.7172061731,1366275,5.69,0.0,5.9,5.63,5.82,1.0,1366275,1.7208902411810647
2015-11-16T00:00:00.000Z,5.7564996863,5.8645568476,5.555120431,5.6779126598,1940964,5.86,0.0,5.97,5.655,5.78,1.0,1940964,1.7503295966366617
2015-11-17T00:00:00.000Z,5.520738607,5.9038503608,5.5010918504,5.7172061731,5758024,5.62,0.0,6.01,5.6,5.82,1.0,5758024,1.708511656953773
2015-11-18T00:00:00.000Z,5.7368529297,5.7859698212,5.5060035395,5.5305619853,4077236,5.84,0.0,5.89,5.605,5.63,1.0,4077236,1.7469107898893637
2015-11-19T00:00:00.000Z,5.9333204958,6.1494348184,5.746676308,5.746676308,3734097,6.04,0.0,6.26,5.85,5.85,1.0,3734097,1.7805840049983757
2015-11-20T00:00:00.000Z,5.8842036042,6.0315542788,5.7712347537,5.9431438741,2116421,5.99,0.0,6.14,5.875,6.05,1.0,2116421,1.7722714051656732
2015-11-23T00:00:00.000Z,5.8350867127,5.9136737391,5.6582659032,5.8842036042,2500877,5.94,0.0,6.02,5.76,5.99,1.0,2500877,1.7638891264164451
2015-11-24T00:00:00.000Z,6.0413776571,6.1494348184,5.8350867127,5.8350867127,2704878,6.15,0.0,6.26,5.94,5.94,1.0,2704878,1.7986320748622409
2015-11-25T00:00:00.000Z,6.19855171,6.2771387364,5.9824373873,6.0413776571,1349617,6.31,0.0,6.39,6.09,6.15,1.0,1349617,1.8243156696021563
2015-11-27T00:00:00.000Z,6.2280218449,6.3262556279,6.1887283317,6.2574919798,503736,6.34,0.0,6.44,6.3,6.37,1.0,503736,1.8290587614961078
2015-11-30T00:00:00.000Z,6.1396114401,6.2869621147,6.0904945486,6.19855171,1155614,6.25,0.0,6.4,6.2,6.31,1.0,1155614,1.8147614567852386
2015-12-01T00:00:00.000Z,5.9431438741,6.2280218449,5.746676308,6.1396114401,2204064,6.05,0.0,6.34,5.85,6.25,1.0,2204064,1.7822382650936779
2015-12-02T00:00:00.000Z,6.0119075222,6.0806711703,5.7957931995,5.8940269825,1985183,6.12,0.0,6.19,5.9,6.0,1.0,1985183,1.7937420895701586
2015-12-03T00:00:00.000Z,5.8645568476,6.1396114401,5.7761464429,6.0217309005,2763119,5.97,0.0,6.25,5.88,6.13,1.0,2763119,1.7689269204442493
2015-12-04T00:00:00.000Z,6.1003179269,6.1592581968,5.7564996863,5.844910091,1928055,6.21,0.0,6.27,5.86,5.95,1.0,1928055,1.8083408889850436
2015-12-07T00:00:00.000Z,5.9038503608,6.1003179269,5.8792919151,6.0512010354,1627703,6.01,0.0,6.21,5.985,6.16,1.0,1627703,1.7756047415840175
2015-12-08T00:00:00.000Z,5.6779126598,5.8940269825,5.6287957683,5.8154399561,2391472,5.78,0.0,6.0,5.73,5.92,1.0,2391472,1.7365836757204254
2015-12-09T00:00:00.000Z,5.9333204958,6.1641698859,5.7073827948,5.7073827948,2008419,6.04,0.0,6.275,5.81,5.81,1.0,2008419,1.7805840049983757
2015-12-10T00:00:00.000Z,6.0217309005,6.1199646835,5.8547334693,5.8940269825,1174523,6.13,0.0,6.23,5.96,6.0,1.0,1174523,1.7953747429933384
2015-12-11T00:00:00.000Z,5.5895022551,5.9922607656,5.5109152287,5.9038503608,2624665,5.69,0.0,6.1,5.61,6.01,1.0,2624665,1.7208902411810647
2015-12-14T00:00:00.000Z,5.167096988,5.6779126598,5.0983333399,5.5502087419,2557237,5.26,0.0,5.78,5.19,5.65,1.0,2557237,1.6423110197888384
2015-12-15T00:00:00.000Z,5.2653307711,5.3242710409,5.1523619206,5.167096988,2089256,5.36,0.0,5.42,5.245,5.26,1.0,2089256,1.6611439681329792
2015-12-16T00:00:00.000Z,5.5502087419,5.7172061731,5.2751541494,5.3537411758,2309621,5.65,0.0,5.82,5.37,5.45,1.0,2309621,1.7138355382042145
2015-12-17T00:00:00.000Z,4.6366345596,5.4814450938,4.4991072633,5.4814450938,5230903,4.72,0.0,5.58,4.58,5.58,1.0,5230903,1.5339887926422602
2015-12-18T00:00:00.000Z,5.8547334693,6.1789049534,4.616987803,4.616987803,7564674,5.96,0.0,6.29,4.7,4.7,1.0,7564674,1.7672504741177122
2015-12-21T00:00:00.000Z,5.4716217155,6.0561127246,5.1573718435,5.8842036042,4846002,5.57,0.0,6.165,5.2501,5.99,1.0,4846002,1.6995750469912685
2015-12-22T00:00:00.000Z,5.6287957683,5.8350867127,5.358652865,5.4421515805,2116242,5.73,0.0,5.94,5.455,5.54,1.0,2116242,1.727895523766476
2015-12-23T00:00:00.000Z,5.6582659032,5.8350867127,5.5502087419,5.6287957683,1784027,5.76,0.0,5.94,5.65,5.73,1.0,1784027,1.733117467745407
2015-12-24T00:00:00.000Z,5.6386191466,5.746676308,5.6091490117,5.6091490117,438936,5.74,0.0,5.85,5.71,5.71,1.0,438936,1.72963920337056
2015-12-28T00:00:00.000Z,5.3046242843,5.5993256334,5.2898892168,5.5993256334,1442807,5.4,0.0,5.7,5.385,5.7,1.0,1442807,1.6685789466172616
2015-12-29T00:00:00.000Z,5.3832113107,5.4028580673,5.2171962174,5.3340944192,1138653,5.48,0.0,5.5,5.311,5.43,1.0,1138653,1.6832850940006274
2015-12-30T00:00:00.000Z,5.1572736097,5.3439177975,5.1179800965,5.2849775277,1329462,5.25,0.0,5.44,5.21,5.38,1.0,1329462,1.6404080696435632
2015-12-31T00:00:00.000Z,5.2653307711,5.4126814456,5.0983333399,5.1179800965,1959295,5.36,0.0,5.51,5.19,5.21,1.0,1959295,1.6611439681329792
2016-01-04T00:00:00.000Z,5.3832113107,5.393034689,5.1081567182,5.1081567182,2783070,5.48,0.0,5.49,5.2,5.2,1.0,2783070,1.6832850940006274
2016-01-05T00:00:00.000Z,5.3242710409,5.393034689,5.1769203663,5.3832113107,3089500,5.42,0.0,5.49,5.27,5.48,1.0,3089500,1.6722758084969878
2016-01-06T00:00:00.000Z,5.0295696918,5.2162138795,4.9608060436,5.1867437446,3036328,5.12,0.0,5.31,5.05,5.28,1.0,3036328,1.6153344321022785
2016-01-07T00:00:00.000Z,4.6661046945,5.1278034748,4.5580475332,4.9116891521,3905956,4.75,0.0,5.22,4.64,5.0,1.0,3905956,1.540324611088622
2016-01-08T00:00:00.000Z,4.715221586,4.9313359087,4.5285773982,4.7446917209,2813229,4.8,0.0,5.02,4.61,4.83,1.0,2813229,1.5507959109514524
2016-01-11T00:00:00.000Z,4.3026396973,4.7348683426,4.2142292925,4.715221586,3551864,4.38,0.0,4.82,4.29,4.8,1.0,3551864,1.459228717443393
2016-01-12T00:00:00.000Z,3.840940917,4.3861384128,3.7525305122,4.3615799671,6644120,3.91,0.0,4.465,3.82,4.44,1.0,6644120,1.3457173670533231
2016-01-13T00:00:00.000Z,3.2417148404,3.8998811868,3.1827745706,3.8998811868,4251042,3.3,0.0,3.97,3.24,3.97,1.0,4251042,1.1761024615177536
2016-01-14T00:00:00.000Z,3.4480057848,3.7820006471,3.163127814,3.2417148404,6322629,3.51,0.0,3.85,3.22,3.3,1.0,6322629,1.2377960305262574
2016-01-15T00:00:00.000Z,3.9097045651,3.9195279434,3.3399486234,3.3792421367,3024851,3.98,0.0,3.99,3.4,3.44,1.0,3024851,1.3634618123446107
2016-01-19T00:00:00.000Z,3.5265928112,4.0963487529,3.4381824065,3.9588214566,2604043,3.59,0.0,4.17,3.5,4.03,1.0,2604043,1.2603321955389761
2016-01-20T00:00:00.000Z,3.585533081,3.6739434858,3.163127814,3.4185356499,2659620,3.65,0.0,3.74,3.22,3.48,1.0,2659620,1.2769071606261968
2016-01-21T00:00:00.000Z,3.5560629461,4.0508665113,3.5378896963,3.5757097027,2163886,3.62,0.0,4.1237,3.6015,3.64,1.0,2163886,1.2686540188729434
2016-01-22T00:00:00.000Z,3.7328837556,3.7918240254,3.4676525414,3.6641201075,2421539,3.8,0.0,3.86,3.53,3.73,1.0,2421539,1.317181059774412
2016-01-25T00:00:00.000Z,3.4283590282,3.7820006471,3.4185356499,3.7230603773,1499810,3.49,0.0,3.85,3.48,3.79,1.0,1499810,1.2320817292653117
2016-01-26T00:00:00.000Z,3.2711849753,3.4481040186,3.1925979489,3.4381824065,3404803,3.33,0.0,3.5101,3.25,3.5,1.0,3404803,1.1851522970337809
2016-01-27T00:00:00.000Z,3.0648940309,3.3399486234,3.0059537611,3.3006551102,3900478,3.12,0.0,3.4,3.06,3.36,1.0,3900478,1.120012994858998
2016-01-28T00:00:00.000Z,3.0845407875,3.2220680838,3.0648940309,3.1041875441,2833568,3.14,0.0,3.28,3.12,3.16,1.0,2833568,1.1264027929550675
2016-01-29T00:00:00.000Z,3.8704110519,3.9293513217,3.1041875441,3.1140109224,30275813,3.94,0.0,4.0,3.16,3.17,1.0,30275813,1.3533607163625212
2016-02-01T00:00:00.000Z,3.840940917,4.4106968586,3.6346499726,3.8998811868,4579548,3.91,0.0,4.49,3.7,3.97,1.0,4579548,1.3457173670533231
2016-02-02T00:00:00.000Z,3.5953564593,3.8900578085,3.487299298,3.8016474037,3294951,3.66,0.0,3.96,3.55,3.87,1.0,3294951,1.2796431404439286
2016-02-03T00:00:00.000Z,3.9293513217,4.0177617264,3.6346499726,3.6444733509,3998527,4.0,0.0,4.09,3.7,3.71,1.0,3998527,1.368474354165981
2016-02-04T00:00:00.000Z,4.3222864539,4.3517565888,3.9097045651,3.9489980783,2776024,4.4,0.0,4.43,3.98,4.02,1.0,2776024,1.4637845339772466
2016-02-05T00:00:00.000Z,4.0963487529,4.3222864539,3.9784682132,4.3124630756,1629766,4.17,0.0,4.4,4.05,4.39,1.0,1629766,1.4100960288635747
2016-02-08T00:00:00.000Z,4.066878618,4.0865253746,3.8802344302,3.9882915915,1885227,4.14,0.0,4.16,3.95,4.06,1.0,1885227,1.4028757808932717
2016-02-09T00:00:00.000Z,3.9097045651,4.0472318613,3.7328837556,3.9588214566,2551586,3.98,0.0,4.12,3.8,4.03,1.0,2551586,1.3634618123446107
2016-02-10T00:00:00.000Z,3.5364161895,3.9489980783,3.5364161895,3.9391747,1578992,3.6,0.0,4.02,3.6,4.01,1.0,1578992,1.2631138384996714
2016-02-11T00:00:00.000Z,3.8016474037,3.9882915915,3.4381824065,3.5265928112,1581129,3.87,0.0,4.06,3.5,3.59,1.0,1581129,1.3354345000760095
2016-02-12T00:00:00.000Z,3.811470782,3.9195279434,3.5757097027,3.9097045651,1844894,3.88,0.0,3.99,3.64,3.98,1.0,1844894,1.3380151466684163
2016-02-16T00:00:00.000Z,3.6248265943,3.7918240254,3.4578291631,3.7721772688,2078026,3.69,0.0,3.86,3.52,3.84,1.0,2078026,1.287806451107285
2016-02-17T00:00:00.000Z,4.0865253746,4.2044059142,3.6615660291,3.6739434858,2702705,4.16,0.0,4.28,3.7274,3.74,1.0,2702705,1.4076950673270927
2016-02-18T00:00:00.000Z,4.0570552396,4.1061721312,3.8900578085,4.1061721312,1277840,4.13,0.0,4.18,3.96,4.18,1.0,1277840,1.4004574000054135
2016-02-19T00:00:00.000Z,4.0570552396,4.1749357793,3.811470782,3.9784682132,1578363,4.13,0.0,4.25,3.88,4.05,1.0,1578363,1.4004574000054135
2016-02-22T00:00:00.000Z,4.1159955095,4.391050102,4.0865253746,4.1159955095,1564448,4.19,0.0,4.47,4.16,4.19,1.0,1564448,1.4148807269848136
2016-02-23T00:00:00.000Z,3.9784682132,4.2731695623,3.9489980783,4.0865253746,1305670,4.05,0.0,4.35,4.02,4.16,1.0,1305670,1.380896874159197
2016-02-24T00:00:00.000Z,4.7053982077,4.8822190172,3.7328837556,3.7525305122,4368294,4.79,0.0,4.97,3.8,3.82,1.0,4368294,1.5487104044613165
2016-02-25T00:00:00.000Z,4.8232787474,5.0590398267,4.5187540199,4.6759280728,2884634,4.91,0.0,5.15,4.6,4.76,1.0,2884634,1.5734539348552665
2016-02-26T00:00:00.000Z,4.8134553691,5.0983333399,4.6661046945,4.9215125304,2985287,4.9,0.0,5.19,4.75,5.01,1.0,2985287,1.5714151981663067
2016-02-29T00:00:00.000Z,5.0393930701,5.2063905012,4.7741618559,4.8134553691,2846399,5.13,0.0,5.3,4.86,4.9,1.0,2846399,1.6172856522326875
2016-03-01T00:00:00.000Z,5.3046242843,5.3635645541,5.1081567182,5.1278034748,2514167,5.4,0.0,5.46,5.2,5.22,1.0,2514167,1.6685789466172616
2016-03-02T00:00:00.000Z,5.6091490117,5.6484425249,5.2653307711,5.393034689,2951390,5.71,0.0,5.75,5.36,5.49,1.0,2951390,1.72439901670924
2016-03-03T00:00:00.000Z,5.8547334693,5.8989386717,5.5993256334,5.61897239,2570804,5.96,0.0,6.005,5.7,5.72,1.0,2570804,1.7672504741177122
2016-03-04T00:00:00.000Z,5.6877360381,6.0315542788,5.6484425249,5.8842036042,2530633,5.79,0.0,6.14,5.75,5.99,1.0,2530633,1.7383122846203132
2016-03-07T00:00:00.000Z,6.4637829242,6.5128998157,5.6975594165,5.7270295514,2728764,6.58,0.0,6.63,5.8,5.83,1.0,2728764,1.8662147383838577
2016-03-08T00:00:00.000Z,5.972614009,6.4146660327,5.7957931995,6.3557257628,2292513,6.08,0.0,6.53,5.9,6.47,1.0,2292513,1.7871846890268448
2016-03-09T00:00:00.000Z,6.2280218449,6.3069825022,5.8430886405,6.0404902838,1723313,6.31,0.03,6.39,5.92,6.12,1.0,1723313,1.8290587614961078
2016-03-10T00:00:00.000Z,6.2576320914,6.3859431595,6.0010099551,6.1984115984,2241643,6.34,0.0,6.47,6.08,6.28,1.0,2241643,1.8338018533938427
2016-03-11T00:00:00.000Z,6.4352935703,6.4550337346,6.237891927,6.3662029952,1409552,6.52,0.0,6.54,6.32,6.45,1.0,1409552,1.8617974608777306
2016-03-14T00:00:00.000Z,6.780746446,7.0571087466,6.6919157065,6.7610062817,2987113,6.87,0.0,7.15,6.78,6.85,1.0,2987113,1.9140871911724997
2016-03-15T00:00:00.000Z,6.7412661174,6.8597071033,6.6623054601,6.7116558709,2110879,6.83,0.0,6.95,6.75,6.8,1.0,2110879,1.9082477585286706
2016-03-16T00:00:00.000Z,6.6030849671,6.7412661174,6.2477620092,6.721525953,1829253,6.69,0.0,6.83,6.33,6.81,1.0,1829253,1.8875369590836033
2016-03-17T00:00:00.000Z,7.1261993217,7.1558095682,6.5438644741,6.6129550492,2807861,7.22,0.0,7.25,6.63,6.7,1.0,2807861,1.963778037842139
2016-03-18T00:00:00.000Z,7.3729513758,7.6493136764,6.9584079249,7.205159979,5529449,7.47,0.0,7.75,7.05,7.3,1.0,5529449,1.9978180840854551
2016-03-21T00:00:00.000Z,7.1064591574,7.7381444158,7.0571087466,7.6591837585,2150867,7.2,0.0,7.84,7.15,7.76,1.0,2150867,1.9610041109630778
2016-03-22T00:00:00.000Z,7.1064591574,7.1656796504,6.5241243098,7.0571087466,2031671,7.2,0.0,7.26,6.61,7.15,1.0,2031671,1.9610041109630778
2016-03-23T00:00:00.000Z,6.6919157065,7.0965890752,6.6129550492,6.9090575141,2455741,6.78,0.0,7.19,6.7,7.0,1.0,2455741,1.9009001868856517
2016-03-24T00:00:00.000Z,7.0571087466,7.0965890752,6.415553406,6.6623054601,1853935,7.15,0.0,7.19,6.5,6.75,1.0,1853935,1.9540354416491494
2016-03-28T00:00:00.000Z,6.9090575141,7.1064591574,6.8300968568,7.0867189931,1074522,7.0,0.0,7.2,6.92,7.18,1.0,1074522,1.9328332339907528
2016-03-29T00:00:00.000Z,7.0867189931,7.2347702255,6.6623054601,6.8202267747,1475170,7.18,0.0,7.33,6.75,6.91,1.0,1475170,1.9582224680048856
2016-03-30T00:00:00.000Z,7.1360694039,7.4025616223,6.9485378428,7.1261993217,2498554,7.23,0.0,7.5,7.04,7.22,1.0,2498554,1.9651621211132597
2016-03-31T00:00:00.000Z,6.9090575141,7.3611072772,6.8251618157,7.1755497325,1930813,7.0,0.0,7.458,6.915,7.27,1.0,1930813,1.9328332339907528
2016-04-01T00:00:00.000Z,7.3532112115,7.4025616223,6.9287976785,7.0373685822,3267575,7.45,0.0,7.5,7.02,7.13,1.0,3267575,1.9951371173357473
2016-04-04T00:00:00.000Z,7.1064591574,7.629573512,7.0077583358,7.2939907185,1994120,7.2,0.0,7.73,7.1,7.39,1.0,1994120,1.9610041109630778
2016-04-05T00:00:00.000Z,7.0373685822,7.2545103898,6.9781480893,7.0571087466,1177220,7.13,0.0,7.35,7.07,7.15,1.0,1177220,1.9512343193589443
2016-04-06T00:00:00.000Z,7.2150300612,7.3137308828,6.9781480893,7.0176284179,1486012,7.31,0.0,7.41,7.07,7.11,1.0,1486012,1.9761663587036409
2016-04-07T00:00:00.000Z,6.9485378428,7.2150300612,6.899187432,7.1755497325,1954879,7.04,0.0,7.31,6.99,7.27,1.0,1954879,1.9385312551122986
2016-04-08T00:00:00.000Z,7.1163292396,7.2742505542,6.9485378428,7.0571087466,1675077,7.21,0.0,7.37,7.04,7.15,1.0,1675077,1.9623920362431175
2016-04-11T00:00:00.000Z,7.1163292396,7.4223017866,7.0571087466,7.1755497325,2214953,7.21,0.0,7.52,7.15,7.27,1.0,2214953,1.9623920362431175
2016-04-12T00:00:00.000Z,7.3532112115,7.4519120331,7.0571087466,7.1261993217,1799534,7.45,0.0,7.55,7.15,7.22,1.0,1799534,1.9951371173357473
2016-04-13T00:00:00.000Z,7.5604829369,7.6493136764,7.3137308828,7.4223017866,1554100,7.66,0.0,7.75,7.41,7.52,1.0,1554100,2.022935068693495
2016-04-14T00:00:00.000Z,7.4815222796,7.6986640872,7.3532112115,7.5900931834,1718309,7.58,0.0,7.8,7.45,7.69,1.0,1718309,2.0124362845958683
2016-04-15T00:00:00.000Z,8.0243767986,8.0441169629,7.4519120331,7.4519120331,3392152,8.13,0.0,8.15,7.55,7.55,1.0,3392152,2.082484008505253
2016-04-18T00:00:00.000Z,8.0737272094,8.2338199421,7.8269751553,7.9848964699,1787058,8.18,0.0,8.3422,7.93,8.09,1.0,1787058,2.0886152355582697
2016-04-19T00:00:00.000Z,8.9422944397,9.0706055078,8.1822981132,8.1921681953,5307688,9.06,0.0,9.19,8.29,8.3,1.0,5307688,2.1907922049927877
2016-04-20T00:00:00.000Z,9.1100858365,9.3075861806,8.8830739467,8.9521645219,3722738,9.23,0.0,9.4301,9.0,9.07,1.0,3722738,2.2093821334557986
2016-04-21T00:00:00.000Z,9.4851489587,9.5542395338,9.0903456722,9.1693063295,3450588,9.61,0.0,9.68,9.21,9.29,1.0,3450588,2.24972730792365
2016-04-22T00:00:00.000Z,8.9521645219,9.6726805198,8.5672313175,9.5147592052,3369782,9.07,0.0,9.8,8.68,9.64,1.0,3369782,2.1918953490690756
2016-04-25T00:00:00.000Z,8.8830739467,9.2087866581,8.8139833716,8.9521645219,2503023,9.0,0.0,9.33,8.93,9.07,1.0,2503023,2.184147662271659
2016-04-26T00:00:00.000Z,9.3074874797,9.3469678084,8.7843731251,8.8830739467,2109215,9.43,0.0,9.47,8.9,9.0,1.0,2109215,2.2308191815798386
2016-04-27T00:00:00.000Z,9.0706055078,9.4357985479,8.9126841932,9.3370977262,2015995,9.19,0.0,9.56,9.03,9.46,1.0,2015995,2.205039021303366
2016-04-28T00:00:00.000Z,9.3370977262,9.7911215057,8.9225542754,9.0607354257,2800927,9.46,0.0,9.92,9.04,9.18,1.0,2800927,2.2339954679994407
2016-04-29T00:00:00.000Z,9.0015149327,9.5838497803,8.8435936181,9.3864481371,2678936,9.12,0.0,9.71,8.96,9.51,1.0,2678936,2.1973928890265677
2016-05-02T00:00:00.000Z,9.139696083,9.139696083,8.6461919748,9.0311251792,3702138,9.26,0.0,9.26,8.76,9.15,1.0,3702138,2.212627133600311
2016-05-03T00:00:00.000Z,9.870082163,10.111899176,9.476660688,9.5739796982,5695856,10.0,0.0,10.245,9.6014,9.7,1.0,5695856,2.289508177929485
2016-05-04T00:00:00.000Z,9.8009915879,9.8108616701,9.3272276441,9.7516411771,3537665,9.93,0.0,9.94,9.45,9.88,1.0,3537665,2.282483562996704
2016-05-05T00:00:00.000Z,9.7417710949,10.2451452852,9.4752788765,9.870082163,2508316,9.87,0.0,10.38,9.6,10.0,1.0,2508316,2.27642293838278
2016-05-06T00:00:00.000Z,10.1267042993,10.1563145458,9.623330109,9.7713813414,2154104,10.26,0.0,10.29,9.75,9.9,1.0,2154104,2.3151759246841856
2016-05-09T00:00:00.000Z,9.2778772333,10.1267042993,9.2581370689,10.1267042993,3200998,9.4,0.0,10.26,9.38,10.26,1.0,3200998,2.2276327742200204
2016-05-10T00:00:00.000Z,9.8108616701,9.8404719166,9.1495661651,9.3272276441,2376639,9.94,0.0,9.97,9.27,9.45,1.0,2376639,2.2834901056118726
2016-05-11T00:00:00.000Z,9.929302656,10.2550153674,9.6825506019,9.8503419987,1822871,10.06,0.0,10.39,9.81,9.98,1.0,1822871,2.2954902496092484
2016-05-12T00:00:00.000Z,9.7319010128,10.2747555317,9.6332001911,10.0773538885,2758653,9.86,0.0,10.41,9.76,10.21,1.0,2758653,2.2754092535584096
2016-05-13T00:00:00.000Z,9.7121608484,9.9101661664,9.4745544668,9.6923603166,2790906,9.81,0.03,10.01,9.57,9.79,1.0,2790906,2.2733787960004253
2016-05-16T00:00:00.000Z,9.9398669641,10.1477725481,9.6725597848,9.6725597848,2183606,10.04,0.0,10.25,9.77,9.77,1.0,2183606,2.2965536366855575
2016-05-17T00:00:00.000Z,10.3358776002,10.3952791956,9.8210637733,9.94976723,2562742,10.44,0.0,10.5,9.92,10.05,1.0,2562742,2.335621104884215
2016-05-18T00:00:00.000Z,10.3061768025,10.7219879703,10.2071741435,10.2962765366,2856411,10.41,0.0,10.83,10.31,10.4,1.0,2856411,2.3327434050567666
2016-05-19T00:00:00.000Z,10.1477725481,10.3232052598,9.7121608484,10.2368749412,3550968,10.25,0.0,10.4272,9.81,10.34,1.0,3550968,2.3172542280152153
2016-05-20T00:00:00.000Z,9.8705651028,10.3952791956,9.4052526055,10.1873736117,3671224,9.97,0.0,10.5,9.5,10.29,1.0,3671224,2.2895571063960745
2016-05-23T00:00:00.000Z,9.4646542009,9.7814627097,8.8508377151,9.7814627097,4990462,9.56,0.0,9.88,8.94,9.88,1.0,4990462,2.2475642494878096
2016-05-24T00:00:00.000Z,9.1379454262,9.6032579235,8.95974064,9.4646542009,6746229,9.23,0.0,9.7,9.05,9.56,1.0,6746229,2.2124355709411496
2016-05-25T00:00:00.000Z,9.4844547327,9.5735571258,9.0983443626,9.2171475534,3766846,9.58,0.0,9.67,9.19,9.31,1.0,3766846,2.249654114407159
2016-05-26T00:00:00.000Z,9.2666488829,9.5944466869,9.1676462239,9.4745544668,2588807,9.36,0.0,9.6911,9.26,9.57,1.0,2588807,2.2264218129151296
2016-05-27T00:00:00.000Z,9.058743299,9.3359507442,8.8706382469,9.2666488829,2390341,9.15,0.0,9.43,8.96,9.36,1.0,2390341,2.203730401714297
2016-05-31T00:00:00.000Z,8.6231315994,9.0884440967,8.3558244201,9.0884440967,5005622,8.71,0.0,9.18,8.44,9.18,1.0,5005622,2.154448313294067
2016-06-01T00:00:00.000Z,8.7122339925,8.7221342584,8.365724686,8.5934308017,3406253,8.8,0.0,8.81,8.45,8.68,1.0,3406253,2.164728243913223
2016-06-02T00:00:00.000Z,8.7716355879,8.7716355879,7.4449999572,8.5241289404,25409002,8.86,0.0,8.86,7.52,8.61,1.0,25409002,2.1715232870456633
2016-06-03T00:00:00.000Z,8.365724686,8.5439294722,8.0786169748,8.5439294722,19097517,8.45,0.0,8.63,8.16,8.63,1.0,19097517,2.124142963800522
2016-06-06T00:00:00.000Z,8.3954254837,8.4845278768,8.1479188361,8.1479188361,7297633,8.48,0.0,8.57,8.23,8.23,1.0,7297633,2.1276869722350398
2016-06-07T00:00:00.000Z,8.3756249519,8.4944281427,8.2469214952,8.2568217611,3321000,8.46,0.0,8.58,8.33,8.34,1.0,3321000,2.125325696049501
2016-06-08T00:00:00.000Z,8.266722027,8.6528323971,8.2469214952,8.3261236224,2448569,8.35,0.0,8.74,8.33,8.41,1.0,2448569,2.1122380612949194
2016-06-09T00:00:00.000Z,8.365724686,8.563730004,8.2073204316,8.2172206975,3503557,8.45,0.0,8.65,8.29,8.3,1.0,3503557,2.124142963800522
2016-06-10T00:00:00.000Z,8.7122339925,8.8508377151,8.2172206975,8.2172206975,4448782,8.8,0.0,8.94,8.3,8.3,1.0,4448782,2.164728243913223
2016-06-13T00:00:00.000Z,8.2964228247,8.7815358538,8.2172206975,8.6429321312,4738515,8.38,0.0,8.87,8.3,8.73,1.0,4738515,2.1158244369259305
2016-06-14T00:00:00.000Z,8.5142286745,8.5736302699,8.2172206975,8.2469214952,4294102,8.6,0.0,8.66,8.3,8.33,1.0,4294102,2.141738725689859
2016-06-15T00:00:00.000Z,8.8013363856,9.058743299,8.464727345,8.5241289404,3177205,8.89,0.0,9.15,8.55,8.61,1.0,3177205,2.1749035719542946
2016-06-16T00:00:00.000Z,8.7914361197,8.8211369174,8.3855252178,8.7518350561,2295525,8.88,0.0,8.91,8.47,8.84,1.0,2295525,2.173778079432624
2016-06-17T00:00:00.000Z,8.8310371833,9.3062499465,8.7320345243,8.8805385128,3086081,8.92,0.0,9.4,8.82,8.97,1.0,3086081,2.178272469020208
2016-06-20T00:00:00.000Z,9.1082446285,9.3359507442,8.8508377151,8.9894414377,2487205,9.2,0.0,9.43,8.94,9.08,1.0,2487205,2.209180006481562
2016-06-21T00:00:00.000Z,9.1280451603,9.1973470216,8.9151894434,9.1082446285,1768857,9.22,0.0,9.29,9.005,9.2,1.0,1768857,2.2113515599949505
2016-06-22T00:00:00.000Z,8.9795411718,9.2468483511,8.860737981,9.0290425013,2550408,9.07,0.0,9.34,8.95,9.12,1.0,2550408,2.194948786554399
2016-06-23T00:00:00.000Z,9.652759253,9.850764571,9.072108658,9.0884440967,3587526,9.75,0.0,9.95,9.1635,9.18,1.0,3587526,2.267243807433226
2016-06-24T00:00:00.000Z,9.1775464898,9.5141555304,9.0983443626,9.0983443626,17719771,9.27,0.0,9.61,9.19,9.19,1.0,17719771,2.216759902003916
2016-06-27T00:00:00.000Z,8.3558244201,9.058743299,8.2568217611,9.058743299,4350196,8.44,0.0,9.15,8.34,9.15,1.0,4350196,2.122958831039376
2016-06-28T00:00:00.000Z,8.365724686,8.6825331948,8.1083177725,8.6528323971,2575727,8.45,0.0,8.77,8.19,8.74,1.0,2575727,2.124142963800522
2016-06-29T00:00:00.000Z,8.3855252178,8.563730004,8.2469214952,8.4845278768,1815399,8.47,0.0,8.65,8.33,8.57,1.0,1815399,2.126507031095261
2016-06-30T00:00:00.000Z,8.157819102,8.4251262814,8.0489161771,8.3558244201,5088375,8.24,0.0,8.51,8.13,8.44,1.0,5088375,2.0989768663420847
2016-07-01T00:00:00.000Z,8.3954254837,8.4152260155,8.0489161771,8.1479188361,3349090,8.48,0.0,8.5,8.13,8.23,1.0,3349090,2.1276869722350398
2016-07-05T00:00:00.000Z,7.5737034139,8.365724686,7.4945012867,8.3558244201,3626353,7.65,0.0,8.45,7.57,8.44,1.0,3626353,2.0246821702629307
2016-07-06T00:00:00.000Z,5.870857679,7.5143018185,5.7619547541,7.4945012867,18394933,5.93,0.0,7.59,5.82,7.57,1.0,18394933,1.7700007354324057
2016-07-07T00:00:00.000Z,6.4945744308,6.5539760262,5.9599600721,5.9599600721,10372227,6.56,0.0,6.62,6.02,6.02,1.0,10372227,1.8709671253892595
2016-07-08T00:00:00.000Z,7.6034042116,7.9994148476,6.2767685809,6.573776558,14025324,7.68,0.0,8.08,6.34,6.64,1.0,14025324,2.0285960695838607
2016-07-11T00:00:00.000Z,7.8509108591,7.860811125,7.4846010208,7.6034042116,4660044,7.93,0.0,7.94,7.56,7.68,1.0,4660044,2.060629558069378
2016-07-12T00:00:00.000Z,8.0984175066,8.1677193679,7.6925066047,7.8311103273,2901275,8.18,0.0,8.25,7.77,7.91,1.0,2901275,2.09166867303572
2016-07-13T00:00:00.000Z,8.1776196339,8.2469214952,7.9895145817,8.1182180384,3103540,8.26,0.0,8.33,8.07,8.2,1.0,3103540,2.101401109965701
2016-07-14T00:00:00.000Z,8.6924334607,8.7814368511,8.3063230906,8.3063230906,3112392,8.78,0.0,8.8699,8.39,8.39,1.0,3112392,2.1624529300762183
2016-07-15T00:00:00.000Z,8.8211369174,8.9003390446,8.6132313335,8.7320345243,2848839,8.91,0.0,8.99,8.7,8.82,1.0,2848839,2.177150763911072
2016-07-18T00:00:00.000Z,9.256748617,9.3260504783,8.6825331948,8.7716355879,2308476,9.35,0.0,9.42,8.77,8.86,1.0,2308476,2.225352865726282
2016-07-19T00:00:00.000Z,9.0092419695,9.3755518078,8.9696409059,9.1874467557,1827934,9.1,0.0,9.47,9.06,9.28,1.0,1827934,2.1982509359499747
2016-07-20T00:00:00.000Z,9.0389427672,9.1181448944,8.8508377151,8.9795411718,1515016,9.13,0.0,9.21,8.94,9.07,1.0,1515016,2.201542217033865
2016-07-21T00:00:00.000Z,9.0686435649,9.2270478193,8.9696409059,9.0389427672,1545158,9.16,0.0,9.32,9.06,9.13,1.0,1545158,2.2048227011128456
2016-07-22T00:00:00.000Z,8.7518350561,9.0438929001,8.464727345,9.0092419695,2764270,8.84,0.0,9.135,8.55,9.1,1.0,2764270,2.1692633990783547
2016-07-25T00:00:00.000Z,8.7023337266,8.8805385128,8.5142286745,8.7122339925,1625174,8.79,0.0,8.97,8.6,8.8,1.0,1625174,2.1635912341262133
2016-07-26T00:00:00.000Z,9.2072472875,9.6824600507,8.7221342584,8.7518350561,6223189,9.3,0.0,9.78,8.81,8.84,1.0,6223189,2.219990922585187
2016-07-27T00:00:00.000Z,9.4052526055,9.6032579235,9.256748617,9.4151528714,2318518,9.5,0.0,9.7,9.35,9.51,1.0,2318518,2.2412683210313284
2016-07-28T00:00:00.000Z,9.2963496806,9.5833583891,9.2864494147,9.355751276,1855729,9.39,0.0,9.6799,9.38,9.45,1.0,1855729,2.229621815645628
2016-07-29T00:00:00.000Z,9.2072472875,9.394362313,8.9696409059,9.2963496806,2425645,9.3,0.0,9.489,9.06,9.39,1.0,2425645,2.219990922585187
2016-08-01T00:00:00.000Z,9.1973470216,9.3656515419,9.0613173681,9.2072472875,2057023,9.29,0.0,9.46,9.1526,9.3,1.0,2057023,2.2189150752517826
2016-08-02T00:00:00.000Z,8.7518350561,9.2963496806,8.6231315994,9.2072472875,2263976,8.84,0.0,9.39,8.71,9.3,1.0,2263976,2.1692633990783547
2016-08-03T00:00:00.000Z,8.8409374492,8.9943915706,8.5340292063,8.6726329289,1983437,8.93,0.0,9.085,8.62,8.76,1.0,1983437,2.1793929173166346
2016-08-04T00:00:00.000Z,8.8508377151,9.1478456921,8.7914361197,8.9696409059,1969733,8.94,0.0,9.24,8.88,9.06,1.0,1969733,2.1805121116135866
2016-08-05T00:00:00.000Z,9.0092419695,9.1527958251,8.7717345905,8.8508377151,1782460,9.1,0.0,9.245,8.8601,8.94,1.0,1782460,2.1982509359499747
2016-08-08T00:00:00.000Z,9.2171475534,9.4745544668,9.0290425013,9.0686435649,4408801,9.31,0.0,9.57,9.12,9.16,1.0,4408801,2.2210656137148943
2016-08-09T00:00:00.000Z,10.1972738776,10.7021874385,9.6428589871,9.6923603166,7755732,10.3,0.0,10.81,9.74,9.79,1.0,7755732,2.322120417666101
2016-08-10T00:00:00.000Z,10.8308908952,10.8803922247,10.3259773343,10.4447805251,4184037,10.94,0.0,10.99,10.43,10.55,1.0,4184037,2.382402319420904
2016-08-11T00:00:00.000Z,11.6229121672,11.6526129649,10.7912898316,10.8308908952,4134465,11.74,0.0,11.77,10.9,10.94,1.0,4134465,2.4529783368232443
2016-08-12T00:00:00.000Z,11.345704722,11.9892220056,10.9744447508,11.6823137626,3600804,11.46,0.0,12.11,11.085,11.8,1.0,3600804,2.4288392337111486
2016-08-15T00:00:00.000Z,12.1575265259,12.3560167549,11.2464563748,11.3933391442,4065749,12.25,0.03,12.45,11.332,11.48,1.0,4065749,2.497948445148246
2016-08-16T00:00:00.000Z,12.028507877,12.4006770564,11.9193382511,12.0781304343,3131882,12.12,0.0,12.495,12.01,12.17,1.0,3131882,2.4872794887942122
2016-08-17T00:00:00.000Z,12.1476020144,12.2865451747,11.9491117854,12.0185833656,2161430,12.24,0.0,12.38,12.04,12.11,1.0,2161430,2.49713178523755
2016-08-18T00:00:00.000Z,12.3063941976,12.3857902892,12.0483568999,12.2369226175,2633044,12.4,0.0,12.48,12.14,12.33,1.0,2633044,2.510118980764786
2016-08-19T00:00:00.000Z,12.2865451747,12.3560167549,12.0781304343,12.2468471289,1827396,12.38,0.0,12.45,12.17,12.34,1.0,1827396,2.508504775410193
2016-08-22T00:00:00.000Z,12.3560167549,12.3857902892,12.0682059228,12.2468471289,1945942,12.45,0.0,12.48,12.16,12.34,1.0,1945942,2.514143131068689
2016-08-23T00:00:00.000Z,12.4155638236,12.6736011213,12.3163187091,12.3857902892,2655162,12.51,0.0,12.77,12.41,12.48,1.0,2655162,2.5189508326369277
2016-08-24T00:00:00.000Z,12.2964696862,12.7529972129,12.2071490831,12.4651863808,2259123,12.39,0.0,12.85,12.3,12.56,1.0,2259123,2.509312203798886
2016-08-25T00:00:00.000Z,12.73314819,12.8919403731,12.3063941976,12.3460922434,2319929,12.83,0.0,12.99,12.4,12.44,1.0,2319929,2.544208686786356
2016-08-26T00:00:00.000Z,12.5644314953,13.2392982739,12.5149081832,12.8125442815,2962637,12.66,0.0,13.34,12.6101,12.91,1.0,2962637,2.5308699248704927
2016-08-29T00:00:00.000Z,13.1698266937,13.3186943655,12.5842805182,12.5842805182,2658417,13.27,0.0,13.42,12.68,12.68,1.0,2658417,2.5779283564962454
2016-08-30T00:00:00.000Z,13.2789963197,13.5469581288,13.0904306021,13.1797512052,1721094,13.38,0.0,13.65,13.19,13.28,1.0,1721094,2.586183562856258
2016-08-31T00:00:00.000Z,13.0904306021,13.3782414342,12.6934501442,13.2492227853,2530122,13.19,0.0,13.48,12.79,13.35,1.0,2530122,2.5718814748811454
2016-09-01T00:00:00.000Z,13.3683169227,13.4774865487,12.9713364647,13.1996002281,1709435,13.47,0.0,13.58,13.07,13.3,1.0,1709435,2.5928874985749095
2016-09-02T00:00:00.000Z,13.5271091059,13.7454483578,13.3335811327,13.4774865487,1526723,13.63,0.0,13.85,13.435,13.58,1.0,1526723,2.6046957538614732
2016-09-06T00:00:00.000Z,13.41793948,13.6958258006,13.1906681678,13.5866561746,1914214,13.52,0.0,13.8,13.291,13.69,1.0,1914214,2.596592578771306
2016-09-07T00:00:00.000Z,13.507260083,13.6274459167,13.2691710533,13.3286188769,1952103,13.61,0.0,13.7311,13.3701,13.43,1.0,1952103,2.6032273248163578
2016-09-08T00:00:00.000Z,13.4477130143,13.616429709,13.2988453426,13.4675620372,1540564,13.55,0.0,13.72,13.4,13.57,1.0,1540564,2.5988090554785455
2016-09-09T00:00:00.000Z,12.7132991671,13.3385433884,12.5842805182,13.2293737624,2350980,12.81,0.0,13.44,12.68,13.33,1.0,2350980,2.5426486240674113
2016-09-12T00:00:00.000Z,13.1599021823,13.3286188769,12.4552618694,12.6041295411,2921810,13.26,0.0,13.43,12.55,12.7,1.0,2921810,2.5771744929136196
2016-09-13T00:00:00.000Z,12.6140540526,13.0408080449,12.3758657778,12.8919403731,2520184,12.71,0.0,13.14,12.47,12.99,1.0,2520184,2.5348115933599145
2016-09-14T00:00:00.000Z,13.4874110601,13.6065051975,12.7629217243,12.8026197701,3316956,13.59,0.0,13.71,12.86,12.9,1.0,3316956,2.6017567363159864
2016-09-15T00:00:00.000Z,13.5965806861,13.8645424952,13.1698266937,13.4080149685,2707649,13.7,0.0,13.97,13.27,13.51,1.0,2707649,2.6098183409909583
2016-09-16T00:00:00.000Z,14.4500886707,14.4897867165,13.6065051975,13.6462032433,4858655,14.56,0.0,14.6,13.71,13.75,1.0,4858655,2.6707005509202366
2016-09-19T00:00:00.000Z,14.3409190448,14.6535411555,14.0034856555,14.4600131822,3284696,14.45,0.0,14.765,14.11,14.57,1.0,3284696,2.663116922713361
2016-09-20T00:00:00.000Z,14.0034856555,14.4897867165,13.9637876097,14.3111455105,1978524,14.11,0.0,14.6,14.07,14.42,1.0,1978524,2.639306274018886
2016-09-21T00:00:00.000Z,14.6287298768,14.7279749913,14.013410167,14.1821268616,2684644,14.74,0.0,14.84,14.12,14.29,1.0,2684644,2.68298739491331
2016-09-22T00:00:00.000Z,14.8768426631,14.9264652203,14.3806170906,14.7378995028,2640864,14.99,0.0,15.04,14.49,14.85,1.0,2640864,2.6998058202705564
2016-09-23T00:00:00.000Z,15.0157858234,15.1745780066,14.7577485257,14.8172955944,2245946,15.13,0.0,15.29,14.87,14.93,1.0,2245946,2.7091020359565947
2016-09-26T00:00:00.000Z,14.4897867165,14.9264652203,14.4302396478,14.8371446173,2079081,14.6,0.0,15.04,14.54,14.95,1.0,2079081,2.673444036866082
2016-09-27T00:00:00.000Z,14.8569936402,15.0356348463,14.3607680677,14.4103906249,1950589,14.97,0.0,15.15,14.47,14.52,1.0,1950589,2.6984707065875466
2016-09-28T00:00:00.000Z,15.1150309379,15.2837476325,14.5493337852,15.0058613119,2357494,15.23,0.0,15.4,14.66,15.12,1.0,2357494,2.7156896750635973
2016-09-29T00:00:00.000Z,15.0455593577,15.382992747,14.9661632661,15.184502518,2015756,15.16,0.0,15.5,15.08,15.3,1.0,2015756,2.7110828883672915
2016-09-30T00:00:00.000Z,15.8792183195,15.9586144111,15.0852574035,15.0852574035,3648679,16.0,0.0,16.08,15.2,15.2,1.0,3648679,2.765011230394592
2016-10-03T00:00:00.000Z,15.7998222279,15.9983124569,15.6509545562,15.8196712508,1613856,15.92,0.0,16.12,15.77,15.94,1.0,1613856,2.7599986885708896
2016-10-04T00:00:00.000Z,15.5020868844,16.0181614798,15.4770771156,15.8792183195,1305567,15.62,0.0,16.14,15.5948,16.0,1.0,1305567,2.7409746525655847
2016-10-05T00:00:00.000Z,16.0479350141,16.12236885,15.5914074875,15.690652602,2018321,16.17,0.0,16.245,15.71,15.81,1.0,2018321,2.7755801817410415
2016-10-06T00:00:00.000Z,16.0777085485,16.1968026859,15.889142831,15.9486898997,1294800,16.2,0.0,16.32,16.01,16.07,1.0,1294800,2.777433750393538
2016-10-07T00:00:00.000Z,15.6311055333,16.1670291515,15.4425398157,16.1670291515,2390914,15.75,0.0,16.29,15.56,16.29,1.0,2390914,2.7492628734291515
2016-10-10T00:00:00.000Z,15.3929172585,15.8990673424,15.3432947012,15.7998222279,1321450,15.51,0.0,16.02,15.46,15.92,1.0,1321450,2.7339074853455116
2016-10-11T00:00:00.000Z,14.9463142432,15.293672144,14.6972090058,15.2638986096,1683407,15.06,0.0,15.41,14.809,15.38,1.0,1683407,2.704464730524593
2016-10-12T00:00:00.000Z,14.9066161974,15.1944270295,14.7577485257,14.9760877776,1315309,15.02,0.0,15.31,14.87,15.09,1.0,1315309,2.701805154488745
2016-10-13T00:00:00.000Z,14.7577485257,14.8569936402,14.301220999,14.6882769455,2261200,14.87,0.0,14.97,14.41,14.8,1.0,2261200,2.69176826862787
2016-10-14T00:00:00.000Z,14.8172955944,14.9760877776,14.5493337852,14.8371446173,2545015,14.93,0.0,15.09,14.66,14.95,1.0,2545015,2.695795119707028
2016-10-17T00:00:00.000Z,15.1448044722,15.2341250753,14.6188053654,14.7577485257,2039866,15.26,0.0,15.35,14.73,14.87,1.0,2039866,2.7176575340095948
2016-10-18T00:00:00.000Z,15.7402751592,16.0082369683,15.3333701898,15.3333701898,2268348,15.86,0.0,16.13,15.45,15.45,1.0,2268348,2.7562227243612347
2016-10-19T00:00:00.000Z,16.0975575714,16.1968026859,15.7601241821,15.8494447852,2120319,16.22,0.0,16.32,15.88,15.97,1.0,2120319,2.7786675568425045
2016-10-20T00:00:00.000Z,16.5441605866,16.8021978843,16.0082369683,16.0380105027,2713069,16.67,0.0,16.93,16.13,16.16,1.0,2713069,2.8060332049157566
2016-10-21T00:00:00.000Z,16.663254724,16.9113675103,16.375443892,16.5143870523,1757946,16.79,0.0,17.04,16.5,16.64,1.0,1757946,2.813205979242741
2016-10-24T00:00:00.000Z,16.6434057011,16.970914579,16.2265762202,16.8021978843,2793284,16.77,0.0,17.1,16.35,16.93,1.0,2793284,2.81201408398837
2016-10-25T00:00:00.000Z,16.5937831439,16.8518204416,16.3952929149,16.573934121,1475903,16.72,0.0,16.98,16.52,16.7,1.0,1475903,2.809028115812722
2016-10-26T00:00:00.000Z,16.8220469072,16.8815939759,16.4548399836,16.5540850981,1664731,16.95,0.0,17.01,16.58,16.68,1.0,1664731,2.8226903419800626
2016-10-27T00:00:00.000Z,16.77242435,17.1594802965,16.6334811897,16.8716694645,1692143,16.9,0.0,17.29,16.76,17.0,1.0,1692143,2.8197361300855155
2016-10-28T00:00:00.000Z,17.3778195484,17.5266872202,16.7128772813,16.8121223958,2637205,17.51,0.0,17.66,16.84,16.94,1.0,2637205,2.8551946544524096
2016-10-31T00:00:00.000Z,16.3059723118,17.5026699024,16.2563497546,17.4671401515,2982995,16.43,0.0,17.6358,16.38,17.6,1.0,2982995,2.7915314402017453
2016-11-01T00:00:00.000Z,16.7128772813,16.8021978843,16.3059723118,16.3952929149,2477495,16.84,0.0,16.93,16.43,16.52,1.0,2477495,2.816179516970562
2016-11-02T00:00:00.000Z,16.1273311057,16.7029527698,16.0280859912,16.6334811897,2421097,16.25,0.0,16.83,16.15,16.76,1.0,2421097,2.7805154169279414
2016-11-03T00:00:00.000Z,16.5838586324,16.7079150256,15.779973205,16.1471801286,2629807,16.71,0.0,16.835,15.9,16.27,1.0,2629807,2.8084298507604357
2016-11-04T00:00:00.000Z,16.970914579,17.258725411,16.266274266,16.5143870523,3660017,17.1,0.0,17.39,16.39,16.64,1.0,3660017,2.8315009716654505
2016-11-07T00:00:00.000Z,19.134458075,19.4520424414,18.4198932506,18.4595912964,9969052,19.28,0.0,19.6,18.56,18.6,1.0,9969052,2.951490797337341
2016-11-08T00:00:00.000Z,19.9383435024,20.0772866627,18.9655428901,19.1046845407,5760123,20.09,0.0,20.23,19.1098,19.25,1.0,5760123,2.9926446869805408
2016-11-09T00:00:00.000Z,20.325399449,20.613210281,19.2337031895,19.2436277009,5654108,20.48,0.0,20.77,19.38,19.39,1.0,5654108,3.011871308328086
2016-11-10T00:00:00.000Z,20.6926063726,21.1789074336,20.4544180978,20.7521534413,5661502,20.85,0.0,21.34,20.61,20.91,1.0,5661502,3.0297764563996967
2016-11-11T00:00:00.000Z,20.5536632123,20.7720024642,20.0673621513,20.6429838154,5021016,20.71,0.0,20.93,20.22,20.8,1.0,5021016,3.0230391835621666
2016-11-14T00:00:00.000Z,20.9506436703,20.9704926932,20.2261543345,20.5437387009,6170453,21.11,0.0,21.13,20.38,20.7,1.0,6170453,3.0421693700155026
2016-11-15T00:00:00.000Z,21.8835477466,22.0922464308,21.0288769445,21.2176995635,3978769,22.02,0.03,22.23,21.16,21.35,1.0,3978769,3.085735110049451
2016-11-16T00:00:00.000Z,21.8636716814,22.0823083982,21.2673897265,22.0326182353,3214541,22.0,0.0,22.22,21.4,22.17,1.0,3214541,3.084826432111629
2016-11-17T00:00:00.000Z,22.5195818318,22.6189621577,21.6549729972,21.8636716814,3595559,22.66,0.0,22.76,21.79,22.0,1.0,3595559,3.1143852343513085
2016-11-18T00:00:00.000Z,22.539457897,22.7481565812,22.3406972454,22.5096437993,2818584,22.68,0.0,22.89,22.48,22.65,1.0,2818584,3.115267457612558
2016-11-21T00:00:00.000Z,23.0959877216,23.1258018194,22.5543649459,22.7580946138,3001540,23.24,0.0,23.27,22.695,22.9,1.0,3001540,3.139658910735969
2016-11-22T00:00:00.000Z,23.3643146014,23.5720194823,22.9369792003,23.3345005036,2901953,23.51,0.0,23.719,23.08,23.48,1.0,2901953,3.1512098413074043
2016-11-23T00:00:00.000Z,23.6525175462,23.7518978721,23.2351201778,23.3046864059,2122843,23.8,0.0,23.9,23.38,23.45,1.0,2122843,3.1634695594289743
2016-11-25T00:00:00.000Z,23.4537568946,23.6624555788,23.2748723081,23.6624555788,851249,23.6,0.0,23.81,23.42,23.81,1.0,851249,3.1550306907851877
2016-11-28T00:00:00.000Z,22.6090241251,23.3692836176,21.992866105,23.3543765688,2885061,22.75,0.0,23.515,22.13,23.5,1.0,2885061,3.1183491241509764
2016-11-29T00:00:00.000Z,23.4736329598,23.7022077092,22.5195818318,22.7580946138,2667983,23.62,0.0,23.85,22.66,22.9,1.0,2667983,3.155877789524334
2016-11-30T00:00:00.000Z,24.5668165438,24.7158870326,23.4835709923,23.6028273833,2968184,24.72,0.0,24.87,23.63,23.75,1.0,2968184,3.2013966113416785
2016-12-01T00:00:00.000Z,24.4574981854,24.8351434236,24.2239544197,24.7457011303,3003227,24.61,0.0,24.99,24.375,24.9,1.0,3003227,3.196936843155434
2016-12-02T00:00:00.000Z,24.8748955539,25.01402801,24.0997290125,24.4475601528,1986442,25.03,0.0,25.17,24.25,24.6,1.0,1986442,3.2138590841976504
2016-12-05T00:00:00.000Z,25.7096902908,25.8388847144,24.9593688308,25.0339040752,3424346,25.87,0.0,26.0,25.115,25.19,1.0,3424346,3.2468679749508658
2016-12-06T00:00:00.000Z,25.8885748773,25.9283270076,25.1929125965,25.7693184863,2562067,26.05,0.0,26.09,25.35,25.93,1.0,2562067,3.2538017469529175
2016-12-07T00:00:00.000Z,25.9084509425,26.2016229036,25.5407437369,25.9382650402,2882374,26.07,0.0,26.365,25.7,26.1,1.0,2882374,3.2545692067003062
2016-12-08T00:00:00.000Z,26.7929358423,26.8326879726,25.9085503228,25.9382650402,3371814,26.96,0.0,27.0,26.0701,26.1,1.0,3371814,3.2881382647975146
2016-12-09T00:00:00.000Z,26.0575214312,27.1208909175,25.6600001279,26.8326879726,3002679,26.22,0.0,27.29,25.82,27.0,1.0,3002679,3.2603064570890274
2016-12-12T00:00:00.000Z,23.6723936114,25.5407437369,23.6028273833,25.4314253785,5702840,23.82,0.0,25.7,23.75,25.59,1.0,5702840,3.1643095426801833
2016-12-13T00:00:00.000Z,24.4475601528,24.7357630977,23.7220837743,23.7817119698,3520248,24.6,0.0,24.89,23.87,23.93,1.0,3520248,3.1965304216900687
2016-12-14T00:00:00.000Z,24.7158870326,25.2227266943,23.920844426,24.1991093383,2416566,24.87,0.0,25.38,24.07,24.35,1.0,2416566,3.207446236570065
2016-12-15T00:00:00.000Z,25.1929125965,25.6997522582,24.4773742506,24.6860729348,2836599,25.35,0.0,25.86,24.63,24.84,1.0,2836599,3.2265627087896216
2016-12-16T00:00:00.000Z,23.990410654,25.3953503202,23.9506585237,25.2724168572,5967274,24.14,0.0,25.5537,24.1,25.43,1.0,5967274,3.177654194420812
2016-12-19T00:00:00.000Z,24.5966306416,24.9047096516,24.0003486866,24.0699149147,2572752,24.75,0.0,25.06,24.15,24.22,1.0,2572752,3.202609467769029
2016-12-20T00:00:00.000Z,24.9047096516,25.1432224336,24.4376221203,24.586692609,1623774,25.06,0.0,25.3,24.59,24.74,1.0,1623774,3.2150569282199872
2016-12-21T00:00:00.000Z,23.2848103407,25.3270760364,21.635096932,24.7655771955,11341678,23.43,0.0,25.485,21.77,24.92,1.0,11341678,3.1478012312734043
2016-12-22T00:00:00.000Z,22.6189621577,23.4140047643,21.754353323,23.1754919823,5183345,22.76,0.0,23.56,21.89,23.32,1.0,5183345,3.1187885880129227
2016-12-23T00:00:00.000Z,22.8872890374,22.9121341188,22.112122496,22.4102634734,1610440,23.03,0.0,23.055,22.25,22.55,1.0,1610440,3.130581692586221
2016-12-27T00:00:00.000Z,22.6090241251,23.2947483733,22.420201506,22.8574749396,1366875,22.75,0.0,23.44,22.56,23.0,1.0,1366875,3.1183491241509764
2016-12-28T00:00:00.000Z,22.2611929847,23.1556159171,22.2015647892,22.6785903532,1633894,22.4,0.0,23.3,22.34,22.82,1.0,1633894,3.102844937614389
2016-12-29T00:00:00.000Z,22.2115028218,22.5792100273,22.0574633168,22.2512549521,1345507,22.35,0.0,22.72,22.195,22.39,1.0,1345507,3.1006102998135256
2016-12-30T00:00:00.000Z,21.9531139746,22.7580946138,21.754353323,22.3605733105,1587229,22.09,0.0,22.9,21.89,22.5,1.0,1587229,3.088908996183422
2017-01-03T00:00:00.000Z,21.08850514,22.0400717597,20.6313556412,21.4562123455,4809901,21.22,0.0,22.1775,20.76,21.59,1.0,4809901,3.0487281119406417
2017-01-04T00:00:00.000Z,22.0723703656,22.7968529409,21.5357166062,21.5655307039,34798252,22.21,0.0,22.939,21.67,21.7,1.0,34798252,3.09432661665822
2017-01-05T00:00:00.000Z,21.7444152904,22.4599536363,20.6909838367,21.873609714,8211844,21.88,0.0,22.6,20.82,22.01,1.0,8211844,3.0793569563066088
2017-01-06T00:00:00.000Z,21.4065221826,22.0823083982,21.1183192377,21.9531139746,3043253,21.54,0.0,22.22,21.25,22.09,1.0,3043253,3.0636956504812245
2017-01-09T00:00:00.000Z,22.1419365937,22.3208211802,21.08850514,21.2972038242,3861648,22.28,0.0,22.46,21.22,21.43,1.0,3861648,3.0974733938120025
2017-01-10T00:00:00.000Z,23.20530608,23.2202131289,22.062432333,22.062432333,3197862,23.35,0.0,23.365,22.2,22.2,1.0,3197862,3.144380962866868
2017-01-11T00:00:00.000Z,24.4376221203,24.4574981854,23.2748723081,23.2947483733,3508097,24.59,0.0,24.61,23.42,23.44,1.0,3508097,3.196123834983226
2017-01-12T00:00:00.000Z,24.2090473709,24.4475601528,23.2450582104,24.4376221203,2152539,24.36,0.0,24.6,23.39,24.59,1.0,2152539,3.186726421596692
2017-01-13T00:00:00.000Z,24.7357630977,25.1134083359,24.3978699899,24.4376221203,2511995,24.89,0.0,25.27,24.55,24.59,1.0,2511995,3.208250095131627
2017-01-17T00:00:00.000Z,24.3283037618,24.7258250651,24.0500388495,24.7258250651,2842663,24.48,0.0,24.88,24.2,24.88,1.0,2842663,3.191640436395436
2017-01-18T00:00:00.000Z,24.8649575213,24.9842139123,24.2758309498,24.4475601528,2579451,25.02,0.0,25.14,24.4272,24.6,1.0,2579451,3.213459483792027
2017-01-19T00:00:00.000Z,24.109667045,25.063718173,23.7717739372,24.7655771955,2997091,24.26,0.0,25.22,23.92,24.92,1.0,2997091,3.182612882267777
2017-01-20T00:00:00.000Z,24.8351434236,24.8450814561,24.0202247518,24.1494191754,2711899,24.99,0.0,25.0,24.17,24.3,1.0,2711899,3.2122597236020303
2017-01-23T00:00:00.000Z,24.467436218,25.0040899775,24.2090473709,24.4475601528,1962199,24.62,0.0,25.16,24.36,24.6,1.0,1962199,3.1973430995094945
2017-01-24T00:00:00.000Z,25.3320450527,25.7494424211,24.6761349022,24.7158870326,4511963,25.49,0.0,25.91,24.83,24.87,1.0,4511963,3.2320701971422596
2017-01-25T00:00:00.000Z,25.4115493133,25.8289466818,25.0736562055,25.5904338998,1991516,25.57,0.0,25.99,25.23,25.75,1.0,1991516,3.235203768054981
2017-01-26T00:00:00.000Z,25.4314253785,25.5867568278,24.9643378471,25.3618591504,2409004,25.59,0.0,25.7463,25.12,25.52,1.0,2409004,3.2359856289249644
2017-01-27T00:00:00.000Z,25.2326647269,25.3767661993,24.7953912932,25.3121689875,1354523,25.39,0.0,25.535,24.95,25.47,1.0,1354523,3.228139374471799
2017-01-30T00:00:00.000Z,24.9245857168,25.0973087231,24.1394811428,24.9941519449,1680857,25.08,0.0,25.2538,24.29,25.15,1.0,1680857,3.215854694518194
2017-01-31T00:00:00.000Z,26.2562820828,26.5842371581,24.6363827719,24.8351434236,4060285,26.42,0.0,26.75,24.79,24.99,1.0,4060285,3.267905277845782
2017-02-01T00:00:00.000Z,26.633927321,26.9916964939,26.0177693009,26.4252286367,2380332,26.8,0.0,27.16,26.18,26.59,1.0,2380332,3.2821858662709436
2017-02-02T00:00:00.000Z,26.7034935491,26.7829978097,26.1966538873,26.5643610929,1475929,26.87,0.0,26.95,26.36,26.73,1.0,1475929,3.284794401382385
2017-02-03T00:00:00.000Z,27.4488459927,27.5184122208,26.7333076468,26.8028738749,2336733,27.62,0.0,27.69,26.9,26.97,1.0,2336733,3.312324126733022
2017-02-06T00:00:00.000Z,27.657544677,27.6774207421,26.8535578411,27.1407669827,1934107,27.83,0.0,27.85,27.021,27.31,1.0,1934107,3.3198985542921613
2017-02-07T00:00:00.000Z,27.1705810804,28.204136469,27.066132358,27.6774207421,2576554,27.34,0.0,28.38,27.2349,27.85,1.0,2576554,3.302134810047986
2017-02-08T00:00:00.000Z,27.0413866569,27.0811387872,26.1668397896,27.0215105917,1697565,27.21,0.0,27.25,26.33,27.19,1.0,1697565,3.297368531549991
2017-02-09T00:00:00.000Z,27.419031895,27.6376686118,26.9335590033,27.0215105917,1607963,27.59,0.0,27.81,27.1015,27.19,1.0,1607963,3.3112373669827964
2017-02-10T00:00:00.000Z,27.9556856544,28.1643843387,27.3693417321,27.6972968073,1546924,28.13,0.0,28.34,27.54,27.87,1.0,1546924,3.3306206012534822
2017-02-13T00:00:00.000Z,31.94083672,32.5768708053,31.2054223089,31.4240590257,104473,32.14,0.0,32.78,31.4,31.62,1.0,104473,3.463885339062401
2017-02-14T00:00:00.000Z,31.8712704919,32.1495354042,31.4041829606,31.8017042639,3275195,32.07,0.0,32.35,31.6,32.0,1.0,3275195,3.4617049924573813
2017-02-15T00:00:00.000Z,32.4774904795,32.6364990008,31.9308986874,32.2489157301,4144042,32.68,0.0,32.84,32.13,32.45,1.0,4144042,3.4805472487463023
2017-02-16T00:00:00.000Z,31.702323938,32.7955075221,31.2849265696,31.7420760684,3866860,31.9,0.0,33.0,31.48,31.94,1.0,3866860,3.4563899885431657
2017-02-17T00:00:00.000Z,32.8551357176,33.1830907928,31.94083672,31.94083672,4037364,33.06,0.0,33.39,32.14,32.14,1.0,4037364,3.492108071146352
2017-02-21T00:00:00.000Z,35.3793959935,35.5682186126,33.1334006299,33.1334006299,5187577,35.6,0.0,35.79,33.34,33.34,1.0,5187577,3.566129616610219
2017-02-22T00:00:00.000Z,34.8626182993,35.5185284497,34.7433619083,35.2800156677,2566277,35.08,0.0,35.74,34.96,35.5,1.0,2566277,3.5514151462587145
2017-02-23T00:00:00.000Z,33.8886911062,35.4105489692,33.591282282,35.1718261671,2121956,34.07,0.03,35.6,33.771,35.36,1.0,2121956,3.5230813630436697
2017-02-24T00:00:00.000Z,33.8986378896,34.1174671248,31.9192279893,33.480872986,2049623,34.08,0.0,34.3,32.09,33.66,1.0,2049623,3.5233748333313692
2017-02-27T00:00:00.000Z,33.6201279539,34.5252852449,33.2719905342,33.8190636222,3044215,33.8,0.0,34.71,33.45,34.0,1.0,3044215,3.5151249338596045
2017-02-28T00:00:00.000Z,33.480872986,34.0378928574,33.0631080825,33.2322034006,2107318,33.66,0.0,34.22,33.24,33.41,1.0,2107318,3.5109743201319885
2017-03-01T00:00:00.000Z,34.5352320284,35.2712940013,34.0776799911,34.2766156595,2807031,34.72,0.0,35.46,34.26,34.46,1.0,2807031,3.5419800211632193
2017-03-02T00:00:00.000Z,33.3117776679,34.8137419641,33.2322034006,34.5352320284,1689306,33.49,0.0,35.0,33.41,34.72,1.0,1689306,3.5059110181757758
2017-03-03T00:00:00.000Z,33.8687975393,34.097573558,33.0830016493,33.2222566171,2038674,34.05,0.0,34.28,33.26,33.4,1.0,2038674,3.5224941639644447
2017-03-06T00:00:00.000Z,33.4609794192,33.8091168388,32.8243852804,33.4112455021,2219348,33.64,0.0,33.99,33.0,33.59,1.0,2219348,3.51037996647517
2017-03-07T00:00:00.000Z,33.4410858523,34.3462431434,33.3714583684,33.5803408202,1622210,33.62,0.0,34.53,33.55,33.76,1.0,1622210,3.509785259348997
2017-03-08T00:00:00.000Z,32.9636402483,33.6897554378,32.8044917136,33.6201279539,1811899,33.14,0.0,33.87,32.98,33.8,1.0,1811899,3.495405143369312
2017-03-09T00:00:00.000Z,32.7945449302,33.1426823498,32.4066203768,32.8243852804,1509354,32.97,0.0,33.32,32.58,33.0,1.0,1509354,3.4902621884548815
2017-03-10T00:00:00.000Z,32.7945449302,33.4012987187,32.267365409,32.9139063312,1406736,32.97,0.0,33.58,32.44,33.09,1.0,1406736,3.4902621884548815
2017-03-13T00:00:00.000Z,33.6201279539,33.7195957881,32.8741191975,32.8741191975,1364457,33.8,0.0,33.9,33.05,33.05,1.0,1364457,3.5151249338596045
2017-03-14T00:00:00.000Z,33.4311390689,33.6599150875,32.9735870317,33.2620437508,1395223,33.61,0.0,33.84,33.15,33.44,1.0,1395223,3.509487773106089
2017-03-15T00:00:00.000Z,34.9927840656,35.0278962111,33.6201279539,33.7096490046,1894770,35.18,0.0,35.2153,33.8,33.89,1.0,1894770,3.5551418706792637
2017-03-16T00:00:00.000Z,34.455657761,35.4801764531,34.1771478253,35.2315068676,1480576,34.64,0.0,35.67,34.36,35.42,1.0,1480576,3.5396732150637527
2017-03-17T00:00:00.000Z,34.5650723786,35.2116133008,34.33629636,34.6943805631,3593511,34.75,0.0,35.4,34.52,34.88,1.0,3593511,3.542843703380281
2017-03-20T00:00:00.000Z,34.4954448947,34.8093653794,34.0677332077,34.5053916781,1374408,34.68,0.0,34.9956,34.25,34.69,1.0,1374408,3.540827283282636
2017-03-21T00:00:00.000Z,32.5856624784,34.8037951807,32.5011148193,34.6346998625,2553484,32.76,0.0,34.99,32.675,34.82,1.0,2553484,3.4838723903556414
2017-03-22T00:00:00.000Z,33.6201279539,33.6599150875,32.1380572245,32.5856624784,1942296,33.8,0.0,33.84,32.31,32.76,1.0,1942296,3.5151249338596045
2017-03-23T00:00:00.000Z,34.3263495766,34.7043273465,33.0730548659,33.4012987187,1607747,34.51,0.0,34.89,33.25,33.58,1.0,1607747,3.5359132684805354
2017-03-24T00:00:00.000Z,33.9682653735,34.8137419641,33.480872986,34.4357641942,1694627,34.15,0.0,35.0,33.66,34.62,1.0,1694627,3.525426717386224
2017-03-27T00:00:00.000Z,34.2069881756,34.3760834937,32.7845981467,33.5007665529,1736600,34.39,0.0,34.56,32.96,33.68,1.0,1736600,3.532429955815376
2017-03-28T00:00:00.000Z,36.0869302416,36.6837372467,34.4357641942,34.5849659455,5347600,36.28,0.0,36.88,34.62,34.77,1.0,5347600,3.5859307566164094
2017-03-29T00:00:00.000Z,37.2507039016,37.6983091554,36.5842694125,37.3302781689,3588310,37.45,0.0,37.9,36.78,37.53,1.0,3588310,3.617670841334277
2017-03-30T00:00:00.000Z,37.9569255243,38.4343711283,36.7732582975,37.191023201,3169673,38.16,0.0,38.64,36.97,37.39,1.0,3169673,3.6364519779511193
2017-03-31T00:00:00.000Z,38.2951161605,38.8123488982,37.6983091554,37.9569255243,3775612,38.5,0.0,39.02,37.9,38.16,1.0,3775612,3.6453223726641766
2017-04-03T00:00:00.000Z,37.9768190911,38.6233600133,36.9025664819,38.4841050454,3009967,38.18,0.0,38.83,37.1,38.69,1.0,3009967,3.6369759496676703
2017-04-04T00:00:00.000Z,37.9867658745,38.3746904278,37.3501717357,37.7878302061,2195354,38.19,0.0,38.58,37.55,37.99,1.0,2195354,3.6372378326070116
2017-04-05T00:00:00.000Z,37.3103846021,38.782508548,37.0219278829,38.2951161605,2155286,37.51,0.0,38.99,37.22,38.5,1.0,2155286,3.6192716954645787
2017-04-06T00:00:00.000Z,37.5192670539,37.8574576901,36.5842694125,37.1810764176,1669995,37.72,0.0,38.06,36.78,37.38,1.0,1669995,3.6248545891364494
2017-04-07T00:00:00.000Z,37.5391606207,37.9469787408,37.1015021503,37.2109167679,1568952,37.74,0.0,38.15,37.3,37.41,1.0,1568952,3.625384671310621
2017-04-10T00:00:00.000Z,37.2507039016,37.8276173398,36.9025664819,37.6983091554,1219363,37.45,0.0,38.03,37.1,37.9,1.0,1219363,3.617670841334277
2017-04-11T00:00:00.000Z,37.3501717357,37.4794799202,36.2162384261,37.4595863533,1552829,37.55,0.0,37.68,36.41,37.66,1.0,1552829,3.620337509578965
2017-04-12T00:00:00.000Z,35.7885267391,37.3501717357,35.6990056883,37.2904910352,1959457,35.98,0.0,37.55,35.89,37.49,1.0,1959457,3.5776273598932318
2017-04-13T00:00:00.000Z,34.9331033651,36.5942161959,34.7938483972,35.5398571536,2295911,35.12,0.0,36.79,34.98,35.73,1.0,2295911,3.553434900137049
2017-04-17T00:00:00.000Z,35.3906554023,35.4155223609,34.5153384615,34.9132097983,1878778,35.58,0.0,35.605,34.7,35.1,1.0,1878778,3.5664478136066298
2017-04-18T00:00:00.000Z,35.5796442873,36.0869302416,34.8236887475,35.0624115495,2122166,35.77,0.0,36.28,35.01,35.25,1.0,2122166,3.571773684641339
2017-04-19T00:00:00.000Z,35.3608150521,36.2460787763,35.2315068676,35.7288460386,3010979,35.55,0.0,36.44,35.42,35.92,1.0,3010979,3.565604287619743
2017-04-20T00:00:00.000Z,36.8926196985,37.3103846021,35.8780477898,35.8780477898,1962980,37.09,0.0,37.51,36.07,36.07,1.0,1962980,3.608011522871448
2017-04-21T00:00:00.000Z,37.3302781689,37.4794799202,36.4748547949,37.1114489337,2405541,37.53,0.0,37.68,36.67,37.31,1.0,2405541,3.6198047445167307
2017-04-24T00:00:00.000Z,39.0112845666,39.2350871935,37.9171383906,38.0961804921,2944064,39.22,0.0,39.445,38.12,38.3,1.0,2944064,3.6638509521381657
2017-04-25T00:00:00.000Z,39.687665839,40.0258564753,39.1107524008,39.6180383551,2630234,39.9,0.0,40.24,39.32,39.83,1.0,2630234,3.6810404552646525
2017-04-26T00:00:00.000Z,40.0457500421,40.5480626047,39.5086237375,39.687665839,2033775,40.26,0.0,40.765,39.72,39.9,1.0,2033775,3.690022551581513
2017-04-27T00:00:00.000Z,39.9562289913,40.1054307426,39.1604863179,39.5086237375,3741191,40.17,0.0,40.32,39.37,39.72,1.0,3741191,3.687784579740176
2017-04-28T00:00:00.000Z,40.0755903924,40.4635149457,39.8070272401,40.18500501,1969366,40.29,0.0,40.68,40.02,40.4,1.0,1969366,3.6907674305742484
2017-05-01T00:00:00.000Z,40.5033020793,40.7370514897,39.7970804566,40.3143131944,2469233,40.72,0.0,40.955,40.01,40.53,1.0,2469233,3.701383503611096
2017-05-02T00:00:00.000Z,39.6578254888,42.4031377122,38.0563933584,41.6272886056,5031515,39.87,0.0,42.63,38.26,41.85,1.0,5031515,3.6802882927634823
2017-05-03T00:00:00.000Z,38.8222956816,39.7274529727,38.7626149811,39.4588898204,2972136,39.03,0.0,39.94,38.97,39.67,1.0,2972136,3.6589947125611455
2017-05-04T00:00:00.000Z,39.687665839,40.1452178763,38.1956483263,38.8421892485,2408211,39.9,0.0,40.36,38.4,39.05,1.0,2408211,3.6810404552646525
2017-05-05T00:00:00.000Z,41.0205348171,41.0304816005,39.5086237375,39.8567611572,2126888,41.24,0.0,41.25,39.72,40.07,1.0,2126888,3.714072790518773
2017-05-08T00:00:00.000Z,40.0457500421,41.3686722367,39.7871336732,41.0702687342,2021674,40.26,0.0,41.59,40.0,41.29,1.0,2021674,3.690022551581513
2017-05-09T00:00:00.000Z,40.5033020793,40.7718652316,39.9661757748,40.0855371758,1451742,40.72,0.0,40.99,40.18,40.3,1.0,1451742,3.701383503611096
2017-05-10T00:00:00.000Z,42.064947076,42.5622862469,40.3442530125,40.6326102638,2606562,42.29,0.0,42.79,40.5601,40.85,1.0,2606562,3.7392147828538813
2017-05-11T00:00:00.000Z,41.6571289559,42.2638827444,40.8414927156,42.2439891775,1900622,41.88,0.0,42.49,41.06,42.47,1.0,1900622,3.7294725173730296
2017-05-12T00:00:00.000Z,43.586804939,44.1637183773,42.1345745599,43.1491464686,3843570,43.82,0.0,44.4,42.36,43.38,1.0,3843570,3.774754465536799
2017-05-15T00:00:00.000Z,45.0589288849,45.7457117639,43.8418301829,43.9839643787,5149961,45.27,0.03,45.96,44.0472,44.19,1.0,5149961,3.8079711638582734
2017-05-16T00:00:00.000Z,45.1684160106,45.8054320142,45.06888226,45.248043011,2771973,45.38,0.0,46.02,45.28,45.46,1.0,2771973,3.810398081763618
2017-05-17T00:00:00.000Z,42.8293728721,44.5413533819,42.3317041192,44.3124257556,3235636,43.03,0.0,44.75,42.53,44.52,1.0,3235636,3.7572241492623175
2017-05-18T00:00:00.000Z,42.5506783705,43.5261091261,41.6150611151,42.5407249954,2253580,42.75,0.0,43.73,41.81,42.74,1.0,2253580,3.7506957977947644
2017-05-19T00:00:00.000Z,43.6355962517,44.212892005,42.8293728721,42.8691863723,2201002,43.84,0.0,44.42,43.03,43.07,1.0,2201002,3.775873245050391
2017-05-22T00:00:00.000Z,43.506202376,45.2579963861,42.7746293093,45.0390221348,2886065,43.71,0.0,45.47,42.975,45.25,1.0,2886065,3.7729035112869194
2017-05-23T00:00:00.000Z,42.9587667478,43.6455496268,42.4810047451,43.6355962517,2344030,43.16,0.0,43.85,42.68,43.84,1.0,2344030,3.76024074280066
2017-05-24T00:00:00.000Z,41.7145948656,43.3668551252,41.0477187368,43.0483471233,2979719,41.91,0.0,43.57,41.24,43.25,1.0,2979719,3.7308510643471497
2017-05-25T00:00:00.000Z,42.1127298679,42.7995127469,41.4458537391,41.9037089917,2035446,42.31,0.0,43.0,41.64,42.1,1.0,2035446,3.7403500671422325
2017-05-26T00:00:00.000Z,42.3217507441,42.5286814116,41.6847347405,42.1127298679,1100142,42.52,0.0,42.7279,41.88,42.31,1.0,1100142,3.745301155883871
2017-05-30T00:00:00.000Z,41.1970193627,42.2620304938,41.1372991123,42.2222169936,1317944,41.39,0.0,42.46,41.33,42.42,1.0,1317944,3.71836590817288
2017-05-31T00:00:00.000Z,39.8035468546,41.5752476148,38.0119393443,41.2766463631,4740009,39.99,0.0,41.77,38.19,41.47,1.0,4740009,3.6839560252694614
2017-06-01T00:00:00.000Z,41.3164598633,41.3164598633,39.6144327285,40.1021481063,2754251,41.51,0.0,41.51,39.8,40.29,1.0,2754251,3.7212609644750287
2017-06-02T00:00:00.000Z,40.9680917363,41.6250144901,40.2912622324,41.3363666135,2277073,41.16,0.0,41.82,40.48,41.53,1.0,2277073,3.7127935133761567
2017-06-05T00:00:00.000Z,41.4159936139,41.8838022416,40.7093039848,40.908371486,2650098,41.61,0.0,42.08,40.9,41.1,1.0,2650098,3.723667125405557
2017-06-06T00:00:00.000Z,39.0371369752,40.908371486,38.8778829743,40.908371486,3091849,39.22,0.0,41.1,39.06,41.1,1.0,3091849,3.66451342317947
2017-06-07T00:00:00.000Z,39.3655983521,39.5845726033,38.479747972,39.2859713516,2553906,39.55,0.0,39.77,38.66,39.47,1.0,2553906,3.6728922966250637
2017-06-08T00:00:00.000Z,40.052381231,40.1718217317,38.5593749724,39.3158314768,2216903,40.24,0.0,40.36,38.74,39.5,1.0,2216903,3.6901881282013353
2017-06-09T00:00:00.000Z,39.9130339802,41.6847347405,39.2760179766,40.211635232,3565553,40.1,0.0,41.88,39.46,40.4,1.0,3565553,3.686702936722467
2017-06-12T00:00:00.000Z,39.5746192283,40.2016818569,38.5799784588,39.8334069798,2068745,39.76,0.0,40.39,38.7607,40.02,1.0,2068745,3.6781879841996266
2017-06-13T00:00:00.000Z,40.7590708601,40.8586046107,39.7736867294,39.7736867294,2287051,40.95,0.0,41.05,39.96,39.96,1.0,2287051,3.707678412709524
2017-06-14T00:00:00.000Z,38.5295148473,41.8439887414,36.6284202113,41.3960868638,6076085,38.71,0.0,42.04,36.8,41.59,1.0,6076085,3.651424567001564
2017-06-15T00:00:00.000Z,36.8573478376,38.4299810967,35.7624765813,37.9323123438,4782219,37.03,0.0,38.61,35.93,38.11,1.0,4782219,3.6070549973361103
2017-06-16T00:00:00.000Z,36.5288864607,37.7431982177,35.9814508326,36.5388398358,4589490,36.7,0.0,37.92,36.15,36.71,1.0,4589490,3.5981033574709667
2017-06-19T00:00:00.000Z,37.8228252182,37.9323123438,36.757814087,36.8075809623,3580656,38.0,0.0,38.11,36.93,36.98,1.0,3580656,3.632912762137793
2017-06-20T00:00:00.000Z,37.7730583429,38.1114730949,36.927021463,37.7431982177,1899432,37.95,0.0,38.29,37.1,37.92,1.0,1899432,3.631596106252705
2017-06-21T00:00:00.000Z,36.6383735864,38.0816129697,36.5288864607,37.9024522186,2379665,36.81,0.0,38.26,36.7,38.08,1.0,2379665,3.6010961498032406
2017-06-22T00:00:00.000Z,36.6383735864,36.9668349632,35.4141084543,36.757814087,2555192,36.81,0.0,37.14,35.58,36.93,1.0,2555192,3.6010961498032406
2017-06-23T00:00:00.000Z,35.8321502067,36.7976275873,35.7823833314,36.6682337115,18904348,36.0,0.0,36.97,35.95,36.84,1.0,18904348,3.5788455408670767
2017-06-26T00:00:00.000Z,35.8321502067,36.6881404616,34.7870458257,35.9316839573,3597675,36.0,0.0,36.86,34.95,36.1,1.0,3597675,3.5788455408670767
2017-06-27T00:00:00.000Z,34.9263930765,36.1805183337,34.8865795762,35.9316839573,2763337,35.09,0.0,36.35,35.05,36.1,1.0,2763337,3.5532427920068037
2017-06-28T00:00:00.000Z,36.4592128353,36.6582803365,35.3942017042,35.54350233,2989149,36.63,0.0,36.83,35.56,35.71,1.0,2989149,3.5961941792012166
2017-06-29T00:00:00.000Z,35.3543882039,36.6781870866,34.6775587,36.6383735864,2660316,35.52,0.0,36.85,34.84,36.81,1.0,2660316,3.5654225205336916
2017-06-30T00:00:00.000Z,37.7431982177,38.479747972,35.6430360806,35.6828495808,5571505,37.92,0.0,38.66,35.81,35.85,1.0,5571505,3.6308052797971517
2017-07-03T00:00:00.000Z,37.9223589688,38.7285823484,37.4645037161,38.3204939711,2024442,38.1,0.0,38.91,37.64,38.5,1.0,2024442,3.6355408845447426
2017-07-05T00:00:00.000Z,39.1167639756,39.4949922278,38.0019859692,38.7783492237,4394239,39.3,0.0,39.68,38.18,38.96,1.0,4394239,3.666551121284968
2017-07-06T00:00:00.000Z,38.5693283475,39.5945259784,38.489701347,38.8181627239,3123414,38.75,0.0,39.78,38.67,39.0,1.0,3123414,3.652457358210593
2017-07-07T00:00:00.000Z,39.9030806052,40.4007493581,38.7484890985,38.7484890985,2574980,40.09,0.0,40.59,38.93,38.93,1.0,2574980,3.686453529065798
2017-07-10T00:00:00.000Z,40.6595371095,40.8884647359,39.3855051022,39.9130339802,2144152,40.85,0.0,41.08,39.57,40.1,1.0,2144152,3.7052334237158204
2017-07-11T00:00:00.000Z,41.5553408647,41.774315116,40.3708892329,40.7491174851,2169648,41.75,0.0,41.97,40.56,40.94,1.0,2169648,3.72702605370748
2017-07-12T00:00:00.000Z,42.7397924965,42.9289066226,42.0629629926,42.0629629926,2152185,42.94,0.0,43.13,42.26,42.26,1.0,2152185,3.755130394860498
2017-07-13T00:00:00.000Z,43.8048036277,43.8396404404,42.8393262471,42.998580248,2824904,44.01,0.0,44.045,43.04,43.2,1.0,2824904,3.779743483234178
2017-07-14T00:00:00.000Z,44.551306757,44.9494417593,43.8943840032,44.0536380041,1864132,44.76,0.0,45.16,44.1,44.26,1.0,1864132,3.7966414858547584
2017-07-17T00:00:00.000Z,44.8100945085,45.3475767616,44.3024723806,44.6110270073,2038980,45.02,0.0,45.56,44.51,44.82,1.0,2038980,3.8024334378897797
2017-07-18T00:00:00.000Z,44.6906540078,44.7802343833,43.9142907533,44.6707472577,1402023,44.9,0.0,44.99,44.12,44.88,1.0,1402023,3.799764397159157
2017-07-19T00:00:00.000Z,44.9394883842,45.2331129484,44.6110270073,44.7901877584,2672602,45.15,0.0,45.445,44.82,45.0,1.0,2672602,3.8053168822731545
2017-07-20T00:00:00.000Z,44.6010736323,45.1485092604,43.8147570028,44.9195816341,1845902,44.81,0.0,45.36,44.02,45.13,1.0,1845902,3.797757931209375
2017-07-21T00:00:00.000Z,44.5911202572,44.8001411334,43.9242441284,44.4119595062,1699801,44.8,0.0,45.01,44.13,44.62,1.0,1699801,3.797534741831308
2017-07-24T00:00:00.000Z,46.113986641,46.283194017,44.9096282591,45.0589288849,2903466,46.33,0.0,46.5,45.12,45.27,1.0,2903466,3.831116301839276
2017-07-25T00:00:00.000Z,47.7961070257,48.0051279019,46.4822615181,46.7310958946,3458762,48.02,0.0,48.23,46.7,46.95,1.0,3458762,3.8669441932037634
2017-07-26T00:00:00.000Z,47.2984382728,48.363449404,46.4922148932,48.025034652,2469564,47.52,0.0,48.59,46.71,48.25,1.0,2469564,3.856477277464426
2017-07-27T00:00:00.000Z,46.80076952,47.8956407763,45.5068307625,47.6169462747,1806878,47.02,0.0,48.12,45.72,47.84,1.0,1806878,3.8458996455234638
2017-07-28T00:00:00.000Z,47.8657806511,48.0449414022,46.3130541422,46.5021682683,1672841,48.09,0.0,48.27,46.53,46.72,1.0,1672841,3.868400857700188
2017-07-31T00:00:00.000Z,47.3880186484,48.4231696543,46.8206762701,47.9553610266,2205270,47.61,0.0,48.65,47.04,48.18,1.0,2205270,3.858369425618222
2017-08-01T00:00:00.000Z,47.7164800253,47.9950749931,47.328298398,47.8757340262,1751555,47.94,0.0,48.2199,47.55,48.1,1.0,1751555,3.8652768314181376
2017-08-02T00:00:00.000Z,47.7463401504,48.4321276919,46.5817952687,48.015081277,2298504,47.97,0.0,48.659,46.8,48.24,1.0,2298504,3.865902417924358
2017-08-03T00:00:00.000Z,46.9301633957,49.7967354123,46.8216716076,48.9706052825,3606058,47.15,0.0,50.03,47.041,49.2,1.0,3606058,3.8486606114900157
2017-08-04T00:00:00.000Z,49.0800924081,49.4384139102,46.7808627699,47.2984382728,2218172,49.31,0.0,49.67,47.0,47.52,1.0,2218172,3.8934535026465618
2017-08-07T00:00:00.000Z,49.5379476608,51.2698349208,49.3289267846,49.7668752871,2619922,49.77,0.0,51.51,49.56,50.0,1.0,2619922,3.9027389952821814
2017-08-08T00:00:00.000Z,46.979930271,49.8066887873,46.5021682683,49.5180409107,3850249,47.2,0.0,50.04,46.72,49.75,1.0,3850249,3.8497204950023347
2017-08-09T00:00:00.000Z,46.0542663907,47.2685781477,45.6163178881,46.1538001412,4396755,46.27,0.0,47.49,45.83,46.37,1.0,4396755,3.8298204053305933
2017-08-10T00:00:00.000Z,44.20293863,45.7014192449,43.864523878,45.6859915135,2614643,44.41,0.0,45.9155,44.07,45.9,1.0,2614643,3.788791271715262
2017-08-11T00:00:00.000Z,46.1239400161,46.4593687555,43.9740110037,43.9839643787,1938391,46.34,0.0,46.677,44.18,44.19,1.0,1938391,3.8313321214158726
2017-08-14T00:00:00.000Z,46.8704431454,47.2586247726,45.6760381385,46.9500701458,4613920,47.09,0.0,47.48,45.89,47.17,1.0,4613920,3.8473872666669617
2017-08-15T00:00:00.000Z,46.7111891445,47.3087736538,46.2839162203,47.0896593337,1063521,46.9,0.03,47.5,46.471,47.28,1.0,1063521,3.8439837322182258
2017-08-16T00:00:00.000Z,46.1335241188,46.9801021736,45.5458993513,46.9801021736,1624629,46.32,0.0,47.17,45.73,47.17,1.0,1624629,3.8315398900300295
2017-08-17T00:00:00.000Z,44.7292005219,46.1634033443,44.6296031037,45.7450941877,1424561,44.91,0.0,46.35,44.81,45.93,1.0,1424561,3.800626543864502
2017-08-18T00:00:00.000Z,45.8944903151,46.7709475954,44.4802069764,44.9781940675,1651927,46.08,0.0,46.96,44.66,45.16,1.0,1651927,3.826345073153456
2017-08-21T00:00:00.000Z,46.1733630861,46.6315112099,45.5160201258,46.063805926,1156436,46.36,0.0,46.82,45.7,46.25,1.0,1156436,3.8324030752371137
2017-08-22T00:00:00.000Z,47.5478074575,47.6673243594,46.4920748244,46.6016319844,1546760,47.74,0.0,47.86,46.68,46.79,1.0,1546760,3.861735677675923
2017-08-23T00:00:00.000Z,47.3386528792,48.1254724832,47.0199411409,47.1693372683,908457,47.53,0.0,48.32,47.21,47.36,1.0,908457,3.857327147390287
2017-08-24T00:00:00.000Z,47.2988139119,47.8167204867,46.8754252871,47.7071633266,953120,47.49,0.0,48.01,47.0649,47.9,1.0,953120,3.8564852193251316
2017-08-25T00:00:00.000Z,47.4282905556,47.9163179049,47.0896593337,47.7270828103,1499413,47.62,0.0,48.11,47.28,47.92,1.0,1499413,3.8592188978231583
2017-08-28T00:00:00.000Z,47.5278879739,47.9312575176,47.2290957192,47.6972035848,1301399,47.72,0.0,48.125,47.42,47.89,1.0,1301399,3.861316653995874
2017-08-29T00:00:00.000Z,47.4282905556,47.796801003,46.9203437227,47.0796995919,839743,47.62,0.0,47.99,47.11,47.27,1.0,839743,3.8592188978231583
2017-08-30T00:00:00.000Z,47.7071633266,47.9163179049,47.4183308138,47.4681295229,758940,47.9,0.0,48.11,47.61,47.66,1.0,758940,3.8650815611810696
2017-08-31T00:00:00.000Z,48.8724531198,49.0716479562,47.9561568722,48.1951906759,2173189,49.07,0.0,49.27,48.15,48.39,1.0,2173189,3.889213906866934
2017-09-01T00:00:00.000Z,49.7887493674,50.0477026548,48.8226544107,49.0915674399,1396461,49.99,0.0,50.25,49.02,49.29,1.0,1396461,3.907789042190403
2017-09-05T00:00:00.000Z,48.0059555813,49.9720086169,47.577686683,49.7987091092,2221459,48.2,0.0,50.174,47.77,50.0,1.0,2221459,3.8713250778216897
2017-09-06T00:00:00.000Z,47.7669217776,48.3744660287,47.577686683,48.2151101596,1667506,47.96,0.0,48.57,47.77,48.41,1.0,1667506,3.8663333869249574
2017-09-07T00:00:00.000Z,48.7429764761,48.7529362179,47.8067607449,48.0258750649,2108745,48.94,0.0,48.95,48.0,48.22,1.0,2108745,3.8865611147793193
2017-09-08T00:00:00.000Z,49.5098765964,49.6592727237,48.244989385,48.3147075778,2308632,49.71,0.0,49.86,48.44,48.51,1.0,2308632,3.90217217687174
2017-09-11T00:00:00.000Z,50.2966962003,50.7847235496,49.6891519492,49.7887493674,1350192,50.5,0.0,50.99,49.89,49.99,1.0,1350192,3.9179393930459585
2017-09-12T00:00:00.000Z,49.7887493674,51.3823080589,49.5995142728,50.7349248405,3312002,49.99,0.0,51.59,49.8,50.94,1.0,3312002,3.907789042190403
2017-09-13T00:00:00.000Z,48.972050538,49.9879442038,48.8575135071,49.6393532401,1870652,49.17,0.0,50.19,49.055,49.84,1.0,1870652,3.891249738188593
2017-09-14T00:00:00.000Z,49.4600778873,50.2966962003,48.1852309341,48.9222518289,3202597,49.66,0.0,50.5,48.38,49.12,1.0,3202597,3.901165836845366
2017-09-15T00:00:00.000Z,50.1572598148,50.2867364585,49.5995142728,49.6094740146,3017772,50.36,0.0,50.49,49.8,49.81,1.0,3017772,3.915163265940906
2017-09-18T00:00:00.000Z,51.1432742552,51.7010197972,50.4660118113,50.6253676804,3370824,51.35,0.0,51.91,50.67,50.83,1.0,3370824,3.934630993140061
2017-09-19T00:00:00.000Z,51.710979539,51.88029515,51.043676837,51.3424690916,1819816,51.92,0.0,52.09,51.25,51.55,1.0,1819816,3.9456701291604497
2017-09-20T00:00:00.000Z,51.5914626372,51.9400536009,50.9189808694,51.7806977318,2432022,51.8,0.0,52.15,51.1248,51.99,1.0,2432022,3.943356206031256
2017-09-21T00:00:00.000Z,51.7408587645,51.88029515,51.1542299712,51.6213418626,1527897,51.95,0.0,52.09,51.361,51.83,1.0,1527897,3.946247774310518
2017-09-22T00:00:00.000Z,51.5815028953,51.9101743755,51.322549608,51.6213418626,1101884,51.79,0.0,52.12,51.53,51.83,1.0,1101884,3.943163137200104
2017-09-25T00:00:00.000Z,50.1074611057,51.7408587645,49.6393532401,51.3823080589,1753860,50.31,0.0,51.95,49.84,51.59,1.0,1753860,3.9141699212681704
2017-09-26T00:00:00.000Z,50.2170182657,50.6950858732,49.5596753055,50.2468974912,1299058,50.42,0.0,50.9,49.76,50.45,1.0,1299058,3.9163539785239148
2017-09-27T00:00:00.000Z,50.2867364585,51.1930729643,49.7489104001,50.6452871641,1625088,50.49,0.0,51.4,49.95,50.85,1.0,1625088,3.917741353635903
2017-09-28T00:00:00.000Z,50.2070585239,50.9042404515,49.9979039457,50.3763741349,1377669,50.41,0.0,51.11,50.2,50.58,1.0,1377669,3.9161556248591154
2017-09-29T00:00:00.000Z,50.4062533604,50.5207903913,49.3405609854,50.1373403312,2388151,50.61,0.0,50.725,49.54,50.34,1.0,2388151,3.920115241991816
2017-10-02T00:00:00.000Z,52.5376381102,52.5376381102,50.5257702622,50.5456897459,1903036,52.75,0.0,52.75,50.73,50.75,1.0,1903036,3.961529829120547
2017-10-03T00:00:00.000Z,53.2248602959,53.2597193923,52.4280809502,52.7368329467,1611515,53.44,0.0,53.475,52.64,52.95,1.0,1611515,3.974525585992632
2017-10-04T00:00:00.000Z,52.8065511394,53.4340148742,51.9699328264,53.2248602959,1907777,53.02,0.0,53.65,52.18,53.44,1.0,1907777,3.9666352576254464
2017-10-05T00:00:00.000Z,54.2108747363,54.2507137036,52.8165108813,53.1352226195,1740010,54.43,0.0,54.47,53.03,53.35,1.0,1740010,3.992881529211053
2017-10-06T00:00:00.000Z,54.44990854,54.6092644092,53.5236525506,53.8622837725,2015565,54.67,0.0,54.83,53.74,54.08,1.0,2015565,3.9972811696714063
2017-10-09T00:00:00.000Z,54.5993046674,54.7387410529,54.1511162854,54.5793851837,906700,54.82,0.0,54.96,54.37,54.8,1.0,906700,4.000021147640465
2017-10-10T00:00:00.000Z,54.7686202783,54.8084592456,54.1013175763,54.7785800202,938562,54.99,0.0,55.03,54.32,55.0,1.0,938562,4.003117407284242
2017-10-11T00:00:00.000Z,54.898096922,54.9678151148,54.181991485,54.7686202783,1466400,55.12,0.0,55.19,54.401,54.99,1.0,1466400,4.005478683470215
2017-10-12T00:00:00.000Z,55.1271709839,55.3263658204,54.4798873629,54.7188215692,1454522,55.35,0.0,55.55,54.7001,54.94,1.0,1454522,4.009642715919414
2017-10-13T00:00:00.000Z,55.8143931696,56.1629841334,54.9379358893,55.5554398823,3122222,56.04,0.0,56.39,55.16,55.78,1.0,3122222,4.022031778233447
2017-10-16T00:00:00.000Z,56.7804881263,56.8502063191,55.8343126533,56.0235477479,1802273,57.01,0.0,57.08,56.06,56.25,1.0,1802273,4.039192747807802
2017-10-17T00:00:00.000Z,56.6211322572,57.447691231,56.5713335481,56.8203270936,1568606,56.85,0.0,57.6799,56.8,57.05,1.0,1568606,4.03638227696173
2017-10-18T00:00:00.000Z,55.8940711042,56.9796829628,55.8841113624,56.7705283845,1315644,56.12,0.0,57.21,56.11,57.0,1.0,1315644,4.023458311999352
2017-10-19T00:00:00.000Z,55.9438698133,56.521534839,54.4997072491,55.2865268531,1548918,56.17,0.0,56.75,54.72,55.51,1.0,1548918,4.024348863309268
2017-10-20T00:00:00.000Z,55.6649970423,56.4916556135,54.9678151148,56.4816958717,1873250,55.89,0.0,56.72,55.19,56.71,1.0,1873250,4.019351530046743
2017-10-23T00:00:00.000Z,55.7247554932,56.5514140644,55.6450775587,55.8741516206,1513107,55.95,0.0,56.78,55.87,56.1,1.0,1513107,4.020424491522513
2017-10-24T00:00:00.000Z,56.7207296754,57.8461805013,55.9837087806,55.9837087806,1676346,56.95,0.0,58.08,56.21,56.21,1.0,1676346,4.03813974665805
2017-10-25T00:00:00.000Z,56.6460316118,57.1489985738,55.5753593659,56.7904478682,1319379,56.875,0.0,57.38,55.8,57.02,1.0,1319379,4.0368219340371
2017-10-26T00:00:00.000Z,56.3820984535,57.079280381,56.1003373573,56.9199245119,1516019,56.61,0.0,57.31,56.3271,57.15,1.0,1516019,4.032151704814185
2017-10-27T00:00:00.000Z,56.9996024464,57.1589583156,55.7845139442,56.6510114827,1486693,57.23,0.0,57.39,56.01,56.88,1.0,1486693,4.043044293185666
2017-10-30T00:00:00.000Z,56.7605686427,57.4477908284,56.5210368519,56.7705283845,1622574,56.99,0.0,57.68,56.7495,57.0,1.0,1622574,4.038841870611989
2017-10-31T00:00:00.000Z,56.3820984535,56.9199245119,55.2168086603,56.8103673518,1888646,56.61,0.0,57.15,55.44,57.04,1.0,1888646,4.032151704814185
2017-11-01T00:00:00.000Z,56.7406491591,57.0685238598,55.9538295551,57.0195219301,1559855,56.97,0.0,57.2992,56.18,57.25,1.0,1559855,4.038490870258156
2017-11-02T00:00:00.000Z,55.6052385914,57.4278713448,55.2616274985,56.7406491591,2264476,55.83,0.0,57.66,55.485,56.97,1.0,2264476,4.018277416087964
2017-11-03T00:00:00.000Z,51.9500133428,52.6671147539,48.8724531198,52.4280809502,8803630,52.16,0.0,52.88,49.07,52.64,1.0,8803630,3.9502819743844717
2017-11-06T00:00:00.000Z,51.8902548918,53.6730486779,50.8544417423,52.5177186266,4428962,52.1,0.0,53.89,51.06,52.73,1.0,4428962,3.9491310055240687
2017-11-07T00:00:00.000Z,50.7946832914,52.0695302446,50.1672195566,51.6910600554,4403481,51.0,0.0,52.28,50.37,51.9,1.0,4403481,3.927791689489126
2017-11-08T00:00:00.000Z,50.8046430332,51.2129924479,49.6494125793,50.3365351676,2941031,51.01,0.0,51.42,49.8501,50.54,1.0,2941031,3.9279877486992056
2017-11-09T00:00:00.000Z,50.9042404515,51.6811003136,49.9580649784,50.4660118113,2528298,51.11,0.0,51.89,50.16,50.67,1.0,2528298,3.929946229546162
2017-11-10T00:00:00.000Z,49.868427302,51.1930729643,49.8584675602,50.7946832914,1859998,50.07,0.0,51.4,50.06,51.0,1.0,1859998,3.9093880831072836
2017-11-13T00:00:00.000Z,51.7010197972,52.0296912773,49.4799973709,49.699111691,3040568,51.91,0.0,52.24,49.68,49.9,1.0,3040568,3.9454775066041754
2017-11-14T00:00:00.000Z,50.3962936185,51.6611808299,49.9082662693,51.4221470262,2588820,50.6,0.0,51.87,50.11,51.63,1.0,2588820,3.9199176330576986
2017-11-15T00:00:00.000Z,49.4501181455,50.2867364585,48.304747836,49.699111691,2260231,49.65,0.0,50.49,48.5,49.9,1.0,2260231,3.9009644472569693
2017-11-16T00:00:00.000Z,51.3424690916,51.6811003136,49.9580649784,49.9580649784,2584572,51.55,0.0,51.89,50.16,50.16,1.0,2584572,3.9385182672277423
2017-11-17T00:00:00.000Z,52.3185237902,52.3733336722,49.1694469296,51.2023952826,5089829,52.5,0.03,52.555,49.34,51.38,1.0,5089829,3.9573504917317788
2017-11-20T00:00:00.000Z,51.7504941033,52.3185237902,50.7759744002,52.2188694591,1743321,51.93,0.0,52.5,50.9521,52.4,1.0,1743321,3.9464339799897528
2017-11-21T00:00:00.000Z,52.786899146,52.9064843432,51.7614560797,52.1192151281,2146974,52.97,0.0,53.09,51.941,52.3,1.0,2146974,3.966263037689953
2017-11-22T00:00:00.000Z,52.6772793819,53.2353436356,52.3035756405,52.7968645791,1255851,52.86,0.0,53.42,52.485,52.98,1.0,1255851,3.9641842313102638
2017-11-24T00:00:00.000Z,53.1257238715,53.7934078894,52.8267608784,53.0858621391,1891331,53.31,0.0,53.98,53.01,53.27,1.0,1891331,3.972661252968221
2017-11-27T00:00:00.000Z,52.5277978853,53.0659312729,51.9099410329,52.9064843432,2281927,52.71,0.0,53.25,52.09,53.09,1.0,2281927,3.961342513000159
2017-11-28T00:00:00.000Z,52.9563115087,54.0774227328,52.7171411143,53.0659312729,2718206,53.14,0.0,54.265,52.9,53.25,1.0,2718206,3.9694672624642577
2017-11-29T00:00:00.000Z,51.531254575,53.3947905653,50.3453680358,52.9164497763,3146690,51.71,0.0,53.58,50.52,53.1,1.0,3146690,3.942188508540948
2017-11-30T00:00:00.000Z,51.2223261488,52.497901586,50.853605124,51.820252135,11037064,51.4,0.0,52.68,51.03,52.0,1.0,11037064,3.9361754945937286
2017-12-01T00:00:00.000Z,51.6608052054,51.7106323709,48.5615555104,51.0329829199,4070325,51.84,0.0,51.89,48.73,51.21,1.0,4070325,3.9446993741780476
2017-12-04T00:00:00.000Z,49.2691012607,52.9862078081,49.2093086621,52.5776250508,3446757,49.44,0.0,53.17,49.38,52.76,1.0,3446757,3.8972971352833508
2017-12-05T00:00:00.000Z,49.1295851972,49.8072346482,47.654701098,49.4285481903,3094176,49.3,0.0,49.98,47.82,49.6,1.0,3094176,3.894461403181349
2017-12-06T00:00:00.000Z,46.1897824319,46.6681232208,44.8743452623,45.811095974,5419457,46.35,0.0,46.83,45.03,45.97,1.0,5419457,3.8327586141456442
2017-12-07T00:00:00.000Z,47.7643208621,48.0333875559,46.0701972346,46.100093534,2641111,47.93,0.0,48.2,46.23,46.26,1.0,2641111,3.8662789353041314
2017-12-08T00:00:00.000Z,47.4753233022,48.7220986377,47.3756689711,47.9735949573,3795160,47.64,0.0,48.8911,47.54,48.14,1.0,3795160,3.8602100666214496
2017-12-11T00:00:00.000Z,47.9735949573,48.4818320455,47.4354615697,47.4354615697,1248438,48.14,0.0,48.65,47.6,47.6,1.0,1248438,3.8706507544883415
2017-12-12T00:00:00.000Z,47.9038369256,48.6512444083,47.7742862952,47.9038369256,1500208,48.07,0.0,48.82,47.94,48.07,1.0,1500208,3.8691956040397066
2017-12-13T00:00:00.000Z,47.3457726718,48.232696218,47.0567751118,47.9735949573,1433531,47.51,0.0,48.4,47.22,48.14,1.0,1433531,3.8574775373318633
2017-12-14T00:00:00.000Z,47.3258418056,48.0732492883,46.8873627491,47.6596838146,1839367,47.49,0.0,48.24,47.05,47.825,1.0,1839367,3.8570564846941857
2017-12-15T00:00:00.000Z,47.8739406263,48.1031455876,47.2560837739,47.4653578691,2994087,48.04,0.0,48.27,47.42,47.63,1.0,2994087,3.8685713193458016
2017-12-18T00:00:00.000Z,49.9866124441,50.3503507523,47.9636295242,48.2625925173,2508239,50.16,0.0,50.525,48.13,48.43,1.0,2508239,3.9117552184584157
2017-12-19T00:00:00.000Z,49.5780296869,50.2257828386,49.4325343636,50.2257828386,2524651,49.75,0.0,50.4,49.604,50.4,1.0,2524651,3.9035477857387257
2017-12-20T00:00:00.000Z,49.2491703945,50.0543773892,48.6711752745,49.4783753558,2065377,49.42,0.0,50.228,48.84,49.65,1.0,2065377,3.896892522694497
2017-12-21T00:00:00.000Z,48.8505530704,49.8470963806,48.8306222041,49.6378222855,1493865,49.02,0.0,50.02,49.0,49.81,1.0,1493865,3.888765700234322
2017-12-22T00:00:00.000Z,48.8505530704,49.1196197641,48.5615555104,48.8704839366,643021,49.02,0.0,49.29,48.73,49.04,1.0,643021,3.888765700234322
2017-12-26T00:00:00.000Z,49.5481333876,49.6976148841,48.232696218,48.6911061407,972881,49.72,0.0,49.87,48.4,48.86,1.0,972881,3.9029445887768097
2017-12-27T00:00:00.000Z,49.7075803172,50.1002183815,49.3089629931,49.498306222,1722080,49.88,0.0,50.274,49.48,49.67,1.0,1722080,3.9061574429452026
2017-12-28T00:00:00.000Z,50.5845384303,50.5845384303,49.6577531517,49.976647011,1114630,50.76,0.0,50.76,49.83,50.15,1.0,1114630,3.9236459649804623
2017-12-29T00:00:00.000Z,49.8869581131,50.6632653518,49.6378222855,50.5247458316,1365255,50.06,0.0,50.839,49.81,50.7,1.0,1365255,3.909759608137958
2018-01-02T00:00:00.000Z,51.5611508743,51.5910471736,50.0663359089,50.0663359089,1710354,51.74,0.0,51.77,50.24,50.24,1.0,1710354,3.942768498890533
2018-01-03T00:00:00.000Z,51.2322915819,51.8401830012,50.5745729972,51.620943473,1794797,51.41,0.0,52.02,50.75,51.8,1.0,1794797,3.9363700281999665
2018-01-04T00:00:00.000Z,50.943294022,51.8601138674,50.5945038634,51.4216348109,1919448,51.12,0.0,52.04,50.77,51.6,1.0,1919448,3.930713132203471
2018-01-05T00:00:00.000Z,51.1525681171,51.2821187475,50.6343655958,51.2621878813,1319084,51.33,0.0,51.46,50.81,51.44,1.0,1319084,3.9348126987052154
2018-01-08T00:00:00.000Z,50.7140890606,51.4017039447,50.464953233,51.0030866206,2143855,50.89,0.0,51.58,50.64,51.18,1.0,2143855,3.9262037627342745
2018-01-09T00:00:00.000Z,50.1261285075,51.3618422123,49.9866124441,50.8237088247,2001494,50.3,0.0,51.54,50.16,51.0,1.0,2001494,3.914542399238637
2018-01-10T00:00:00.000Z,51.0230174868,51.0728446523,49.1495160634,49.9965778772,1621065,51.2,0.0,51.25,49.32,50.17,1.0,1621065,3.9322768541792
2018-01-11T00:00:00.000Z,52.8068300122,52.886553477,50.753950793,51.0828100854,1486080,52.99,0.0,53.07,50.93,51.26,1.0,1486080,3.966640538638079
2018-01-12T00:00:00.000Z,52.2886274908,52.9662769418,51.820252135,52.7271065474,872489,52.47,0.0,53.15,52.0,52.91,1.0,872489,3.956778899831075
2018-01-16T00:00:00.000Z,50.8237088247,52.7769337129,50.5646075641,52.3384546564,1639461,51.0,0.0,52.96,50.74,52.52,1.0,1639461,3.9283629548572336
2018-01-17T00:00:00.000Z,52.0594225295,52.6673139488,51.3120150468,51.3219804799,1406791,52.24,0.0,52.85,51.49,51.5,1.0,1406791,3.9523858071019013
2018-01-18T00:00:00.000Z,51.4216348109,51.9896644978,51.1625335502,51.5013582757,1228933,51.6,0.0,52.17,51.34,51.68,1.0,1228933,3.9400589946209514
2018-01-19T00:00:00.000Z,53.8332696218,53.9628202521,51.5063409923,51.820252135,1626829,54.02,0.0,54.15,51.685,52.0,1.0,1626829,3.985891670497926
2018-01-22T00:00:00.000Z,54.3016449776,54.431195608,53.4047559984,53.7037189915,1575109,54.49,0.0,54.62,53.59,53.89,1.0,1575109,3.9945545207278053
2018-01-23T00:00:00.000Z,53.5841337942,54.3614375763,52.9961732412,54.2119560797,1182286,53.77,0.0,54.55,53.18,54.4,1.0,1182286,3.9812530129545243
2018-01-24T00:00:00.000Z,52.8068300122,53.9080103701,52.0494570964,53.8133387556,1891254,52.99,0.0,54.095,52.23,54.0,1.0,1891254,3.966640538638079
2018-01-25T00:00:00.000Z,52.6075213501,53.9020311102,52.2487657584,53.4446177308,1591313,52.79,0.0,54.089,52.43,53.63,1.0,1591313,3.9628591009681298
2018-01-26T00:00:00.000Z,53.2453090687,53.3001189508,51.4515311102,52.9264152094,1420733,53.43,0.0,53.485,51.63,53.11,1.0,1420733,3.9749097081025804
2018-01-29T00:00:00.000Z,53.4047559984,53.9229585197,52.6374176495,52.9862078081,1304203,53.59,0.0,54.11,52.82,53.17,1.0,1304203,3.977899805640668
2018-01-30T00:00:00.000Z,51.919906466,52.7271065474,51.8900101667,52.5676596177,1290522,52.1,0.0,52.91,52.07,52.75,1.0,1290522,3.9497022708919007
2018-01-31T00:00:00.000Z,51.4415656771,52.5068704758,50.8436396909,52.0195607971,1789572,51.62,0.0,52.689,51.02,52.2,1.0,1789572,3.9404465164237896
2018-02-01T00:00:00.000Z,51.4415656771,52.1690422936,51.1525681171,51.1525681171,1207568,51.62,0.0,52.35,51.33,51.33,1.0,1207568,3.9404465164237896
2018-02-02T00:00:00.000Z,49.0498617324,51.2920841806,48.5416246442,51.0130520537,1801264,49.22,0.0,51.47,48.71,51.19,1.0,1801264,3.892837367096084
2018-02-05T00:00:00.000Z,46.7179503863,49.2192740952,46.3492293615,48.1828690525,1962340,46.88,0.0,49.39,46.51,48.35,1.0,1962340,3.844128467401398
2018-02-06T00:00:00.000Z,47.7244591297,48.5416246442,43.1702562017,43.877801952,2919865,47.89,0.0,48.71,43.32,44.03,1.0,2919865,3.8654440364873506
2018-02-07T00:00:00.000Z,48.1031455876,49.3189284262,47.0567751118,47.3457726718,1938857,48.27,0.0,49.49,47.22,47.51,1.0,1938857,3.8733475718050365
2018-02-08T00:00:00.000Z,44.6152440016,48.550593534,44.5454859699,48.1729036194,3054014,44.77,0.0,48.719,44.7,48.34,1.0,3054014,3.798075594385686
2018-02-09T00:00:00.000Z,46.299402196,46.688054087,43.8479056527,45.3128243188,2141530,46.46,0.0,46.85,44.0,45.47,1.0,2141530,3.8351290494753565
2018-02-12T00:00:00.000Z,47.5749776332,47.9935258235,46.4902402399,46.8375355836,1324971,47.74,0.0,48.16,46.6515,47.0,1.0,1324971,3.8623069430444255
2018-02-13T00:00:00.000Z,47.4753233022,48.0632838552,47.0667405449,47.3059109394,1600774,47.64,0.0,48.23,47.23,47.47,1.0,1600774,3.8602100666214496
2018-02-14T00:00:00.000Z,49.01,49.405,46.95,47.03,1952893,49.01,0.17,49.405,46.95,47.03,1.0,1952893,3.8920243589214563
2018-02-15T00:00:00.000Z,48.91,51.9899,48.24,50.88,3021399,48.91,0.0,51.9899,48.24,50.88,1.0,3021399,3.8899818745512658
2018-02-16T00:00:00.000Z,48.84,49.22,47.91,48.75,2675730,48.84,0.0,49.22,47.91,48.75,1.0,2675730,3.888549649242504
