"Date","Open","High","Low","Close","Adjusted Close","Volume","Divident Amout","Split Coefficient"
"2013-09-26",10.0,10.09,9.37,9.96,9.96,946000.0,0.0,1.0
"2013-09-27",10.44,10.44,10.0,10.1,10.1,253300.0,0.0,1.0
"2013-09-30",10.0,10.18,9.71,10.0,10.0,84900.0,0.0,1.0
"2013-10-01",9.95,10.024,9.92,10.0,10.0,74500.0,0.0,1.0
"2013-10-02",9.99,10.0,9.89,9.97,9.97,94000.0,0.0,1.0
"2013-10-03",10.0,10.01,9.8,10.0,10.0,72400.0,0.0,1.0
"2013-10-04",10.1,10.2,9.8201,10.2,10.2,109800.0,0.0,1.0
"2013-10-07",10.4,10.4,10.06,10.18,10.18,52700.0,0.0,1.0
"2013-10-08",10.1999,10.1999,10.1,10.12,10.12,13900.0,0.0,1.0
"2013-10-09",10.14,10.21,10.14,10.15,10.15,14800.0,0.0,1.0
"2013-10-10",10.5,10.55,10.01,10.2,10.2,80300.0,0.0,1.0
"2013-10-11",10.31,10.413,10.15,10.18,10.18,23700.0,0.0,1.0
"2013-10-14",9.51,10.0491,9.07,10.0,10.0,64400.0,0.0,1.0
"2013-10-15",9.78,10.29,9.77,10.18,10.18,10200.0,0.0,1.0
"2013-10-16",10.282,10.282,10.01,10.25,10.25,7100.0,0.0,1.0
"2013-10-17",10.09,10.55,10.0,10.44,10.44,63100.0,0.0,1.0
"2013-10-18",10.488,12.0,10.48,11.01,11.01,154200.0,0.0,1.0
"2013-10-21",12.98,13.0,11.55,12.9,12.9,252600.0,0.0,1.0
"2013-10-22",13.0,13.5,12.67,13.13,13.13,321200.0,0.0,1.0
"2013-10-23",12.9901,13.41,12.9,13.11,13.11,65000.0,0.0,1.0
"2013-10-24",13.1,13.49,12.45,12.61,12.61,74700.0,0.0,1.0
"2013-10-25",12.45,12.8,12.26,12.36,12.36,130200.0,0.0,1.0
"2013-10-28",12.25,12.38,11.53,11.87,11.87,67800.0,0.0,1.0
"2013-10-29",11.91,13.18,11.91,13.06,13.06,180100.0,0.0,1.0
"2013-10-30",13.05,13.18,11.6,12.55,12.55,133500.0,0.0,1.0
"2013-10-31",12.65,13.02,12.551,12.68,12.68,89300.0,0.0,1.0
"2013-11-01",12.87,12.95,12.29,12.76,12.76,46400.0,0.0,1.0
"2013-11-04",12.85,13.0,12.85,13.0,13.0,67700.0,0.0,1.0
"2013-11-05",12.848,13.0,12.75,13.0,13.0,29200.0,0.0,1.0
"2013-11-06",12.5,13.31,12.5,13.12,13.12,99900.0,0.0,1.0
"2013-11-07",13.0,13.48,12.75,13.0,13.0,75100.0,0.0,1.0
"2013-11-08",12.9,12.99,12.42,12.8,12.8,88200.0,0.0,1.0
"2013-11-11",12.8,13.06,12.69,12.9,12.9,17200.0,0.0,1.0
"2013-11-12",12.92,13.1,12.86,13.0,13.0,12200.0,0.0,1.0
"2013-11-13",12.88,12.9899,12.5237,12.62,12.62,13500.0,0.0,1.0
"2013-11-14",12.51,12.58,12.21,12.39,12.39,20900.0,0.0,1.0
"2013-11-15",12.39,12.69,12.25,12.66,12.66,16500.0,0.0,1.0
"2013-11-18",12.52,12.78,12.2,12.214,12.214,79900.0,0.0,1.0
"2013-11-19",12.34,12.49,12.241,12.43,12.43,10400.0,0.0,1.0
"2013-11-20",12.4875,12.57,12.31,12.5,12.5,22000.0,0.0,1.0
"2013-11-21",12.5,12.56,12.38,12.56,12.56,27200.0,0.0,1.0
"2013-11-22",12.58,12.58,12.31,12.57,12.57,39300.0,0.0,1.0
"2013-11-25",12.57,12.8,12.57,12.57,12.57,59600.0,0.0,1.0
"2013-11-26",12.64,12.64,12.23,12.63,12.63,46600.0,0.0,1.0
"2013-11-27",12.5,12.99,12.24,12.96,12.96,36200.0,0.0,1.0
"2013-11-29",12.96,13.24,12.25,13.19,13.19,54600.0,0.0,1.0
"2013-12-02",13.07,13.266,12.58,12.58,12.58,18600.0,0.0,1.0
"2013-12-03",12.61,13.0,12.2,12.31,12.31,47300.0,0.0,1.0
"2013-12-04",12.38,12.91,12.3,12.89,12.89,75000.0,0.0,1.0
"2013-12-05",12.75,13.2,12.75,13.12,13.12,126000.0,0.0,1.0
"2013-12-06",13.16,14.74,13.16,14.37,14.37,192100.0,0.0,1.0
"2013-12-09",14.71,15.84,14.5,14.88,14.88,195100.0,0.0,1.0
"2013-12-10",14.73,15.75,14.73,15.59,15.59,100600.0,0.0,1.0
"2013-12-11",15.6,16.61,15.51,15.81,15.81,127900.0,0.0,1.0
"2013-12-12",16.0,16.099,14.69,15.14,15.14,97400.0,0.0,1.0
"2013-12-13",15.26,15.96,14.29,14.78,14.78,68800.0,0.0,1.0
"2013-12-16",14.93,15.87,14.71,15.48,15.48,92400.0,0.0,1.0
"2013-12-17",15.51,15.83,14.89,15.14,15.14,77500.0,0.0,1.0
"2013-12-18",15.15,15.43,14.8525,15.2,15.2,77200.0,0.0,1.0
"2013-12-19",15.2,15.65,14.7501,15.39,15.39,80800.0,0.0,1.0
"2013-12-20",15.06,15.32,14.5,14.8,14.8,693700.0,0.0,1.0
"2013-12-23",14.72,15.03,14.72,14.93,14.93,32400.0,0.0,1.0
"2013-12-24",14.8985,15.19,14.85,15.02,15.02,51900.0,0.0,1.0
"2013-12-26",15.02,15.05,14.88,14.97,14.97,22700.0,0.0,1.0
"2013-12-27",15.0,15.08,14.85,14.89,14.89,66800.0,0.0,1.0
"2013-12-30",14.85,15.0,14.67,14.98,14.98,37200.0,0.0,1.0
"2013-12-31",15.0,15.1,14.7135,15.01,15.01,83900.0,0.0,1.0
"2014-01-02",14.88,14.92,14.61,14.63,14.63,22500.0,0.0,1.0
"2014-01-03",14.63,14.75,14.26,14.35,14.35,47300.0,0.0,1.0
"2014-01-06",14.35,14.49,14.1,14.33,14.33,64100.0,0.0,1.0
"2014-01-07",14.8899,14.8899,14.35,14.74,14.74,49300.0,0.0,1.0
"2014-01-08",14.75,14.815,14.5,14.66,14.66,37600.0,0.0,1.0
"2014-01-09",14.65,14.65,14.01,14.16,14.16,42600.0,0.0,1.0
"2014-01-10",14.16,14.32,13.58,14.0,14.0,48200.0,0.0,1.0
"2014-01-13",13.83,14.06,13.69,13.7,13.7,43300.0,0.0,1.0
"2014-01-14",13.72,14.13,13.585,13.88,13.88,116600.0,0.0,1.0
"2014-01-15",14.0,14.105,13.585,13.97,13.97,63600.0,0.0,1.0
"2014-01-16",13.9,14.56,13.85,14.29,14.29,71400.0,0.0,1.0
"2014-01-17",14.15,14.4999,14.15,14.42,14.42,45000.0,0.0,1.0
"2014-01-21",14.35,14.4774,14.1,14.15,14.15,14900.0,0.0,1.0
"2014-01-22",14.11,14.33,13.92,14.15,14.15,41600.0,0.0,1.0
"2014-01-23",13.84,14.36,13.6,13.73,13.73,38100.0,0.0,1.0
"2014-01-24",13.46,13.59,13.0,13.39,13.39,117200.0,0.0,1.0
"2014-01-27",13.5,13.81,13.4,13.72,13.72,33900.0,0.0,1.0
"2014-01-28",13.85,14.19,13.76,13.84,13.84,44000.0,0.0,1.0
"2014-01-29",13.63,13.82,13.57,13.61,13.61,26100.0,0.0,1.0
"2014-01-30",13.67,14.405,13.67,14.0,14.0,72700.0,0.0,1.0
"2014-01-31",13.88,13.96,13.4,13.63,13.63,37600.0,0.0,1.0
"2014-02-03",13.7,14.36,13.45,13.61,13.61,116600.0,0.0,1.0
"2014-02-04",13.69,13.86,13.6,13.68,13.68,26800.0,0.0,1.0
"2014-02-05",13.56,13.64,13.12,13.14,13.14,39700.0,0.0,1.0
"2014-02-06",13.23,13.33,13.11,13.16,13.16,30500.0,0.0,1.0
"2014-02-07",12.9,13.07,12.38,13.07,13.07,49000.0,0.0,1.0
"2014-02-10",13.12,13.25,12.75,13.12,13.12,31300.0,0.0,1.0
"2014-02-11",13.19,13.35,12.78,12.79,12.79,22400.0,0.0,1.0
"2014-02-12",12.87,12.99,12.49,12.52,12.52,39100.0,0.0,1.0
"2014-02-13",12.0,12.62,11.19,12.54,12.54,64100.0,0.0,1.0
"2014-02-14",12.5,14.194,12.5,14.0,14.0,78500.0,0.0,1.0
"2014-02-18",14.1,14.11,13.61,13.66,13.66,109100.0,0.0,1.0
"2014-02-19",13.518,15.16,13.5,15.02,15.02,101300.0,0.0,1.0
"2014-02-20",15.5,18.75,15.5,17.98,17.98,469028.0,0.0,1.0
"2014-02-21",17.64,20.75,17.64,20.67,20.67,358800.0,0.0,1.0
"2014-02-24",20.5,21.12,19.1,20.1,20.1,297900.0,0.0,1.0
"2014-02-25",20.2,20.99,19.4747,20.0,20.0,126500.0,0.0,1.0
"2014-02-26",20.35,20.57,19.61,19.79,19.79,95600.0,0.0,1.0
"2014-02-27",19.7,20.0,18.94,19.2,19.2,196200.0,0.0,1.0
"2014-02-28",23.55,24.96,21.66,23.66,23.66,488050.0,0.0,1.0
"2014-03-03",22.88,25.49,22.01,25.11,25.11,270100.0,0.0,1.0
"2014-03-04",25.02,25.3899,24.05,24.64,24.64,217000.0,0.0,1.0
"2014-03-05",24.74,25.37,24.27,25.15,25.15,163300.0,0.0,1.0
"2014-03-06",25.0,26.4499,24.93,26.36,26.36,223800.0,0.0,1.0
"2014-03-07",25.85,25.85,24.4,25.29,25.29,165800.0,0.0,1.0
"2014-03-10",25.31,27.52,25.05,27.42,27.42,108800.0,0.0,1.0
"2014-03-11",27.67,28.014,26.18,26.32,26.32,83500.0,0.0,1.0
"2014-03-12",26.26,26.96,26.15,26.46,26.46,124900.0,0.0,1.0
"2014-03-13",26.9525,27.22,26.0,26.2,26.2,174100.0,0.0,1.0
"2014-03-14",26.07,26.3,25.05,25.4,25.4,88100.0,0.0,1.0
"2014-03-17",25.55,26.5,25.12,25.75,25.75,119500.0,0.0,1.0
"2014-03-18",25.68,25.92,24.8,25.51,25.51,174800.0,0.0,1.0
"2014-03-19",25.48,26.45,24.62,26.34,26.34,160800.0,0.0,1.0
"2014-03-20",25.08,27.0,25.0,25.7,25.7,1.3837e6,0.0,1.0
"2014-03-21",25.68,26.03,25.05,25.47,25.47,234500.0,0.0,1.0
"2014-03-24",26.01,26.15,24.84,25.81,25.81,213300.0,0.0,1.0
"2014-03-25",26.0,26.75,24.92,25.43,25.43,209600.0,0.0,1.0
"2014-03-26",25.5,25.74,23.98,24.27,24.27,468900.0,0.0,1.0
"2014-03-27",24.29,25.23,23.61,24.95,24.95,367500.0,0.0,1.0
"2014-03-28",25.0,25.346,24.06,24.96,24.96,274700.0,0.0,1.0
"2014-03-31",24.7,24.84,24.5,24.67,24.67,511700.0,0.0,1.0
"2014-04-01",24.55,24.55,23.68,24.36,24.36,405600.0,0.0,1.0
"2014-04-02",24.4,24.58,23.6,24.29,24.29,319400.0,0.0,1.0
"2014-04-03",24.29,24.569,23.4,23.56,23.56,234100.0,0.0,1.0
"2014-04-04",23.64,23.64,22.22,22.38,22.38,329500.0,0.0,1.0
"2014-04-07",22.19,22.515,20.744,20.99,20.99,304800.0,0.0,1.0
"2014-04-08",20.07,22.138,20.0,21.99,21.99,396900.0,0.0,1.0
"2014-04-09",21.94,23.64,21.94,23.3,23.3,352200.0,0.0,1.0
"2014-04-10",23.0,23.13,21.26,21.79,21.79,394100.0,0.0,1.0
"2014-04-11",21.57,22.1,20.42,20.73,20.73,227600.0,0.0,1.0
"2014-04-14",20.84,21.75,20.65,21.53,21.53,158500.0,0.0,1.0
"2014-04-15",21.51,21.7,20.84,21.51,21.51,206800.0,0.0,1.0
"2014-04-16",21.5,22.97,21.25,22.7,22.7,121200.0,0.0,1.0
"2014-04-17",22.7,23.9,22.36,23.61,23.61,216700.0,0.0,1.0
"2014-04-21",23.65,24.0001,23.16,23.39,23.39,107200.0,0.0,1.0
"2014-04-22",23.34,23.95,23.04,23.85,23.85,250600.0,0.0,1.0
"2014-04-23",23.81,24.24,23.43,23.63,23.63,227600.0,0.0,1.0
"2014-04-24",23.79,23.79,23.09,23.51,23.51,216500.0,0.0,1.0
"2014-04-25",23.34,23.8,23.008,23.55,23.55,205000.0,0.0,1.0
"2014-04-28",23.53,24.25,22.188,22.68,22.68,192400.0,0.0,1.0
"2014-04-29",22.6,23.09,22.13,22.84,22.84,92800.0,0.0,1.0
"2014-04-30",22.76,22.76,22.07,22.5,22.5,189400.0,0.0,1.0
"2014-05-01",22.56,22.57,21.55,21.97,21.97,234400.0,0.0,1.0
"2014-05-02",21.92,22.139,21.354,21.81,21.81,129800.0,0.0,1.0
"2014-05-05",21.7,21.77,20.88,21.45,21.45,115700.0,0.0,1.0
"2014-05-06",21.4,21.46,20.89,20.9,20.9,133200.0,0.0,1.0
"2014-05-07",21.05,21.05,19.51,20.0,20.0,307500.0,0.0,1.0
"2014-05-08",19.5,20.01,18.01,19.0,19.0,222000.0,0.0,1.0
"2014-05-09",18.03,18.88,15.52,17.57,17.57,1.1538e6,0.0,1.0
"2014-05-12",17.57,17.6399,17.08,17.44,17.44,276500.0,0.0,1.0
"2014-05-13",17.4,17.95,17.21,17.26,17.26,176000.0,0.0,1.0
"2014-05-14",17.17,17.5,16.93,17.22,17.22,179800.0,0.0,1.0
"2014-05-15",17.43,18.48,17.34,18.15,18.15,303300.0,0.0,1.0
"2014-05-16",18.04,18.294,17.67,18.15,18.15,135500.0,0.0,1.0
"2014-05-19",17.99,19.6,17.99,19.28,19.28,235700.0,0.0,1.0
"2014-05-20",19.24,19.24,18.02,18.15,18.15,141500.0,0.0,1.0
"2014-05-21",18.11,19.6553,17.81,18.35,18.35,117700.0,0.0,1.0
"2014-05-22",18.35,19.04,18.016,18.66,18.66,106600.0,0.0,1.0
"2014-05-23",18.7,18.88,18.32,18.76,18.76,60000.0,0.0,1.0
"2014-05-27",18.78,19.38,18.562,19.1,19.1,81700.0,0.0,1.0
"2014-05-28",19.38,20.58,19.38,20.39,20.39,208600.0,0.0,1.0
"2014-05-29",20.49,22.05,20.48,21.63,21.63,346700.0,0.0,1.0
"2014-05-30",21.52,21.8,20.8,21.41,21.41,244300.0,0.0,1.0
"2014-06-02",21.36,21.5,20.02,20.5,20.5,177800.0,0.0,1.0
"2014-06-03",20.34,20.8,19.99,20.13,20.13,147300.0,0.0,1.0
"2014-06-04",20.08,20.69,19.7,20.34,20.34,107300.0,0.0,1.0
"2014-06-05",20.42,20.97,20.31,20.9,20.9,152000.0,0.0,1.0
"2014-06-06",20.93,21.17,20.76,21.12,21.12,115000.0,0.0,1.0
"2014-06-09",21.03,21.44,20.73,21.39,21.39,91600.0,0.0,1.0
"2014-06-10",21.23,22.32,21.02,22.28,22.28,201200.0,0.0,1.0
"2014-06-11",22.1,22.42,21.691,22.33,22.33,194600.0,0.0,1.0
"2014-06-12",22.2,22.45,21.87,22.3,22.3,160700.0,0.0,1.0
"2014-06-13",22.01,22.01,21.27,21.86,21.86,113500.0,0.0,1.0
"2014-06-16",21.9,22.8,21.75,22.71,22.71,172200.0,0.0,1.0
"2014-06-17",22.61,22.81,21.66,21.78,21.78,203000.0,0.0,1.0
"2014-06-18",21.86,23.1,21.68,23.04,23.04,353000.0,0.0,1.0
"2014-06-19",23.13,23.2,22.41,23.15,23.15,238400.0,0.0,1.0
"2014-06-20",23.15,23.73,22.97,23.58,23.58,474500.0,0.0,1.0
"2014-06-23",23.57,23.57,22.845,23.06,23.06,237700.0,0.0,1.0
"2014-06-24",23.32,24.18,23.19,23.46,23.46,426600.0,0.0,1.0
"2014-06-25",23.26,23.85,22.93,23.25,23.25,267900.0,0.0,1.0
"2014-06-26",23.27,23.43,22.63,22.68,22.68,109700.0,0.0,1.0
"2014-06-27",22.75,23.215,21.88,22.92,22.92,1.636e6,0.0,1.0
"2014-06-30",22.96,23.32,22.35,23.2,23.2,163400.0,0.0,1.0
"2014-07-01",23.23,23.69,22.67,23.34,23.34,188100.0,0.0,1.0
"2014-07-02",23.35,23.51,23.05,23.2,23.2,129700.0,0.0,1.0
"2014-07-03",23.25,23.32,22.96,23.25,23.25,37100.0,0.0,1.0
"2014-07-07",23.1,23.2,22.12,22.24,22.24,98900.0,0.0,1.0
"2014-07-08",22.25,22.5,21.605,22.45,22.45,220300.0,0.0,1.0
"2014-07-09",22.48,23.38,22.22,22.97,22.97,213800.0,0.0,1.0
"2014-07-10",22.54,23.07,22.33,22.69,22.69,169100.0,0.0,1.0
"2014-07-11",22.76,23.64,22.485,23.38,23.38,263200.0,0.0,1.0
"2014-07-14",23.61,24.1,22.85,22.97,22.97,332500.0,0.0,1.0
"2014-07-15",23.05,23.4,22.696,23.36,23.36,196500.0,0.0,1.0
"2014-07-16",23.3,23.3,22.48,22.51,22.51,159300.0,0.0,1.0
"2014-07-17",22.43,22.99,21.07,21.46,21.46,258400.0,0.0,1.0
"2014-07-18",21.39,22.0065,21.39,21.54,21.54,191000.0,0.0,1.0
"2014-07-21",21.5,22.67,21.5,22.32,22.32,97800.0,0.0,1.0
"2014-07-22",22.4,23.2316,22.138,22.73,22.73,204100.0,0.0,1.0
"2014-07-23",22.71,23.08,21.01,21.35,21.35,206700.0,0.0,1.0
"2014-07-24",21.52,21.95,21.18,21.3,21.3,140700.0,0.0,1.0
"2014-07-25",21.06,21.06,19.53,20.42,20.42,409200.0,0.0,1.0
"2014-07-28",20.51,20.684,19.8216,20.31,20.31,83800.0,0.0,1.0
"2014-07-29",20.3,20.3,19.11,19.16,19.16,204400.0,0.0,1.0
"2014-07-30",19.31,19.547,18.75,19.0,19.0,251600.0,0.0,1.0
"2014-07-31",18.72,18.99,17.99,18.0,18.0,199600.0,0.0,1.0
"2014-08-01",17.98,18.25,17.848,18.12,18.12,209000.0,0.0,1.0
"2014-08-04",19.0,20.13,18.75,19.23,19.23,363700.0,0.0,1.0
"2014-08-05",19.16,19.41,18.85,19.16,19.16,127400.0,0.0,1.0
"2014-08-06",18.99,19.7,18.8,19.54,19.54,148000.0,0.0,1.0
"2014-08-07",19.68,19.68,19.02,19.05,19.05,53700.0,0.0,1.0
"2014-08-08",19.0,19.168,18.14,18.2,18.2,183700.0,0.0,1.0
"2014-08-11",18.38,18.6076,18.13,18.25,18.25,155700.0,0.0,1.0
"2014-08-12",18.16,18.23,16.83,16.98,16.98,311400.0,0.0,1.0
"2014-08-13",18.49,19.0,17.62,18.01,18.01,886400.0,0.0,1.0
"2014-08-14",18.1,18.406,17.52,18.03,18.03,234900.0,0.0,1.0
"2014-08-15",18.19,18.76,18.04,18.42,18.42,283300.0,0.0,1.0
"2014-08-18",18.61,19.0,18.29,18.89,18.89,300800.0,0.0,1.0
"2014-08-19",19.0,19.75,19.0,19.54,19.54,309600.0,0.0,1.0
"2014-08-20",19.48,19.93,19.3,19.56,19.56,169400.0,0.0,1.0
"2014-08-21",19.61,19.77,19.43,19.57,19.57,158600.0,0.0,1.0
"2014-08-22",19.42,19.59,19.04,19.23,19.23,112100.0,0.0,1.0
"2014-08-25",19.36,19.74,19.36,19.42,19.42,114000.0,0.0,1.0
"2014-08-26",19.5,19.6,19.34,19.58,19.58,106700.0,0.0,1.0
"2014-08-27",19.58,21.49,19.56,21.2,21.2,668900.0,0.0,1.0
"2014-08-28",21.17,22.26,21.06,21.67,21.67,374100.0,0.0,1.0
"2014-08-29",21.71,21.859,20.79,21.24,21.24,209400.0,0.0,1.0
"2014-09-02",21.2,21.2,20.0,20.51,20.51,345100.0,0.0,1.0
"2014-09-03",20.6,20.74,19.55,19.67,19.67,308100.0,0.0,1.0
"2014-09-04",19.6,20.74,19.53,20.49,20.49,230500.0,0.0,1.0
"2014-09-05",20.4,20.47,19.7341,20.3,20.3,155300.0,0.0,1.0
"2014-09-08",20.25,20.5599,19.87,20.02,20.02,133500.0,0.0,1.0
"2014-09-09",19.95,20.005,19.0,19.1,19.1,214900.0,0.0,1.0
"2014-09-10",19.12,19.55,18.75,19.21,19.21,101100.0,0.0,1.0
"2014-09-11",19.16,19.235,18.62,18.99,18.99,223900.0,0.0,1.0
"2014-09-12",18.93,19.17,18.25,18.9,18.9,321900.0,0.0,1.0
"2014-09-15",18.93,19.18,17.8,17.88,17.88,182700.0,0.0,1.0
"2014-09-16",17.76,18.113,17.6,17.87,17.87,231300.0,0.0,1.0
"2014-09-17",17.94,18.54,17.755,18.07,18.07,158800.0,0.0,1.0
"2014-09-18",18.18,18.56,18.0999,18.51,18.51,153400.0,0.0,1.0
"2014-09-19",18.56,18.72,17.79,18.08,18.08,172000.0,0.0,1.0
"2014-09-22",17.94,17.94,17.03,17.1,17.1,165900.0,0.0,1.0
"2014-09-23",17.02,17.35,16.9,17.1,17.1,169200.0,0.0,1.0
"2014-09-24",17.16,17.9,17.0,17.77,17.77,167518.0,0.0,1.0
"2014-09-25",17.75,17.94,16.91,16.96,16.96,174501.0,0.0,1.0
"2014-09-26",17.05,17.1,16.57,16.81,16.81,230281.0,0.0,1.0
"2014-09-29",16.58,16.81,16.33,16.63,16.63,162907.0,0.0,1.0
"2014-09-30",16.65,16.79,15.61,16.1,16.1,534046.0,0.0,1.0
"2014-10-01",16.01,16.1,15.2,15.21,15.21,230730.0,0.0,1.0
"2014-10-02",15.22,15.52,14.37,15.19,15.19,531354.0,0.0,1.0
"2014-10-03",15.37,16.14,15.12,15.79,15.79,165247.0,0.0,1.0
"2014-10-06",15.86,16.0,14.63,14.67,14.67,263514.0,0.0,1.0
"2014-10-07",14.66,15.0,14.282,14.52,14.52,194585.0,0.0,1.0
"2014-10-08",14.49,14.98,14.07,14.7,14.7,184241.0,0.0,1.0
"2014-10-09",14.65,14.9099,13.9,14.0,14.0,143289.0,0.0,1.0
"2014-10-10",14.0,14.03,13.0,13.07,13.07,415307.0,0.0,1.0
"2014-10-13",13.15,13.51,12.12,12.13,12.13,287750.0,0.0,1.0
"2014-10-14",12.37,13.46,12.14,13.4,13.4,715086.0,0.0,1.0
"2014-10-15",13.03,13.78,12.83,13.41,13.41,314152.0,0.0,1.0
"2014-10-16",13.03,15.35,13.03,15.1,15.1,472653.0,0.0,1.0
"2014-10-17",15.36,15.6,14.44,14.86,14.86,368706.0,0.0,1.0
"2014-10-20",14.81,15.13,14.53,14.89,14.89,218059.0,0.0,1.0
"2014-10-21",15.1,15.46,14.72,14.91,14.91,193892.0,0.0,1.0
"2014-10-22",15.0,15.31,14.69,14.73,14.73,233614.0,0.0,1.0
"2014-10-23",14.9,15.38,14.53,14.81,14.81,280720.0,0.0,1.0
"2014-10-24",14.82,15.598,14.82,15.22,15.22,327082.0,0.0,1.0
"2014-10-27",15.2,15.55,14.77,15.06,15.06,340400.0,0.0,1.0
"2014-10-28",15.2,15.58,15.145,15.34,15.34,231387.0,0.0,1.0
"2014-10-29",15.48,15.52,15.146,15.38,15.38,105923.0,0.0,1.0
"2014-10-30",15.4,15.49,15.11,15.25,15.25,189614.0,0.0,1.0
"2014-10-31",15.58,16.19,15.26,16.14,16.14,243749.0,0.0,1.0
"2014-11-03",16.1,16.6603,15.955,16.2,16.2,217614.0,0.0,1.0
"2014-11-04",16.14,16.3,15.82,15.86,15.86,162850.0,0.0,1.0
"2014-11-05",15.82,16.09,15.3,15.85,15.85,169500.0,0.0,1.0
"2014-11-06",15.88,16.05,15.57,15.95,15.95,392057.0,0.0,1.0
"2014-11-07",15.93,16.28,15.43,15.73,15.73,286567.0,0.0,1.0
"2014-11-10",15.8,16.07,15.63,15.68,15.68,489336.0,0.0,1.0
"2014-11-11",13.0,13.93,11.51,11.74,11.74,3.407239e6,0.0,1.0
"2014-11-12",11.71,12.35,11.7001,12.32,12.32,997370.0,0.0,1.0
"2014-11-13",12.4,12.58,12.06,12.1,12.1,655839.0,0.0,1.0
"2014-11-14",12.03,12.342,12.0,12.17,12.17,276615.0,0.0,1.0
"2014-11-17",12.16,12.21,11.8,11.88,11.88,348673.0,0.0,1.0
"2014-11-18",11.9,12.7,11.9,12.61,12.61,550744.0,0.0,1.0
"2014-11-19",12.63,12.63,12.19,12.33,12.33,317651.0,0.0,1.0
"2014-11-20",12.25,12.65,12.03,12.61,12.61,390435.0,0.0,1.0
"2014-11-21",12.84,12.84,12.36,12.49,12.49,256254.0,0.0,1.0
"2014-11-24",12.51,12.62,12.24,12.34,12.34,400382.0,0.0,1.0
"2014-11-25",12.35,12.5,11.9,11.94,11.94,412513.0,0.0,1.0
"2014-11-26",11.86,11.99,11.35,11.62,11.62,690156.0,0.0,1.0
"2014-11-28",11.62,11.62,10.75,10.85,10.85,394520.0,0.0,1.0
"2014-12-01",10.8,11.01,10.17,10.27,10.27,807358.0,0.0,1.0
"2014-12-02",10.25,10.3,9.5,10.0,10.0,822485.0,0.0,1.0
"2014-12-03",9.97,10.2,9.86,10.15,10.15,316403.0,0.0,1.0
"2014-12-04",10.15,10.15,9.93,9.99,9.99,316276.0,0.0,1.0
"2014-12-05",10.05,10.33,9.93,10.14,10.14,400970.0,0.0,1.0
"2014-12-08",10.11,10.17,9.59,9.78,9.78,430070.0,0.0,1.0
"2014-12-09",9.59,10.25,9.38,10.25,10.25,370676.0,0.0,1.0
"2014-12-10",10.19,10.19,9.58,9.77,9.77,395704.0,0.0,1.0
"2014-12-11",9.85,10.177,9.6501,9.94,9.94,306439.0,0.0,1.0
"2014-12-12",9.81,9.96,9.48,9.64,9.64,250780.0,0.0,1.0
"2014-12-15",9.69,9.89,9.26,9.48,9.48,289193.0,0.0,1.0
"2014-12-16",9.47,9.98,9.2901,9.78,9.78,282588.0,0.0,1.0
"2014-12-17",9.77,10.2,9.67,10.11,10.11,194195.0,0.0,1.0
"2014-12-18",10.27,10.81,10.07,10.71,10.71,249737.0,0.0,1.0
"2014-12-19",10.66,10.84,10.04,10.64,10.64,246180.0,0.0,1.0
"2014-12-22",10.7,10.71,10.31,10.43,10.43,220147.0,0.0,1.0
"2014-12-23",10.56,10.84,10.45,10.8,10.8,276639.0,0.0,1.0
"2014-12-24",10.89,10.94,10.6,10.75,10.75,67013.0,0.0,1.0
"2014-12-26",10.73,10.73,10.34,10.63,10.63,110006.0,0.0,1.0
"2014-12-29",10.71,11.1,10.53,10.94,10.94,234274.0,0.0,1.0
"2014-12-30",10.87,11.18,10.87,11.01,11.01,156492.0,0.0,1.0
"2014-12-31",11.05,11.48,10.8434,11.22,11.22,248374.0,0.0,1.0
"2015-01-02",11.28,11.28,10.72,10.79,10.79,184597.0,0.0,1.0
"2015-01-05",10.75,10.85,10.4,10.65,10.65,204672.0,0.0,1.0
"2015-01-06",10.65,10.69,10.15,10.25,10.25,183507.0,0.0,1.0
"2015-01-07",10.35,10.3899,9.7026,9.85,9.85,351825.0,0.0,1.0
"2015-01-08",9.99,10.23,9.84,9.96,9.96,214578.0,0.0,1.0
"2015-01-09",10.0,10.16,9.87,10.11,10.11,108871.0,0.0,1.0
"2015-01-12",10.06,10.06,9.57,9.7,9.7,160012.0,0.0,1.0
"2015-01-13",9.84,10.21,9.07,9.25,9.25,484058.0,0.0,1.0
"2015-01-14",9.01,9.12,8.51,8.8,8.8,557945.0,0.0,1.0
"2015-01-15",8.86,8.86,8.36,8.38,8.38,313727.0,0.0,1.0
"2015-01-16",8.35,8.7,8.17,8.59,8.59,210743.0,0.0,1.0
"2015-01-20",8.58,8.69,8.38,8.6,8.6,144009.0,0.0,1.0
"2015-01-21",8.62,8.89,8.56,8.74,8.74,144523.0,0.0,1.0
"2015-01-22",8.78,9.06,8.612,8.98,8.98,172531.0,0.0,1.0
"2015-01-23",9.0,9.4699,8.96,9.21,9.21,180929.0,0.0,1.0
"2015-01-26",9.21,9.52,9.09,9.25,9.25,174170.0,0.0,1.0
"2015-01-27",9.12,9.49,9.05,9.41,9.41,194788.0,0.0,1.0
"2015-01-28",9.4,9.4,8.94,9.08,9.08,235781.0,0.0,1.0
"2015-01-29",9.16,9.3,8.9,9.2,9.2,246246.0,0.0,1.0
"2015-01-30",9.12,9.28,8.86,8.94,8.94,138236.0,0.0,1.0
"2015-02-02",8.97,8.97,8.63,8.71,8.71,132924.0,0.0,1.0
"2015-02-03",8.76,9.16,8.76,9.02,9.02,206694.0,0.0,1.0
"2015-02-04",9.03,9.3,8.78,9.15,9.15,161373.0,0.0,1.0
"2015-02-05",9.24,9.48,9.099,9.37,9.37,110266.0,0.0,1.0
"2015-02-06",9.42,9.71,9.36,9.6,9.6,111781.0,0.0,1.0
"2015-02-09",9.53,9.89,9.43,9.85,9.85,90616.0,0.0,1.0
"2015-02-10",9.88,10.29,9.64,10.2,10.2,167107.0,0.0,1.0
"2015-02-11",10.15,10.36,9.97,10.21,10.21,162936.0,0.0,1.0
"2015-02-12",10.27,10.775,10.1047,10.2,10.2,310569.0,0.0,1.0
"2015-02-13",10.17,10.36,10.02,10.15,10.15,143804.0,0.0,1.0
"2015-02-17",10.15,10.375,10.08,10.25,10.25,215888.0,0.0,1.0
"2015-02-18",10.23,10.31,10.11,10.17,10.17,107238.0,0.0,1.0
"2015-02-19",10.12,10.2902,10.05,10.21,10.21,153149.0,0.0,1.0
"2015-02-20",10.22,10.3,10.11,10.22,10.22,93711.0,0.0,1.0
"2015-02-23",10.21,10.2346,9.97,10.06,10.06,216182.0,0.0,1.0
"2015-02-24",10.03,10.74,9.83,10.35,10.35,304002.0,0.0,1.0
"2015-02-25",10.4,10.8108,9.98,10.51,10.51,316599.0,0.0,1.0
"2015-02-26",10.65,12.3,10.6,11.82,11.82,1.558244e6,0.0,1.0
"2015-02-27",11.7,12.66,11.55,12.48,12.48,457613.0,0.0,1.0
"2015-03-02",12.5,13.35,12.455,13.27,13.27,665576.0,0.0,1.0
"2015-03-03",13.18,13.46,12.98,13.02,13.02,490413.0,0.0,1.0
"2015-03-04",12.99,12.99,12.53,12.88,12.88,303088.0,0.0,1.0
"2015-03-05",12.96,13.1,12.67,12.74,12.74,260540.0,0.0,1.0
"2015-03-06",12.72,12.97,12.39,12.41,12.41,266717.0,0.0,1.0
"2015-03-09",12.48,12.48,11.87,12.0,12.0,198124.0,0.0,1.0
"2015-03-10",11.91,12.28,11.9,12.12,12.12,140677.0,0.0,1.0
"2015-03-11",12.08,12.43,11.9,12.34,12.34,169712.0,0.0,1.0
"2015-03-12",12.39,12.98,12.33,12.95,12.95,238053.0,0.0,1.0
"2015-03-13",12.93,13.13,12.56,12.98,12.98,293629.0,0.0,1.0
"2015-03-16",13.01,13.09,12.5,12.73,12.73,238943.0,0.0,1.0
"2015-03-17",12.69,13.0,12.5,12.85,12.85,140701.0,0.0,1.0
"2015-03-18",12.76,13.4,12.67,13.27,13.27,226081.0,0.0,1.0
"2015-03-19",13.25,13.93,13.1432,13.78,13.78,239796.0,0.0,1.0
"2015-03-20",13.89,14.0076,13.534,13.8,13.8,244361.0,0.0,1.0
"2015-03-23",13.85,14.46,13.77,13.95,13.95,232155.0,0.0,1.0
"2015-03-24",14.0,14.2186,13.9,14.08,14.08,148956.0,0.0,1.0
"2015-03-25",14.1,14.1599,13.685,13.71,13.71,146866.0,0.0,1.0
"2015-03-26",13.71,13.72,13.12,13.32,13.32,241972.0,0.0,1.0
"2015-03-27",13.27,13.38,12.85,13.19,13.19,133521.0,0.0,1.0
"2015-03-30",13.3,14.05,13.2721,13.89,13.89,183141.0,0.0,1.0
"2015-03-31",13.85,13.99,13.67,13.88,13.88,184547.0,0.0,1.0
"2015-04-01",13.83,13.89,13.16,13.43,13.43,192794.0,0.0,1.0
"2015-04-02",13.4,13.7899,13.1641,13.46,13.46,178662.0,0.0,1.0
"2015-04-06",13.46,13.79,13.0,13.69,13.69,140413.0,0.0,1.0
"2015-04-07",13.7,13.87,13.15,13.19,13.19,180620.0,0.0,1.0
"2015-04-08",13.24,13.55,13.2,13.28,13.28,118183.0,0.0,1.0
"2015-04-09",13.3,13.72,13.3,13.7,13.7,300749.0,0.0,1.0
"2015-04-10",13.75,13.75,13.26,13.45,13.45,204200.0,0.0,1.0
"2015-04-13",13.45,13.4546,13.15,13.19,13.19,104973.0,0.0,1.0
"2015-04-14",13.24,13.46,12.75,13.02,13.02,529620.0,0.0,1.0
"2015-04-15",13.05,13.85,13.05,13.61,13.61,220610.0,0.0,1.0
"2015-04-16",13.63,14.73,13.63,14.53,14.53,299367.0,0.0,1.0
"2015-04-17",14.64,15.2454,14.41,14.76,14.76,557013.0,0.0,1.0
"2015-04-20",14.8,15.0399,14.6,14.76,14.76,219142.0,0.0,1.0
"2015-04-21",14.88,14.97,14.72,14.97,14.97,197026.0,0.0,1.0
"2015-04-22",14.94,14.9699,14.26,14.6,14.6,157480.0,0.0,1.0
"2015-04-23",14.58,15.03,14.42,15.0,15.0,115399.0,0.0,1.0
"2015-04-24",14.96,15.09,14.58,14.85,14.85,122595.0,0.0,1.0
"2015-04-27",14.82,15.25,14.776,14.87,14.87,163106.0,0.0,1.0
"2015-04-28",14.81,15.15,14.642,15.1,15.1,146989.0,0.0,1.0
"2015-04-29",14.94,15.47,14.794,15.01,15.01,194942.0,0.0,1.0
"2015-04-30",14.73,14.75,13.753,14.28,14.28,614924.0,0.0,1.0
"2015-05-01",14.09,14.4299,13.42,13.61,13.61,395414.0,0.0,1.0
"2015-05-04",13.58,14.25,13.36,13.67,13.67,166255.0,0.0,1.0
"2015-05-05",13.71,14.07,13.21,13.44,13.44,252947.0,0.0,1.0
"2015-05-06",13.52,13.69,13.2832,13.65,13.65,234831.0,0.0,1.0
"2015-05-07",13.67,13.89,13.5,13.85,13.85,170432.0,0.0,1.0
"2015-05-08",14.5,15.4,14.0,15.14,15.14,566658.0,0.0,1.0
"2015-05-11",15.06,15.246,14.42,14.78,14.78,170612.0,0.0,1.0
"2015-05-12",14.8,14.89,14.37,14.81,14.81,141546.0,0.0,1.0
"2015-05-13",14.85,15.03,14.42,14.68,14.68,136701.0,0.0,1.0
"2015-05-14",14.85,14.92,14.63,14.72,14.72,131858.0,0.0,1.0
"2015-05-15",14.64,14.8499,14.19,14.52,14.52,124348.0,0.0,1.0
"2015-05-18",14.48,14.95,14.46,14.8,14.8,166577.0,0.0,1.0
"2015-05-19",14.67,14.89,14.4659,14.53,14.53,90331.0,0.0,1.0
"2015-05-20",14.65,15.16,14.53,15.16,15.16,220407.0,0.0,1.0
"2015-05-21",15.11,15.64,15.11,15.62,15.62,295069.0,0.0,1.0
"2015-05-22",15.68,16.96,15.45,16.67,16.67,613237.0,0.0,1.0
"2015-05-26",17.31,19.35,16.39,19.18,19.18,1.412115e6,0.0,1.0
"2015-05-27",19.0,19.0,18.06,18.77,18.77,577197.0,0.0,1.0
"2015-05-28",18.65,18.95,17.33,18.01,18.01,432119.0,0.0,1.0
"2015-05-29",18.05,18.68,17.735,17.86,17.86,279386.0,0.0,1.0
"2015-06-01",17.79,18.25,17.36,17.85,17.85,294374.0,0.0,1.0
"2015-06-02",17.74,18.39,17.6301,18.16,18.16,297902.0,0.0,1.0
"2015-06-03",18.32,18.73,18.01,18.6,18.6,262356.0,0.0,1.0
"2015-06-04",18.47,18.55,17.42,17.67,17.67,331407.0,0.0,1.0
"2015-06-05",17.67,18.22,17.22,18.21,18.21,188973.0,0.0,1.0
"2015-06-08",18.12,18.439,17.52,17.69,17.69,194063.0,0.0,1.0
"2015-06-09",17.77,17.89,17.1,17.54,17.54,166317.0,0.0,1.0
"2015-06-10",17.64,18.42,17.52,18.29,18.29,239618.0,0.0,1.0
"2015-06-11",18.25,18.63,18.02,18.31,18.31,143985.0,0.0,1.0
"2015-06-12",18.33,18.59,18.05,18.43,18.43,119046.0,0.0,1.0
"2015-06-15",18.23,19.28,17.93,19.05,19.05,327963.0,0.0,1.0
"2015-06-16",19.03,19.25,18.55,18.86,18.86,170468.0,0.0,1.0
"2015-06-17",18.98,19.18,18.42,18.66,18.66,150332.0,0.0,1.0
"2015-06-18",18.76,19.1,18.59,18.99,18.99,267496.0,0.0,1.0
"2015-06-19",18.74,18.89,17.05,18.36,18.36,607572.0,0.0,1.0
"2015-06-22",18.41,18.79,17.52,18.01,18.01,251116.0,0.0,1.0
"2015-06-23",18.07,18.47,17.93,17.99,17.99,104881.0,0.0,1.0
"2015-06-24",18.44,19.99,18.29,19.2,19.2,1.158544e6,0.0,1.0
"2015-06-25",19.11,19.62,18.55,19.13,19.13,274828.0,0.0,1.0
"2015-06-26",19.18,19.76,18.16,18.71,18.71,557105.0,0.0,1.0
"2015-06-29",18.56,18.56,17.18,17.33,17.33,259411.0,0.0,1.0
"2015-06-30",17.5,18.025,17.22,17.36,17.36,149025.0,0.0,1.0
"2015-07-01",17.59,18.07,17.24,18.07,18.07,296695.0,0.0,1.0
"2015-07-02",17.96,17.96,17.02,17.06,17.06,326511.0,0.0,1.0
"2015-07-06",16.93,17.59,16.68,17.06,17.06,166068.0,0.0,1.0
"2015-07-07",17.15,17.426,15.88,17.19,17.19,314138.0,0.0,1.0
"2015-07-08",17.05,17.05,15.8,16.05,16.05,250616.0,0.0,1.0
"2015-07-09",16.28,16.56,15.54,16.19,16.19,193850.0,0.0,1.0
"2015-07-10",16.51,17.065,16.35,16.91,16.91,235021.0,0.0,1.0
"2015-07-13",19.26,20.93,18.63,19.96,19.96,1.830196e6,0.0,1.0
"2015-07-14",19.85,20.33,19.3352,19.7,19.7,456453.0,0.0,1.0
"2015-07-15",19.7,19.85,19.29,19.53,19.53,251921.0,0.0,1.0
"2015-07-16",19.3,19.54,18.835,19.28,19.28,498952.0,0.0,1.0
"2015-07-17",19.34,19.52,19.06,19.28,19.28,355423.0,0.0,1.0
"2015-07-20",19.25,19.5899,18.07,18.58,18.58,270724.0,0.0,1.0
"2015-07-21",18.51,18.93,18.23,18.67,18.67,176625.0,0.0,1.0
"2015-07-22",18.51,18.81,17.95,18.31,18.31,171569.0,0.0,1.0
"2015-07-23",18.36,19.0,18.36,18.72,18.72,299136.0,0.0,1.0
"2015-07-24",18.71,18.92,18.4,18.55,18.55,198126.0,0.0,1.0
"2015-07-27",18.27,18.59,18.0,18.24,18.24,257774.0,0.0,1.0
"2015-07-28",18.41,18.46,17.43,18.42,18.42,209842.0,0.0,1.0
"2015-07-29",18.44,18.47,18.02,18.2,18.2,151969.0,0.0,1.0
"2015-07-30",18.15,18.68,18.05,18.56,18.56,206526.0,0.0,1.0
"2015-07-31",18.53,19.8326,18.51,19.45,19.45,361388.0,0.0,1.0
"2015-08-03",19.59,19.79,18.6,19.02,19.02,291709.0,0.0,1.0
"2015-08-04",18.98,19.2,18.53,18.73,18.73,250313.0,0.0,1.0
"2015-08-05",19.1,19.55,18.86,19.0,19.0,402207.0,0.0,1.0
"2015-08-06",19.95,21.56,19.7,20.95,20.95,1.646514e6,0.0,1.0
"2015-08-07",20.71,21.87,20.41,21.85,21.85,582036.0,0.0,1.0
"2015-08-10",21.87,22.23,21.41,21.99,21.99,521138.0,0.0,1.0
"2015-08-11",21.65,22.36,21.3,22.1,22.1,817015.0,0.0,1.0
"2015-08-12",21.8,22.49,21.55,22.38,22.38,489308.0,0.0,1.0
"2015-08-13",22.32,22.79,22.21,22.51,22.51,623989.0,0.0,1.0
"2015-08-14",22.38,22.7564,21.75,22.11,22.11,326193.0,0.0,1.0
"2015-08-17",21.96,22.7,21.5,21.87,21.87,1.87582e6,0.0,1.0
"2015-08-18",22.0,22.29,21.77,21.83,21.83,405489.0,0.0,1.0
"2015-08-19",21.63,22.0,21.24,21.72,21.72,338912.0,0.0,1.0
"2015-08-20",21.44,21.6,20.31,20.33,20.33,402140.0,0.0,1.0
"2015-08-21",19.8,20.23,19.58,19.89,19.89,458108.0,0.0,1.0
"2015-08-24",18.57,19.93,17.99,19.06,19.06,771895.0,0.0,1.0
"2015-08-25",19.76,19.99,19.05,19.18,19.18,431965.0,0.0,1.0
"2015-08-26",19.55,19.73,18.945,19.7,19.7,434524.0,0.0,1.0
"2015-08-27",19.79,20.76,19.6001,20.49,20.49,351136.0,0.0,1.0
"2015-08-28",20.48,21.6,20.45,21.11,21.11,314634.0,0.0,1.0
"2015-08-31",21.0,21.21,20.51,20.61,20.61,422944.0,0.0,1.0
"2015-09-01",20.13,20.5,19.51,19.67,19.67,335234.0,0.0,1.0
"2015-09-02",20.04,20.48,19.68,20.47,20.47,295938.0,0.0,1.0
"2015-09-03",20.48,20.64,20.29,20.51,20.51,210280.0,0.0,1.0
"2015-09-04",20.23,20.55,20.09,20.17,20.17,217665.0,0.0,1.0
"2015-09-08",20.69,22.2,20.51,21.66,21.66,436633.0,0.0,1.0
"2015-09-09",22.0,22.4,20.66,20.77,20.77,363880.0,0.0,1.0
"2015-09-10",20.72,21.59,20.63,21.26,21.26,223761.0,0.0,1.0
"2015-09-11",21.0,21.16,19.773,20.32,20.32,354369.0,0.0,1.0
"2015-09-14",20.04,20.2,18.64,18.86,18.86,665381.0,0.0,1.0
"2015-09-15",18.86,19.13,18.64,19.01,19.01,352458.0,0.0,1.0
"2015-09-16",19.17,20.3,19.13,19.89,19.89,313354.0,0.0,1.0
"2015-09-17",19.82,20.09,19.53,19.57,19.57,239217.0,0.0,1.0
"2015-09-18",19.22,19.72,19.05,19.54,19.54,614401.0,0.0,1.0
"2015-09-21",19.62,19.8,18.87,19.72,19.72,275175.0,0.0,1.0
"2015-09-22",19.39,19.48,18.71,18.9,18.9,217630.0,0.0,1.0
"2015-09-23",18.98,19.32,18.55,18.78,18.78,202739.0,0.0,1.0
"2015-09-24",18.63,18.72,18.25,18.64,18.64,236927.0,0.0,1.0
"2015-09-25",18.89,19.12,17.4999,17.64,17.64,386295.0,0.0,1.0
"2015-09-28",17.49,17.74,17.2,17.62,17.62,302211.0,0.0,1.0
"2015-09-29",17.69,18.2,16.67,16.89,16.89,366298.0,0.0,1.0
"2015-09-30",17.1,18.92,16.8901,18.78,18.78,460474.0,0.0,1.0
"2015-10-01",18.74,18.79,17.7,18.04,18.04,348633.0,0.0,1.0
"2015-10-02",17.94,18.26,17.64,18.17,18.17,154753.0,0.0,1.0
"2015-10-05",18.44,19.45,18.4,19.44,19.44,233334.0,0.0,1.0
"2015-10-06",19.47,19.92,18.7,19.08,19.08,124371.0,0.0,1.0
"2015-10-07",19.29,19.83,18.86,19.81,19.81,204193.0,0.0,1.0
"2015-10-08",19.67,20.35,19.28,20.31,20.31,197744.0,0.0,1.0
"2015-10-09",20.29,20.61,20.0401,20.1,20.1,206779.0,0.0,1.0
"2015-10-12",19.57,19.57,17.6,18.94,18.94,698159.0,0.0,1.0
"2015-10-13",18.91,18.91,18.31,18.37,18.37,256455.0,0.0,1.0
"2015-10-14",18.32,18.42,17.16,17.24,17.24,363029.0,0.0,1.0
"2015-10-15",17.41,18.94,17.4,18.91,18.91,251678.0,0.0,1.0
"2015-10-16",18.87,18.87,18.07,18.58,18.58,178741.0,0.0,1.0
"2015-10-19",18.43,18.57,17.51,17.9,17.9,263527.0,0.0,1.0
"2015-10-20",17.94,18.28,17.7,18.24,18.24,275028.0,0.0,1.0
"2015-10-21",18.38,18.65,17.875,17.94,17.94,171998.0,0.0,1.0
"2015-10-22",18.19,19.66,17.8647,19.38,19.38,483963.0,0.0,1.0
"2015-10-23",19.53,19.95,19.06,19.76,19.76,370096.0,0.0,1.0
"2015-10-26",19.62,20.005,19.53,19.81,19.81,240512.0,0.0,1.0
"2015-10-27",19.73,20.67,19.47,20.45,20.45,512192.0,0.0,1.0
"2015-10-28",20.38,21.59,20.145,21.3,21.3,580501.0,0.0,1.0
"2015-10-29",20.74,21.0,20.24,20.41,20.41,428771.0,0.0,1.0
"2015-10-30",20.44,20.75,19.83,20.62,20.62,261423.0,0.0,1.0
"2015-11-02",20.62,21.18,20.09,20.33,20.33,550900.0,0.0,1.0
"2015-11-03",20.39,20.91,20.13,20.43,20.43,312883.0,0.0,1.0
"2015-11-04",20.1,20.215,17.75,18.31,18.31,1.2612e6,0.0,1.0
"2015-11-05",18.22,18.73,17.32,17.73,17.73,732200.0,0.0,1.0
"2015-11-06",17.69,20.2,16.945,17.63,17.63,1.311608e6,0.0,1.0
"2015-11-09",17.43,17.58,16.6,16.76,16.76,549815.0,0.0,1.0
"2015-11-10",16.74,16.97,16.51,16.91,16.91,470719.0,0.0,1.0
"2015-11-11",17.02,17.4,16.75,16.76,16.76,277363.0,0.0,1.0
"2015-11-12",16.59,16.7125,15.99,16.11,16.11,380746.0,0.0,1.0
"2015-11-13",16.06,16.7,15.73,16.6,16.6,568753.0,0.0,1.0
"2015-11-16",16.67,17.1899,16.35,16.93,16.93,421165.0,0.0,1.0
"2015-11-17",17.03,17.15,16.19,16.68,16.68,462738.0,0.0,1.0
"2015-11-18",16.7,16.7,16.12,16.64,16.64,389777.0,0.0,1.0
"2015-11-19",17.32,18.0,17.21,17.33,17.33,434990.0,0.0,1.0
"2015-11-20",17.39,18.25,17.32,17.96,17.96,425124.0,0.0,1.0
"2015-11-23",17.86,18.62,17.77,18.56,18.56,440898.0,0.0,1.0
"2015-11-24",18.37,18.877,18.34,18.52,18.52,224511.0,0.0,1.0
"2015-11-25",18.46,18.58,18.14,18.38,18.38,159550.0,0.0,1.0
"2015-11-27",18.46,18.75,18.11,18.56,18.56,129838.0,0.0,1.0
"2015-11-30",18.72,18.87,18.38,18.75,18.75,232866.0,0.0,1.0
"2015-12-01",18.78,18.85,18.13,18.83,18.83,337956.0,0.0,1.0
"2015-12-02",18.71,18.9,18.37,18.49,18.49,192070.0,0.0,1.0
"2015-12-03",18.5,18.8,17.75,17.82,17.82,282123.0,0.0,1.0
"2015-12-04",17.83,18.11,17.51,17.98,17.98,279634.0,0.0,1.0
"2015-12-07",17.97,17.97,17.33,17.43,17.43,224664.0,0.0,1.0
"2015-12-08",17.09,17.38,16.79,17.23,17.23,333382.0,0.0,1.0
"2015-12-09",17.13,17.71,17.0,17.47,17.47,259947.0,0.0,1.0
"2015-12-10",17.37,17.45,16.95,17.17,17.17,157139.0,0.0,1.0
"2015-12-11",16.84,17.06,16.57,16.73,16.73,213404.0,0.0,1.0
"2015-12-14",16.8,17.29,16.56,17.01,17.01,255279.0,0.0,1.0
"2015-12-15",17.18,17.18,16.5,16.77,16.77,233580.0,0.0,1.0
"2015-12-16",16.81,17.0999,16.63,16.91,16.91,201088.0,0.0,1.0
"2015-12-17",16.93,17.16,16.84,16.87,16.87,244931.0,0.0,1.0
"2015-12-18",16.77,17.06,16.67,16.92,16.92,303876.0,0.0,1.0
"2015-12-21",17.14,17.36,16.85,17.0,17.0,263140.0,0.0,1.0
"2015-12-22",17.01,17.13,16.62,16.92,16.92,155921.0,0.0,1.0
"2015-12-23",16.99,17.25,16.92,17.12,17.12,188504.0,0.0,1.0
"2015-12-24",17.18,17.73,17.09,17.58,17.58,149318.0,0.0,1.0
"2015-12-28",17.52,17.6,16.95,17.56,17.56,230611.0,0.0,1.0
"2015-12-29",17.66,18.09,17.56,18.04,18.04,199299.0,0.0,1.0
"2015-12-30",17.97,18.26,17.8,17.8,17.8,128900.0,0.0,1.0
"2015-12-31",17.72,17.74,17.15,17.16,17.16,103224.0,0.0,1.0
"2016-01-04",16.96,17.1,16.28,16.29,16.29,385496.0,0.0,1.0
"2016-01-05",16.3,16.36,15.6,16.08,16.08,322658.0,0.0,1.0
"2016-01-06",15.7,16.11,15.688,16.05,16.05,258748.0,0.0,1.0
"2016-01-07",15.48,16.03,14.92,15.29,15.29,374302.0,0.0,1.0
"2016-01-08",15.42,15.69,14.65,14.79,14.79,222783.0,0.0,1.0
"2016-01-11",14.93,15.12,14.36,14.71,14.71,239839.0,0.0,1.0
"2016-01-12",14.93,15.1,14.31,14.93,14.93,207797.0,0.0,1.0
"2016-01-13",15.05,15.1601,13.8,13.97,13.97,241774.0,0.0,1.0
"2016-01-14",14.05,14.53,13.62,14.16,14.16,259238.0,0.0,1.0
"2016-01-15",13.64,13.83,12.94,13.42,13.42,212828.0,0.0,1.0
"2016-01-19",13.6,13.82,12.15,12.61,12.61,472119.0,0.0,1.0
"2016-01-20",12.37,12.61,11.34,12.36,12.36,531856.0,0.0,1.0
"2016-01-21",12.43,13.05,12.22,12.93,12.93,214675.0,0.0,1.0
"2016-01-22",13.25,14.283,13.08,13.89,13.89,334185.0,0.0,1.0
"2016-01-25",13.81,14.25,13.14,13.31,13.31,191241.0,0.0,1.0
"2016-01-26",13.49,15.41,13.375,15.14,15.14,497429.0,0.0,1.0
"2016-01-27",15.47,16.39,15.245,16.28,16.28,542428.0,0.0,1.0
"2016-01-28",16.5,17.05,15.93,16.27,16.27,597211.0,0.0,1.0
"2016-01-29",16.26,16.66,15.87,16.37,16.37,227345.0,0.0,1.0
"2016-02-01",15.9,16.01,15.5,15.97,15.97,263769.0,0.0,1.0
"2016-02-02",15.65,15.8,15.26,15.41,15.41,278842.0,0.0,1.0
"2016-02-03",15.7,15.7,15.02,15.42,15.42,197628.0,0.0,1.0
"2016-02-04",15.3,16.38,15.3,16.15,16.15,226932.0,0.0,1.0
"2016-02-05",16.07,16.14,15.43,15.45,15.45,184626.0,0.0,1.0
"2016-02-08",15.22,15.22,13.96,14.68,14.68,360308.0,0.0,1.0
"2016-02-09",14.44,15.55,14.2901,14.53,14.53,371496.0,0.0,1.0
"2016-02-10",14.61,15.26,14.16,14.54,14.54,366575.0,0.0,1.0
"2016-02-11",14.16,14.62,13.83,14.55,14.55,262715.0,0.0,1.0
"2016-02-12",14.65,15.34,14.44,15.3,15.3,149083.0,0.0,1.0
"2016-02-16",15.52,16.089,15.31,15.98,15.98,220356.0,0.0,1.0
"2016-02-17",16.17,17.11,16.17,16.43,16.43,365734.0,0.0,1.0
"2016-02-18",16.6,16.67,15.73,16.47,16.47,184239.0,0.0,1.0
"2016-02-19",16.26,16.47,15.91,15.98,15.98,220365.0,0.0,1.0
"2016-02-22",16.24,16.57,16.01,16.32,16.32,140382.0,0.0,1.0
"2016-02-23",16.3,16.78,16.071,16.45,16.45,233354.0,0.0,1.0
"2016-02-24",16.17,16.2799,15.6,15.97,15.97,287457.0,0.0,1.0
"2016-02-25",16.0,17.0,15.01,16.89,16.89,1.01006e6,0.0,1.0
"2016-02-26",17.0,18.96,16.58,18.22,18.22,568019.0,0.0,1.0
"2016-02-29",18.23,18.75,17.1409,17.99,17.99,273947.0,0.0,1.0
"2016-03-01",18.17,18.42,17.7,18.33,18.33,267211.0,0.0,1.0
"2016-03-02",18.32,18.5,18.12,18.29,18.29,252845.0,0.0,1.0
"2016-03-03",18.29,18.57,18.01,18.32,18.32,155066.0,0.0,1.0
"2016-03-04",18.27,18.79,17.96,18.24,18.24,210398.0,0.0,1.0
"2016-03-07",18.15,18.48,17.89,18.12,18.12,196873.0,0.0,1.0
"2016-03-08",17.84,17.84,16.96,16.99,16.99,161142.0,0.0,1.0
"2016-03-09",17.14,17.22,16.77,17.02,17.02,161974.0,0.0,1.0
"2016-03-10",17.05,17.27,16.7,17.04,17.04,151625.0,0.0,1.0
"2016-03-11",17.54,17.63,17.18,17.61,17.61,128629.0,0.0,1.0
"2016-03-14",17.57,18.09,17.44,17.45,17.45,163059.0,0.0,1.0
"2016-03-15",17.23,17.33,16.81,16.91,16.91,148349.0,0.0,1.0
"2016-03-16",16.83,17.4999,16.5,17.4,17.4,175116.0,0.0,1.0
"2016-03-17",17.29,17.94,17.19,17.65,17.65,160248.0,0.0,1.0
"2016-03-18",17.76,17.93,17.32,17.56,17.56,194019.0,0.0,1.0
"2016-03-21",17.53,17.91,17.45,17.46,17.46,159976.0,0.0,1.0
"2016-03-22",17.28,17.32,15.81,16.16,16.16,540551.0,0.0,1.0
"2016-03-23",16.16,16.83,15.79,16.02,16.02,506011.0,0.0,1.0
"2016-03-24",15.89,16.13,15.4,15.79,15.79,375781.0,0.0,1.0
"2016-03-28",15.9,15.98,15.11,15.2,15.2,243394.0,0.0,1.0
"2016-03-29",15.1,15.2,14.64,15.05,15.05,546913.0,0.0,1.0
"2016-03-30",15.3,15.55,15.14,15.27,15.27,433428.0,0.0,1.0
"2016-03-31",15.21,15.25,14.71,14.91,14.91,237717.0,0.0,1.0
"2016-04-01",14.72,15.38,14.69,15.04,15.04,190262.0,0.0,1.0
"2016-04-04",15.05,15.54,14.83,15.09,15.09,243050.0,0.0,1.0
"2016-04-05",14.89,15.18,14.26,14.74,14.74,282875.0,0.0,1.0
"2016-04-06",14.8,15.13,14.27,14.88,14.88,179426.0,0.0,1.0
"2016-04-07",14.74,15.03,14.53,14.7,14.7,175597.0,0.0,1.0
"2016-04-08",15.05,15.86,14.82,15.73,15.73,383542.0,0.0,1.0
"2016-04-11",15.82,16.44,15.58,15.91,15.91,274912.0,0.0,1.0
"2016-04-12",16.0,16.0183,15.23,15.42,15.42,254650.0,0.0,1.0
"2016-04-13",15.58,16.31,15.51,16.04,16.04,268605.0,0.0,1.0
"2016-04-14",16.1,16.48,15.92,16.25,16.25,126640.0,0.0,1.0
"2016-04-15",16.18,16.18,15.76,15.82,15.82,125082.0,0.0,1.0
"2016-04-18",15.79,16.11,15.64,16.11,16.11,160392.0,0.0,1.0
"2016-04-19",12.74,12.86,11.61,11.72,11.72,5.064102e6,0.0,1.0
"2016-04-20",11.7,11.82,11.25,11.38,11.38,1.118308e6,0.0,1.0
"2016-04-21",11.54,11.54,11.01,11.01,11.01,567878.0,0.0,1.0
"2016-04-22",11.05,11.6,11.05,11.59,11.59,515831.0,0.0,1.0
"2016-04-25",11.51,11.53,11.05,11.08,11.08,392216.0,0.0,1.0
"2016-04-26",11.15,11.15,10.65,10.9,10.9,706135.0,0.0,1.0
"2016-04-27",10.9,11.5,10.82,11.44,11.44,330909.0,0.0,1.0
"2016-04-28",11.31,11.78,11.22,11.34,11.34,588020.0,0.0,1.0
"2016-04-29",11.31,11.475,11.0,11.2,11.2,526785.0,0.0,1.0
"2016-05-02",11.21,11.37,10.76,11.12,11.12,509160.0,0.0,1.0
"2016-05-03",11.04,11.215,10.56,10.65,10.65,445558.0,0.0,1.0
"2016-05-04",10.64,10.92,10.54,10.61,10.61,375640.0,0.0,1.0
"2016-05-05",10.65,10.87,10.35,10.6,10.6,316773.0,0.0,1.0
"2016-05-06",10.58,10.7,10.34,10.56,10.56,268239.0,0.0,1.0
"2016-05-09",10.6,10.725,10.26,10.26,10.26,455803.0,0.0,1.0
"2016-05-10",8.9,9.15,8.08,8.49,8.49,1.899201e6,0.0,1.0
"2016-05-11",8.45,9.24,8.435,9.14,9.14,951733.0,0.0,1.0
"2016-05-12",9.08,9.34,8.74,8.84,8.84,801685.0,0.0,1.0
"2016-05-13",8.84,9.48,8.815,9.15,9.15,535340.0,0.0,1.0
"2016-05-16",9.15,9.6,9.15,9.32,9.32,499015.0,0.0,1.0
"2016-05-17",9.29,9.555,9.17,9.23,9.23,379451.0,0.0,1.0
"2016-05-18",9.12,9.6,9.12,9.37,9.37,368487.0,0.0,1.0
"2016-05-19",9.23,9.505,8.7,8.8,8.8,474536.0,0.0,1.0
"2016-05-20",8.88,9.19,8.84,9.12,9.12,326801.0,0.0,1.0
"2016-05-23",9.19,10.117,9.16,9.97,9.97,480782.0,0.0,1.0
"2016-05-24",10.0,10.35,9.78,10.2,10.2,483143.0,0.0,1.0
"2016-05-25",10.18,10.265,9.795,10.11,10.11,472048.0,0.0,1.0
"2016-05-26",10.11,10.355,10.05,10.2,10.2,425146.0,0.0,1.0
"2016-05-27",10.13,10.295,9.85,10.18,10.18,371875.0,0.0,1.0
"2016-05-31",10.35,10.76,10.3,10.55,10.55,419975.0,0.0,1.0
"2016-06-01",10.5,10.7,10.28,10.47,10.47,666345.0,0.0,1.0
"2016-06-02",10.6,11.1705,10.56,11.04,11.04,411591.0,0.0,1.0
"2016-06-03",10.95,11.135,10.61,10.96,10.96,406768.0,0.0,1.0
"2016-06-06",10.94,11.55,10.94,11.41,11.41,505697.0,0.0,1.0
"2016-06-07",11.36,11.64,11.25,11.41,11.41,258566.0,0.0,1.0
"2016-06-08",11.33,11.54,11.29,11.44,11.44,306987.0,0.0,1.0
"2016-06-09",11.38,11.525,10.63,10.76,10.76,327857.0,0.0,1.0
"2016-06-10",10.65,10.8975,10.12,10.26,10.26,438229.0,0.0,1.0
"2016-06-13",10.17,10.55,9.9,9.95,9.95,340580.0,0.0,1.0
"2016-06-14",9.87,10.33,9.78,9.95,9.95,353544.0,0.0,1.0
"2016-06-15",9.9,10.54,9.86,10.19,10.19,293021.0,0.0,1.0
"2016-06-16",10.14,10.19,9.8,10.15,10.15,499587.0,0.0,1.0
"2016-06-17",10.25,10.26,9.85,9.87,9.87,412495.0,0.0,1.0
"2016-06-20",10.28,10.67,10.17,10.2,10.2,327658.0,0.0,1.0
"2016-06-21",10.25,10.265,9.92,10.1,10.1,152430.0,0.0,1.0
"2016-06-22",10.1,10.35,10.06,10.3,10.3,279055.0,0.0,1.0
"2016-06-23",10.39,10.53,10.29,10.51,10.51,227033.0,0.0,1.0
"2016-06-24",9.86,9.9658,9.7,9.82,9.82,589602.0,0.0,1.0
"2016-06-27",9.77,9.77,9.07,9.2,9.2,452869.0,0.0,1.0
"2016-06-28",9.53,9.92,9.52,9.9,9.9,204560.0,0.0,1.0
"2016-06-29",10.18,10.4886,10.0,10.4,10.4,210614.0,0.0,1.0
"2016-06-30",10.44,11.17,10.44,11.15,11.15,399801.0,0.0,1.0
"2016-07-01",11.1,11.5,10.96,11.22,11.22,196282.0,0.0,1.0
"2016-07-05",11.07,11.07,10.37,10.6,10.6,283695.0,0.0,1.0
"2016-07-06",10.44,11.005,10.34,10.77,10.77,294766.0,0.0,1.0
"2016-07-07",10.82,11.2,10.82,11.1,11.1,177636.0,0.0,1.0
"2016-07-08",11.2,11.48,11.19,11.3,11.3,228073.0,0.0,1.0
"2016-07-11",11.49,11.53,10.86,11.07,11.07,459554.0,0.0,1.0
"2016-07-12",11.24,11.6,10.78,11.56,11.56,344586.0,0.0,1.0
"2016-07-13",11.62,11.79,11.52,11.58,11.58,202362.0,0.0,1.0
"2016-07-14",11.71,11.785,11.451,11.56,11.56,216989.0,0.0,1.0
"2016-07-15",11.65,11.88,11.384,11.76,11.76,214817.0,0.0,1.0
"2016-07-18",11.9,12.05,11.66,11.76,11.76,206655.0,0.0,1.0
"2016-07-19",11.73,11.78,11.5,11.51,11.51,97649.0,0.0,1.0
"2016-07-20",11.94,11.95,11.51,11.86,11.86,252359.0,0.0,1.0
"2016-07-21",11.86,12.21,11.7512,12.06,12.06,244329.0,0.0,1.0
"2016-07-22",12.11,12.27,12.02,12.24,12.24,157297.0,0.0,1.0
"2016-07-25",12.27,12.49,12.165,12.33,12.33,191061.0,0.0,1.0
"2016-07-26",12.36,12.79,12.36,12.67,12.67,253161.0,0.0,1.0
"2016-07-27",13.31,13.52,12.51,12.74,12.74,201052.0,0.0,1.0
"2016-07-28",12.6,12.78,12.22,12.23,12.23,185405.0,0.0,1.0
"2016-07-29",12.23,12.28,11.77,11.84,11.84,303739.0,0.0,1.0
"2016-08-01",11.75,12.21,11.75,12.1,12.1,380562.0,0.0,1.0
"2016-08-02",12.12,12.3,11.6,11.64,11.64,199390.0,0.0,1.0
"2016-08-03",11.79,12.365,11.67,12.27,12.27,241510.0,0.0,1.0
"2016-08-04",12.28,12.889,12.28,12.82,12.82,367727.0,0.0,1.0
"2016-08-05",14.66,15.25,14.02,14.79,14.79,1.520694e6,0.0,1.0
"2016-08-08",14.79,14.94,14.2,14.29,14.29,339307.0,0.0,1.0
"2016-08-09",14.25,14.41,13.93,13.97,13.97,402346.0,0.0,1.0
"2016-08-10",14.09,14.09,13.46,13.6,13.6,297688.0,0.0,1.0
"2016-08-11",13.74,13.82,13.47,13.55,13.55,371995.0,0.0,1.0
"2016-08-12",13.58,14.05,13.43,14.01,14.01,494196.0,0.0,1.0
"2016-08-15",14.05,14.18,13.85,14.03,14.03,240524.0,0.0,1.0
"2016-08-16",14.02,14.18,13.92,14.0,14.0,265150.0,0.0,1.0
"2016-08-17",13.97,13.97,13.27,13.31,13.31,242181.0,0.0,1.0
"2016-08-18",13.17,13.437,13.06,13.34,13.34,448388.0,0.0,1.0
"2016-08-19",13.33,13.82,13.08,13.74,13.74,286345.0,0.0,1.0
"2016-08-22",13.66,13.68,13.3422,13.64,13.64,101244.0,0.0,1.0
"2016-08-23",13.82,14.19,13.74,14.02,14.02,176032.0,0.0,1.0
"2016-08-24",13.97,14.2279,13.86,13.88,13.88,143740.0,0.0,1.0
"2016-08-25",15.35,16.43,14.66,16.11,16.11,1.753406e6,0.0,1.0
"2016-08-26",16.0,16.42,15.59,16.37,16.37,610002.0,0.0,1.0
"2016-08-29",16.47,17.17,16.09,16.85,16.85,643435.0,0.0,1.0
"2016-08-30",15.93,17.08,15.93,16.99,16.99,274779.0,0.0,1.0
"2016-08-31",17.06,17.25,16.67,16.85,16.85,368343.0,0.0,1.0
"2016-09-01",16.94,17.45,16.64,17.14,17.14,259890.0,0.0,1.0
"2016-09-02",17.36,17.85,17.17,17.51,17.51,352142.0,0.0,1.0
"2016-09-06",17.39,17.64,17.04,17.41,17.41,286101.0,0.0,1.0
"2016-09-07",21.15,21.18,19.58,19.85,19.85,1.721381e6,0.0,1.0
"2016-09-08",20.4,20.4,19.64,20.02,20.02,537419.0,0.0,1.0
"2016-09-09",20.1,20.53,19.57,19.63,19.63,629110.0,0.0,1.0
"2016-09-12",19.31,20.63,18.7,20.42,20.42,810958.0,0.0,1.0
"2016-09-13",20.07,20.46,19.67,20.3,20.3,395291.0,0.0,1.0
"2016-09-14",20.23,21.72,20.05,21.6,21.6,893444.0,0.0,1.0
"2016-09-15",21.64,22.32,21.31,21.65,21.65,590043.0,0.0,1.0
"2016-09-16",21.41,21.75,20.91,21.7,21.7,449498.0,0.0,1.0
"2016-09-19",21.81,22.3,21.66,22.03,22.03,421297.0,0.0,1.0
"2016-09-20",22.1,22.18,20.65,21.26,21.26,631333.0,0.0,1.0
"2016-09-21",21.32,21.81,21.2,21.76,21.76,507969.0,0.0,1.0
"2016-09-22",22.0,22.47,20.63,20.84,20.84,758401.0,0.0,1.0
"2016-09-23",20.76,21.54,20.7,21.14,21.14,427769.0,0.0,1.0
"2016-09-26",21.11,21.6,20.85,21.01,21.01,409476.0,0.0,1.0
"2016-09-27",21.04,21.49,21.04,21.31,21.31,242964.0,0.0,1.0
"2016-09-28",21.35,21.62,20.96,21.22,21.22,398716.0,0.0,1.0
"2016-09-29",21.22,21.32,20.9,20.96,20.96,187900.0,0.0,1.0
"2016-09-30",20.77,22.4,20.77,22.21,22.21,636432.0,0.0,1.0
"2016-10-03",22.0,22.08,21.13,21.44,21.44,282389.0,0.0,1.0
"2016-10-04",21.58,22.03,21.265,21.63,21.63,262242.0,0.0,1.0
"2016-10-05",22.06,24.18,21.786,23.26,23.26,763328.0,0.0,1.0
"2016-10-06",23.02,23.4,22.9101,23.05,23.05,317339.0,0.0,1.0
"2016-10-07",23.05,23.1,22.62,22.72,22.72,162970.0,0.0,1.0
"2016-10-10",23.04,23.35,22.93,23.15,23.15,198609.0,0.0,1.0
"2016-10-11",23.08,23.2,21.82,22.04,22.04,358688.0,0.0,1.0
"2016-10-12",22.0,22.0624,20.57,21.43,21.43,348134.0,0.0,1.0
"2016-10-13",21.2,21.2,19.83,20.16,20.16,502724.0,0.0,1.0
"2016-10-14",20.4,21.22,20.17,20.29,20.29,207053.0,0.0,1.0
"2016-10-17",20.25,20.338,20.0,20.03,20.03,143981.0,0.0,1.0
"2016-10-18",20.1,20.36,19.814,20.05,20.05,443617.0,0.0,1.0
"2016-10-19",20.01,20.33,19.98,20.295,20.295,241360.0,0.0,1.0
"2016-10-20",20.13,21.03,20.13,20.75,20.75,194929.0,0.0,1.0
"2016-10-21",20.63,20.71,20.2197,20.565,20.565,181228.0,0.0,1.0
"2016-10-24",20.72,21.61,20.662,21.59,21.59,216168.0,0.0,1.0
"2016-10-25",21.52,21.6134,20.83,21.15,21.15,142712.0,0.0,1.0
"2016-10-26",21.25,21.869,20.975,21.39,21.39,131123.0,0.0,1.0
"2016-10-27",21.63,21.89,19.91,19.99,19.99,346951.0,0.0,1.0
"2016-10-28",19.8,20.37,19.55,19.69,19.69,156575.0,0.0,1.0
"2016-10-31",19.5,20.01,19.15,19.23,19.23,332700.0,0.0,1.0
"2016-11-01",19.25,19.86,18.85,19.15,19.15,249185.0,0.0,1.0
"2016-11-02",19.51,21.1,19.205,20.1,20.1,612534.0,0.0,1.0
"2016-11-03",20.5,21.01,19.7168,20.85,20.85,505459.0,0.0,1.0
"2016-11-04",23.3,23.3,20.63,21.65,21.65,1.533549e6,0.0,1.0
"2016-11-07",22.25,23.67,22.0544,23.5,23.5,884639.0,0.0,1.0
"2016-11-08",23.18,23.37,22.01,22.76,22.76,706503.0,0.0,1.0
"2016-11-09",22.0,23.78,21.66,23.55,23.55,443489.0,0.0,1.0
"2016-11-10",23.62,24.0657,22.73,23.58,23.58,474940.0,0.0,1.0
"2016-11-11",23.25,25.2,23.25,24.97,24.97,704526.0,0.0,1.0
"2016-11-14",25.22,25.5,24.47,24.6,24.6,547699.0,0.0,1.0
"2016-11-15",24.14,25.27,24.03,24.7,24.7,443248.0,0.0,1.0
"2016-11-16",25.3,26.09,24.7,26.08,26.08,635015.0,0.0,1.0
"2016-11-17",25.98,26.15,25.36,26.15,26.15,532264.0,0.0,1.0
"2016-11-18",26.13,26.87,25.9,26.63,26.63,379031.0,0.0,1.0
"2016-11-21",26.9,27.28,25.54,26.21,26.21,301518.0,0.0,1.0
"2016-11-22",26.2,26.43,24.85,26.0,26.0,1.509395e6,0.0,1.0
"2016-11-23",25.85,25.85,24.85,25.15,25.15,559407.0,0.0,1.0
"2016-11-25",25.14,25.5,25.0601,25.47,25.47,153527.0,0.0,1.0
"2016-11-28",25.3,25.5701,24.92,25.14,25.14,218935.0,0.0,1.0
"2016-11-29",25.07,25.41,24.95,25.04,25.04,301395.0,0.0,1.0
"2016-11-30",25.18,25.6235,24.64,24.77,24.77,285882.0,0.0,1.0
"2016-12-01",24.79,25.11,23.21,23.395,23.395,374401.0,0.0,1.0
"2016-12-02",23.4,23.74,22.9035,23.27,23.27,456612.0,0.0,1.0
"2016-12-05",23.27,24.0,23.14,23.9,23.9,424341.0,0.0,1.0
"2016-12-06",23.93,23.93,22.92,23.4,23.4,280357.0,0.0,1.0
"2016-12-07",23.65,24.55,23.63,24.39,24.39,552097.0,0.0,1.0
"2016-12-08",24.5,25.33,24.3975,24.9,24.9,359541.0,0.0,1.0
"2016-12-09",25.58,26.26,24.23,24.74,24.74,581835.0,0.0,1.0
"2016-12-12",24.7,24.94,23.73,24.13,24.13,260992.0,0.0,1.0
"2016-12-13",23.86,24.72,23.73,24.29,24.29,215833.0,0.0,1.0
"2016-12-14",24.3,24.45,23.38,23.77,23.77,300709.0,0.0,1.0
"2016-12-15",23.82,24.45,23.81,24.4,24.4,332382.0,0.0,1.0
"2016-12-16",24.59,24.8499,24.03,24.68,24.68,483426.0,0.0,1.0
"2016-12-19",24.75,25.52,24.75,24.96,24.96,321518.0,0.0,1.0
"2016-12-20",25.17,25.2,24.24,24.42,24.42,219685.0,0.0,1.0
"2016-12-21",24.49,24.96,24.23,24.74,24.74,148631.0,0.0,1.0
"2016-12-22",24.78,25.45,24.33,24.84,24.84,193296.0,0.0,1.0
"2016-12-23",24.73,25.1,24.34,24.82,24.82,200158.0,0.0,1.0
"2016-12-27",24.95,25.45,24.63,24.72,24.72,249159.0,0.0,1.0
"2016-12-28",24.9,24.93,24.31,24.39,24.39,240907.0,0.0,1.0
"2016-12-29",24.41,24.9442,23.86,24.27,24.27,112431.0,0.0,1.0
"2016-12-30",24.25,24.25,23.21,23.44,23.44,197141.0,0.0,1.0
"2017-01-03",23.71,24.09,22.87,23.1,23.1,268160.0,0.0,1.0
"2017-01-04",23.13,23.61,23.13,23.51,23.51,199109.0,0.0,1.0
"2017-01-05",23.5,23.51,22.611,22.81,22.81,160756.0,0.0,1.0
"2017-01-06",22.99,23.075,22.271,22.42,22.42,221419.0,0.0,1.0
"2017-01-09",22.36,22.73,21.88,22.24,22.24,347460.0,0.0,1.0
"2017-01-10",22.36,23.32,22.31,22.87,22.87,197876.0,0.0,1.0
"2017-01-11",22.86,23.46,22.5,22.72,22.72,382462.0,0.0,1.0
"2017-01-12",27.1,30.5,26.11,29.86,29.86,4.415894e6,0.0,1.0
"2017-01-13",30.5,30.54,27.82,28.22,28.22,1.53265e6,0.0,1.0
"2017-01-17",28.89,30.9,28.09,30.44,30.44,1.412464e6,0.0,1.0
"2017-01-18",30.49,31.61,29.81,30.84,30.84,912181.0,0.0,1.0
"2017-01-19",31.15,31.15,30.03,30.48,30.48,350789.0,0.0,1.0
"2017-01-20",30.58,31.07,29.78,30.58,30.58,547687.0,0.0,1.0
"2017-01-23",30.58,31.39,30.01,31.29,31.29,410628.0,0.0,1.0
"2017-01-24",31.25,32.56,31.08,32.0,32.0,758775.0,0.0,1.0
"2017-01-25",32.25,32.25,31.2,31.71,31.71,445751.0,0.0,1.0
"2017-01-26",31.88,32.16,31.26,31.28,31.28,364372.0,0.0,1.0
"2017-01-27",31.2,31.4645,30.305,31.15,31.15,339974.0,0.0,1.0
"2017-01-30",31.32,31.4453,29.54,30.41,30.41,491447.0,0.0,1.0
"2017-01-31",30.11,30.92,29.4,30.76,30.76,521139.0,0.0,1.0
"2017-02-01",31.3,31.36,30.51,30.93,30.93,256485.0,0.0,1.0
"2017-02-02",30.95,31.7,30.444,31.31,31.31,384773.0,0.0,1.0
"2017-02-03",31.41,32.68,31.11,32.6,32.6,418362.0,0.0,1.0
"2017-02-06",31.91,32.79,31.376,31.79,31.79,439488.0,0.0,1.0
"2017-02-07",32.2,32.21,31.23,31.56,31.56,383995.0,0.0,1.0
"2017-02-08",31.5,31.575,30.68,31.34,31.34,387421.0,0.0,1.0
"2017-02-09",31.4,32.6,31.15,31.75,31.75,441370.0,0.0,1.0
"2017-02-10",31.74,32.88,31.04,32.66,32.66,527900.0,0.0,1.0
"2017-02-13",33.53,35.57,33.12,33.92,33.92,1.043335e6,0.0,1.0
"2017-02-14",34.01,36.7,34.01,36.38,36.38,1.006096e6,0.0,1.0
"2017-02-15",36.65,36.65,35.36,35.97,35.97,709752.0,0.0,1.0
"2017-02-16",36.18,36.18,35.16,35.79,35.79,358254.0,0.0,1.0
"2017-02-17",35.43,37.73,35.057,37.27,37.27,629469.0,0.0,1.0
"2017-02-21",38.03,38.89,37.18,37.57,37.57,974925.0,0.0,1.0
"2017-02-22",37.7,38.3,37.07,37.12,37.12,656012.0,0.0,1.0
"2017-02-23",37.73,38.26,36.33,37.47,37.47,1.023358e6,0.0,1.0
"2017-02-24",42.11,49.34,40.55,45.98,45.98,6.54977e6,0.0,1.0
"2017-02-27",46.05,47.78,44.42,47.46,47.46,1.876209e6,0.0,1.0
"2017-02-28",47.56,48.75,45.6,45.92,45.92,1.406535e6,0.0,1.0
"2017-03-01",46.42,47.72,45.898,46.85,46.85,1.025891e6,0.0,1.0
"2017-03-02",46.97,49.25,46.69,49.23,49.23,1.533682e6,0.0,1.0
"2017-03-03",50.0,53.98,49.88,53.32,53.32,2.67606e6,0.0,1.0
"2017-03-06",52.75,52.75,50.5,51.46,51.46,1.296956e6,0.0,1.0
"2017-03-07",51.31,56.14,50.54,54.54,54.54,1.902776e6,0.0,1.0
"2017-03-08",54.85,54.947,51.5,52.56,52.56,1.283917e6,0.0,1.0
"2017-03-09",52.44,54.31,51.52,52.66,52.66,1.019831e6,0.0,1.0
"2017-03-10",52.01,52.46,49.42,50.92,50.92,1.41867e6,0.0,1.0
"2017-03-13",51.15,51.55,49.81,51.06,51.06,766453.0,0.0,1.0
"2017-03-14",50.57,50.65,47.87,48.19,48.19,1.139373e6,0.0,1.0
"2017-03-15",48.27,49.15,46.9,47.4,47.4,1.4482e6,0.0,1.0
"2017-03-16",47.8,48.3,46.61,47.96,47.96,1.216141e6,0.0,1.0
"2017-03-17",48.0,50.99,47.701,50.77,50.77,1.82882e6,0.0,1.0
"2017-03-20",51.37,51.49,49.09,50.33,50.33,1.098369e6,0.0,1.0
"2017-03-21",50.48,51.97,48.06,48.23,48.23,1.315045e6,0.0,1.0
"2017-03-22",48.02,53.09,47.06,52.63,52.63,2.207297e6,0.0,1.0
"2017-03-23",52.9,53.15,50.91,51.51,51.51,1.39979e6,0.0,1.0
"2017-03-24",51.78,55.719,51.78,55.02,55.02,2.127582e6,0.0,1.0
"2017-03-27",53.84,60.19,52.57,59.88,59.88,3.697717e6,0.0,1.0
"2017-03-28",60.02,60.09,57.12,58.56,58.56,2.109427e6,0.0,1.0
"2017-03-29",59.18,59.418,57.5,58.02,58.02,1.12928e6,0.0,1.0
"2017-03-30",58.07,58.537,53.28,55.35,55.35,2.586054e6,0.0,1.0
"2017-03-31",55.35,56.54,54.171,56.15,56.15,2.467491e6,0.0,1.0
"2017-04-03",56.92,57.9,53.17,53.47,53.47,1.627378e6,0.0,1.0
"2017-04-04",53.21,53.9,50.56,51.19,51.19,1.897538e6,0.0,1.0
"2017-04-05",51.3,51.55,44.54,44.68,44.68,6.126937e6,0.0,1.0
"2017-04-06",44.76,47.71,44.6,46.31,46.31,2.988731e6,0.0,1.0
"2017-04-07",46.0,47.138,44.02,44.68,44.68,1.866386e6,0.0,1.0
"2017-04-10",45.32,46.1,43.7,44.46,44.46,1.386331e6,0.0,1.0
"2017-04-11",44.43,44.7,41.79,42.38,42.38,1.96046e6,0.0,1.0
"2017-04-12",42.04,42.489,40.28,40.82,40.82,2.502981e6,0.0,1.0
"2017-04-13",49.85,50.0,44.64,45.3,45.3,1.3208386e7,0.0,1.0
"2017-04-17",45.51,46.369,43.19,43.33,43.33,3.987095e6,0.0,1.0
"2017-04-18",42.6,44.65,42.43,44.2,44.2,2.232944e6,0.0,1.0
"2017-04-19",44.34,44.899,43.08,43.73,43.73,1.678258e6,0.0,1.0
"2017-04-20",43.93,44.35,43.5,44.31,44.31,972635.0,0.0,1.0
"2017-04-21",45.86,47.14,44.75,45.54,45.54,4.223944e6,0.0,1.0
"2017-04-24",46.83,48.89,45.83,48.78,48.78,6.039861e6,0.0,1.0
"2017-04-25",48.21,49.85,47.74,49.4,49.4,3.403557e6,0.0,1.0
"2017-04-26",49.45,49.84,46.75,47.47,47.47,3.017308e6,0.0,1.0
"2017-04-27",47.85,49.83,46.92,49.36,49.36,2.347017e6,0.0,1.0
"2017-04-28",48.84,49.8,48.2,49.39,49.39,1.377682e6,0.0,1.0
"2017-05-01",50.25,52.1,49.33,50.13,50.13,3.231276e6,0.0,1.0
"2017-05-02",49.98,50.3,46.27,47.3,47.3,2.595808e6,0.0,1.0
"2017-05-03",45.99,46.92,45.01,46.47,46.47,2.099826e6,0.0,1.0
"2017-05-04",47.3,48.75,46.34,46.81,46.81,2.632545e6,0.0,1.0
"2017-05-05",51.53,56.3,48.5,55.96,55.96,1.0842043e7,0.0,1.0
"2017-05-08",57.15,60.0,56.55,57.39,57.39,5.299027e6,0.0,1.0
"2017-05-09",57.75,62.64,56.01,62.11,62.11,5.025691e6,0.0,1.0
"2017-05-10",61.81,65.0,61.36,64.97,64.97,3.918445e6,0.0,1.0
"2017-05-11",64.05,65.33,62.08,64.23,64.23,3.518926e6,0.0,1.0
"2017-05-12",64.24,67.01,63.215,65.45,65.45,3.001893e6,0.0,1.0
"2017-05-15",65.8,66.4,63.25,64.01,64.01,3.087272e6,0.0,1.0
"2017-05-16",64.11,65.24,62.53,64.97,64.97,2.495066e6,0.0,1.0
"2017-05-17",63.04,64.0,60.1,61.38,61.38,3.471294e6,0.0,1.0
"2017-05-18",60.06,65.3,58.96,63.98,63.98,3.921392e6,0.0,1.0
"2017-05-19",64.74,65.93,63.5,63.54,63.54,2.249458e6,0.0,1.0
"2017-05-22",66.0,71.34,65.8,71.24,71.24,6.745276e6,0.0,1.0
"2017-05-23",71.6,71.7,67.06,69.15,69.15,3.744252e6,0.0,1.0
"2017-05-24",68.25,70.23,67.86,68.63,68.63,2.0037e6,0.0,1.0
"2017-05-25",68.8,69.89,66.3,67.88,67.88,2.552929e6,0.0,1.0
"2017-05-26",67.37,72.95,67.116,71.51,71.51,3.877279e6,0.0,1.0
"2017-05-30",71.2,71.81,69.11,70.48,70.48,2.276558e6,0.0,1.0
"2017-05-31",71.07,71.65,68.72,69.82,69.82,2.390957e6,0.0,1.0
"2017-06-01",70.05,71.36,69.44,70.01,70.01,1.845352e6,0.0,1.0
"2017-06-02",72.05,74.73,71.76,74.68,74.68,3.97474e6,0.0,1.0
"2017-06-05",74.96,75.0,71.8,72.44,72.44,2.725406e6,0.0,1.0
"2017-06-06",71.35,75.59,70.5,73.41,73.41,2.859251e6,0.0,1.0
"2017-06-07",73.3,73.87,70.03,71.48,71.48,2.749839e6,0.0,1.0
"2017-06-08",71.73,73.17,70.71,73.14,73.14,2.035757e6,0.0,1.0
"2017-06-09",73.89,74.0,62.04,64.71,64.71,5.228904e6,0.0,1.0
"2017-06-12",63.52,66.89,60.02,64.61,64.61,4.910968e6,0.0,1.0
"2017-06-13",66.71,67.848,63.25,63.85,63.85,3.173107e6,0.0,1.0
"2017-06-14",64.0,64.9,59.61,60.95,60.95,3.725458e6,0.0,1.0
"2017-06-15",58.25,62.99,57.55,62.23,62.23,3.929535e6,0.0,1.0
"2017-06-16",62.23,63.15,60.1,62.88,62.88,2.937329e6,0.0,1.0
"2017-06-19",63.3,65.23,62.291,63.2,63.2,2.57277e6,0.0,1.0
"2017-06-20",63.23,63.75,60.89,61.08,61.08,1.996255e6,0.0,1.0
"2017-06-21",61.1,64.3,61.09,63.1,63.1,1.82887e6,0.0,1.0
"2017-06-22",63.06,63.945,61.92,63.58,63.58,1.283395e6,0.0,1.0
"2017-06-23",63.6,67.18,63.35,65.87,65.87,2.517838e6,0.0,1.0
"2017-06-26",65.01,65.01,60.765,61.59,61.59,4.643403e6,0.0,1.0
"2017-06-27",61.3,62.229,58.268,58.44,58.44,2.741784e6,0.0,1.0
"2017-06-28",59.62,61.19,58.0,61.0,61.0,1.977369e6,0.0,1.0
"2017-06-29",60.16,60.854,58.77,60.0,60.0,1.36186e6,0.0,1.0
"2017-06-30",61.74,63.62,60.43,61.79,61.79,2.396091e6,0.0,1.0
"2017-07-03",62.41,63.75,61.04,61.39,61.39,971079.0,0.0,1.0
"2017-07-05",61.65,62.6,60.2,60.62,60.62,1.476797e6,0.0,1.0
"2017-07-06",59.7,62.8167,59.15,61.47,61.47,1.539652e6,0.0,1.0
"2017-07-07",62.12,68.38,62.12,67.3,67.3,3.756524e6,0.0,1.0
"2017-07-10",67.39,69.05,64.79,68.64,68.64,2.547807e6,0.0,1.0
"2017-07-11",68.5,71.0,67.8,70.04,70.04,2.807097e6,0.0,1.0
"2017-07-12",70.55,72.95,69.8,72.64,72.64,2.627495e6,0.0,1.0
"2017-07-13",77.05,79.98,74.01,78.04,78.04,8.220522e6,0.0,1.0
"2017-07-14",78.0,86.36,77.68,84.2,84.2,6.845977e6,0.0,1.0
"2017-07-17",85.77,85.879,82.09,84.18,84.18,4.181899e6,0.0,1.0
"2017-07-18",83.5,91.46,83.07,90.18,90.18,5.517023e6,0.0,1.0
"2017-07-19",91.8,95.43,91.0,92.54,92.54,5.856114e6,0.0,1.0
"2017-07-20",93.2,95.67,88.1,88.8,88.8,6.056576e6,0.0,1.0
"2017-07-21",90.48,91.768,85.62,89.95,89.95,5.001456e6,0.0,1.0
"2017-07-24",90.63,97.75,90.6,95.63,95.63,6.745031e6,0.0,1.0
"2017-07-25",97.69,97.71,93.57,96.8,96.8,2.884179e6,0.0,1.0
"2017-07-26",96.0,99.98,95.203,98.76,98.76,3.325263e6,0.0,1.0
"2017-07-27",99.59,103.41,92.93,97.82,97.82,5.852258e6,0.0,1.0
"2017-07-28",94.82,99.0,94.4,96.64,96.64,2.614389e6,0.0,1.0
"2017-07-31",98.2,98.37,95.08,97.49,97.49,2.087489e6,0.0,1.0
"2017-08-01",97.66,100.5,97.15,99.61,99.61,3.094135e6,0.0,1.0
"2017-08-02",100.0,101.3,92.36,93.5,93.5,4.441792e6,0.0,1.0
"2017-08-03",95.47,98.13,93.0,97.99,97.99,4.21906e6,0.0,1.0
"2017-08-04",75.0,75.0,64.4,64.6,64.6,1.7035329e7,0.0,1.0
"2017-08-07",64.14,73.01,63.1,69.69,69.69,1.0850547e7,0.0,1.0
"2017-08-08",71.75,74.43,70.1,71.2,71.2,6.311462e6,0.0,1.0
"2017-08-09",70.23,71.2,66.66,67.47,67.47,4.07345e6,0.0,1.0
"2017-08-10",66.67,66.77,63.0,63.55,63.55,3.433471e6,0.0,1.0
"2017-08-11",63.61,66.89,63.02,65.84,65.84,2.832509e6,0.0,1.0
"2017-08-14",67.82,69.21,66.17,68.92,68.92,3.238871e6,0.0,1.0
"2017-08-15",71.07,71.45,67.45,68.18,68.18,3.682761e6,0.0,1.0
"2017-08-16",67.88,68.17,64.8,65.79,65.79,3.36482e6,0.0,1.0
"2017-08-17",65.0,66.57,64.26,64.51,64.51,2.031261e6,0.0,1.0
"2017-08-18",64.16,65.55,62.56,64.1,64.1,1.948216e6,0.0,1.0
"2017-08-21",63.93,64.418,60.05,60.6,60.6,3.102114e6,0.0,1.0
"2017-08-22",60.94,62.4,60.41,61.02,61.02,1.930912e6,0.0,1.0
"2017-08-23",60.29,64.25,60.121,63.51,63.51,2.256099e6,0.0,1.0
"2017-08-24",64.79,64.9,61.72,62.39,62.39,2.689803e6,0.0,1.0
"2017-08-25",62.38,62.9,61.7,62.3,62.3,1.004829e6,0.0,1.0
"2017-08-28",61.84,62.3,60.5,61.25,61.25,1.432079e6,0.0,1.0
"2017-08-29",60.03,63.34,60.01,62.69,62.69,2.71749e6,0.0,1.0
"2017-08-30",63.1,64.0,61.46,61.5,61.5,1.920323e6,0.0,1.0
"2017-08-31",61.01,61.19,58.82,59.12,59.12,3.757275e6,0.0,1.0
"2017-09-01",59.25,60.17,58.4,58.98,58.98,1.866019e6,0.0,1.0
"2017-09-05",58.39,59.0,55.13,56.09,56.09,2.742655e6,0.0,1.0
"2017-09-06",56.36,58.73,56.36,58.06,58.06,2.283556e6,0.0,1.0
"2017-09-07",58.52,59.25,56.1,56.16,56.16,1.877261e6,0.0,1.0
"2017-09-08",55.98,57.82,55.88,56.76,56.76,1.722914e6,0.0,1.0
"2017-09-11",58.0,58.39,56.94,58.11,58.11,1.245434e6,0.0,1.0
"2017-09-12",58.65,59.29,57.5,57.99,57.99,1.387211e6,0.0,1.0
"2017-09-13",57.25,60.553,56.31,59.69,59.69,2.143356e6,0.0,1.0
"2017-09-14",59.31,59.5,56.8,57.27,57.27,2.030085e6,0.0,1.0
"2017-09-15",57.25,58.9,56.9,58.3,58.3,1.84815e6,0.0,1.0
"2017-09-18",58.46,66.7,58.35,66.29,66.29,6.217795e6,0.0,1.0
"2017-09-19",67.25,71.29,65.36,67.23,67.23,6.917837e6,0.0,1.0
"2017-09-20",67.25,68.95,63.7,63.96,63.96,3.475606e6,0.0,1.0
"2017-09-21",63.99,65.39,61.3,63.6,63.6,2.60562e6,0.0,1.0
"2017-09-22",62.87,64.68,62.72,63.8,63.8,1.093609e6,0.0,1.0
"2017-09-25",62.57,63.8,59.29,61.11,61.11,2.182187e6,0.0,1.0
"2017-09-26",62.05,63.94,61.61,62.85,62.85,1.732982e6,0.0,1.0
"2017-09-27",63.96,65.68,63.873,64.73,64.73,1.898531e6,0.0,1.0
"2017-09-28",64.36,65.34,63.45,64.21,64.21,1.210374e6,0.0,1.0
"2017-09-29",64.0,66.23,64.0,64.67,64.67,1.785242e6,0.0,1.0
"2017-10-02",64.36,65.75,63.0,64.52,64.52,1.222599e6,0.0,1.0
"2017-10-03",61.97,62.78,59.82,61.73,61.73,3.390684e6,0.0,1.0
"2017-10-04",61.39,61.99,59.35,59.43,59.43,2.155885e6,0.0,1.0
"2017-10-05",59.0,59.24,56.75,56.99,56.99,2.570101e6,0.0,1.0
"2017-10-06",56.73,59.43,56.55,58.17,58.17,2.017494e6,0.0,1.0
"2017-10-09",59.24,59.399,57.9,58.79,58.79,1.45748e6,0.0,1.0
"2017-10-10",59.06,60.65,59.03,60.35,60.35,1.718989e6,0.0,1.0
"2017-10-11",60.45,62.3,60.38,61.44,61.44,1.634657e6,0.0,1.0
"2017-10-12",60.62,61.0,58.63,58.84,58.84,2.723588e6,0.0,1.0
"2017-10-13",46.55,49.77,46.0,47.01,47.01,8.672894e6,0.0,1.0
"2017-10-16",47.0,47.75,43.135,43.38,43.38,4.521625e6,0.0,1.0
"2017-10-17",42.79,45.5,42.24,43.74,43.74,2.833816e6,0.0,1.0
"2017-10-18",43.5,44.59,41.95,42.29,42.29,2.000306e6,0.0,1.0
"2017-10-19",41.64,42.83,41.05,42.17,42.17,1.823289e6,0.0,1.0
"2017-10-20",42.3,42.6,41.21,41.47,41.47,1.299014e6,0.0,1.0
"2017-10-23",41.41,42.24,40.8,41.81,41.81,1.303017e6,0.0,1.0
"2017-10-24",42.04,42.835,41.55,41.66,41.66,1.073336e6,0.0,1.0
"2017-10-25",41.51,41.98,39.6,40.43,40.43,2.315599e6,0.0,1.0
"2017-10-26",40.35,40.8,38.5,38.68,38.68,1.665137e6,0.0,1.0
"2017-10-27",38.65,39.39,37.27,39.27,39.27,2.046334e6,0.0,1.0
"2017-10-30",39.3,42.25,38.89,42.12,42.12,1.842479e6,0.0,1.0
"2017-10-31",42.44,42.99,40.57,40.74,40.74,1.606156e6,0.0,1.0
"2017-11-01",40.41,41.466,38.83,38.97,38.97,1.264176e6,0.0,1.0
"2017-11-02",39.08,42.5,39.01,39.28,39.28,2.236339e6,0.0,1.0
"2017-11-03",39.3,39.873,37.56,37.82,37.82,2.713643e6,0.0,1.0
"2017-11-06",37.58,38.72,36.7,37.8,37.8,2.387425e6,0.0,1.0
"2017-11-07",37.98,38.6,36.97,37.89,37.89,2.420912e6,0.0,1.0
"2017-11-08",40.47,44.643,39.1,43.64,43.64,7.672497e6,0.0,1.0
"2017-11-09",43.0,44.24,41.344,43.2,43.2,2.834306e6,0.0,1.0
"2017-11-10",42.67,46.072,42.55,45.3,45.3,2.963763e6,0.0,1.0
"2017-11-13",45.24,46.6,43.64,44.58,44.58,2.421287e6,0.0,1.0
"2017-11-14",43.89,44.269,42.79,43.9,43.9,1.279343e6,0.0,1.0
"2017-11-15",45.8,45.8,44.13,45.4,45.4,1.808897e6,0.0,1.0
"2017-11-16",46.0,46.112,44.21,44.8,44.8,1.190554e6,0.0,1.0
"2017-11-17",44.54,45.27,44.28,45.04,45.04,1.004908e6,0.0,1.0
"2017-11-20",44.55,45.71,43.45,43.48,43.48,1.66857e6,0.0,1.0
"2017-11-21",43.15,43.87,42.31,42.9,42.9,1.616773e6,0.0,1.0
"2017-11-22",43.0,43.539,41.69,41.95,41.95,1.058183e6,0.0,1.0
"2017-11-24",42.0,43.04,42.0,42.22,42.22,508835.0,0.0,1.0
"2017-11-27",42.21,42.45,41.18,41.24,41.24,944978.0,0.0,1.0
"2017-11-28",41.5,43.33,41.26,42.68,42.68,1.177657e6,0.0,1.0
"2017-11-29",43.06,43.72,42.32,43.3,43.3,1.360982e6,0.0,1.0
"2017-11-30",43.3,45.02,43.06,43.66,43.66,1.253856e6,0.0,1.0
"2017-12-01",43.21,43.89,41.83,43.38,43.38,1.137699e6,0.0,1.0
"2017-12-04",43.47,44.05,41.53,44.05,44.05,1.098812e6,0.0,1.0
"2017-12-05",43.82,44.2,41.58,42.46,42.46,1.13242e6,0.0,1.0
"2017-12-06",41.99,42.379,40.67,40.74,40.74,1.069583e6,0.0,1.0
"2017-12-07",40.43,40.6999,38.2,38.84,38.84,2.034426e6,0.0,1.0
"2017-12-08",39.1,39.71,38.1,38.69,38.69,1.335702e6,0.0,1.0
"2017-12-11",38.78,40.565,38.75,40.52,40.52,1.000191e6,0.0,1.0
"2017-12-12",40.0,40.9958,39.5,40.15,40.15,874774.0,0.0,1.0
"2017-12-13",40.67,41.43,40.19,40.35,40.35,885913.0,0.0,1.0
"2017-12-14",40.17,40.7499,39.0,39.09,39.09,875282.0,0.0,1.0
"2017-12-15",39.35,39.5488,38.76,38.99,38.99,1.175167e6,0.0,1.0
"2017-12-18",39.1,40.399,39.1,39.27,39.27,1.127632e6,0.0,1.0
"2017-12-19",39.41,42.57,39.31,42.07,42.07,2.167609e6,0.0,1.0
"2017-12-20",42.41,42.88,40.75,41.3,41.3,906725.0,0.0,1.0
"2017-12-21",41.35,41.94,40.2,40.52,40.52,1.074273e6,0.0,1.0
"2017-12-22",40.02,40.26,39.59,39.96,39.96,595591.0,0.0,1.0
"2017-12-26",39.51,39.91,38.58,38.91,38.91,732950.0,0.0,1.0
"2017-12-27",38.65,39.75,38.41,38.66,38.66,898763.0,0.0,1.0
"2017-12-28",38.76,39.4,38.3401,38.86,38.86,848091.0,0.0,1.0
"2017-12-29",38.6,38.86,37.36,37.82,37.82,1.485044e6,0.0,1.0
"2018-01-02",37.8,38.77,37.62,37.91,37.91,963893.0,0.0,1.0
"2018-01-03",38.27,38.34,37.42,37.89,37.89,1.030703e6,0.0,1.0
"2018-01-04",37.95,38.65,37.91,38.38,38.38,696035.0,0.0,1.0
"2018-01-05",38.7,39.1701,38.04,38.89,38.89,677692.0,0.0,1.0
"2018-01-08",38.9,38.99,37.44,38.37,38.37,898983.0,0.0,1.0
"2018-01-09",38.14,38.3,35.1,35.54,35.54,3.004054e6,0.0,1.0
"2018-01-10",35.04,35.92,33.78,35.31,35.31,1.722303e6,0.0,1.0
"2018-01-11",35.37,36.28,35.01,35.94,35.94,869787.0,0.0,1.0
"2018-01-12",36.31,36.67,35.35,35.85,35.85,835996.0,0.0,1.0
"2018-01-16",35.69,35.73,33.63,34.17,34.17,1.50906e6,0.0,1.0
"2018-01-17",34.0,35.49,33.99,34.0,34.0,1.241389e6,0.0,1.0
"2018-01-18",33.73,33.9275,32.32,32.79,32.79,1.502381e6,0.0,1.0
"2018-01-19",34.87,36.18,34.0149,35.03,35.03,2.499475e6,0.0,1.0
"2018-01-22",34.98,35.44,34.1,34.5,34.5,785854.0,0.0,1.0
"2018-01-23",34.42,35.09,33.85,35.09,35.09,695126.0,0.0,1.0
"2018-01-24",34.92,35.45,33.62,34.22,34.22,1.423892e6,0.0,1.0
"2018-01-25",34.32,35.11,34.09,35.1,35.1,594540.0,0.0,1.0
"2018-01-26",34.91,36.29,34.91,35.99,35.99,1.004935e6,0.0,1.0
"2018-01-29",34.63,34.88,33.05,33.33,33.33,1.719704e6,0.0,1.0
"2018-01-30",32.74,33.4199,32.12,32.84,32.84,960558.0,0.0,1.0
