"Date","Open","High","Low","Close","Adjusted Close","Volume","Divident Amout","Split Coefficient"
"2014-12-15",15.21,15.4,13.6,14.46,14.46,2.8949e6,0.0,1.0
"2014-12-16",14.46,14.46,13.81,13.92,13.92,1.4426e6,0.0,1.0
"2014-12-17",13.8,14.0,13.2,13.29,13.29,1.9446e6,0.0,1.0
"2014-12-18",13.24,14.17,12.91,13.76,13.76,2.0922e6,0.0,1.0
"2014-12-19",13.69,13.69,12.01,12.56,12.56,2.6197e6,0.0,1.0
"2014-12-22",12.29,12.2999,10.82,10.83,10.83,2.6462e6,0.0,1.0
"2014-12-23",10.85,12.13,10.84,11.97,11.97,2.7349e6,0.0,1.0
"2014-12-24",12.29,12.379,11.75,12.03,12.03,678900.0,0.0,1.0
"2014-12-26",12.14,12.35,11.5,11.53,11.53,779700.0,0.0,1.0
"2014-12-29",11.63,12.195,11.45,11.53,11.53,516100.0,0.0,1.0
"2014-12-30",11.4,11.95,11.3201,11.87,11.87,300400.0,0.0,1.0
"2014-12-31",11.82,12.22,11.6651,12.0,12.0,474700.0,0.0,1.0
"2015-01-02",12.0,12.8,11.9501,12.77,12.77,781300.0,0.0,1.0
"2015-01-05",12.77,13.63,12.42,13.09,13.09,1.266e6,0.0,1.0
"2015-01-06",13.21,13.349,11.88,12.16,12.16,1.1678e6,0.0,1.0
"2015-01-07",12.34,12.67,11.99,12.25,12.25,394600.0,0.0,1.0
"2015-01-08",12.38,12.38,12.06,12.08,12.08,383200.0,0.0,1.0
"2015-01-09",12.01,12.33,11.75,12.07,12.07,658400.0,0.0,1.0
"2015-01-12",12.09,12.43,11.76,11.97,11.97,366100.0,0.0,1.0
"2015-01-13",12.0,12.07,10.05,10.78,10.78,1.3213e6,0.0,1.0
"2015-01-14",10.58,10.88,10.3,10.73,10.73,653400.0,0.0,1.0
"2015-01-15",10.71,11.4,10.08,11.12,11.12,530200.0,0.0,1.0
"2015-01-16",11.06,11.1888,10.76,10.95,10.95,149700.0,0.0,1.0
"2015-01-20",10.91,11.15,10.58,10.91,10.91,270300.0,0.0,1.0
"2015-01-21",10.85,11.34,10.7001,11.2,11.2,208800.0,0.0,1.0
"2015-01-22",11.28,11.28,10.75,10.81,10.81,712000.0,0.0,1.0
"2015-01-23",10.74,10.9,10.21,10.49,10.49,761900.0,0.0,1.0
"2015-01-26",10.4,10.67,10.25,10.33,10.33,226200.0,0.0,1.0
"2015-01-27",10.2,10.2499,9.8,10.02,10.02,608100.0,0.0,1.0
"2015-01-28",10.01,10.46,10.01,10.28,10.28,571000.0,0.0,1.0
"2015-01-29",10.22,10.28,9.7,9.94,9.94,710100.0,0.0,1.0
"2015-01-30",9.92,10.0,9.818,9.84,9.84,250100.0,0.0,1.0
"2015-02-02",9.84,9.98,9.72,9.82,9.82,285300.0,0.0,1.0
"2015-02-03",9.94,10.35,9.79,10.19,10.19,316300.0,0.0,1.0
"2015-02-04",10.3,11.73,10.11,10.71,10.71,704500.0,0.0,1.0
"2015-02-05",10.7,11.17,10.46,10.48,10.48,393200.0,0.0,1.0
"2015-02-06",10.56,10.83,10.3,10.335,10.335,194400.0,0.0,1.0
"2015-02-09",10.31,10.5,10.31,10.38,10.38,130000.0,0.0,1.0
"2015-02-10",10.4,10.64,10.18,10.27,10.27,183100.0,0.0,1.0
"2015-02-11",10.23,10.4413,10.18,10.25,10.25,81800.0,0.0,1.0
"2015-02-12",10.39,11.59,10.33,11.49,11.49,598400.0,0.0,1.0
"2015-02-13",11.6,12.17,11.01,11.02,11.02,754800.0,0.0,1.0
"2015-02-17",11.12,11.364,11.0,11.22,11.22,148200.0,0.0,1.0
"2015-02-18",11.3,11.3,11.09,11.21,11.21,98900.0,0.0,1.0
"2015-02-19",11.12,11.4049,11.11,11.15,11.15,47500.0,0.0,1.0
"2015-02-20",11.4,11.58,11.11,11.5,11.5,204500.0,0.0,1.0
"2015-02-23",11.5,11.73,11.4138,11.5,11.5,175900.0,0.0,1.0
"2015-02-24",11.6,12.28,11.5,12.27,12.27,420700.0,0.0,1.0
"2015-02-25",12.3,12.71,12.04,12.52,12.52,520000.0,0.0,1.0
"2015-02-26",12.72,12.81,12.4,12.52,12.52,773300.0,0.0,1.0
"2015-02-27",12.33,12.615,11.25,11.31,11.31,349700.0,0.0,1.0
"2015-03-02",11.85,12.88,11.4,12.0,12.0,722300.0,0.0,1.0
"2015-03-03",11.89,12.45,11.71,12.18,12.18,1.3829e6,0.0,1.0
"2015-03-04",12.07,12.8499,12.03,12.55,12.55,1.168e6,0.0,1.0
"2015-03-05",12.6,12.6,10.5,11.09,11.09,1.9829e6,0.0,1.0
"2015-03-06",10.69,11.25,10.58,11.03,11.03,996100.0,0.0,1.0
"2015-03-09",10.99,11.08,10.7,10.93,10.93,336700.0,0.0,1.0
"2015-03-10",10.85,10.95,10.37,10.44,10.44,768600.0,0.0,1.0
"2015-03-11",10.5,10.69,10.3,10.62,10.62,1.0956e6,0.0,1.0
"2015-03-12",10.57,10.66,10.2,10.28,10.28,257500.0,0.0,1.0
"2015-03-13",10.3,10.5,10.0,10.02,10.02,502000.0,0.0,1.0
"2015-03-16",10.0,10.55,10.0,10.3,10.3,449300.0,0.0,1.0
"2015-03-17",10.3,10.3,10.0,10.0,10.0,255400.0,0.0,1.0
"2015-03-18",10.2,10.2,9.83,10.01,10.01,250100.0,0.0,1.0
"2015-03-19",10.0,10.19,9.96,10.02,10.02,159000.0,0.0,1.0
"2015-03-20",10.27,10.55,10.04,10.41,10.41,346100.0,0.0,1.0
"2015-03-23",10.38,10.5,9.96,10.4,10.4,733300.0,0.0,1.0
"2015-03-24",10.35,10.5,10.09,10.44,10.44,434000.0,0.0,1.0
"2015-03-25",10.23,10.44,10.1,10.29,10.29,276600.0,0.0,1.0
"2015-03-26",10.08,10.53,10.06,10.52,10.52,271300.0,0.0,1.0
"2015-03-27",10.46,10.88,10.418,10.7,10.7,321000.0,0.0,1.0
"2015-03-30",10.68,10.88,10.4,10.5,10.5,277700.0,0.0,1.0
"2015-03-31",10.52,10.64,10.4,10.6,10.6,306200.0,0.0,1.0
"2015-04-01",10.63,10.74,10.15,10.59,10.59,313500.0,0.0,1.0
"2015-04-02",10.38,10.65,9.5,10.51,10.51,978200.0,0.0,1.0
"2015-04-06",10.43,10.99,10.35,10.85,10.85,267100.0,0.0,1.0
"2015-04-07",10.61,10.9,10.46,10.5,10.5,159500.0,0.0,1.0
"2015-04-08",10.34,11.49,10.34,11.17,11.17,469900.0,0.0,1.0
"2015-04-09",11.11,12.12,10.9,11.96,11.96,794200.0,0.0,1.0
"2015-04-10",12.0,12.18,11.52,11.52,11.52,192500.0,0.0,1.0
"2015-04-13",11.49,11.93,10.92,11.2,11.2,348300.0,0.0,1.0
"2015-04-14",11.06,11.46,10.9301,11.41,11.41,184300.0,0.0,1.0
"2015-04-15",11.39,11.39,10.9,10.99,10.99,365200.0,0.0,1.0
"2015-04-16",11.03,11.4,10.9524,11.26,11.26,232600.0,0.0,1.0
"2015-04-17",11.16,11.47,10.86,10.92,10.92,210400.0,0.0,1.0
"2015-04-20",11.0,11.2672,10.75,10.99,10.99,309500.0,0.0,1.0
"2015-04-21",11.09,11.1384,10.94,11.0,11.0,277000.0,0.0,1.0
"2015-04-22",11.07,11.73,10.955,11.2,11.2,706600.0,0.0,1.0
"2015-04-23",11.1,11.8,11.1,11.39,11.39,566700.0,0.0,1.0
"2015-04-24",11.4,12.47,11.4,12.41,12.41,591200.0,0.0,1.0
"2015-04-27",12.4,12.4,11.81,11.93,11.93,543200.0,0.0,1.0
"2015-04-28",12.52,12.727,11.6,11.7,11.7,528200.0,0.0,1.0
"2015-04-29",11.53,11.73,11.3,11.36,11.36,204100.0,0.0,1.0
"2015-04-30",11.3,11.42,10.9,11.05,11.05,319700.0,0.0,1.0
"2015-05-01",11.05,11.31,10.9,11.17,11.17,200100.0,0.0,1.0
"2015-05-04",11.21,11.45,11.07,11.26,11.26,756300.0,0.0,1.0
"2015-05-05",11.25,11.26,10.56,10.88,10.88,195600.0,0.0,1.0
"2015-05-06",10.85,11.1,10.67,10.96,10.96,115200.0,0.0,1.0
"2015-05-07",11.0,11.25,10.8,10.93,10.93,121100.0,0.0,1.0
"2015-05-08",11.01,11.5,10.96,11.29,11.29,227500.0,0.0,1.0
"2015-05-11",11.32,11.59,11.01,11.07,11.07,414400.0,0.0,1.0
"2015-05-12",11.0,11.31,10.82,11.1,11.1,298700.0,0.0,1.0
"2015-05-13",11.18,11.3299,10.96,10.98,10.98,228400.0,0.0,1.0
"2015-05-14",11.06,12.48,10.88,12.38,12.38,1.0402e6,0.0,1.0
"2015-05-15",12.49,12.75,11.7301,12.39,12.39,702000.0,0.0,1.0
"2015-05-18",12.3,13.16,12.01,12.82,12.82,1.5013e6,0.0,1.0
"2015-05-19",15.22,16.35,14.55,16.27,16.27,9.3338e6,0.0,1.0
"2015-05-20",15.82,19.1461,15.36,17.2,17.2,6.2627e6,0.0,1.0
"2015-05-21",17.6,18.37,16.22,16.85,16.85,2.2449e6,0.0,1.0
"2015-05-22",16.98,18.65,16.98,17.9,17.9,2.0602e6,0.0,1.0
"2015-05-26",17.89,19.38,17.29,18.94,18.94,2.3191e6,0.0,1.0
"2015-05-27",18.88,19.89,18.35,19.11,19.11,1.2533e6,0.0,1.0
"2015-05-28",18.7,18.71,16.6905,18.34,18.34,1.7183e6,0.0,1.0
"2015-05-29",18.43,19.09,17.77,18.06,18.06,806300.0,0.0,1.0
"2015-06-01",18.5,18.9,16.95,17.02,17.02,1.3398e6,0.0,1.0
"2015-06-02",17.07,17.9,16.91,17.05,17.05,913700.0,0.0,1.0
"2015-06-03",17.28,17.6,16.9101,17.51,17.51,605700.0,0.0,1.0
"2015-06-04",17.32,18.09,16.92,16.98,16.98,1.0754e6,0.0,1.0
"2015-06-05",17.0,18.1,16.51,17.13,17.13,2.0551e6,0.0,1.0
"2015-06-08",17.3,18.12,17.01,17.04,17.04,1.4964e6,0.0,1.0
"2015-06-09",16.56,16.68,15.06,16.0,16.0,3.9321e6,0.0,1.0
"2015-06-10",15.61,16.1,15.6,15.8,15.8,1.8038e6,0.0,1.0
"2015-06-11",15.8,16.0,15.39,15.46,15.46,2.2546e6,0.0,1.0
"2015-06-12",15.45,15.97,15.15,15.65,15.65,3.3912e6,0.0,1.0
"2015-06-15",15.82,15.88,15.11,15.63,15.63,3.1105e6,0.0,1.0
"2015-06-16",15.51,15.78,15.13,15.6,15.6,2.0111e6,0.0,1.0
"2015-06-17",15.9,17.09,15.84,16.41,16.41,4.3709e6,0.0,1.0
"2015-06-18",16.5,17.38,16.3356,16.99,16.99,2.0256e6,0.0,1.0
"2015-06-19",16.92,17.3,16.6,16.83,16.83,2.6737e6,0.0,1.0
"2015-06-22",16.86,17.0,15.64,15.69,15.69,1.566e6,0.0,1.0
"2015-06-23",17.26,17.8,17.08,17.24,17.24,6.2642e6,0.0,1.0
"2015-06-24",17.24,17.57,17.16,17.22,17.22,1.2868e6,0.0,1.0
"2015-06-25",17.1,17.25,16.85,17.06,17.06,1.1693e6,0.0,1.0
"2015-06-26",16.88,16.93,16.25,16.53,16.53,1.1814e6,0.0,1.0
"2015-06-29",16.05,16.5,15.8,15.83,15.83,1.201e6,0.0,1.0
"2015-06-30",16.2,16.66,15.93,16.1,16.1,1.2146e6,0.0,1.0
"2015-07-01",16.14,16.4,15.8,15.88,15.88,896000.0,0.0,1.0
"2015-07-02",16.0,16.207,15.83,16.11,16.11,341800.0,0.0,1.0
"2015-07-06",15.8,15.82,14.5401,14.75,14.75,2.094e6,0.0,1.0
"2015-07-07",14.58,15.17,12.8,13.96,13.96,2.5473e6,0.0,1.0
"2015-07-08",12.91,13.94,12.91,13.68,13.68,1.1762e6,0.0,1.0
"2015-07-09",15.45,16.25,15.024,15.05,15.05,1.5888e6,0.0,1.0
"2015-07-10",15.51,15.77,15.1501,15.28,15.28,859900.0,0.0,1.0
"2015-07-13",15.5,15.94,15.28,15.73,15.73,402500.0,0.0,1.0
"2015-07-14",15.62,16.22,15.5709,16.1,16.1,962500.0,0.0,1.0
"2015-07-15",16.0,16.0,15.18,15.57,15.57,1.1448e6,0.0,1.0
"2015-07-16",15.73,15.98,15.72,15.77,15.77,769500.0,0.0,1.0
"2015-07-17",16.0,16.15,15.63,16.0,16.0,612600.0,0.0,1.0
"2015-07-20",15.99,16.38,15.67,15.93,15.93,604900.0,0.0,1.0
"2015-07-21",15.86,16.0,15.7,15.93,15.93,291300.0,0.0,1.0
"2015-07-22",15.73,16.24,15.73,16.2,16.2,184700.0,0.0,1.0
"2015-07-23",16.25,16.65,15.91,16.0,16.0,481900.0,0.0,1.0
"2015-07-24",15.99,16.14,15.81,15.97,15.97,188600.0,0.0,1.0
"2015-07-27",15.6,15.88,15.33,15.72,15.72,414100.0,0.0,1.0
"2015-07-28",15.71,16.02,15.4117,15.94,15.94,398200.0,0.0,1.0
"2015-07-29",15.93,16.27,15.68,16.06,16.06,212000.0,0.0,1.0
"2015-07-30",15.81,16.32,15.8001,16.18,16.18,385300.0,0.0,1.0
"2015-07-31",16.15,16.35,16.1,16.19,16.19,151300.0,0.0,1.0
"2015-08-03",16.14,16.58,15.92,16.52,16.52,503800.0,0.0,1.0
"2015-08-04",16.42,16.58,16.32,16.46,16.46,325400.0,0.0,1.0
"2015-08-05",16.46,17.0,16.32,16.4,16.4,533700.0,0.0,1.0
"2015-08-06",16.34,16.584,15.88,16.04,16.04,287600.0,0.0,1.0
"2015-08-07",16.03,16.32,15.93,15.95,15.95,188400.0,0.0,1.0
"2015-08-10",16.15,16.52,16.0,16.47,16.47,160100.0,0.0,1.0
"2015-08-11",16.3,16.5,15.8,15.89,15.89,249300.0,0.0,1.0
"2015-08-12",15.7,15.95,15.6,15.68,15.68,632500.0,0.0,1.0
"2015-08-13",15.67,16.02,15.67,15.72,15.72,373100.0,0.0,1.0
"2015-08-14",15.63,16.22,15.63,16.13,16.13,293900.0,0.0,1.0
"2015-08-17",16.08,16.52,16.08,16.36,16.36,543900.0,0.0,1.0
"2015-08-18",16.17,16.3091,15.9,16.12,16.12,287900.0,0.0,1.0
"2015-08-19",15.98,16.25,15.65,15.98,15.98,776700.0,0.0,1.0
"2015-08-20",15.5,15.98,14.65,14.81,14.81,2.5392e6,0.0,1.0
"2015-08-21",14.68,14.69,13.3,13.78,13.78,1.788e6,0.0,1.0
"2015-08-24",12.4,12.9,10.71,12.29,12.29,2.2228e6,0.0,1.0
"2015-08-25",13.07,13.26,12.4,12.42,12.42,571500.0,0.0,1.0
"2015-08-26",12.65,12.74,11.55,11.94,11.94,832600.0,0.0,1.0
"2015-08-27",12.68,12.97,12.0,12.3,12.3,1.5006e6,0.0,1.0
"2015-08-28",12.11,12.6,12.11,12.37,12.37,430300.0,0.0,1.0
"2015-08-31",12.35,12.428,11.63,11.66,11.66,393700.0,0.0,1.0
"2015-09-01",11.4,11.59,11.11,11.28,11.28,594200.0,0.0,1.0
"2015-09-02",11.33,11.609,10.89,10.99,10.99,420800.0,0.0,1.0
"2015-09-03",11.0,11.08,10.85,10.97,10.97,202500.0,0.0,1.0
"2015-09-04",10.87,10.94,10.55,10.84,10.84,300700.0,0.0,1.0
"2015-09-08",11.32,11.56,10.91,10.99,10.99,1.0402e6,0.0,1.0
"2015-09-09",11.2,11.64,11.2,11.53,11.53,794200.0,0.0,1.0
"2015-09-10",11.44,11.6,11.19,11.56,11.56,513700.0,0.0,1.0
"2015-09-11",11.54,11.54,11.24,11.52,11.52,444500.0,0.0,1.0
"2015-09-14",11.5,11.55,10.94,11.02,11.02,569600.0,0.0,1.0
"2015-09-15",11.05,11.16,10.69,10.98,10.98,439100.0,0.0,1.0
"2015-09-16",11.06,11.27,10.92,11.0,11.0,1.001e6,0.0,1.0
"2015-09-17",10.91,11.25,10.91,11.04,11.04,365900.0,0.0,1.0
"2015-09-18",10.87,11.06,10.87,10.99,10.99,149200.0,0.0,1.0
"2015-09-21",11.1,11.56,10.99,11.04,11.04,507700.0,0.0,1.0
"2015-09-22",10.95,11.305,10.89,11.06,11.06,576300.0,0.0,1.0
"2015-09-23",11.04,11.12,10.88,10.96,10.96,264300.0,0.0,1.0
"2015-09-24",10.95,12.17,10.95,12.04,12.04,1.0657e6,0.0,1.0
"2015-09-25",12.04,13.65,12.04,12.46,12.46,1.2705e6,0.0,1.0
"2015-09-28",12.32,12.6299,11.78,12.05,12.05,543200.0,0.0,1.0
"2015-09-29",11.99,12.19,11.82,12.11,12.11,215200.0,0.0,1.0
"2015-09-30",12.2,12.77,12.162,12.5,12.5,772800.0,0.0,1.0
"2015-10-01",12.55,12.74,12.36,12.49,12.49,384700.0,0.0,1.0
"2015-10-02",12.6,13.18,12.5,13.0,13.0,747600.0,0.0,1.0
"2015-10-05",13.14,13.5,12.82,13.0,13.0,984700.0,0.0,1.0
"2015-10-06",13.07,13.16,12.91,13.0,13.0,504200.0,0.0,1.0
"2015-10-07",13.23,13.33,12.72,12.98,12.98,1.0305e6,0.0,1.0
"2015-10-08",12.9,13.07,12.72,12.98,12.98,472100.0,0.0,1.0
"2015-10-09",13.01,13.25,12.51,12.62,12.62,1.3937e6,0.0,1.0
"2015-10-12",12.75,13.57,12.75,13.5,13.5,894700.0,0.0,1.0
"2015-10-13",13.42,13.62,13.19,13.32,13.32,734500.0,0.0,1.0
"2015-10-14",13.37,13.54,12.665,12.78,12.78,883200.0,0.0,1.0
"2015-10-15",12.88,13.3,12.75,13.01,13.01,806700.0,0.0,1.0
"2015-10-16",13.2,13.51,13.01,13.11,13.11,1.0171e6,0.0,1.0
"2015-10-19",13.12,13.3,12.88,13.19,13.19,673500.0,0.0,1.0
"2015-10-20",13.23,13.3223,13.1,13.14,13.14,402200.0,0.0,1.0
"2015-10-21",13.14,13.14,12.73,12.86,12.86,420400.0,0.0,1.0
"2015-10-22",12.99,13.08,12.62,12.69,12.69,559100.0,0.0,1.0
"2015-10-23",13.0,13.1,12.61,12.75,12.75,585300.0,0.0,1.0
"2015-10-26",12.69,12.95,12.5,12.65,12.65,907400.0,0.0,1.0
"2015-10-27",12.65,12.86,12.54,12.84,12.84,424600.0,0.0,1.0
"2015-10-28",12.9,12.9,12.6601,12.78,12.78,419200.0,0.0,1.0
"2015-10-29",12.66,13.55,12.66,13.27,13.27,1.1338e6,0.0,1.0
"2015-10-30",13.32,13.64,13.3,13.43,13.43,730600.0,0.0,1.0
"2015-11-02",13.4,13.428,12.8,12.89,12.89,1.0741e6,0.0,1.0
"2015-11-03",12.92,13.42,12.91,13.34,13.34,588900.0,0.0,1.0
"2015-11-04",13.35,14.03,13.31,13.79,13.79,1.7776e6,0.0,1.0
"2015-11-05",13.67,13.98,13.28,13.42,13.42,422700.0,0.0,1.0
"2015-11-06",13.73,14.28,13.66,14.19,14.19,965800.0,0.0,1.0
"2015-11-09",14.27,14.42,13.17,13.3,13.3,1.5004e6,0.0,1.0
"2015-11-10",13.35,13.6,13.06,13.18,13.18,756700.0,0.0,1.0
"2015-11-11",13.26,13.26,12.75,12.78,12.78,1.561e6,0.0,1.0
"2015-11-12",12.91,13.318,12.73,13.25,13.25,758500.0,0.0,1.0
"2015-11-13",12.99,13.42,12.6,12.67,12.67,988500.0,0.0,1.0
"2015-11-16",12.6,12.83,12.16,12.62,12.62,1.7916e6,0.0,1.0
"2015-11-17",12.62,13.05,12.37,12.6,12.6,906600.0,0.0,1.0
"2015-11-18",12.55,12.79,12.51,12.63,12.63,775500.0,0.0,1.0
"2015-11-19",12.78,13.015,12.51,12.82,12.82,1.8877e6,0.0,1.0
"2015-11-20",12.65,13.1699,12.62,12.9,12.9,1.4314e6,0.0,1.0
"2015-11-23",12.88,14.09,12.85,13.95,13.95,1.4753e6,0.0,1.0
"2015-11-24",13.56,13.8225,13.22,13.42,13.42,1.4641e6,0.0,1.0
"2015-11-25",13.18,13.65,13.16,13.4,13.4,1.1428e6,0.0,1.0
"2015-11-27",13.2,13.38,12.99,13.2,13.2,657200.0,0.0,1.0
"2015-11-30",13.21,13.68,13.1501,13.27,13.27,1.614e6,0.0,1.0
"2015-12-01",13.61,14.21,13.57,13.96,13.96,1.9022e6,0.0,1.0
"2015-12-02",13.89,14.13,13.83,13.93,13.93,1.5607e6,0.0,1.0
"2015-12-03",14.07,14.28,13.91,14.09,14.09,2.1399e6,0.0,1.0
"2015-12-04",14.03,14.36,14.03,14.23,14.23,1.9042e6,0.0,1.0
"2015-12-07",14.35,15.22,14.35,15.14,15.14,1.9155e6,0.0,1.0
"2015-12-08",14.98,15.25,14.85,15.15,15.15,2.0282e6,0.0,1.0
"2015-12-09",15.15,15.33,14.9,14.99,14.99,1.0216e6,0.0,1.0
"2015-12-10",15.0,15.04,14.6,14.92,14.92,1.1602e6,0.0,1.0
"2015-12-11",14.99,15.03,14.22,14.68,14.68,886400.0,0.0,1.0
"2015-12-14",14.7,15.09,14.651,15.02,15.02,802700.0,0.0,1.0
"2015-12-15",15.1,15.5,14.98,15.47,15.47,1.131e6,0.0,1.0
"2015-12-16",15.5,15.8798,15.48,15.67,15.67,841100.0,0.0,1.0
"2015-12-17",15.86,15.86,15.23,15.32,15.32,682700.0,0.0,1.0
"2015-12-18",15.6,15.98,15.32,15.65,15.65,1.2046e6,0.0,1.0
"2015-12-21",15.87,16.25,15.79,16.05,16.05,1.5896e6,0.0,1.0
"2015-12-22",16.03,16.5,16.03,16.46,16.46,1.446e6,0.0,1.0
"2015-12-23",16.49,16.5,16.23,16.42,16.42,1.0462e6,0.0,1.0
"2015-12-24",16.37,16.59,16.26,16.49,16.49,423400.0,0.0,1.0
"2015-12-28",16.42,16.49,16.0,16.04,16.04,798700.0,0.0,1.0
"2015-12-29",16.11,16.25,16.0,16.13,16.13,604400.0,0.0,1.0
"2015-12-30",16.15,16.15,15.97,16.05,16.05,660800.0,0.0,1.0
"2015-12-31",16.0,16.12,16.0,16.02,16.02,706800.0,0.0,1.0
"2016-01-04",15.65,15.65,15.2,15.46,15.46,1.4717e6,0.0,1.0
"2016-01-05",15.55,16.07,15.483,15.64,15.64,950700.0,0.0,1.0
"2016-01-06",15.46,15.9,15.3201,15.55,15.55,1.0376e6,0.0,1.0
"2016-01-07",15.15,15.34,14.4,14.41,14.41,1.7732e6,0.0,1.0
"2016-01-08",14.96,14.99,14.29,14.33,14.33,1.6068e6,0.0,1.0
"2016-01-11",14.03,14.04,13.09,13.44,13.44,2.8371e6,0.0,1.0
"2016-01-12",13.35,13.88,13.21,13.79,13.79,1.7714e6,0.0,1.0
"2016-01-13",13.72,14.005,13.49,13.6,13.6,1.1156e6,0.0,1.0
"2016-01-14",13.8,13.8,13.2,13.51,13.51,841900.0,0.0,1.0
"2016-01-15",13.44,13.44,12.71,12.99,12.99,1.2055e6,0.0,1.0
"2016-01-19",13.48,13.75,12.49,12.8,12.8,1.9294e6,0.0,1.0
"2016-01-20",12.6,12.8,11.55,12.29,12.29,1.8723e6,0.0,1.0
"2016-01-21",12.2,12.96,11.8,12.48,12.48,988400.0,0.0,1.0
"2016-01-22",12.81,12.99,12.3999,12.4,12.4,1.1498e6,0.0,1.0
"2016-01-25",12.48,12.51,12.06,12.08,12.08,678700.0,0.0,1.0
"2016-01-26",12.01,12.4,11.78,12.37,12.37,734600.0,0.0,1.0
"2016-01-27",12.34,12.39,11.89,11.93,11.93,512200.0,0.0,1.0
"2016-01-28",11.98,12.15,11.67,11.75,11.75,587300.0,0.0,1.0
"2016-01-29",11.81,12.1,11.71,11.91,11.91,545700.0,0.0,1.0
"2016-02-01",11.79,11.97,11.59,11.76,11.76,637500.0,0.0,1.0
"2016-02-02",11.75,11.78,11.13,11.17,11.17,1.2948e6,0.0,1.0
"2016-02-03",11.18,11.2,10.33,10.64,10.64,1.7097e6,0.0,1.0
"2016-02-04",10.66,11.03,10.49,10.87,10.87,1.4358e6,0.0,1.0
"2016-02-05",10.84,11.02,10.4,10.43,10.43,1.2432e6,0.0,1.0
"2016-02-08",10.38,10.38,9.265,9.48,9.48,1.4739e6,0.0,1.0
"2016-02-09",9.34,9.75,7.975,8.09,8.09,2.7254e6,0.0,1.0
"2016-02-10",8.3,8.321,7.78,7.94,7.94,1.6535e6,0.0,1.0
"2016-02-11",7.8,7.98,6.72,7.79,7.79,3.2975e6,0.0,1.0
"2016-02-12",8.07,8.07,7.35,7.49,7.49,1.7528e6,0.0,1.0
"2016-02-16",7.87,8.84,7.81,8.77,8.77,1.9104e6,0.0,1.0
"2016-02-17",8.88,9.46,8.41,9.15,9.15,2.1142e6,0.0,1.0
"2016-02-18",9.15,9.23,8.96,9.02,9.02,539400.0,0.0,1.0
"2016-02-19",9.03,9.29,8.78,9.26,9.26,668900.0,0.0,1.0
"2016-02-22",9.41,10.35,9.41,10.02,10.02,1.4184e6,0.0,1.0
"2016-02-23",11.3,12.26,11.16,12.0,12.0,6.8772e6,0.0,1.0
"2016-02-24",12.03,12.12,11.11,12.09,12.09,2.5988e6,0.0,1.0
"2016-02-25",11.33,11.94,11.24,11.93,11.93,1.2952e6,0.0,1.0
"2016-02-26",12.33,12.45,11.87,11.96,11.96,1.1084e6,0.0,1.0
"2016-02-29",11.9,12.02,11.66,11.78,11.78,845800.0,0.0,1.0
"2016-03-01",11.82,12.15,11.79,12.01,12.01,1.1098e6,0.0,1.0
"2016-03-02",12.22,12.29,11.91,12.16,12.16,724900.0,0.0,1.0
"2016-03-03",12.16,13.2,12.09,12.65,12.65,2.6146e6,0.0,1.0
"2016-03-04",12.42,13.75,12.42,13.58,13.58,1.9016e6,0.0,1.0
"2016-03-07",14.0,14.72,12.8,13.34,13.34,4.1863e6,0.0,1.0
"2016-03-08",13.27,13.88,13.27,13.51,13.51,1.1663e6,0.0,1.0
"2016-03-09",13.59,13.93,13.1,13.52,13.52,909600.0,0.0,1.0
"2016-03-10",13.45,13.5,12.42,12.81,12.81,1.3119e6,0.0,1.0
"2016-03-11",13.11,13.185,12.63,13.14,13.14,731200.0,0.0,1.0
"2016-03-14",13.06,13.3,12.96,13.16,13.16,850000.0,0.0,1.0
"2016-03-15",12.91,12.91,11.65,12.04,12.04,2.5595e6,0.0,1.0
"2016-03-16",11.75,12.34,11.67,12.25,12.25,941300.0,0.0,1.0
"2016-03-17",12.0,12.04,11.65,11.97,11.97,858600.0,0.0,1.0
"2016-03-18",12.0,12.91,11.9,12.79,12.79,1.2234e6,0.0,1.0
"2016-03-21",12.76,13.0,12.66,12.88,12.88,755200.0,0.0,1.0
"2016-03-22",12.8,12.9,12.67,12.73,12.73,449200.0,0.0,1.0
"2016-03-23",12.75,12.81,12.05,12.17,12.17,865100.0,0.0,1.0
"2016-03-24",12.0,12.28,11.72,12.18,12.18,744800.0,0.0,1.0
"2016-03-28",12.1,12.16,11.76,11.91,11.91,513800.0,0.0,1.0
"2016-03-29",11.86,11.86,11.44,11.51,11.51,1.3407e6,0.0,1.0
"2016-03-30",11.69,12.1199,11.4,11.43,11.43,1.5889e6,0.0,1.0
"2016-03-31",11.49,11.58,11.09,11.24,11.24,960600.0,0.0,1.0
"2016-04-01",11.09,11.21,10.57,10.93,10.93,1.4926e6,0.0,1.0
"2016-04-04",10.98,12.26,10.97,12.19,12.19,4.1085e6,0.0,1.0
"2016-04-05",12.07,12.16,11.52,12.04,12.04,1.8488e6,0.0,1.0
"2016-04-06",14.2,16.26,14.1,16.09,16.09,1.56119e7,0.0,1.0
"2016-04-07",16.02,16.4,15.61,16.31,16.31,3.8858e6,0.0,1.0
"2016-04-08",16.15,16.74,16.15,16.42,16.42,1.7928e6,0.0,1.0
"2016-04-11",16.56,16.73,16.34,16.58,16.58,1.1374e6,0.0,1.0
"2016-04-12",16.65,16.66,16.3,16.41,16.41,1.4115e6,0.0,1.0
"2016-04-13",16.5,16.63,16.25,16.41,16.41,885200.0,0.0,1.0
"2016-04-14",16.4,16.49,16.2901,16.43,16.43,631200.0,0.0,1.0
"2016-04-15",16.5,16.5,16.4,16.49,16.49,347600.0,0.0,1.0
"2016-04-18",16.38,16.66,16.37,16.63,16.63,673700.0,0.0,1.0
"2016-04-19",16.66,16.66,16.42,16.51,16.51,557300.0,0.0,1.0
"2016-04-20",16.5,16.55,16.41,16.51,16.51,503700.0,0.0,1.0
"2016-04-21",16.45,16.57,16.45,16.52,16.52,425400.0,0.0,1.0
"2016-04-22",16.49,16.5401,16.435,16.45,16.45,575300.0,0.0,1.0
"2016-04-25",16.48,16.52,16.4,16.49,16.49,665700.0,0.0,1.0
"2016-04-26",16.5,16.55,16.42,16.53,16.53,853400.0,0.0,1.0
"2016-04-27",16.5,16.55,16.44,16.5,16.5,620300.0,0.0,1.0
"2016-04-28",16.55,16.6401,16.48,16.51,16.51,640700.0,0.0,1.0
"2016-04-29",16.5,16.62,16.41,16.44,16.44,768200.0,0.0,1.0
"2016-05-02",16.43,16.49,16.4,16.46,16.46,491400.0,0.0,1.0
"2016-05-03",16.46,16.58,16.39,16.44,16.44,466400.0,0.0,1.0
"2016-05-04",16.43,16.58,16.41,16.46,16.46,811300.0,0.0,1.0
"2016-05-05",16.46,16.54,13.82,15.57,15.57,6.4372e6,0.0,1.0
"2016-05-06",14.52,14.99,14.31,14.58,14.58,2.9967e6,0.0,1.0
"2016-05-09",14.49,14.5,12.12,12.27,12.27,5.3337e6,0.0,1.0
"2016-05-10",12.93,13.4,12.59,13.08,13.08,2.1993e6,0.0,1.0
"2016-05-11",12.5,12.63,10.65,10.76,10.76,5.952e6,0.0,1.0
"2016-05-12",10.79,11.59,10.76,11.4,11.4,6.066e6,0.0,1.0
"2016-05-13",12.44,12.76,11.52,11.68,11.68,2.2145e6,0.0,1.0
"2016-05-16",11.9,12.3,11.81,12.01,12.01,2.4958e6,0.0,1.0
"2016-05-17",12.47,13.07,11.85,12.99,12.99,3.726e6,0.0,1.0
"2016-05-18",12.85,13.11,12.6,13.04,13.04,1.9457e6,0.0,1.0
"2016-05-19",12.88,13.04,12.0,12.16,12.16,1.6227e6,0.0,1.0
"2016-05-20",12.17,12.68,12.06,12.67,12.67,1.0298e6,0.0,1.0
"2016-05-23",12.57,12.79,12.21,12.35,12.35,723800.0,0.0,1.0
"2016-05-24",12.35,12.98,12.05,12.9,12.9,1.2713e6,0.0,1.0
"2016-05-25",12.6,12.65,11.91,11.99,11.99,1.4184e6,0.0,1.0
"2016-05-26",12.02,12.4797,11.957,12.34,12.34,595100.0,0.0,1.0
"2016-05-27",12.17,12.66,12.1,12.57,12.57,580700.0,0.0,1.0
"2016-05-31",12.62,12.79,12.45,12.78,12.78,1.0658e6,0.0,1.0
"2016-06-01",12.65,12.88,12.45,12.63,12.63,743600.0,0.0,1.0
"2016-06-02",12.74,12.75,12.56,12.67,12.67,264400.0,0.0,1.0
"2016-06-03",12.6,12.63,12.37,12.53,12.53,362800.0,0.0,1.0
"2016-06-06",12.6,13.0,12.5,12.92,12.92,634500.0,0.0,1.0
"2016-06-07",12.81,12.9147,12.7,12.82,12.82,313200.0,0.0,1.0
"2016-06-08",12.78,12.8499,12.545,12.61,12.61,309100.0,0.0,1.0
"2016-06-09",12.56,12.75,12.46,12.54,12.54,190300.0,0.0,1.0
"2016-06-10",12.41,12.44,12.15,12.18,12.18,679500.0,0.0,1.0
"2016-06-13",12.1,12.5697,12.1,12.37,12.37,371300.0,0.0,1.0
"2016-06-14",12.29,12.34,11.77,12.02,12.02,602800.0,0.0,1.0
"2016-06-15",11.89,12.12,11.8,12.08,12.08,708900.0,0.0,1.0
"2016-06-16",11.93,12.04,11.02,11.17,11.17,1.1243e6,0.0,1.0
"2016-06-17",11.23,11.52,11.09,11.45,11.45,768300.0,0.0,1.0
"2016-06-20",11.47,11.87,11.298,11.51,11.51,446000.0,0.0,1.0
"2016-06-21",11.58,11.6652,11.17,11.22,11.22,321800.0,0.0,1.0
"2016-06-22",11.28,11.28,10.68,10.75,10.75,1.1446e6,0.0,1.0
"2016-06-23",10.84,10.97,10.5,10.74,10.74,1.2186e6,0.0,1.0
"2016-06-24",10.08,10.82,9.9,10.7,10.7,1.2463e6,0.0,1.0
"2016-06-27",10.55,10.61,10.15,10.24,10.24,878200.0,0.0,1.0
"2016-06-28",10.3,10.62,10.3,10.43,10.43,482300.0,0.0,1.0
"2016-06-29",10.53,10.62,10.01,10.18,10.18,739600.0,0.0,1.0
"2016-06-30",10.0,10.27,9.68,10.11,10.11,1.1107e6,0.0,1.0
"2016-07-01",10.1,10.17,9.86,9.95,9.95,598600.0,0.0,1.0
"2016-07-05",9.95,10.0025,8.88,9.36,9.36,1.2048e6,0.0,1.0
"2016-07-06",9.34,9.97,9.04,9.91,9.91,948100.0,0.0,1.0
"2016-07-07",10.01,11.73,10.01,11.65,11.65,3.2558e6,0.0,1.0
"2016-07-08",11.59,11.78,10.84,11.68,11.68,1.036e6,0.0,1.0
"2016-07-11",11.99,13.47,11.9201,12.55,12.55,2.7632e6,0.0,1.0
"2016-07-12",12.69,13.19,12.6,12.62,12.62,1.2395e6,0.0,1.0
"2016-07-13",12.71,12.8,12.03,12.21,12.21,727500.0,0.0,1.0
"2016-07-14",12.71,13.15,12.38,12.69,12.69,864400.0,0.0,1.0
"2016-07-15",12.69,13.04,12.43,12.5,12.5,558900.0,0.0,1.0
"2016-07-18",12.57,12.9743,12.48,12.76,12.76,571800.0,0.0,1.0
"2016-07-19",12.7,12.88,12.67,12.77,12.77,292300.0,0.0,1.0
"2016-07-20",12.85,13.15,12.73,13.1,13.1,525600.0,0.0,1.0
"2016-07-21",13.18,13.3,12.92,12.98,12.98,672400.0,0.0,1.0
"2016-07-22",13.05,13.16,12.89,13.15,13.15,405200.0,0.0,1.0
"2016-07-25",13.25,13.68,13.13,13.53,13.53,918900.0,0.0,1.0
"2016-07-26",13.31,13.65,13.15,13.5,13.5,863100.0,0.0,1.0
"2016-07-27",13.59,13.66,12.98,13.39,13.39,1.0441e6,0.0,1.0
"2016-07-28",13.51,13.51,13.13,13.21,13.21,273600.0,0.0,1.0
"2016-07-29",13.15,13.44,13.0,13.23,13.23,392700.0,0.0,1.0
"2016-08-01",13.32,14.65,13.32,14.44,14.44,1.702e6,0.0,1.0
"2016-08-02",14.35,15.29,14.28,15.01,15.01,1.7892e6,0.0,1.0
"2016-08-03",14.89,15.1,14.705,14.92,14.92,833400.0,0.0,1.0
"2016-08-04",14.9,15.03,14.7,14.88,14.88,482800.0,0.0,1.0
"2016-08-05",14.96,15.01,14.65,14.71,14.71,562800.0,0.0,1.0
"2016-08-08",14.73,15.0,14.73,14.92,14.92,670600.0,0.0,1.0
"2016-08-09",15.0,15.03,14.81,14.89,14.89,726600.0,0.0,1.0
"2016-08-10",14.99,15.0,14.76,14.79,14.79,438700.0,0.0,1.0
"2016-08-11",14.79,15.0,14.7,14.94,14.94,861800.0,0.0,1.0
"2016-08-12",15.1,15.15,14.9,15.0,15.0,1.0207e6,0.0,1.0
"2016-08-15",15.59,16.4,15.1,16.13,16.13,3.6057e6,0.0,1.0
"2016-08-16",17.27,17.49,15.25,16.09,16.09,7.4152e6,0.0,1.0
"2016-08-17",15.89,16.23,15.41,15.58,15.58,1.6546e6,0.0,1.0
"2016-08-18",14.89,16.4,14.88,16.01,16.01,4.7523e6,0.0,1.0
"2016-08-19",16.0,16.33,15.78,16.04,16.04,955600.0,0.0,1.0
"2016-08-22",15.72,17.34,15.72,17.31,17.31,4.4843e6,0.0,1.0
"2016-08-23",17.3,20.25,17.25,19.8,19.8,8.657e6,0.0,1.0
"2016-08-24",20.15,20.88,19.27,19.61,19.61,6.1211e6,0.0,1.0
"2016-08-25",19.38,21.09,19.29,20.94,20.94,3.8713e6,0.0,1.0
"2016-08-26",21.0,21.98,20.25,21.6,21.6,5.3158e6,0.0,1.0
"2016-08-29",21.66,22.83,21.11,22.01,22.01,7.4109e6,0.0,1.0
"2016-08-30",22.0,23.14,22.0,22.61,22.61,5.6938e6,0.0,1.0
"2016-08-31",22.72,24.05,22.1,24.01,24.01,6.0184e6,0.0,1.0
"2016-09-01",24.11,24.7,23.54,24.0,24.0,5.0749e6,0.0,1.0
"2016-09-02",23.89,25.62,23.89,24.48,24.48,6.2745e6,0.0,1.0
"2016-09-06",25.36,25.36,23.45,24.28,24.28,6.4426e6,0.0,1.0
"2016-09-07",24.07,24.2,22.77,24.02,24.02,4.7878e6,0.0,1.0
"2016-09-08",23.93,24.69,23.33,24.47,24.47,3.3897e6,0.0,1.0
"2016-09-09",24.28,24.47,20.98,21.66,21.66,6.6094e6,0.0,1.0
"2016-09-12",20.67,23.95,20.15,23.59,23.59,6.9547e6,0.0,1.0
"2016-09-13",23.0,23.2,21.42,22.5,22.5,5.0968e6,0.0,1.0
"2016-09-14",22.1,23.15,22.1,22.92,22.92,4.6546e6,0.0,1.0
"2016-09-15",23.4,24.28,23.32,23.62,23.62,4.2098e6,0.0,1.0
"2016-09-16",23.78,24.39,23.091,24.03,24.03,2.0764e6,0.0,1.0
"2016-09-19",24.5,24.78,22.74,23.49,23.49,3.4785e6,0.0,1.0
"2016-09-20",23.39,23.895,23.05,23.64,23.64,1.6775e6,0.0,1.0
"2016-09-21",23.76,23.88,22.95,23.47,23.47,3.2407e6,0.0,1.0
"2016-09-22",23.86,24.77,23.23,23.67,23.67,3.4675e6,0.0,1.0
"2016-09-23",23.84,24.0,23.18,23.55,23.55,1.7452e6,0.0,1.0
"2016-09-26",23.18,23.3,22.08,22.48,22.48,2.7112e6,0.0,1.0
"2016-09-27",22.7,23.74,22.7,23.3,23.3,2.7306e6,0.0,1.0
"2016-09-28",23.5,23.5,22.12,23.06,23.06,1.9411e6,0.0,1.0
"2016-09-29",23.1,23.92,22.54,22.8,22.8,2.1751e6,0.0,1.0
"2016-09-30",23.0,23.189,22.31,22.5,22.5,1.943e6,0.0,1.0
"2016-10-03",22.62,22.62,21.41,22.09,22.09,1.8285e6,0.0,1.0
"2016-10-04",22.2,24.68,22.2,24.48,24.48,6.4957e6,0.0,1.0
"2016-10-05",24.62,26.24,24.04,24.85,24.85,7.6779e6,0.0,1.0
"2016-10-06",24.67,25.27,23.75,24.41,24.41,2.9112e6,0.0,1.0
"2016-10-07",24.33,24.78,23.3,23.6,23.6,2.058e6,0.0,1.0
"2016-10-10",23.91,26.65,23.91,26.18,26.18,6.1528e6,0.0,1.0
"2016-10-11",25.8,26.01,24.43,24.82,24.82,4.1215e6,0.0,1.0
"2016-10-12",24.82,25.22,24.1,24.29,24.29,3.0238e6,0.0,1.0
"2016-10-13",23.58,24.18,22.55,24.11,24.11,4.8614e6,0.0,1.0
"2016-10-14",24.78,25.15,23.46,23.5,23.5,3.1805e6,0.0,1.0
"2016-10-17",23.4,24.036,23.31,23.51,23.51,1.4658e6,0.0,1.0
"2016-10-18",23.88,24.45,23.8,24.09,24.09,1.8832e6,0.0,1.0
"2016-10-19",24.37,24.59,23.87,24.25,24.25,2.1835e6,0.0,1.0
"2016-10-20",24.5,24.8789,24.3,24.64,24.64,2.0699e6,0.0,1.0
"2016-10-21",24.66,24.77,24.05,24.48,24.48,1.2084e6,0.0,1.0
"2016-10-24",24.59,26.88,24.59,26.61,26.61,5.6204e6,0.0,1.0
"2016-10-25",26.5,27.0,26.03,26.51,26.51,3.0882e6,0.0,1.0
"2016-10-26",26.2,26.61,25.63,26.08,26.08,1.624e6,0.0,1.0
"2016-10-27",26.23,26.3499,25.07,25.43,25.43,2.1494e6,0.0,1.0
"2016-10-28",25.4,26.37,25.12,25.54,25.54,1.8362e6,0.0,1.0
"2016-10-31",25.8,25.93,22.75,24.08,24.08,5.2227e6,0.0,1.0
"2016-11-01",24.11,24.76,23.5,23.815,23.815,2.0029e6,0.0,1.0
"2016-11-02",23.92,24.14,23.05,23.285,23.285,2.2223e6,0.0,1.0
"2016-11-03",23.16,24.05,22.84,23.7,23.7,2.1558e6,0.0,1.0
"2016-11-04",23.67,24.06,22.94,23.83,23.83,3.375e6,0.0,1.0
"2016-11-07",24.72,26.75,24.6,26.72,26.72,4.8345e6,0.0,1.0
"2016-11-08",28.4,28.44,23.0756,23.25,23.25,1.30527e7,0.0,1.0
"2016-11-09",23.02,24.45,23.0,23.51,23.51,4.4185e6,0.0,1.0
"2016-11-10",23.55,23.92,21.45,22.035,22.035,7.0164e6,0.0,1.0
"2016-11-11",22.14,22.35,21.32,21.84,21.84,2.7936e6,0.0,1.0
"2016-11-14",22.0,22.15,20.04,20.11,20.11,4.4243e6,0.0,1.0
"2016-11-15",20.49,21.7,20.48,20.52,20.52,3.5898e6,0.0,1.0
"2016-11-16",20.03,22.12,19.5,21.72,21.72,4.4493e6,0.0,1.0
"2016-11-17",22.0,22.1,21.0,21.35,21.35,1.9995e6,0.0,1.0
"2016-11-18",21.47,22.0699,21.2201,21.3,21.3,1.3776e6,0.0,1.0
"2016-11-21",21.51,21.85,20.99,21.41,21.41,1.5986e6,0.0,1.0
"2016-11-22",21.68,21.74,21.12,21.29,21.29,1.3986e6,0.0,1.0
"2016-11-23",21.3,21.79,20.56,21.69,21.69,1.6483e6,0.0,1.0
"2016-11-25",21.73,21.78,20.93,21.49,21.49,1.0905e6,0.0,1.0
"2016-11-28",21.17,21.56,20.85,20.9,20.9,1.3496e6,0.0,1.0
"2016-11-29",20.95,22.08,20.62,21.85,21.85,3.3204e6,0.0,1.0
"2016-11-30",21.92,22.65,21.13,21.525,21.525,2.6573e6,0.0,1.0
"2016-12-01",21.49,21.72,20.38,20.65,20.65,2.0065e6,0.0,1.0
"2016-12-02",20.7,21.09,20.2,20.85,20.85,1.4002e6,0.0,1.0
"2016-12-05",20.85,20.87,20.32,20.6,20.6,872900.0,0.0,1.0
"2016-12-06",20.7,20.93,19.93,20.36,20.36,1.0721e6,0.0,1.0
"2016-12-07",20.4,21.11,20.38,20.87,20.87,1.3702e6,0.0,1.0
"2016-12-08",20.77,20.94,20.23,20.87,20.87,999700.0,0.0,1.0
"2016-12-09",20.84,20.9824,20.3714,20.5,20.5,683000.0,0.0,1.0
"2016-12-12",20.29,20.75,19.95,20.45,20.45,1.6624e6,0.0,1.0
"2016-12-13",20.54,20.95,19.99,20.02,20.02,1.8993e6,0.0,1.0
"2016-12-14",20.0,20.29,19.31,19.4,19.4,2.5307e6,0.0,1.0
"2016-12-15",19.3,19.3,18.06,18.1,18.1,3.2958e6,0.0,1.0
"2016-12-16",17.85,18.33,17.5,18.08,18.08,3.0176e6,0.0,1.0
"2016-12-19",18.08,18.09,17.0,17.16,17.16,4.1144e6,0.0,1.0
"2016-12-20",17.29,17.82,16.73,17.77,17.77,2.9062e6,0.0,1.0
"2016-12-21",17.78,19.06,17.77,18.56,18.56,2.8075e6,0.0,1.0
"2016-12-22",18.33,18.85,18.25,18.34,18.34,1.6279e6,0.0,1.0
"2016-12-23",18.34,18.95,18.3,18.89,18.89,1.065e6,0.0,1.0
"2016-12-27",18.94,19.32,18.8,19.01,19.01,997400.0,0.0,1.0
"2016-12-28",18.99,19.62,18.67,18.79,18.79,1.9291e6,0.0,1.0
"2016-12-29",18.87,19.0599,18.22,18.36,18.36,704300.0,0.0,1.0
"2016-12-30",18.34,18.51,17.78,18.38,18.38,1.3915e6,0.0,1.0
"2017-01-03",18.7,18.85,18.23,18.3,18.3,848200.0,0.0,1.0
"2017-01-04",18.31,19.26,18.31,19.24,19.24,2.418e6,0.0,1.0
"2017-01-05",19.29,20.7,19.2,20.52,20.52,2.7926e6,0.0,1.0
"2017-01-06",20.6,20.6,19.96,20.37,20.37,1.3513e6,0.0,1.0
"2017-01-09",20.39,21.3,20.35,21.27,21.27,1.6183e6,0.0,1.0
"2017-01-10",21.39,22.49,21.305,22.07,22.07,3.0058e6,0.0,1.0
"2017-01-11",22.03,22.46,21.0,21.72,21.72,1.7135e6,0.0,1.0
"2017-01-12",21.47,21.63,20.74,21.56,21.56,1.0755e6,0.0,1.0
"2017-01-13",21.78,22.1,21.3,22.03,22.03,1.0659e6,0.0,1.0
"2017-01-17",21.78,22.22,21.39,21.77,21.77,1.3421e6,0.0,1.0
"2017-01-18",21.8,22.23,21.629,21.99,21.99,657600.0,0.0,1.0
"2017-01-19",22.07,22.22,21.774,21.95,21.95,596700.0,0.0,1.0
"2017-01-20",22.06,22.39,21.72,21.86,21.86,581300.0,0.0,1.0
"2017-01-23",21.83,23.49,21.71,23.42,23.42,2.5976e6,0.0,1.0
"2017-01-24",23.48,23.86,23.21,23.55,23.55,1.6787e6,0.0,1.0
"2017-01-25",23.77,23.7899,23.2142,23.645,23.645,952300.0,0.0,1.0
"2017-01-26",23.73,23.75,22.57,22.95,22.95,1.4056e6,0.0,1.0
"2017-01-27",23.0,23.12,22.6,22.9,22.9,509400.0,0.0,1.0
"2017-01-30",22.76,22.85,21.53,22.48,22.48,1.2963e6,0.0,1.0
"2017-01-31",22.2,22.74,21.94,22.73,22.73,749100.0,0.0,1.0
"2017-02-01",22.91,22.96,22.3,22.77,22.77,844900.0,0.0,1.0
"2017-02-02",22.66,23.27,22.3,23.15,23.15,1.205e6,0.0,1.0
"2017-02-03",23.3,23.739,22.98,23.13,23.13,884900.0,0.0,1.0
"2017-02-06",23.08,23.08,22.51,22.88,22.88,1.129e6,0.0,1.0
"2017-02-07",22.97,23.19,22.55,22.77,22.77,954200.0,0.0,1.0
"2017-02-08",23.04,25.06,22.83,24.99,24.99,3.7652e6,0.0,1.0
"2017-02-09",24.99,25.3,24.56,24.88,24.88,2.2856e6,0.0,1.0
"2017-02-10",24.89,24.93,23.65,24.61,24.61,2.6785e6,0.0,1.0
"2017-02-13",24.95,25.82,24.66,25.4,25.4,3.595e6,0.0,1.0
"2017-02-14",25.55,25.586,24.96,25.41,25.41,936500.0,0.0,1.0
"2017-02-15",25.4,26.5,25.33,26.26,26.26,2.1702e6,0.0,1.0
"2017-02-16",26.37,27.05,26.17,26.8,26.8,3.373e6,0.0,1.0
"2017-02-17",26.8,27.01,25.58,27.0,27.0,2.7969e6,0.0,1.0
"2017-02-21",27.0,27.83,26.61,27.77,27.77,3.5369e6,0.0,1.0
"2017-02-22",27.8,27.82,26.85,26.93,26.93,1.7474e6,0.0,1.0
"2017-02-23",26.83,26.85,25.25,25.72,25.72,2.984e6,0.0,1.0
"2017-02-24",24.94,25.925,24.78,25.86,25.86,1.575e6,0.0,1.0
"2017-02-27",25.99,26.38,25.49,25.9,25.9,2.6037e6,0.0,1.0
"2017-02-28",26.0,26.795,25.93,26.64,26.64,1.7139e6,0.0,1.0
"2017-03-01",27.0,27.61,26.87,27.51,27.51,2.265e6,0.0,1.0
"2017-03-02",27.24,27.38,26.5,26.61,26.61,1.6359e6,0.0,1.0
"2017-03-03",26.3,27.03,26.1,26.87,26.87,1.7666e6,0.0,1.0
"2017-03-06",27.35,27.47,26.32,26.61,26.61,3.3989e6,0.0,1.0
"2017-03-07",29.485,30.22,29.0,30.0,30.0,2.23113e7,0.0,1.0
"2017-03-08",30.8,34.35,30.28,34.19,34.19,1.48763e7,0.0,1.0
"2017-03-09",32.93,33.0,29.56,30.05,30.05,1.97882e7,0.0,1.0
"2017-03-10",31.0,31.59,30.43,30.78,30.78,6.9772e6,0.0,1.0
"2017-03-13",30.86,31.5,30.52,31.38,31.38,5.2208e6,0.0,1.0
"2017-03-14",31.21,33.8,30.91,33.66,33.66,7.8211e6,0.0,1.0
"2017-03-15",33.53,34.08,32.53,33.85,33.85,5.4055e6,0.0,1.0
"2017-03-16",34.17,35.22,33.77,34.73,34.73,5.753e6,0.0,1.0
"2017-03-17",34.66,35.73,34.01,35.01,35.01,3.7099e6,0.0,1.0
"2017-03-20",35.02,35.76,33.4,34.25,34.25,5.8245e6,0.0,1.0
"2017-03-21",34.22,34.53,31.21,32.14,32.14,6.3351e6,0.0,1.0
"2017-03-22",31.76,33.47,31.6,32.81,32.81,5.6583e6,0.0,1.0
"2017-03-23",32.83,34.49,32.3,33.29,33.29,9.2669e6,0.0,1.0
"2017-03-24",33.54,34.16,33.02,33.33,33.33,2.737e6,0.0,1.0
"2017-03-27",32.96,34.35,32.37,34.24,34.24,4.5365e6,0.0,1.0
"2017-03-28",33.9,34.89,33.67,33.8,33.8,3.1841e6,0.0,1.0
"2017-03-29",33.75,34.49,33.21,34.11,34.11,3.4275e6,0.0,1.0
"2017-03-30",34.11,36.18,34.05,35.52,35.52,7.062e6,0.0,1.0
"2017-03-31",35.18,35.25,33.62,34.07,34.07,1.04746e7,0.0,1.0
"2017-04-03",34.25,35.02,33.76,34.84,34.84,3.9965e6,0.0,1.0
"2017-04-04",34.66,34.84,33.53,33.97,33.97,2.6735e6,0.0,1.0
"2017-04-05",34.2,34.26,32.8,32.89,32.89,4.9236e6,0.0,1.0
"2017-04-06",32.52,35.13,32.32,34.56,34.56,4.7883e6,0.0,1.0
"2017-04-07",34.64,35.65,34.34,34.93,34.93,4.4447e6,0.0,1.0
"2017-04-10",35.2,38.12,35.2,37.5,37.5,9.6039e6,0.0,1.0
"2017-04-11",37.94,38.99,36.66,37.37,37.37,6.1625e6,0.0,1.0
"2017-04-12",38.15,39.25,37.71,37.86,37.86,5.5103e6,0.0,1.0
"2017-04-13",37.6,38.95,37.52,38.18,38.18,3.3827e6,0.0,1.0
"2017-04-17",38.44,38.65,37.5,38.4,38.4,2.2757e6,0.0,1.0
"2017-04-18",38.1,38.138,36.26,36.77,36.77,5.3998e6,0.0,1.0
"2017-04-19",37.05,38.15,36.73,37.21,37.21,4.0502e6,0.0,1.0
"2017-04-20",37.47,38.42,37.47,38.06,38.06,2.7946e6,0.0,1.0
"2017-04-21",38.32,38.54,37.33,38.32,38.32,3.2102e6,0.0,1.0
"2017-04-24",38.83,39.18,37.53,38.45,38.45,4.0268e6,0.0,1.0
"2017-04-25",38.62,38.7,37.92,38.16,38.16,3.747e6,0.0,1.0
"2017-04-26",36.75,37.5,35.55,37.43,37.43,6.1267e6,0.0,1.0
"2017-04-27",37.29,38.62,37.271,38.38,38.38,4.2855e6,0.0,1.0
"2017-04-28",38.41,38.47,37.53,37.98,37.98,2.572e6,0.0,1.0
"2017-05-01",38.28,39.95,38.15,39.43,39.43,4.4613e6,0.0,1.0
"2017-05-02",39.74,40.43,39.41,39.54,39.54,2.6572e6,0.0,1.0
"2017-05-03",39.53,39.56,37.77,38.3,38.3,3.7441e6,0.0,1.0
"2017-05-04",38.58,38.96,38.07,38.66,38.66,2.5813e6,0.0,1.0
"2017-05-05",38.74,39.21,38.29,39.12,39.12,2.5814e6,0.0,1.0
"2017-05-08",39.3,39.49,38.37,38.575,38.575,2.6264e6,0.0,1.0
"2017-05-09",38.78,39.0,38.2,38.58,38.58,5.6199e6,0.0,1.0
"2017-05-10",38.48,38.52,37.61,38.22,38.22,6.071e6,0.0,1.0
"2017-05-11",38.18,38.69,37.32,38.41,38.41,3.7156e6,0.0,1.0
"2017-05-12",38.15,41.0,38.05,40.14,40.14,7.0384e6,0.0,1.0
"2017-05-15",40.65,41.21,39.71,40.11,40.11,5.699847e6,0.0,1.0
"2017-05-16",40.98,44.59,40.69,43.82,43.82,1.1312199e7,0.0,1.0
"2017-05-17",42.29,42.63,40.0,40.28,40.28,1.2053639e7,0.0,1.0
"2017-05-18",40.36,41.95,40.0,41.41,41.41,7.83568e6,0.0,1.0
"2017-05-19",42.4,44.12,42.0,43.58,43.58,7.070987e6,0.0,1.0
"2017-05-22",45.85,45.95,41.79,42.83,42.83,1.332971e7,0.0,1.0
"2017-05-23",44.99,45.2,38.85,41.07,41.07,2.7419838e7,0.0,1.0
"2017-05-24",40.4,41.78,38.01,38.64,38.64,1.336954e7,0.0,1.0
"2017-05-25",39.63,39.63,36.49,38.41,38.41,1.4847237e7,0.0,1.0
"2017-05-26",38.47,40.14,38.41,39.14,39.14,7.55085e6,0.0,1.0
"2017-05-30",39.42,40.12,36.9,37.19,37.19,1.0540012e7,0.0,1.0
"2017-05-31",37.41,38.47,37.0,38.04,38.04,1.8011437e7,0.0,1.0
"2017-06-01",38.0,38.67,37.198,37.34,37.34,6.466668e6,0.0,1.0
"2017-06-02",37.49,38.12,37.277,38.07,38.07,4.647e6,0.0,1.0
"2017-06-05",38.1,40.45,38.07,40.08,40.08,9.570628e6,0.0,1.0
"2017-06-06",39.99,42.27,39.91,40.71,40.71,9.138668e6,0.0,1.0
"2017-06-07",40.85,41.0,39.616,40.32,40.32,7.466245e6,0.0,1.0
"2017-06-08",41.41,41.45,38.081,39.99,39.99,9.403578e6,0.0,1.0
"2017-06-09",40.0,40.04,36.02,37.44,37.44,9.817879e6,0.0,1.0
"2017-06-12",37.0,38.8,36.88,37.59,37.59,1.0050653e7,0.0,1.0
"2017-06-13",38.09,38.75,37.06,38.05,38.05,5.287185e6,0.0,1.0
"2017-06-14",38.05,38.144,36.1,36.54,36.54,7.442624e6,0.0,1.0
"2017-06-15",35.5,36.37,35.02,36.32,36.32,7.781623e6,0.0,1.0
"2017-06-16",36.27,37.7,36.27,36.89,36.89,3.728556e6,0.0,1.0
"2017-06-19",37.56,38.13,37.3,37.7,37.7,4.211807e6,0.0,1.0
"2017-06-20",37.795,38.0,37.31,37.89,37.89,4.01798e6,0.0,1.0
"2017-06-21",38.0,39.38,37.45,38.7,38.7,6.6922e6,0.0,1.0
"2017-06-22",37.51,39.08,36.91,38.93,38.93,5.877659e6,0.0,1.0
"2017-06-23",39.17,39.59,38.94,39.35,39.35,3.229862e6,0.0,1.0
"2017-06-26",39.55,40.0,38.31,39.38,39.38,4.460136e6,0.0,1.0
"2017-06-27",38.9,39.06,36.97,37.06,37.06,4.505302e6,0.0,1.0
"2017-06-28",37.19,37.98,36.11,37.96,37.96,4.791049e6,0.0,1.0
"2017-06-29",37.35,37.8,36.5,37.07,37.07,4.560518e6,0.0,1.0
"2017-06-30",37.06,37.52,36.69,36.96,36.96,2.455033e6,0.0,1.0
"2017-07-03",37.45,37.63,36.68,36.94,36.94,1.74604e6,0.0,1.0
"2017-07-05",37.09,38.27,36.83,38.08,38.08,4.481438e6,0.0,1.0
"2017-07-06",37.89,39.19,37.75,38.81,38.81,3.904881e6,0.0,1.0
"2017-07-07",39.19,39.8,38.86,39.27,39.27,2.567563e6,0.0,1.0
"2017-07-10",39.46,41.11,39.0,40.74,40.74,6.593115e6,0.0,1.0
"2017-07-11",40.85,41.96,40.32,41.09,41.09,4.417718e6,0.0,1.0
"2017-07-12",41.5,42.0,41.15,41.87,41.87,3.540601e6,0.0,1.0
"2017-07-13",42.0,42.04,40.03,40.76,40.76,5.455425e6,0.0,1.0
"2017-07-14",40.56,41.57,40.28,41.37,41.37,3.53285e6,0.0,1.0
"2017-07-17",41.54,41.9,40.38,40.84,40.84,3.536794e6,0.0,1.0
"2017-07-18",40.51,42.02,40.38,42.0,42.0,4.084132e6,0.0,1.0
"2017-07-19",42.49,42.75,41.69,42.0,42.0,4.3364e6,0.0,1.0
"2017-07-20",42.38,42.981,42.17,42.33,42.33,3.811439e6,0.0,1.0
"2017-07-21",42.31,42.53,41.75,42.17,42.17,1.988203e6,0.0,1.0
"2017-07-24",42.5,44.75,42.46,43.99,43.99,6.603822e6,0.0,1.0
"2017-07-25",44.19,44.35,43.33,44.05,44.05,3.046132e6,0.0,1.0
"2017-07-26",44.05,44.18,43.5,44.01,44.01,2.900302e6,0.0,1.0
"2017-07-27",44.5,45.59,41.0,43.19,43.19,6.937513e6,0.0,1.0
"2017-07-28",42.92,44.59,42.5,44.06,44.06,2.645551e6,0.0,1.0
"2017-07-31",44.6,45.4,43.521,43.93,43.93,3.89158e6,0.0,1.0
"2017-08-01",44.25,45.15,43.975,45.04,45.04,2.9359e6,0.0,1.0
"2017-08-02",45.35,46.33,42.77,43.9,43.9,5.28016e6,0.0,1.0
"2017-08-03",43.69,44.68,43.29,44.55,44.55,2.317834e6,0.0,1.0
"2017-08-04",44.59,44.819,43.98,44.05,44.05,2.196564e6,0.0,1.0
"2017-08-07",44.43,46.18,43.95,45.99,45.99,4.409129e6,0.0,1.0
"2017-08-08",46.49,46.69,45.41,45.8,45.8,2.946654e6,0.0,1.0
"2017-08-09",45.1,45.77,44.44,45.35,45.35,6.023969e6,0.0,1.0
"2017-08-10",44.77,45.1,42.19,42.57,42.57,4.563809e6,0.0,1.0
"2017-08-11",41.81,42.59,40.5,42.1,42.1,4.775954e6,0.0,1.0
"2017-08-14",43.49,44.97,43.3,44.57,44.57,3.865918e6,0.0,1.0
"2017-08-15",44.87,45.09,43.9,44.23,44.23,2.49208e6,0.0,1.0
"2017-08-16",44.81,45.45,43.99,44.12,44.12,2.899937e6,0.0,1.0
"2017-08-17",44.51,45.64,43.9,44.01,44.01,3.901033e6,0.0,1.0
"2017-08-18",44.31,44.79,43.5,43.82,43.82,4.236568e6,0.0,1.0
"2017-08-21",44.88,45.11,43.8,45.08,45.08,5.915315e6,0.0,1.0
"2017-08-22",40.37,40.46,36.0,36.02,36.02,4.4503429e7,0.0,1.0
"2017-08-23",36.06,37.85,35.77,36.74,36.74,1.6176539e7,0.0,1.0
"2017-08-24",37.4,38.28,37.05,37.98,37.98,1.3796559e7,0.0,1.0
"2017-08-25",38.42,38.68,35.1,35.59,35.59,1.5224708e7,0.0,1.0
"2017-08-28",35.59,35.68,32.8,33.88,33.88,1.5534617e7,0.0,1.0
"2017-08-29",32.8,34.68,32.7,34.08,34.08,7.531948e6,0.0,1.0
"2017-08-30",34.59,36.315,34.54,36.07,36.07,1.0143388e7,0.0,1.0
"2017-08-31",37.56,38.6,36.64,38.53,38.53,1.6221427e7,0.0,1.0
"2017-09-01",38.72,38.87,37.01,38.2,38.2,8.571246e6,0.0,1.0
"2017-09-05",37.3,38.42,37.02,37.93,37.93,5.842199e6,0.0,1.0
"2017-09-06",37.95,38.38,36.88,37.6,37.6,4.537846e6,0.0,1.0
"2017-09-07",37.44,38.09,37.11,37.82,37.82,4.844607e6,0.0,1.0
"2017-09-08",37.77,38.95,37.56,37.71,37.71,6.616816e6,0.0,1.0
"2017-09-11",38.16,38.5,37.57,38.15,38.15,4.75156e6,0.0,1.0
"2017-09-12",38.25,38.26,37.27,37.97,37.97,4.089116e6,0.0,1.0
"2017-09-13",37.81,37.92,37.13,37.31,37.31,4.317045e6,0.0,1.0
"2017-09-14",37.28,37.28,36.55,36.79,36.79,4.485908e6,0.0,1.0
"2017-09-15",36.48,36.82,36.28,36.57,36.57,4.349259e6,0.0,1.0
"2017-09-18",36.84,37.4,36.6,36.9,36.9,3.984401e6,0.0,1.0
"2017-09-19",37.12,37.14,35.805,36.09,36.09,4.872407e6,0.0,1.0
"2017-09-20",36.04,36.3,34.81,35.06,35.06,5.604951e6,0.0,1.0
"2017-09-21",35.06,35.68,34.08,35.42,35.42,4.151175e6,0.0,1.0
"2017-09-22",35.26,35.34,34.66,34.97,34.97,3.587117e6,0.0,1.0
"2017-09-25",34.31,34.503,33.08,33.65,33.65,6.350475e6,0.0,1.0
"2017-09-26",33.85,34.13,32.43,32.5,32.5,8.049991e6,0.0,1.0
"2017-09-27",32.86,33.02,32.08,32.67,32.67,4.72079e6,0.0,1.0
"2017-09-28",32.48,32.55,31.54,32.44,32.44,5.383762e6,0.0,1.0
"2017-09-29",32.28,32.42,31.12,31.34,31.34,7.717989e6,0.0,1.0
"2017-10-02",31.56,32.29,31.02,31.91,31.91,5.243044e6,0.0,1.0
"2017-10-03",32.32,32.6,32.02,32.28,32.28,4.118427e6,0.0,1.0
"2017-10-04",32.23,32.3,31.6,31.77,31.77,4.043177e6,0.0,1.0
"2017-10-05",31.81,31.9,31.05,31.41,31.41,3.344384e6,0.0,1.0
"2017-10-06",31.29,32.03,31.2,31.97,31.97,2.954541e6,0.0,1.0
"2017-10-09",32.0,32.09,31.31,31.47,31.47,2.859802e6,0.0,1.0
"2017-10-10",31.74,32.88,31.6,32.05,32.05,4.676381e6,0.0,1.0
"2017-10-11",32.03,32.87,31.9,32.78,32.78,3.366064e6,0.0,1.0
"2017-10-12",32.85,32.97,32.05,32.14,32.14,3.632227e6,0.0,1.0
"2017-10-13",32.17,33.285,32.0,32.83,32.83,3.584997e6,0.0,1.0
"2017-10-16",33.16,34.695,33.1,34.38,34.38,6.880372e6,0.0,1.0
"2017-10-17",34.62,35.49,33.25,33.35,33.35,6.185837e6,0.0,1.0
"2017-10-18",33.57,34.595,33.39,33.98,33.98,3.533959e6,0.0,1.0
"2017-10-19",33.16,33.61,32.715,32.81,32.81,4.649356e6,0.0,1.0
"2017-10-20",33.13,33.25,31.82,31.89,31.89,4.581264e6,0.0,1.0
"2017-10-23",31.98,32.06,31.171,31.58,31.58,3.922471e6,0.0,1.0
"2017-10-24",31.51,31.79,31.07,31.24,31.24,3.299594e6,0.0,1.0
"2017-10-25",31.15,31.36,28.08,29.56,29.56,9.616999e6,0.0,1.0
"2017-10-26",29.76,30.34,28.95,29.27,29.27,5.25282e6,0.0,1.0
"2017-10-27",29.43,30.06,29.2,29.43,29.43,3.175649e6,0.0,1.0
"2017-10-30",29.85,31.104,29.38,29.46,29.46,4.396377e6,0.0,1.0
"2017-10-31",29.66,30.58,29.62,30.47,30.47,3.307617e6,0.0,1.0
"2017-11-01",30.7,31.0,30.11,30.36,30.36,2.397278e6,0.0,1.0
"2017-11-02",30.3,30.67,29.69,30.28,30.28,2.571669e6,0.0,1.0
"2017-11-03",30.23,30.45,29.46,29.8,29.8,2.255862e6,0.0,1.0
"2017-11-06",29.99,30.15,29.1,29.32,29.32,3.516021e6,0.0,1.0
"2017-11-07",29.27,29.3,28.1,28.26,28.26,5.352464e6,0.0,1.0
"2017-11-08",28.2,28.63,27.11,28.45,28.45,5.702117e6,0.0,1.0
"2017-11-09",28.17,29.04,27.668,28.96,28.96,3.555927e6,0.0,1.0
"2017-11-10",28.97,28.97,28.11,28.35,28.35,2.520037e6,0.0,1.0
"2017-11-13",28.34,30.39,28.211,29.88,29.88,5.026374e6,0.0,1.0
"2017-11-14",29.84,29.88,28.995,29.19,29.19,2.60227e6,0.0,1.0
"2017-11-15",28.88,31.25,28.8,30.59,30.59,5.956122e6,0.0,1.0
"2017-11-16",31.3,32.87,31.24,32.16,32.16,7.047515e6,0.0,1.0
"2017-11-17",32.76,33.6,30.9,31.22,31.22,6.87741e6,0.0,1.0
"2017-11-20",31.25,33.37,31.25,32.94,32.94,5.230585e6,0.0,1.0
"2017-11-21",33.4,33.45,31.81,32.31,32.31,4.907781e6,0.0,1.0
"2017-11-22",32.16,32.41,31.4,32.11,32.11,4.745058e6,0.0,1.0
"2017-11-24",32.16,32.38,31.54,32.14,32.14,2.091318e6,0.0,1.0
"2017-11-27",32.25,32.27,30.55,30.9,30.9,6.250038e6,0.0,1.0
"2017-11-28",27.44,27.5,24.8,25.08,25.08,3.251059e7,0.0,1.0
"2017-11-29",25.9,26.33,25.28,25.51,25.51,1.1791014e7,0.0,1.0
"2017-11-30",25.56,25.66,23.35,24.0,24.0,1.2546779e7,0.0,1.0
"2017-12-01",23.5,23.85,22.49,22.56,22.56,9.852798e6,0.0,1.0
"2017-12-04",23.0,25.1299,22.9,24.8,24.8,1.295303e7,0.0,1.0
"2017-12-05",24.22,24.69,23.6,23.84,23.84,6.097761e6,0.0,1.0
"2017-12-06",23.36,23.82,22.89,23.44,23.44,3.765778e6,0.0,1.0
"2017-12-07",23.47,24.42,23.45,23.8,23.8,3.602983e6,0.0,1.0
"2017-12-08",24.15,24.739,24.02,24.44,24.44,4.142539e6,0.0,1.0
"2017-12-11",24.26,25.47,24.202,24.77,24.77,4.284854e6,0.0,1.0
"2017-12-12",24.68,24.9,24.05,24.75,24.75,3.028378e6,0.0,1.0
"2017-12-13",24.99,25.66,24.72,24.77,24.77,3.832506e6,0.0,1.0
"2017-12-14",24.69,25.08,24.4,24.89,24.89,2.539965e6,0.0,1.0
"2017-12-15",24.9,25.23,24.83,25.08,25.08,3.786034e6,0.0,1.0
"2017-12-18",25.17,25.74,24.67,25.36,25.36,3.179625e6,0.0,1.0
"2017-12-19",25.5,26.26,25.41,25.86,25.86,4.385691e6,0.0,1.0
"2017-12-20",26.0,26.29,25.86,26.02,26.02,2.672953e6,0.0,1.0
"2017-12-21",25.96,26.15,25.23,25.47,25.47,4.109199e6,0.0,1.0
"2017-12-22",25.23,25.97,25.13,25.42,25.42,2.635331e6,0.0,1.0
"2017-12-26",25.52,25.65,25.075,25.23,25.23,2.338736e6,0.0,1.0
"2017-12-27",25.21,25.82,25.11,25.62,25.62,2.158374e6,0.0,1.0
"2017-12-28",25.61,25.87,24.9,25.12,25.12,1.97819e6,0.0,1.0
"2017-12-29",25.04,25.14,24.36,24.48,24.48,3.205638e6,0.0,1.0
"2018-01-02",24.84,26.08,24.84,25.86,25.86,3.420947e6,0.0,1.0
"2018-01-03",26.29,26.31,25.67,25.9,25.9,2.772574e6,0.0,1.0
"2018-01-04",26.16,27.87,25.92,26.87,26.87,5.741208e6,0.0,1.0
"2018-01-05",27.32,27.99,27.13,27.83,27.83,4.679096e6,0.0,1.0
"2018-01-08",27.79,28.75,27.48,27.94,27.94,6.020081e6,0.0,1.0
"2018-01-09",28.23,28.99,26.73,27.2,27.2,6.151881e6,0.0,1.0
"2018-01-10",26.7,26.9801,25.88,26.79,26.79,3.960829e6,0.0,1.0
"2018-01-11",27.2,27.2,26.28,26.87,26.87,2.640031e6,0.0,1.0
"2018-01-12",26.99,27.12,26.32,26.47,26.47,4.375298e6,0.0,1.0
"2018-01-16",26.78,26.82,25.07,25.13,25.13,5.642699e6,0.0,1.0
"2018-01-17",25.49,28.33,25.42,27.95,27.95,1.3443711e7,0.0,1.0
"2018-01-18",27.875,28.61,27.02,27.41,27.41,7.542866e6,0.0,1.0
"2018-01-19",27.61,29.21,27.61,28.6,28.6,7.339989e6,0.0,1.0
"2018-01-22",28.85,29.6,28.4,28.71,28.71,5.704322e6,0.0,1.0
"2018-01-23",29.06,29.19,28.45,29.05,29.05,5.29434e6,0.0,1.0
"2018-01-24",29.2,29.35,28.58,29.0,29.0,4.332337e6,0.0,1.0
"2018-01-25",29.03,29.83,28.68,29.76,29.76,5.31012e6,0.0,1.0
"2018-01-26",30.29,30.785,29.81,30.3,30.3,6.719423e6,0.0,1.0
"2018-01-29",31.35,32.18,30.73,31.69,31.69,8.937279e6,0.0,1.0
"2018-01-30",30.53,31.81,30.06,31.02,31.02,5.525027e6,0.0,1.0
