"Date","Open","High","Low","Close","Adjusted Close","Volume","Divident Amout","Split Coefficient"
"2014-07-31",23.0,24.0,22.6,23.0,22.3869,5.64775e7,0.0,1.0
"2014-08-01",22.9,23.0,22.67,23.0,22.3869,6.4581e6,0.0,1.0
"2014-08-04",23.1,23.13,22.9,23.0,22.3869,3.4539e6,0.0,1.0
"2014-08-05",22.99,23.01,22.67,23.0,22.3869,4.449e6,0.0,1.0
"2014-08-06",22.8,22.98,22.67,22.98,22.3674,6.9934e6,0.0,1.0
"2014-08-07",22.89,23.0,22.8,22.93,22.3187,3.1869e6,0.0,1.0
"2014-08-08",22.93,23.03,22.8,22.95,22.3382,2.855e6,0.0,1.0
"2014-08-11",22.9,22.93,22.8,22.93,22.3187,1.7675e6,0.0,1.0
"2014-08-12",22.89,23.0,22.83,23.0,22.3869,1.5497e6,0.0,1.0
"2014-08-13",23.0,23.23,22.88,23.18,22.5621,1.6591e6,0.0,1.0
"2014-08-14",23.2,23.22,22.95,23.01,22.3966,1.3917e6,0.0,1.0
"2014-08-15",23.02,23.08,23.0,23.0,22.3869,1.9481e6,0.0,1.0
"2014-08-18",23.06,23.17,23.02,23.17,22.5523,1.0737e6,0.0,1.0
"2014-08-19",23.2,24.435,23.2,24.41,23.7593,2.8518e6,0.0,1.0
"2014-08-20",24.3,25.59,24.26,25.19,24.5185,3.5445e6,0.0,1.0
"2014-08-21",25.47,25.52,24.92,25.39,24.7131,2.358e6,0.0,1.0
"2014-08-22",25.25,25.43,25.1,25.36,24.6839,891600.0,0.0,1.0
"2014-08-25",25.37,25.4,24.88,25.12,24.4503,1.1854e6,0.0,1.0
"2014-08-26",25.0,25.1,24.94,25.05,24.3822,951000.0,0.0,1.0
"2014-08-27",25.0,25.54,24.95,25.47,24.791,1.2306e6,0.0,1.0
"2014-08-28",25.4,25.84,25.31,25.69,25.0052,981700.0,0.0,1.0
"2014-08-29",25.81,25.94,25.45,25.79,25.1025,981200.0,0.0,1.0
"2014-09-02",25.7,25.9,25.52,25.79,25.1025,1.8732e6,0.0,1.0
"2014-09-03",25.99,25.997,25.63,25.79,25.1025,996500.0,0.0,1.0
"2014-09-04",25.53,25.75,25.51,25.7,25.0149,1.1175e6,0.0,1.0
"2014-09-05",25.7,26.02,25.62,25.77,25.083,1.0898e6,0.0,1.0
"2014-09-08",25.82,25.98,24.62,24.84,24.1778,2.5348e6,0.0,1.0
"2014-09-09",25.3,25.6,24.7,25.04,24.3725,3.6086e6,0.0,1.0
"2014-09-10",25.19,25.305,24.69,24.7,24.0415,1.9746e6,0.0,1.0
"2014-09-11",24.75,25.02,24.63,24.65,23.9929,2.0291e6,0.0,1.0
"2014-09-12",24.53,24.75,24.44,24.5,23.8469,1.1068e6,0.0,1.0
"2014-09-15",24.35,24.38,23.92,24.15,23.5062,1.1256e6,0.0,1.0
"2014-09-16",24.24,24.36,23.88,24.31,23.6619,1.5121e6,0.0,1.0
"2014-09-17",24.45,24.69,24.36,24.55,23.8955,940400.0,0.0,1.0
"2014-09-18",24.57,24.84,24.56,24.67,24.0123,879100.0,0.0,1.0
"2014-09-19",24.85,25.49,24.71,25.41,24.7326,5.2579e6,0.0,1.0
"2014-09-22",25.28,25.36,24.75,24.84,24.1778,735765.0,0.0,1.0
"2014-09-23",24.66,24.7,24.18,24.58,23.9247,939952.0,0.0,1.0
"2014-09-24",24.73,25.0,24.675,24.92,24.2557,964606.0,0.0,1.0
"2014-09-25",24.98,24.98,24.61,24.63,23.9734,1.349775e6,0.0,1.0
"2014-09-26",24.61,24.8,24.34,24.77,24.1097,1.25282e6,0.0,1.0
"2014-09-29",24.57,24.775,24.34,24.7,24.0415,1.482038e6,0.0,1.0
"2014-09-30",24.87,25.12,24.21,24.55,23.8955,8.795069e6,0.0,1.0
"2014-10-01",24.44,24.59,24.18,24.22,23.5743,1.196643e6,0.0,1.0
"2014-10-02",24.35,24.69,23.76,24.58,23.9247,1.252964e6,0.0,1.0
"2014-10-03",24.78,25.09,24.41,24.83,24.1681,1.737477e6,0.0,1.0
"2014-10-06",24.86,25.105,24.75,25.0,24.3335,1.057137e6,0.0,1.0
"2014-10-07",24.94,24.967,24.55,24.85,24.1875,803747.0,0.0,1.0
"2014-10-08",24.81,25.02,24.7,25.02,24.353,1.074471e6,0.0,1.0
"2014-10-09",25.02,25.06,24.43,24.55,23.8955,2.53633e6,0.0,1.0
"2014-10-10",24.5,24.72,24.14,24.2,23.5549,1.561676e6,0.0,1.0
"2014-10-13",24.26,24.77,24.2,24.46,23.8079,1.72606e6,0.0,1.0
"2014-10-14",24.63,24.95,24.5801,24.85,24.1875,1.036448e6,0.0,1.0
"2014-10-15",24.74,24.97,24.03,24.52,23.8663,1.529454e6,0.0,1.0
"2014-10-16",24.2,24.8,24.13,24.6,23.9442,1.888961e6,0.0,1.0
"2014-10-17",24.72,25.1,24.65,24.78,24.1194,981663.0,0.0,1.0
"2014-10-20",24.75,24.855,24.4,24.71,24.0513,938297.0,0.0,1.0
"2014-10-21",24.77,25.26,24.71,25.17,24.499,1.699674e6,0.0,1.0
"2014-10-22",25.25,25.45,25.15,25.38,24.7034,1.546051e6,0.0,1.0
"2014-10-23",25.47,25.91,25.44,25.81,25.122,970103.0,0.0,1.0
"2014-10-24",25.75,26.36,25.75,26.11,25.414,1.22312e6,0.0,1.0
"2014-10-27",26.08,26.794,26.02,26.53,25.8228,1.011418e6,0.0,1.0
"2014-10-28",26.73,27.1026,26.6025,26.85,26.1342,1.002285e6,0.0,1.0
"2014-10-29",26.81,27.08,26.67,27.0,26.2802,730107.0,0.0,1.0
"2014-10-30",29.0,29.16,28.6408,29.03,28.2561,1.038922e6,0.0,1.0
"2014-10-31",27.05,27.11,26.85,27.02,26.2997,934642.0,0.0,1.0
"2014-11-03",27.08,27.76,26.85,27.34,26.6112,983695.0,0.0,1.0
"2014-11-04",27.3,27.45,26.25,27.01,26.29,999259.0,0.0,1.0
"2014-11-05",27.19,27.5,26.701,27.47,26.7377,587333.0,0.0,1.0
"2014-11-06",27.51,27.77,27.27,27.58,26.8448,993082.0,0.0,1.0
"2014-11-07",27.72,28.17,27.25,28.15,27.3996,1.165771e6,0.0,1.0
"2014-11-10",28.23,28.87,28.0,28.77,28.003,1.474182e6,0.0,1.0
"2014-11-11",28.8,29.26,28.7,29.11,28.334,1.6437e6,0.0,1.0
"2014-11-12",29.0,29.16,28.6408,29.03,28.2561,1.033749e6,0.0,1.0
"2014-11-13",29.01,29.23,28.82,28.99,28.2172,1.656777e6,0.0,1.0
"2014-11-14",28.92,29.56,28.85,29.05,28.2756,1.912049e6,0.0,1.0
"2014-11-17",29.05,29.25,28.83,29.13,28.3534,1.01034e6,0.0,1.0
"2014-11-18",29.21,29.43,28.785,28.95,28.1782,948922.0,0.0,1.0
"2014-11-19",28.99,29.0,28.65,28.94,28.1685,2.141818e6,0.0,1.0
"2014-11-20",28.96,29.35,28.91,29.24,28.4605,1.300558e6,0.0,1.0
"2014-11-21",29.3,29.4,29.01,29.17,28.3924,1.003929e6,0.0,1.0
"2014-11-24",29.27,29.41,28.85,28.97,28.1977,1.177464e6,0.0,1.0
"2014-11-25",28.93,29.32,28.03,28.66,27.896,5.938515e6,0.0,1.0
"2014-11-26",28.83,29.08,28.74,28.8,28.0322,1.327421e6,0.0,1.0
"2014-11-28",28.75,29.03,28.75,29.01,28.2366,425175.0,0.0,1.0
"2014-12-01",29.0,29.13,28.73,28.88,28.1101,1.02097e6,0.0,1.0
"2014-12-02",28.94,29.305,28.8872,29.05,28.2756,1.091159e6,0.0,1.0
"2014-12-03",29.12,29.14,28.9,29.0,28.2269,730226.0,0.0,1.0
"2014-12-04",29.01,29.34,28.91,29.15,28.3729,828984.0,0.0,1.0
"2014-12-05",29.28,29.29,28.93,29.25,28.4702,818673.0,0.0,1.0
"2014-12-08",29.29,29.84,29.02,29.51,28.7233,1.644063e6,0.0,1.0
"2014-12-09",29.53,29.635,29.1975,29.52,28.7331,1.08693e6,0.0,1.0
"2014-12-10",29.55,29.9,29.5,29.65,28.8596,759983.0,0.0,1.0
"2014-12-11",29.67,30.0,29.432,29.52,28.7331,1.057901e6,0.0,1.0
"2014-12-12",29.33,29.48,28.93,29.0,28.2269,1.632487e6,0.0,1.0
"2014-12-15",29.15,29.21,28.16,28.63,27.8668,1.310487e6,0.0,1.0
"2014-12-16",28.6,28.66,28.15,28.44,27.6818,2.241546e6,0.0,1.0
"2014-12-17",28.52,28.99,28.32,28.9,28.1296,1.311935e6,0.0,1.0
"2014-12-18",29.38,29.88,28.94,29.75,28.9569,1.015666e6,0.0,1.0
"2014-12-19",29.82,30.05,29.79,30.0,29.2003,1.338635e6,0.0,1.0
"2014-12-22",29.61,29.97,29.505,29.85,29.0543,770971.0,0.0,1.0
"2014-12-23",30.04,30.3,29.72,30.0,29.2003,504084.0,0.0,1.0
"2014-12-24",30.11,30.17,29.97,30.11,29.3073,78580.0,0.0,1.0
"2014-12-26",30.17,30.62,30.066,30.5,29.6869,426545.0,0.0,1.0
"2014-12-29",30.45,30.64,30.27,30.46,29.648,299211.0,0.0,1.0
"2014-12-30",30.49,30.5,29.89,30.0,29.2003,518111.0,0.0,1.0
"2014-12-31",30.11,30.13,29.68,29.75,28.9569,429964.0,0.0,1.0
"2015-01-02",29.79,29.8,29.35,29.48,28.6941,579959.0,0.0,1.0
"2015-01-05",29.38,29.62,28.68,29.25,28.4702,1.593916e6,0.0,1.0
"2015-01-06",29.4,29.43,28.45,28.85,28.0809,2.198339e6,0.0,1.0
"2015-01-07",29.52,29.68,28.91,29.2,28.4216,1.365129e6,0.0,1.0
"2015-01-08",29.53,30.1,29.49,29.98,29.1808,835026.0,0.0,1.0
"2015-01-09",30.07,30.07,29.49,29.7,28.9083,472157.0,0.0,1.0
"2015-01-12",29.76,29.8,29.53,29.53,28.7428,756826.0,0.0,1.0
"2015-01-13",29.77,30.0,29.46,29.71,28.918,630157.0,0.0,1.0
"2015-01-14",29.39,29.6,29.07,29.15,28.3729,866825.0,0.0,1.0
"2015-01-15",29.19,29.25,27.92,28.52,27.7597,1.094307e6,0.0,1.0
"2015-01-16",28.34,29.05,28.206,28.99,28.2172,425216.0,0.0,1.0
"2015-01-20",28.99,29.195,28.61,29.1,28.3242,958207.0,0.0,1.0
"2015-01-21",29.1,29.29,28.97,29.18,28.4021,863735.0,0.0,1.0
"2015-01-22",29.22,29.5,28.43,29.05,28.2756,2.514827e6,0.0,1.0
"2015-01-23",30.0,32.0,29.0,30.97,30.1444,3.174311e6,0.0,1.0
"2015-01-26",30.8,31.46,30.72,31.33,30.4948,3.123229e6,0.0,1.0
"2015-01-27",31.19,31.4999,30.89,31.32,30.4851,1.401782e6,0.0,1.0
"2015-01-28",31.76,31.76,31.1,31.25,30.4169,1.038068e6,0.0,1.0
"2015-01-29",31.22,31.49,31.0,31.23,30.3975,1.383433e6,0.0,1.0
"2015-01-30",31.11,31.33,30.77,30.86,30.0373,1.255059e6,0.0,1.0
"2015-02-02",30.84,31.19,30.69,31.16,30.3293,758830.0,0.0,1.0
"2015-02-03",31.3,31.5,30.96,31.13,30.3001,919994.0,0.0,1.0
"2015-02-04",31.11,31.38,30.98,31.25,30.4169,1.276172e6,0.0,1.0
"2015-02-05",31.27,32.08,31.13,32.0,31.1469,1.114358e6,0.0,1.0
"2015-02-06",32.07,32.68,31.965,32.14,31.2832,1.115925e6,0.0,1.0
"2015-02-09",32.12,32.405,32.01,32.4,31.5363,1.118072e6,0.0,1.0
"2015-02-10",32.62,33.13,32.37,33.11,32.2273,2.354003e6,0.0,1.0
"2015-02-11",33.25,33.61,33.01,33.55,32.6556,2.110842e6,0.0,1.0
"2015-02-12",33.74,33.96,33.53,33.61,32.714,2.334621e6,0.0,1.0
"2015-02-13",33.39,33.57,32.62,32.8,31.9256,1.234821e6,0.0,1.0
"2015-02-17",32.8,32.81,31.85,31.92,31.0691,1.728014e6,0.0,1.0
"2015-02-18",31.8,32.2,31.75,31.91,31.0593,1.05454e6,0.0,1.0
"2015-02-19",31.94,32.08,31.79,31.88,31.0301,556185.0,0.0,1.0
"2015-02-20",31.96,32.77,31.675,32.59,31.7212,2.082271e6,0.0,1.0
"2015-02-23",32.56,32.7108,32.25,32.62,31.7504,868710.0,0.0,1.0
"2015-02-24",32.46,33.0,31.91,32.36,31.4973,1.028756e6,0.0,1.0
"2015-02-25",32.33,32.59,32.1,32.29,31.4292,672495.0,0.0,1.0
"2015-02-26",32.53,32.71,32.36,32.45,31.5849,356757.0,0.0,1.0
"2015-02-27",32.37,32.55,31.93,31.95,31.0983,553121.0,0.0,1.0
"2015-03-02",31.67,32.04,31.2212,31.96,31.108,785989.0,0.0,1.0
"2015-03-03",32.16,32.25,31.85,32.14,31.2832,484593.0,0.0,1.0
"2015-03-04",32.05,32.05,31.82,31.89,31.0399,439583.0,0.0,1.0
"2015-03-05",31.98,32.47,31.78,31.96,31.108,485965.0,0.0,1.0
"2015-03-06",31.94,32.0,31.19,31.2,30.3683,694099.0,0.0,1.0
"2015-03-09",31.34,32.155,31.25,31.98,31.1275,776250.0,0.0,1.0
"2015-03-10",31.8,31.93,31.085,31.1,30.2709,912289.0,0.0,1.0
"2015-03-11",31.25,31.72,31.11,31.55,30.7089,588889.0,0.0,1.0
"2015-03-12",31.78,32.02,31.56,31.89,31.0399,503184.0,0.0,1.0
"2015-03-13",31.87,31.94,31.26,31.82,30.9717,889927.0,0.0,1.0
"2015-03-16",32.0,32.0,31.79,31.95,31.0983,628174.0,0.0,1.0
"2015-03-17",31.68,32.44,31.58,32.23,31.3708,818485.0,0.0,1.0
"2015-03-18",32.21,32.21,31.63,31.92,31.0691,630626.0,0.0,1.0
"2015-03-19",31.92,32.4,31.84,32.37,31.5071,657002.0,0.0,1.0
"2015-03-20",32.5,32.885,32.21,32.25,31.3903,1.49801e6,0.0,1.0
"2015-03-23",32.19,32.53,31.77,31.78,30.9328,653907.0,0.0,1.0
"2015-03-24",31.78,31.92,31.5,31.65,30.8063,723565.0,0.0,1.0
"2015-03-25",31.38,31.51,30.83,30.92,30.0957,1.175374e6,0.0,1.0
"2015-03-26",31.01,31.03,30.37,30.61,29.794,887918.0,0.0,1.0
"2015-03-27",30.74,30.74,29.93,30.06,29.2587,960646.0,0.0,1.0
"2015-03-30",30.16,30.41,30.06,30.29,29.4825,577155.0,0.0,1.0
"2015-03-31",30.24,30.49,29.97,30.35,29.5409,1.384355e6,0.0,1.0
"2015-04-01",30.13,30.69,29.91,30.41,29.5993,1.138728e6,0.0,1.0
"2015-04-02",30.4,30.71,30.24,30.61,29.794,841350.0,0.0,1.0
"2015-04-06",30.5,30.8299,29.69,29.84,29.0445,1.070757e6,0.0,1.0
"2015-04-07",30.13,30.72,29.5,29.76,28.9667,1.46738e6,0.0,1.0
"2015-04-08",29.8,30.15,29.7275,29.97,29.1711,734317.0,0.0,1.0
"2015-04-09",30.02,30.35,29.9,30.14,29.3365,839598.0,0.0,1.0
"2015-04-10",30.24,30.75,30.15,30.59,29.7745,1.288773e6,0.0,1.0
"2015-04-13",30.51,30.805,30.4,30.64,29.8232,1.199517e6,0.0,1.0
"2015-04-14",30.67,30.84,30.51,30.52,29.7064,806462.0,0.0,1.0
"2015-04-15",30.51,30.81,30.48,30.68,29.8621,389864.0,0.0,1.0
"2015-04-16",30.7,30.94,30.3001,30.77,29.9497,1.208431e6,0.0,1.0
"2015-04-17",31.0,31.0,30.22,30.52,29.7064,1.362547e6,0.0,1.0
"2015-04-20",31.1,31.28,30.6,30.9,30.0763,2.17945e6,0.0,1.0
"2015-04-21",30.98,31.35,30.9,31.2,30.3683,1.879755e6,0.0,1.0
"2015-04-22",31.8,32.04,31.02,31.04,30.2125,2.04065e6,0.0,1.0
"2015-04-23",31.52,31.55,30.83,30.96,30.1347,1.391268e6,0.0,1.0
"2015-04-24",30.93,31.12,30.63,30.82,29.9984,661697.0,0.0,1.0
"2015-04-27",30.83,31.01,30.56,30.62,29.8037,625480.0,0.0,1.0
"2015-04-28",30.81,30.88,30.5,30.66,29.8427,567723.0,0.0,1.0
"2015-04-29",30.57,31.06,30.27,30.74,29.9205,1.600425e6,0.0,1.0
"2015-04-30",30.71,31.4,30.64,31.15,30.3196,1.228557e6,0.0,1.0
"2015-05-01",31.39,31.55,31.245,31.52,30.6797,594781.0,0.0,1.0
"2015-05-04",31.55,31.72,31.45,31.71,30.8647,609980.0,0.0,1.0
"2015-05-05",31.9,32.25,31.74,31.94,31.0885,1.271574e6,0.0,1.0
"2015-05-06",32.17,32.23,31.78,32.09,31.2345,943264.0,0.0,1.0
"2015-05-07",32.06,32.66,31.81,32.65,31.7796,1.095478e6,0.0,1.0
"2015-05-08",32.73,33.21,32.64,33.2,32.3149,936180.0,0.0,1.0
"2015-05-11",33.17,33.31,32.785,32.89,32.0132,549231.0,0.0,1.0
"2015-05-12",32.34,33.34,32.04,33.12,32.2371,2.022512e6,0.0,1.0
"2015-05-13",33.12,33.42,32.74,32.9,32.0229,1.075821e6,0.0,1.0
"2015-05-14",32.98,33.13,32.37,32.77,31.8964,1.448969e6,0.0,1.0
"2015-05-15",32.86,32.905,31.765,31.81,30.962,1.300124e6,0.0,1.0
"2015-05-18",31.82,31.87,31.5,31.84,30.9912,796481.0,0.0,1.0
"2015-05-19",31.84,32.06,31.8002,32.06,31.2053,743144.0,0.0,1.0
"2015-05-20",32.19,32.76,31.9861,32.65,31.7796,634498.0,0.0,1.0
"2015-05-21",32.59,32.78,32.39,32.47,31.6044,430394.0,0.0,1.0
"2015-05-22",32.41,32.7,32.17,32.5,31.6336,360571.0,0.0,1.0
"2015-05-26",32.46,32.5,31.87,32.12,31.2637,566169.0,0.0,1.0
"2015-05-27",32.13,32.6,32.1,32.46,31.5947,346149.0,0.0,1.0
"2015-05-28",32.33,32.66,32.25,32.53,31.6628,355820.0,0.0,1.0
"2015-05-29",32.56,32.59,32.125,32.29,31.4292,849985.0,0.0,1.0
"2015-06-01",32.36,32.62,31.9,32.41,31.546,483049.0,0.0,1.0
"2015-06-02",32.28,32.77,32.26,32.65,31.7796,466741.0,0.0,1.0
"2015-06-03",32.69,33.62,32.51,33.18,32.2955,1.834946e6,0.0,1.0
"2015-06-04",33.04,33.11,32.675,32.75,31.8769,793011.0,0.0,1.0
"2015-06-05",32.85,32.89,32.51,32.8,31.9256,318954.0,0.0,1.0
"2015-06-08",32.79,32.8,32.585,32.65,31.7796,484041.0,0.0,1.0
"2015-06-09",32.62,32.92,32.5,32.86,31.984,700272.0,0.0,1.0
"2015-06-10",32.97,33.34,32.82,33.3,32.4123,731181.0,0.0,1.0
"2015-06-11",33.29,33.88,33.16,33.22,32.3344,1.152193e6,0.0,1.0
"2015-06-12",33.17,33.4,32.86,33.12,32.2371,489013.0,0.0,1.0
"2015-06-15",32.92,33.14,32.53,32.97,32.0911,1.670466e6,0.0,1.0
"2015-06-16",33.0,33.16,32.445,32.5,31.6336,632006.0,0.0,1.0
"2015-06-17",32.6,32.99,32.44,32.75,31.8769,497659.0,0.0,1.0
"2015-06-18",32.8,33.14,32.69,32.82,31.9451,590456.0,0.0,1.0
"2015-06-19",32.91,32.97,32.69,32.92,32.0424,492127.0,0.0,1.0
"2015-06-22",33.03,33.25,32.77,32.91,32.0327,459039.0,0.0,1.0
"2015-06-23",32.99,33.28,32.91,32.99,32.1105,664924.0,0.0,1.0
"2015-06-24",32.99,33.205,32.71,32.76,31.8867,521696.0,0.0,1.0
"2015-06-25",32.86,32.86,32.43,32.81,31.9353,705712.0,0.0,1.0
"2015-06-26",32.88,33.16,32.5,32.7,31.8283,2.129424e6,0.0,1.0
"2015-06-29",32.42,32.56,32.17,32.23,31.3708,738689.0,0.0,1.0
"2015-06-30",32.56,33.045,32.374,32.93,32.0521,911643.0,0.0,1.0
"2015-07-01",33.1,33.33,32.83,33.32,32.4318,570175.0,0.0,1.0
"2015-07-02",33.37,33.38,32.95,33.14,32.2565,489977.0,0.0,1.0
"2015-07-06",32.91,32.91,32.32,32.5,31.6336,1.1334e6,0.0,1.0
"2015-07-07",32.61,32.79,32.17,32.5,31.6336,1.5752e6,0.0,1.0
"2015-07-08",32.44,32.46,31.945,32.01,31.1567,621531.0,0.0,1.0
"2015-07-09",32.56,32.97,32.38,32.6,31.7309,811691.0,0.0,1.0
"2015-07-10",32.9,33.38,32.72,33.07,32.1884,727158.0,0.0,1.0
"2015-07-13",33.33,33.5,32.94,33.35,32.461,1.054607e6,0.0,1.0
"2015-07-14",33.38,33.93,33.25,33.77,32.8698,999771.0,0.0,1.0
"2015-07-15",33.9,34.365,33.63,34.14,33.2299,830967.0,0.0,1.0
"2015-07-16",34.26,34.46,34.07,34.13,33.2202,636575.0,0.0,1.0
"2015-07-17",34.5,35.73,34.19,35.08,34.1448,1.233963e6,0.0,1.0
"2015-07-20",35.3,36.21,35.3,35.99,35.0306,1.192762e6,0.0,1.0
"2015-07-21",36.02,36.4,35.566,35.61,34.6607,822130.0,0.0,1.0
"2015-07-22",35.58,35.88,35.07,35.68,34.7288,784684.0,0.0,1.0
"2015-07-23",35.84,36.07,35.43,35.63,34.6802,507264.0,0.0,1.0
"2015-07-24",35.53,35.67,34.63,34.68,33.7555,831323.0,0.0,1.0
"2015-07-27",34.62,34.9,34.27,34.62,33.6971,487549.0,0.0,1.0
"2015-07-28",34.75,34.89,33.98,34.23,33.3175,1.762153e6,0.0,1.0
"2015-07-29",34.27,34.71,34.196,34.48,33.5608,1.141699e6,0.0,1.0
"2015-07-30",34.58,34.81,34.2,34.6,33.6776,989147.0,0.0,1.0
"2015-07-31",34.61,34.76,34.35,34.36,33.444,941816.0,0.0,1.0
"2015-08-03",34.43,34.54,34.16,34.36,33.444,569162.0,0.0,1.0
"2015-08-04",34.37,34.8,34.3,34.41,33.4927,1.228452e6,0.0,1.0
"2015-08-05",34.6,34.78,34.25,34.56,33.6387,919691.0,0.0,1.0
"2015-08-06",34.78,34.82,34.03,34.13,33.2202,631577.0,0.0,1.0
"2015-08-07",34.06,34.21,33.435,33.98,33.0742,646830.0,0.0,1.0
"2015-08-10",34.12,34.64,34.03,34.62,33.6971,504533.0,0.0,1.0
"2015-08-11",34.59,34.68,34.12,34.67,33.7458,942887.0,0.0,1.0
"2015-08-12",34.67,35.0,34.26,34.96,34.028,1.265596e6,0.0,1.0
"2015-08-13",34.96,35.35,34.72,35.16,34.2227,797757.0,0.0,1.0
"2015-08-14",35.5,35.5,34.79,35.14,34.2032,529529.0,0.0,1.0
"2015-08-17",34.86,35.35,34.5,35.32,34.3784,505656.0,0.0,1.0
"2015-08-18",35.27,35.4599,34.98,35.14,34.2032,567503.0,0.0,1.0
"2015-08-19",34.88,35.27,34.43,34.96,34.028,669139.0,0.0,1.0
"2015-08-20",34.62,34.685,34.16,34.36,33.444,1.342319e6,0.0,1.0
"2015-08-21",33.9,34.18,33.605,33.72,32.8211,2.185382e6,0.0,1.0
"2015-08-24",32.22,33.66,30.27,33.15,32.2663,3.017046e6,0.0,1.0
"2015-08-25",33.73,33.97,32.61,32.99,32.1105,2.336863e6,0.0,1.0
"2015-08-26",33.45,33.45,32.23,32.67,31.7991,2.290549e6,0.0,1.0
"2015-08-27",32.99,32.99,31.82,32.33,31.4681,2.728237e6,0.0,1.0
"2015-08-28",32.11,32.77,31.92,32.65,31.7796,1.803987e6,0.0,1.0
"2015-08-31",32.76,33.26,32.47,32.95,32.0716,1.573158e6,0.0,1.0
"2015-09-01",32.54,32.7,31.59,31.71,30.8647,2.032866e6,0.0,1.0
"2015-09-02",32.01,32.252,31.33,31.79,30.9425,1.138242e6,0.0,1.0
"2015-09-03",32.09,32.349,31.8475,32.19,31.3319,921339.0,0.0,1.0
"2015-09-04",31.73,32.1,31.34,31.6,30.7576,1.590429e6,0.0,1.0
"2015-09-08",32.01,32.38,31.82,32.28,31.4195,1.969648e6,0.0,1.0
"2015-09-09",32.59,32.83,32.03,32.13,31.2735,4.099915e6,0.0,1.0
"2015-09-10",31.68,32.24,31.37,32.09,31.2345,2.324248e6,0.0,1.0
"2015-09-11",31.98,32.16,30.9,31.33,30.4948,2.728279e6,0.0,1.0
"2015-09-14",31.25,31.63,30.82,31.17,30.3391,3.086653e6,0.0,1.0
"2015-09-15",31.09,31.28,30.79,31.12,30.2904,2.380418e6,0.0,1.0
"2015-09-16",30.77,31.085,30.33,30.88,30.0568,2.265384e6,0.0,1.0
"2015-09-17",30.81,31.33,30.67,30.77,29.9497,1.058886e6,0.0,1.0
"2015-09-18",30.51,30.7,30.12,30.56,29.7453,2.047455e6,0.0,1.0
"2015-09-21",30.56,31.0,30.25,30.87,30.0471,1.573264e6,0.0,1.0
"2015-09-22",30.72,30.82,30.2,30.58,29.7648,1.376884e6,0.0,1.0
"2015-09-23",30.66,31.08,30.49,31.06,30.232,996285.0,0.0,1.0
"2015-09-24",30.7,31.11,30.54,30.83,30.0081,1.002746e6,0.0,1.0
"2015-09-25",31.06,31.2,30.86,31.03,30.2028,552805.0,0.0,1.0
"2015-09-28",31.0,31.34,30.42,31.16,30.3293,1.110145e6,0.0,1.0
"2015-09-29",31.07,31.2999,30.79,31.04,30.2125,891061.0,0.0,1.0
"2015-09-30",31.37,31.73,30.93,31.3,30.4656,2.178364e6,0.0,1.0
"2015-10-01",31.31,31.58,31.12,31.38,30.5435,858774.0,0.0,1.0
"2015-10-02",31.23,31.92,30.97,31.82,30.9717,1.124547e6,0.0,1.0
"2015-10-05",31.88,33.35,31.73,33.31,32.422,1.21023e6,0.0,1.0
"2015-10-06",33.87,33.87,32.53,32.8,31.9256,1.247664e6,0.0,1.0
"2015-10-07",33.0,33.1,31.79,32.13,31.2735,1.736348e6,0.0,1.0
"2015-10-08",32.12,32.59,31.78,32.36,31.4973,763636.0,0.0,1.0
"2015-10-09",32.31,33.0,32.3,32.39,31.5265,339469.0,0.0,1.0
"2015-10-12",32.27,32.69,32.12,32.34,31.4779,377128.0,0.0,1.0
"2015-10-13",32.19,32.365,31.82,31.82,30.9717,1.163514e6,0.0,1.0
"2015-10-14",31.76,31.82,31.45,31.53,30.6895,1.311896e6,0.0,1.0
"2015-10-15",31.19,32.13,30.51,31.32,30.4851,9.633573e6,0.0,1.0
"2015-10-16",31.37,31.37,29.75,30.15,29.3463,1.1815609e7,0.0,1.0
"2015-10-19",30.05,31.465,28.91,31.34,30.5045,1.8520859e7,0.0,1.0
"2015-10-20",31.76,32.9,31.34,32.34,31.4779,1.1088986e7,0.0,1.0
"2015-10-21",32.4,32.9,32.02,32.46,31.5947,7.452804e6,0.0,1.0
"2015-10-22",32.7,32.812,31.29,31.83,30.9815,6.706032e6,0.0,1.0
"2015-10-23",32.03,32.5,31.495,31.69,30.8452,7.348389e6,0.0,1.0
"2015-10-26",31.83,31.87,30.84,31.4,30.5629,7.209466e6,0.0,1.0
"2015-10-27",31.23,31.76,31.04,31.73,30.8841,7.722377e6,0.0,1.0
"2015-10-28",31.72,31.91,31.15,31.45,30.6116,7.079932e6,0.0,1.0
"2015-10-29",31.18,31.4,30.675,30.92,30.0957,7.730814e6,0.0,1.0
"2015-10-30",30.94,31.0,30.66,30.76,29.94,8.618412e6,0.0,1.0
"2015-11-02",30.56,31.41,30.56,31.33,30.4948,5.771634e6,0.0,1.0
"2015-11-03",31.1,32.58,31.1,32.44,31.5752,1.6475701e7,0.0,1.0
"2015-11-04",32.24,33.17,31.81,32.08,31.2248,1.2612449e7,0.0,1.0
"2015-11-05",32.0,32.711,31.64,32.61,31.7407,1.0719384e7,0.0,1.0
"2015-11-06",32.99,34.6,32.81,33.98,33.0742,1.5380561e7,0.0,1.0
"2015-11-09",33.92,34.19,32.15,32.52,31.6531,1.8957855e7,0.0,1.0
"2015-11-10",31.8,31.98,30.93,31.08,30.2515,3.8502767e7,0.0,1.0
"2015-11-11",31.11,31.23,30.65,30.93,30.1055,4.2150354e7,0.0,1.0
"2015-11-12",30.85,31.74,30.65,30.79,29.9692,4.1435961e7,0.0,1.0
"2015-11-13",30.75,31.49,30.44,30.52,29.7064,3.1691276e7,0.0,1.0
"2015-11-16",30.23,30.39,29.92,30.29,29.4825,2.5446278e7,0.0,1.0
"2015-11-17",30.39,31.36,30.3,30.58,29.7648,1.28981936e8,0.0,1.0
"2015-11-18",30.91,31.75,30.7,31.59,30.7479,2.8031671e7,0.0,1.0
"2015-11-19",31.61,32.03,31.02,31.65,30.8063,2.9436039e7,0.0,1.0
"2015-11-20",31.89,31.89,31.15,31.35,30.5143,1.9893976e7,0.0,1.0
"2015-11-23",31.88,32.25,31.33,31.55,30.7089,2.661586e7,0.0,1.0
"2015-11-24",31.21,31.95,31.19,31.34,30.5045,4.7529204e7,0.0,1.0
"2015-11-25",31.46,31.87,31.25,31.53,30.6895,1.5495472e7,0.0,1.0
"2015-11-27",31.7,31.84,31.3,31.35,30.5143,8.373712e6,0.0,1.0
"2015-11-30",31.57,31.94,31.43,31.83,30.9815,2.0225926e7,0.0,1.0
"2015-12-01",32.12,32.44,31.86,32.41,31.546,1.1681628e7,0.0,1.0
"2015-12-02",32.6,32.6,31.75,31.84,30.9912,8.992369e6,0.0,1.0
"2015-12-03",31.89,32.05,30.89,31.09,30.2612,2.0610451e7,0.0,1.0
"2015-12-04",31.24,32.03,31.11,32.03,31.1761,1.5782103e7,0.0,1.0
"2015-12-07",31.95,32.1,31.12,31.35,30.5143,1.1885459e7,0.0,1.0
"2015-12-08",31.18,31.405,30.765,31.36,30.524,1.5177338e7,0.0,1.0
"2015-12-09",31.34,31.585,30.36,30.61,29.794,1.606309e7,0.0,1.0
"2015-12-10",30.72,31.31,30.66,31.05,30.2223,9.43512e6,0.0,1.0
"2015-12-11",30.67,30.78,29.815,29.97,29.1711,1.0431574e7,0.0,1.0
"2015-12-14",30.14,30.355,29.32,29.68,28.8888,1.5770841e7,0.0,1.0
"2015-12-15",30.0,30.245,29.72,30.08,29.2781,9.655591e6,0.0,1.0
"2015-12-16",30.4,30.68,29.94,30.53,29.7161,8.651272e6,0.0,1.0
"2015-12-17",30.64,30.75,30.0,30.01,29.21,8.002809e6,0.0,1.0
"2015-12-18",29.88,30.0,29.35,29.51,28.7233,1.510906e7,0.0,1.0
"2015-12-21",29.66,30.06,29.55,29.73,28.9375,5.809868e6,0.0,1.0
"2015-12-22",29.99,30.34,29.76,30.21,29.4047,6.52242e6,0.0,1.0
"2015-12-23",30.4,30.56,29.94,30.51,29.6967,4.82442e6,0.0,1.0
"2015-12-24",30.48,30.7225,30.31,30.6,29.7843,1.499019e6,0.0,1.0
"2015-12-28",30.42,30.49,30.1,30.17,29.3657,3.811578e6,0.0,1.0
"2015-12-29",30.46,30.71,30.335,30.69,29.8719,3.436911e6,0.0,1.0
"2015-12-30",30.68,30.7,30.43,30.43,29.6188,2.640808e6,0.0,1.0
"2015-12-31",30.21,30.63,30.1,30.41,29.5993,3.80488e6,0.0,1.0
"2016-01-04",29.98,30.01,29.38,29.94,29.1419,8.771114e6,0.0,1.0
"2016-01-05",29.85,30.28,29.45,30.11,29.3073,7.437973e6,0.0,1.0
"2016-01-06",29.83,30.03,29.48,29.9,29.1029,9.15818e6,0.0,1.0
"2016-01-07",29.47,29.83,29.0,29.12,28.3437,1.119405e7,0.0,1.0
"2016-01-08",29.36,29.525,28.78,28.84,28.0712,1.0400003e7,0.0,1.0
"2016-01-11",29.0,29.03,28.3,28.7,27.9349,1.1826062e7,0.0,1.0
"2016-01-12",29.06,29.19,28.5,28.9,28.1296,8.363108e6,0.0,1.0
"2016-01-13",29.82,29.88,27.52,27.57,26.835,1.522226e7,0.0,1.0
"2016-01-14",27.6,28.28,26.28,28.18,27.4288,2.0004582e7,0.0,1.0
"2016-01-15",27.44,27.72,26.99,27.64,26.9032,1.4396237e7,0.0,1.0
"2016-01-19",27.8,28.155,27.56,28.03,27.2828,9.771981e6,0.0,1.0
"2016-01-20",27.34,27.91,26.82,27.62,26.8837,9.686676e6,0.0,1.0
"2016-01-21",27.62,28.25,27.3,27.73,26.9908,9.063459e6,0.0,1.0
"2016-01-22",29.3,29.44,28.75,29.06,28.2853,1.6868343e7,0.0,1.0
"2016-01-25",29.08,29.25,28.39,28.48,27.7208,9.094445e6,0.0,1.0
"2016-01-26",28.51,28.92,28.32,28.66,27.896,7.516338e6,0.0,1.0
"2016-01-27",28.55,29.02,28.28,28.44,27.6818,8.639966e6,0.0,1.0
"2016-01-28",28.5,28.85,27.59,27.99,27.2438,1.2522172e7,0.0,1.0
"2016-01-29",28.13,28.43,27.29,28.42,27.6624,1.5306514e7,0.0,1.0
"2016-02-01",28.43,28.6,27.93,28.47,27.711,6.804495e6,0.0,1.0
"2016-02-02",28.23,28.29,26.97,27.01,26.29,1.5172443e7,0.0,1.0
"2016-02-03",27.04,27.29,25.34,26.34,25.6378,2.414715e7,0.0,1.0
"2016-02-04",26.26,26.56,26.0,26.31,25.6086,1.6964891e7,0.0,1.0
"2016-02-05",26.34,26.54,25.0,25.23,24.5574,1.5336191e7,0.0,1.0
"2016-02-08",24.98,25.09,24.095,24.48,23.8274,1.642697e7,0.0,1.0
"2016-02-09",24.28,25.32,24.08,25.08,24.4114,1.3511563e7,0.0,1.0
"2016-02-10",25.19,25.85,24.96,25.01,24.3433,7.275536e6,0.0,1.0
"2016-02-11",24.29,24.85,23.74,24.5,23.8469,1.2026033e7,0.0,1.0
"2016-02-12",24.9,25.38,24.8,25.37,24.6937,6.712044e6,0.0,1.0
"2016-02-16",25.75,26.21,25.47,26.14,25.4432,9.705946e6,0.0,1.0
"2016-02-17",26.39,26.91,26.15,26.27,25.5697,1.016142e7,0.0,1.0
"2016-02-18",26.23,26.73,26.045,26.62,25.9104,8.378475e6,0.0,1.0
"2016-02-19",26.5,26.96,26.27,26.77,26.0564,7.630581e6,0.0,1.0
"2016-02-22",27.94,28.0,27.3838,27.71,26.9713,1.0824712e7,0.0,1.0
"2016-02-23",27.71,27.77,27.05,27.51,26.7766,1.1508923e7,0.0,1.0
"2016-02-24",27.17,27.77,26.68,27.73,26.9908,8.471533e6,0.0,1.0
"2016-02-25",27.7,27.89,27.405,27.78,27.0394,6.595878e6,0.0,1.0
"2016-02-26",27.96,28.235,27.35,27.93,27.1854,8.585856e6,0.0,1.0
"2016-02-29",27.85,27.9324,26.9,26.95,26.2316,1.0729767e7,0.0,1.0
"2016-03-01",27.25,27.53,26.78,27.53,26.7961,1.1206892e7,0.0,1.0
"2016-03-02",27.7,28.37,27.6,28.25,27.4969,1.0266364e7,0.0,1.0
"2016-03-03",28.26,28.67,28.025,28.56,27.7986,8.990302e6,0.0,1.0
"2016-03-04",28.74,28.99,28.37,28.6,27.8376,6.100881e6,0.0,1.0
"2016-03-07",28.44,28.565,27.909,28.52,27.7597,6.311647e6,0.0,1.0
"2016-03-08",28.29,28.43,27.64,27.7,26.9616,6.156825e6,0.0,1.0
"2016-03-09",27.84,28.0599,27.54,27.68,26.9421,6.987348e6,0.0,1.0
"2016-03-10",27.8,28.22,27.3,27.81,27.0686,6.062282e6,0.0,1.0
"2016-03-11",28.14,28.85,28.055,28.82,28.0517,8.137113e6,0.0,1.0
"2016-03-14",28.63,28.75,28.225,28.45,27.6916,3.51628e6,0.0,1.0
"2016-03-15",28.16,28.2245,27.57,27.68,26.9421,7.092464e6,0.0,1.0
"2016-03-16",27.65,27.825,27.41,27.62,26.8837,9.234015e6,0.0,1.0
"2016-03-17",27.62,28.25,27.21,28.1,27.3509,8.940546e6,0.0,1.0
"2016-03-18",28.27,28.64,28.15,28.46,27.7013,1.07364e7,0.0,1.0
"2016-03-21",28.4,28.9,28.33,28.79,28.0225,6.588437e6,0.0,1.0
"2016-03-22",28.49,28.64,28.25,28.61,27.8473,5.258708e6,0.0,1.0
"2016-03-23",28.58,28.75,28.255,28.42,27.6624,4.987733e6,0.0,1.0
"2016-03-24",28.2,28.55,28.0665,28.45,27.6916,4.163828e6,0.0,1.0
"2016-03-28",28.51,28.5314,28.2099,28.38,27.6234,3.16287e6,0.0,1.0
"2016-03-29",28.26,28.43,27.9,28.4,27.6429,5.991175e6,0.0,1.0
"2016-03-30",28.54,28.745,28.25,28.38,27.6234,4.875866e6,0.0,1.0
"2016-03-31",28.38,28.76,28.08,28.66,27.896,5.304835e6,0.0,1.0
"2016-04-01",28.62,29.5,28.51,29.33,28.5481,8.118501e6,0.0,1.0
"2016-04-04",29.24,29.36,28.86,28.97,28.1977,3.868182e6,0.0,1.0
"2016-04-05",28.61,28.79,28.4,28.61,27.8473,5.061972e6,0.0,1.0
"2016-04-06",28.49,28.7,28.12,28.65,27.8862,4.227753e6,0.0,1.0
"2016-04-07",28.42,28.51,27.8,27.97,27.2244,6.413004e6,0.0,1.0
"2016-04-08",27.9,28.42,27.76,28.02,27.273,6.29728e6,0.0,1.0
"2016-04-11",28.06,28.41,27.86,27.87,27.127,5.655809e6,0.0,1.0
"2016-04-12",27.97,28.26,27.85,28.16,27.4093,6.152841e6,0.0,1.0
"2016-04-13",28.38,28.94,28.29,28.92,28.149,7.19468e6,0.0,1.0
"2016-04-14",28.8,29.26,28.8,29.08,28.3048,4.535409e6,0.0,1.0
"2016-04-15",29.29,29.4,28.78,28.94,28.1685,3.216311e6,0.0,1.0
"2016-04-18",28.81,29.18,28.76,29.13,28.3534,2.620088e6,0.0,1.0
"2016-04-19",29.2,29.87,29.17,29.82,29.0251,7.75161e6,0.0,1.0
"2016-04-20",29.94,30.76,29.94,30.67,29.8524,1.1727068e7,0.0,1.0
"2016-04-21",30.58,30.74,30.28,30.42,29.6091,6.626706e6,0.0,1.0
"2016-04-22",30.03,31.19,30.03,30.5,29.6869,9.138493e6,0.0,1.0
"2016-04-25",30.47,30.89,30.19,30.44,29.6285,5.870194e6,0.0,1.0
"2016-04-26",30.59,31.2,30.45,31.16,30.3293,7.473373e6,0.0,1.0
"2016-04-27",31.14,31.14,30.57,30.88,30.0568,7.985527e6,0.0,1.0
"2016-04-28",30.62,31.23,30.5,30.97,30.1444,5.919317e6,0.0,1.0
"2016-04-29",30.78,31.0,30.285,30.57,29.7551,4.897838e6,0.0,1.0
"2016-05-02",30.78,31.45,30.69,31.33,30.4948,6.897366e6,0.0,1.0
"2016-05-03",30.99,31.18,30.63,31.08,30.2515,5.487294e6,0.0,1.0
"2016-05-04",30.76,30.8601,30.13,30.24,29.4339,6.945602e6,0.0,1.0
"2016-05-05",30.28,30.43,29.79,29.83,29.0348,5.835767e6,0.0,1.0
"2016-05-06",29.66,30.115,29.5,30.08,29.2781,6.065153e6,0.0,1.0
"2016-05-09",30.13,30.335,29.88,29.96,29.1613,2.890863e6,0.0,1.0
"2016-05-10",30.07,30.7,30.04,30.56,29.7453,3.721321e6,0.0,1.0
"2016-05-11",30.36,30.46,29.9,29.93,29.1321,7.770221e6,0.0,1.0
"2016-05-12",30.21,30.23,29.32,29.42,28.6357,9.34881e6,0.0,1.0
"2016-05-13",29.29,29.65,28.95,29.04,28.2658,6.895135e6,0.0,1.0
"2016-05-16",29.04,29.32,28.91,28.94,28.1685,7.667189e6,0.0,1.0
"2016-05-17",28.79,29.699,28.73,29.27,28.4897,6.261894e6,0.0,1.0
"2016-05-18",29.27,30.125,29.21,30.11,29.3073,7.386225e6,0.0,1.0
"2016-05-19",29.86,30.25,29.58,29.94,29.1419,6.118536e6,0.0,1.0
"2016-05-20",30.04,30.37,29.74,29.88,29.0835,4.905003e6,0.0,1.0
"2016-05-23",29.78,30.03,29.47,29.83,29.0348,3.360413e6,0.0,1.0
"2016-05-24",30.0,30.44,29.97,30.3,29.4923,4.699216e6,0.0,1.0
"2016-05-25",30.43,30.975,30.4,30.66,29.8427,6.028878e6,0.0,1.0
"2016-05-26",30.64,30.98,30.4,30.89,30.0665,5.692734e6,0.0,1.0
"2016-05-27",31.0,31.24,30.766,31.16,30.3293,5.267779e6,0.0,1.0
"2016-05-31",31.38,31.38,31.02,31.2,30.3683,5.877342e6,0.0,1.0
"2016-06-01",31.15,31.33,30.76,31.29,30.4559,3.105601e6,0.0,1.0
"2016-06-02",31.25,31.29,30.885,31.28,30.4461,6.289457e6,0.0,1.0
"2016-06-03",30.92,31.19,30.25,30.72,29.9011,5.753433e6,0.0,1.0
"2016-06-06",30.73,31.09,30.7,31.03,30.2028,6.480582e6,0.0,1.0
"2016-06-07",31.11,31.84,30.73,31.61,30.7673,1.0576557e7,0.0,1.0
"2016-06-08",31.59,31.97,31.59,31.95,31.0983,7.482181e6,0.0,1.0
"2016-06-09",31.72,31.72,31.2,31.41,30.5727,5.764617e6,0.0,1.0
"2016-06-10",31.09,31.15,30.63,30.8,29.9789,5.913163e6,0.0,1.0
"2016-06-13",30.66,30.89,30.4,30.44,29.6285,5.938196e6,0.0,1.0
"2016-06-14",29.26,29.26,25.45,26.45,25.7449,6.6003876e7,0.0,1.0
"2016-06-15",26.49,27.17,25.93,26.5,25.7936,2.6797368e7,0.0,1.0
"2016-06-16",26.24,26.28,25.6,26.0,25.3069,2.1833217e7,0.0,1.0
"2016-06-17",25.97,26.01,25.58,25.77,25.083,1.8246381e7,0.0,1.0
"2016-06-20",26.02,26.03,25.32,25.55,24.8689,1.8357539e7,0.0,1.0
"2016-06-21",25.68,26.25,25.5,25.85,25.1609,1.1457686e7,0.0,1.0
"2016-06-22",25.81,26.23,25.465,25.5,24.8202,1.4686581e7,0.0,1.0
"2016-06-23",25.78,26.04,25.5,26.0,25.3069,1.0441066e7,0.0,1.0
"2016-06-24",24.95,25.47,24.55,24.64,23.9831,1.6053501e7,0.0,1.0
"2016-06-27",24.3,24.32,23.25,23.36,22.7373,1.4961202e7,0.0,1.0
"2016-06-28",23.71,24.05,23.6,23.93,23.2921,1.2055028e7,0.0,1.0
"2016-06-29",24.17,24.84,24.07,24.83,24.1681,8.15363e6,0.0,1.0
"2016-06-30",24.98,25.28,24.45,25.28,24.6061,1.0654647e7,0.0,1.0
"2016-07-01",25.24,25.47,25.09,25.35,24.6742,6.368809e6,0.0,1.0
"2016-07-05",25.38,25.395,25.01,25.12,24.4503,7.663912e6,0.0,1.0
"2016-07-06",24.85,25.46,24.83,25.31,24.6353,6.206643e6,0.0,1.0
"2016-07-07",25.35,26.08,25.31,26.02,25.3264,1.4372028e7,0.0,1.0
"2016-07-08",27.29,27.48,27.0,27.31,26.582,1.265309e7,0.0,1.0
"2016-07-11",27.5,27.78,27.355,27.67,26.9324,6.78156e6,0.0,1.0
"2016-07-12",28.0,28.15,27.825,27.92,27.1757,7.635209e6,0.0,1.0
"2016-07-13",27.95,28.18,27.63,28.12,27.3704,5.206545e6,0.0,1.0
"2016-07-14",28.59,28.66,28.09,28.3,27.5456,5.896333e6,0.0,1.0
"2016-07-15",28.32,28.32,27.83,28.12,27.3704,7.254237e6,0.0,1.0
"2016-07-18",28.5,28.7,28.08,28.29,27.5358,5.10271e6,0.0,1.0
"2016-07-19",28.25,28.415,28.1,28.25,27.4969,5.232063e6,0.0,1.0
"2016-07-20",28.49,28.58,28.0,28.14,27.3898,8.941785e6,0.0,1.0
"2016-07-21",28.06,28.47,27.57,28.26,27.5066,7.650591e6,0.0,1.0
"2016-07-22",28.61,28.89,27.95,28.4,27.6429,1.1843972e7,0.0,1.0
"2016-07-25",28.31,28.39,27.96,28.09,27.3412,7.29995e6,0.0,1.0
"2016-07-26",28.13,28.5,28.0,28.11,27.3606,7.76212e6,0.0,1.0
"2016-07-27",27.98,28.23,27.865,28.14,27.3898,5.20652e6,0.0,1.0
"2016-07-28",28.05,28.19,27.875,27.91,27.166,7.416664e6,0.0,1.0
"2016-07-29",27.87,28.09,27.75,27.88,27.1368,8.307521e6,0.0,1.0
"2016-08-01",27.9,28.27,27.88,27.91,27.166,7.053449e6,0.0,1.0
"2016-08-02",27.88,28.06,27.32,27.35,26.6209,8.237358e6,0.0,1.0
"2016-08-03",27.38,28.04,27.34,27.87,27.127,6.342506e6,0.0,1.0
"2016-08-04",27.9,28.08,27.75,27.92,27.1757,4.274313e6,0.0,1.0
"2016-08-05",28.29,28.43,28.145,28.22,27.4677,5.337635e6,0.0,1.0
"2016-08-08",28.33,28.44,27.985,28.04,27.2925,3.884234e6,0.0,1.0
"2016-08-09",28.05,28.09,27.79,27.89,27.1465,7.132599e6,0.0,1.0
"2016-08-10",27.81,27.91,27.46,27.65,27.0394,6.786411e6,0.13,1.0
"2016-08-11",27.7,27.87,27.53,27.61,27.0003,5.082539e6,0.0,1.0
"2016-08-12",27.45,27.88,27.28,27.68,27.0688,6.822944e6,0.0,1.0
"2016-08-15",27.86,27.97,27.705,27.74,27.1274,4.782245e6,0.0,1.0
"2016-08-16",27.64,27.78,27.3,27.3,26.6972,5.08644e6,0.0,1.0
"2016-08-17",27.31,27.47,27.225,27.38,26.7754,5.611264e6,0.0,1.0
"2016-08-18",27.39,27.4,27.16,27.29,26.6874,5.091608e6,0.0,1.0
"2016-08-19",27.17,27.49,27.1,27.38,26.7754,4.949335e6,0.0,1.0
"2016-08-22",27.37,27.38,27.13,27.27,26.6678,3.295094e6,0.0,1.0
"2016-08-23",27.43,27.5,27.27,27.28,26.6776,3.644705e6,0.0,1.0
"2016-08-24",27.33,27.49,27.07,27.12,26.5211,4.352044e6,0.0,1.0
"2016-08-25",27.1,27.21,26.91,27.01,26.4136,3.224371e6,0.0,1.0
"2016-08-26",27.1,27.15,26.6,26.86,26.2669,7.739082e6,0.0,1.0
"2016-08-29",26.95,27.29,26.86,27.17,26.57,3.761555e6,0.0,1.0
"2016-08-30",27.25,27.37,27.055,27.3,26.6972,3.362709e6,0.0,1.0
"2016-08-31",27.31,27.84,27.22,27.83,27.2155,7.81927e6,0.0,1.0
"2016-09-01",27.83,28.01,27.395,27.76,27.147,5.099241e6,0.0,1.0
"2016-09-02",27.86,27.905,27.58,27.8,27.1861,3.544535e6,0.0,1.0
"2016-09-06",27.77,27.83,27.545,27.61,27.0003,4.83342e6,0.0,1.0
"2016-09-07",27.48,27.84,27.35,27.81,27.1959,2.803127e6,0.0,1.0
"2016-09-08",27.6,27.69,27.28,27.34,26.7363,9.316464e6,0.0,1.0
"2016-09-09",27.31,27.68,26.93,26.93,26.3353,6.698318e6,0.0,1.0
"2016-09-12",26.78,27.49,26.68,27.41,26.8047,6.655034e6,0.0,1.0
"2016-09-13",27.08,27.17,26.53,26.72,26.13,8.61149e6,0.0,1.0
"2016-09-14",26.72,26.98,26.55,26.83,26.2375,6.64527e6,0.0,1.0
"2016-09-15",26.76,27.17,26.62,27.05,26.4527,5.081053e6,0.0,1.0
"2016-09-16",26.85,26.97,26.67,26.91,26.3158,1.3467197e7,0.0,1.0
"2016-09-19",27.03,27.16,26.89,27.04,26.4429,5.03089e6,0.0,1.0
"2016-09-20",27.21,27.21,26.79,26.8,26.2082,3.694391e6,0.0,1.0
"2016-09-21",26.95,27.23,26.75,27.06,26.4625,6.989691e6,0.0,1.0
"2016-09-22",27.16,27.56,26.95,27.48,26.8732,6.3219e6,0.0,1.0
"2016-09-23",27.33,27.75,27.3,27.39,26.7852,5.886606e6,0.0,1.0
"2016-09-26",27.15,27.615,27.0,27.3,26.6972,7.150638e6,0.0,1.0
"2016-09-27",27.26,27.855,27.18,27.81,27.1959,5.903969e6,0.0,1.0
"2016-09-28",27.81,27.95,27.585,27.82,27.2057,4.815418e6,0.0,1.0
"2016-09-29",27.77,27.89,27.02,27.37,26.7656,5.794203e6,0.0,1.0
"2016-09-30",27.63,28.115,27.49,28.0,27.3817,7.039464e6,0.0,1.0
"2016-10-03",27.84,28.13,27.51,27.58,26.971,7.193615e6,0.0,1.0
"2016-10-04",27.7,27.92,27.29,27.33,26.7265,9.73652e6,0.0,1.0
"2016-10-05",27.4,28.02,27.29,27.94,27.323,8.118644e6,0.0,1.0
"2016-10-06",27.85,27.91,26.935,26.99,26.394,1.14323e7,0.0,1.0
"2016-10-07",27.1,27.42,26.49,26.67,26.0811,1.1058248e7,0.0,1.0
"2016-10-10",26.93,26.99,26.45,26.73,26.1398,1.4337401e7,0.0,1.0
"2016-10-11",26.73,26.86,26.475,26.54,25.9539,7.960092e6,0.0,1.0
"2016-10-12",26.49,26.63,26.42,26.51,25.9246,5.161762e6,0.0,1.0
"2016-10-13",26.3,26.53,26.09,26.37,25.7877,5.589248e6,0.0,1.0
"2016-10-14",26.64,26.94,26.525,26.7,26.1104,6.678359e6,0.0,1.0
"2016-10-17",26.66,26.82,26.39,26.42,25.8366,5.834078e6,0.0,1.0
"2016-10-18",26.74,26.81,26.55,26.64,26.0517,6.983744e6,0.0,1.0
"2016-10-19",26.53,27.11,26.53,27.0,26.4038,4.252213e6,0.0,1.0
"2016-10-20",27.05,27.37,26.94,27.13,26.5309,1.0756593e7,0.0,1.0
"2016-10-21",27.87,28.38,27.64,28.23,27.6066,1.3331886e7,0.0,1.0
"2016-10-24",28.41,29.02,28.41,28.79,28.1543,9.113426e6,0.0,1.0
"2016-10-25",28.73,28.89,28.45,28.58,27.9489,5.785553e6,0.0,1.0
"2016-10-26",28.39,28.865,28.295,28.7,28.0663,5.130762e6,0.0,1.0
"2016-10-27",28.85,29.125,28.77,28.94,28.301,5.431593e6,0.0,1.0
"2016-10-28",29.03,29.325,28.76,29.1,28.4574,7.759585e6,0.0,1.0
"2016-10-31",29.29,29.29,28.57,28.59,27.9587,6.857185e6,0.0,1.0
"2016-11-01",28.77,29.02,28.34,28.56,27.9293,7.629229e6,0.0,1.0
"2016-11-02",28.55,28.81,28.38,28.42,27.7924,6.133368e6,0.0,1.0
"2016-11-03",28.48,28.48,28.08,28.13,27.636,4.990459e6,0.13,1.0
"2016-11-04",28.26,28.6,28.0,28.22,27.7244,5.915091e6,0.0,1.0
"2016-11-07",28.82,29.115,28.63,29.11,28.5988,6.653371e6,0.0,1.0
"2016-11-08",28.89,29.0,28.4,28.7,28.196,5.314712e6,0.0,1.0
"2016-11-09",28.95,30.3,28.84,30.22,29.6893,1.1493405e7,0.0,1.0
"2016-11-10",30.56,31.74,30.51,31.61,31.0548,1.1400086e7,0.0,1.0
"2016-11-11",31.45,32.61,31.4,32.48,31.9096,1.6845105e7,0.0,1.0
"2016-11-14",32.77,33.81,32.75,33.72,33.1278,1.2338723e7,0.0,1.0
"2016-11-15",33.63,33.63,32.64,33.34,32.7545,1.0573012e7,0.0,1.0
"2016-11-16",33.08,33.24,32.56,32.61,32.0373,9.114605e6,0.0,1.0
"2016-11-17",32.83,33.47,32.43,33.43,32.8429,1.070966e7,0.0,1.0
"2016-11-18",33.49,33.69,33.16,33.62,33.0295,7.069522e6,0.0,1.0
"2016-11-21",33.72,33.85,33.29,33.62,33.0295,7.134629e6,0.0,1.0
"2016-11-22",33.84,34.33,33.75,33.97,33.3734,8.149848e6,0.0,1.0
"2016-11-23",34.0,35.02,33.93,34.96,34.346,1.1404334e7,0.0,1.0
"2016-11-25",34.99,35.02,34.65,34.7,34.0906,3.022536e6,0.0,1.0
"2016-11-28",34.48,34.48,33.79,33.9,33.3046,6.247709e6,0.0,1.0
"2016-11-29",34.05,34.16,33.8,33.8,33.2064,4.282464e6,0.0,1.0
"2016-11-30",34.19,34.67,33.98,34.56,33.953,8.560737e6,0.0,1.0
"2016-12-01",34.68,35.45,34.57,35.07,34.4541,9.961781e6,0.0,1.0
"2016-12-02",35.05,35.1,34.455,34.49,33.8843,7.112548e6,0.0,1.0
"2016-12-05",34.85,35.52,34.81,35.11,34.4934,5.922698e6,0.0,1.0
"2016-12-06",35.27,35.7,34.915,35.66,35.0337,5.031187e6,0.0,1.0
"2016-12-07",35.23,36.2701,34.98,36.18,35.5446,6.103266e6,0.0,1.0
"2016-12-08",36.28,36.77,36.0835,36.65,36.0063,6.651462e6,0.0,1.0
"2016-12-09",36.54,36.77,36.22,36.53,35.8884,5.65956e6,0.0,1.0
"2016-12-12",36.45,36.68,35.8,35.94,35.3088,6.647547e6,0.0,1.0
"2016-12-13",36.13,36.39,35.58,36.27,35.633,7.663411e6,0.0,1.0
"2016-12-14",35.97,36.42,35.57,35.94,35.3088,9.93838e6,0.0,1.0
"2016-12-15",36.26,37.13,35.94,36.93,36.2814,1.1704398e7,0.0,1.0
"2016-12-16",37.09,37.1,36.515,36.63,35.9867,7.620674e6,0.0,1.0
"2016-12-19",36.57,36.96,36.51,36.9,36.2519,5.526574e6,0.0,1.0
"2016-12-20",37.06,37.26,36.85,37.26,36.6056,5.100616e6,0.0,1.0
"2016-12-21",37.31,37.31,36.95,37.1,36.4484,2.778433e6,0.0,1.0
"2016-12-22",37.1,37.1,36.67,36.88,36.2323,3.95917e6,0.0,1.0
"2016-12-23",36.81,36.97,36.67,36.97,36.3207,2.971522e6,0.0,1.0
"2016-12-27",37.13,37.18,36.92,37.0,36.3502,2.208377e6,0.0,1.0
"2016-12-28",37.07,37.1,36.2,36.24,35.6035,4.830687e6,0.0,1.0
"2016-12-29",36.39,36.66,35.92,36.09,35.4562,3.529793e6,0.0,1.0
"2016-12-30",36.13,36.46,36.08,36.27,35.633,3.452559e6,0.0,1.0
"2017-01-03",36.75,37.17,36.59,37.06,36.4091,6.058653e6,0.0,1.0
"2017-01-04",37.3,38.055,37.145,37.93,37.2639,6.040128e6,0.0,1.0
"2017-01-05",37.66,37.74,36.4,36.91,36.2618,6.850843e6,0.0,1.0
"2017-01-06",37.09,37.48,36.88,37.13,36.4779,5.110239e6,0.0,1.0
"2017-01-09",36.91,37.075,36.52,36.9,36.2519,3.955523e6,0.0,1.0
"2017-01-10",37.03,37.49,36.725,36.96,36.3109,5.033296e6,0.0,1.0
"2017-01-11",36.81,36.81,35.66,36.36,35.7214,1.1639127e7,0.0,1.0
"2017-01-12",36.16,36.195,35.6,36.13,35.4955,6.484263e6,0.0,1.0
"2017-01-13",36.34,36.83,36.065,36.32,35.6821,4.401247e6,0.0,1.0
"2017-01-17",36.1,36.23,35.37,35.51,34.8864,4.701335e6,0.0,1.0
"2017-01-18",35.79,35.92,35.17,35.9,35.2695,3.943596e6,0.0,1.0
"2017-01-19",35.96,36.14,35.56,35.61,34.9846,6.150013e6,0.0,1.0
"2017-01-20",35.98,36.85,35.85,36.24,35.6035,8.954517e6,0.0,1.0
"2017-01-23",36.03,36.49,35.61,35.77,35.1418,6.8466e6,0.0,1.0
"2017-01-24",35.97,36.37,35.88,36.08,35.4463,4.117791e6,0.0,1.0
"2017-01-25",36.39,36.495,35.75,35.91,35.2793,6.387239e6,0.0,1.0
"2017-01-26",36.02,36.7,35.88,36.69,36.0456,7.571788e6,0.0,1.0
"2017-01-27",36.69,36.79,36.35,36.63,35.9867,5.956661e6,0.0,1.0
"2017-01-30",36.45,36.53,36.0,36.47,35.8295,4.665115e6,0.0,1.0
"2017-01-31",36.3,36.535,35.56,35.82,35.1909,5.993091e6,0.0,1.0
"2017-02-01",36.06,36.58,35.885,36.0,35.3678,5.257973e6,0.0,1.0
"2017-02-02",35.64,35.81,35.19,35.34,34.8471,5.637092e6,0.13,1.0
"2017-02-03",35.95,36.735,35.65,36.51,36.0007,7.493442e6,0.0,1.0
"2017-02-06",36.25,36.55,36.16,36.45,35.9416,4.385608e6,0.0,1.0
"2017-02-07",36.64,36.78,35.96,36.05,35.5472,5.583418e6,0.0,1.0
"2017-02-08",35.88,35.88,35.38,35.77,35.2711,4.228879e6,0.0,1.0
"2017-02-09",35.77,36.595,35.68,36.49,35.981,4.838572e6,0.0,1.0
"2017-02-10",36.73,36.8,36.15,36.22,35.7148,5.527093e6,0.0,1.0
"2017-02-13",36.43,36.79,36.32,36.65,36.1388,7.151666e6,0.0,1.0
"2017-02-14",36.63,37.4,36.54,37.32,36.7994,4.626192e6,0.0,1.0
"2017-02-15",37.33,37.75,37.17,37.28,36.76,4.296926e6,0.0,1.0
"2017-02-16",37.19,37.29,36.55,36.85,36.336,3.616544e6,0.0,1.0
"2017-02-17",36.58,36.76,36.055,36.68,36.1684,5.91697e6,0.0,1.0
"2017-02-21",37.11,37.34,36.86,36.86,36.3459,3.842853e6,0.0,1.0
"2017-02-22",36.59,37.03,36.54,36.78,36.267,2.659873e6,0.0,1.0
"2017-02-23",36.86,36.92,36.28,36.63,36.1191,3.122337e6,0.0,1.0
"2017-02-24",36.25,36.48,36.11,36.48,35.9712,4.575047e6,0.0,1.0
"2017-02-27",36.5,36.96,35.95,36.94,36.4247,4.19615e6,0.0,1.0
"2017-02-28",36.77,36.853,35.75,36.24,35.7345,7.566944e6,0.0,1.0
"2017-03-01",37.18,37.415,36.711,36.89,36.3754,5.994455e6,0.0,1.0
"2017-03-02",36.88,36.98,35.92,35.97,35.4683,6.618947e6,0.0,1.0
"2017-03-03",35.9,36.17,35.69,36.05,35.5472,5.091931e6,0.0,1.0
"2017-03-06",35.8,35.81,35.32,35.58,35.0837,5.11587e6,0.0,1.0
"2017-03-07",35.57,35.94,35.36,35.6,35.1034,4.149434e6,0.0,1.0
"2017-03-08",35.9,36.1,35.64,35.71,35.2119,3.67985e6,0.0,1.0
"2017-03-09",35.92,36.15,35.68,35.85,35.3499,3.208046e6,0.0,1.0
"2017-03-10",36.08,36.2,35.78,36.01,35.5077,4.307316e6,0.0,1.0
"2017-03-13",35.99,36.17,35.72,36.03,35.5274,3.894115e6,0.0,1.0
"2017-03-14",35.75,35.98,35.645,35.92,35.419,3.580011e6,0.0,1.0
"2017-03-15",36.03,36.18,35.68,35.8,35.3006,6.428659e6,0.0,1.0
"2017-03-16",36.01,36.085,35.705,35.83,35.3302,4.818372e6,0.0,1.0
"2017-03-17",35.73,35.73,34.86,35.12,34.6301,1.0581403e7,0.0,1.0
"2017-03-20",35.08,35.2,34.19,34.2,33.723,9.393672e6,0.0,1.0
"2017-03-21",34.39,34.5,32.94,33.02,32.5594,1.1892966e7,0.0,1.0
"2017-03-22",32.9,33.53,32.48,33.08,32.6186,8.907135e6,0.0,1.0
"2017-03-23",33.07,33.82,32.93,33.43,32.9637,6.455728e6,0.0,1.0
"2017-03-24",33.56,33.69,33.03,33.31,32.8454,4.682455e6,0.0,1.0
"2017-03-27",32.59,32.97,32.24,32.74,32.2833,8.790087e6,0.0,1.0
"2017-03-28",32.81,33.9,32.6,33.66,33.1905,6.438023e6,0.0,1.0
"2017-03-29",33.64,33.93,33.55,33.78,33.3088,4.487143e6,0.0,1.0
"2017-03-30",33.82,34.585,33.78,34.43,33.9498,5.122565e6,0.0,1.0
"2017-03-31",34.27,34.53,34.125,34.3,33.8216,5.031422e6,0.0,1.0
"2017-04-03",34.45,34.54,33.275,33.76,33.2891,6.17129e6,0.0,1.0
"2017-04-04",33.58,33.91,33.58,33.73,33.2595,2.555999e6,0.0,1.0
"2017-04-05",34.24,34.36,33.14,33.26,32.7961,5.021029e6,0.0,1.0
"2017-04-06",33.23,33.59,32.945,33.23,32.7665,1.0510542e7,0.0,1.0
"2017-04-07",32.96,33.42,32.87,33.16,32.6975,3.734693e6,0.0,1.0
"2017-04-10",33.19,33.465,32.815,32.87,32.4115,6.846201e6,0.0,1.0
"2017-04-11",32.55,33.118,32.25,33.05,32.589,6.759719e6,0.0,1.0
"2017-04-12",32.82,33.23,32.71,32.81,32.3523,4.596058e6,0.0,1.0
"2017-04-13",32.67,32.99,32.37,32.37,31.9185,5.266471e6,0.0,1.0
"2017-04-17",32.41,33.04,32.28,33.02,32.5594,4.183891e6,0.0,1.0
"2017-04-18",32.81,33.065,32.56,32.85,32.3918,4.971693e6,0.0,1.0
"2017-04-19",33.06,33.23,32.87,33.0,32.5397,3.358561e6,0.0,1.0
"2017-04-20",33.32,34.01,33.27,33.85,33.3778,5.408973e6,0.0,1.0
"2017-04-21",33.78,33.88,33.26,33.38,32.9144,4.729675e6,0.0,1.0
"2017-04-24",34.3,34.35,33.68,33.9,33.4271,4.231785e6,0.0,1.0
"2017-04-25",34.19,34.33,33.63,33.82,33.3483,6.139972e6,0.0,1.0
"2017-04-26",33.73,33.8,32.65,33.23,32.7665,1.1540507e7,0.0,1.0
"2017-04-27",33.44,33.44,33.0,33.05,32.589,7.139808e6,0.0,1.0
"2017-04-28",27.5,29.08,27.24,27.8,27.4122,463762.0,0.0,1.0
"2017-05-01",27.98,28.62,27.2,27.94,27.5503,2.2971526e7,0.0,1.0
"2017-05-02",27.96,28.93,27.68,28.87,28.4673,2.5485886e7,0.0,1.0
"2017-05-03",28.62,29.18,28.52,28.77,28.3687,1.4285674e7,0.0,1.0
"2017-05-04",28.79,28.98,28.54,28.67,28.3983,9.812918e6,0.13,1.0
"2017-05-05",28.84,29.25,28.42,28.61,28.3389,1.0074652e7,0.0,1.0
"2017-05-08",28.58,28.7,28.35,28.38,28.111,8.024962e6,0.0,1.0
"2017-05-09",28.44,28.53,28.02,28.1,27.8337,8.661307e6,0.0,1.0
"2017-05-10",28.01,28.12,27.68,27.76,27.4969,1.1016654e7,0.0,1.0
"2017-05-11",27.67,27.68,26.6,26.93,26.6748,1.4143858e7,0.0,1.0
"2017-05-12",26.81,26.825,26.01,26.59,26.338,2.3117623e7,0.0,1.0
"2017-05-15",26.77,27.395,26.52,27.11,26.8531,1.4541211e7,0.0,1.0
"2017-05-16",27.22,27.24,26.79,26.84,26.5856,1.1189651e7,0.0,1.0
"2017-05-17",26.84,26.84,26.145,26.5,26.2488,1.1756236e7,0.0,1.0
"2017-05-18",26.43,26.775,26.41,26.5,26.2488,7.947742e6,0.0,1.0
"2017-05-19",27.76,27.82,26.805,26.84,26.5856,1.3462704e7,0.0,1.0
"2017-05-22",27.01,27.03,26.66,26.91,26.655,9.221621e6,0.0,1.0
"2017-05-23",27.01,27.01,26.68,26.84,26.5856,6.534515e6,0.0,1.0
"2017-05-24",26.82,27.01,26.7,26.8,26.546,9.157277e6,0.0,1.0
"2017-05-25",26.97,27.41,26.72,27.23,26.9719,1.2798759e7,0.0,1.0
"2017-05-26",27.15,27.65,27.07,27.37,27.1106,1.1403208e7,0.0,1.0
"2017-05-30",27.31,27.46,27.005,27.1,26.8432,9.627645e6,0.0,1.0
"2017-05-31",27.1,27.2,26.34,26.85,26.5955,9.142838e6,0.0,1.0
"2017-06-01",26.99,27.47,26.84,27.22,26.962,8.651407e6,0.0,1.0
"2017-06-02",26.98,27.67,26.98,27.4,27.1403,1.2363311e7,0.0,1.0
"2017-06-05",27.35,28.066,27.1,27.96,27.695,1.0972351e7,0.0,1.0
"2017-06-06",27.72,28.445,27.51,28.29,28.0219,1.4200544e7,0.0,1.0
"2017-06-07",28.46,29.185,28.415,28.87,28.5964,1.6055452e7,0.0,1.0
"2017-06-08",28.87,29.24,28.63,28.67,28.3983,8.528476e6,0.0,1.0
"2017-06-09",28.93,28.98,28.52,28.7,28.428,7.848042e6,0.0,1.0
"2017-06-12",28.71,28.98,28.68,28.76,28.4874,5.664745e6,0.0,1.0
"2017-06-13",28.83,29.085,28.43,28.99,28.7152,5.308227e6,0.0,1.0
"2017-06-14",28.8,29.32,28.62,29.23,28.953,1.0161751e7,0.0,1.0
"2017-06-15",28.98,29.66,28.97,29.47,29.1907,8.636164e6,0.0,1.0
"2017-06-16",29.46,29.46,29.07,29.33,29.052,6.826129e6,0.0,1.0
"2017-06-19",29.47,29.47,29.124,29.42,29.1412,6.86584e6,0.0,1.0
"2017-06-20",29.4,29.775,29.33,29.44,29.161,5.686002e6,0.0,1.0
"2017-06-21",29.45,29.79,29.201,29.7,29.4185,7.813186e6,0.0,1.0
"2017-06-22",29.57,29.76,29.16,29.3,29.0223,6.379024e6,0.0,1.0
"2017-06-23",29.49,29.52,28.84,28.97,28.6954,7.454294e6,0.0,1.0
"2017-06-26",29.04,29.72,29.04,29.68,29.3987,7.016728e6,0.0,1.0
"2017-06-27",29.75,29.8,29.42,29.44,29.161,6.346937e6,0.0,1.0
"2017-06-28",29.67,30.1,29.59,29.8,29.5176,1.013635e7,0.0,1.0
"2017-06-29",30.25,30.54,29.315,29.55,29.2699,9.137934e6,0.0,1.0
"2017-06-30",29.78,29.96,29.47,29.82,29.5374,4.756177e6,0.0,1.0
"2017-07-03",30.06,30.37,29.95,30.06,29.7751,2.315274e6,0.0,1.0
"2017-07-05",30.17,30.26,29.74,29.78,29.4978,4.378403e6,0.0,1.0
"2017-07-06",29.8,29.8,29.29,29.38,29.1016,4.035677e6,0.0,1.0
"2017-07-07",29.54,29.84,29.4,29.7,29.4185,3.484454e6,0.0,1.0
"2017-07-10",29.67,29.7,29.085,29.13,28.8539,5.711932e6,0.0,1.0
"2017-07-11",29.16,29.16,28.8,29.1,28.8242,7.744091e6,0.0,1.0
"2017-07-12",29.1,29.35,28.89,29.33,29.052,3.700651e6,0.0,1.0
"2017-07-13",29.21,29.705,29.21,29.36,29.0817,4.68293e6,0.0,1.0
"2017-07-14",29.15,29.635,29.06,29.48,29.2006,4.216398e6,0.0,1.0
"2017-07-17",29.48,29.845,29.22,29.65,29.369,3.937662e6,0.0,1.0
"2017-07-18",29.43,29.565,29.17,29.33,29.052,4.653406e6,0.0,1.0
"2017-07-19",29.45,29.61,29.24,29.51,29.2303,5.215986e6,0.0,1.0
"2017-07-20",29.42,29.74,29.19,29.53,29.2501,5.662821e6,0.0,1.0
"2017-07-21",31.49,31.9,30.12,30.87,30.5774,1.0678732e7,0.0,1.0
"2017-07-24",30.8,31.12,30.53,30.74,30.4487,5.980701e6,0.0,1.0
"2017-07-25",30.98,31.2,30.71,30.89,30.5972,5.535874e6,0.0,1.0
"2017-07-26",31.07,31.09,30.53,30.57,30.2803,6.26448e6,0.0,1.0
"2017-07-27",30.59,30.63,30.125,30.34,30.0525,6.599655e6,0.0,1.0
"2017-07-28",30.19,30.27,29.84,29.94,29.6562,8.066844e6,0.0,1.0
"2017-07-31",30.06,30.48,30.06,30.32,30.0326,1.2938044e7,0.0,1.0
"2017-08-01",30.52,30.579,29.83,29.88,29.5968,8.194415e6,0.0,1.0
"2017-08-02",29.93,30.185,29.78,30.06,29.7751,6.29794e6,0.0,1.0
"2017-08-03",29.9,30.4,29.79,29.91,29.7751,6.986642e6,0.15,1.0
"2017-08-04",30.17,30.32,29.8,29.87,29.7353,7.284053e6,0.0,1.0
"2017-08-07",29.88,30.515,29.77,30.4,30.2629,5.164233e6,0.0,1.0
"2017-08-08",30.34,31.41,30.34,30.72,30.5815,7.762222e6,0.0,1.0
"2017-08-09",30.48,30.56,30.13,30.25,30.1136,4.832334e6,0.0,1.0
"2017-08-10",30.07,30.09,28.93,29.32,29.1878,9.222964e6,0.0,1.0
"2017-08-11",29.34,29.395,28.96,29.2,29.0683,6.6659e6,0.0,1.0
"2017-08-14",29.5,30.2,29.4,29.64,29.5063,5.845197e6,0.0,1.0
"2017-08-15",30.91,31.13,30.38,30.99,30.8502,1.2968819e7,0.0,1.0
"2017-08-16",31.67,31.68,30.82,30.87,30.7308,7.36386e6,0.0,1.0
"2017-08-17",30.87,30.91,30.05,30.1,29.9643,7.335905e6,0.0,1.0
"2017-08-18",30.19,30.36,29.88,30.07,29.9344,5.523411e6,0.0,1.0
"2017-08-21",30.1,30.3,29.95,30.26,30.1235,4.480956e6,0.0,1.0
"2017-08-22",30.34,30.465,30.0,30.34,30.2032,6.198982e6,0.0,1.0
"2017-08-23",30.2,30.57,30.13,30.31,30.1733,4.106961e6,0.0,1.0
"2017-08-24",30.49,30.7,30.3,30.46,30.3226,3.211393e6,0.0,1.0
"2017-08-25",30.53,30.85,30.44,30.54,30.4023,2.908032e6,0.0,1.0
"2017-08-28",30.74,30.75,30.17,30.29,30.1534,3.700017e6,0.0,1.0
"2017-08-29",30.04,30.2,29.79,30.12,29.9842,5.434531e6,0.0,1.0
"2017-08-30",30.1,30.76,30.05,30.66,30.5217,5.283148e6,0.0,1.0
"2017-08-31",30.72,30.92,30.62,30.79,30.6511,5.128755e6,0.0,1.0
"2017-09-01",30.78,31.035,30.7,30.92,30.7806,3.07647e6,0.0,1.0
"2017-09-05",30.7,30.75,29.75,29.87,29.7353,6.034331e6,0.0,1.0
"2017-09-06",30.05,30.275,29.93,29.96,29.8249,5.845116e6,0.0,1.0
"2017-09-07",30.0,30.0,28.955,29.06,28.9289,5.296163e6,0.0,1.0
"2017-09-08",28.63,28.86,28.329,28.55,28.4212,8.528986e6,0.0,1.0
"2017-09-11",28.82,29.35,28.65,29.15,29.0185,5.981691e6,0.0,1.0
"2017-09-12",29.35,29.57,29.11,29.19,29.0584,5.156708e6,0.0,1.0
"2017-09-13",29.25,29.57,29.2,29.32,29.1878,7.132431e6,0.0,1.0
"2017-09-14",29.27,29.43,28.67,28.7,28.5706,7.540346e6,0.0,1.0
"2017-09-15",28.57,29.21,28.46,29.02,28.8891,1.086983e7,0.0,1.0
"2017-09-18",29.11,29.3,28.95,29.26,29.128,5.519494e6,0.0,1.0
"2017-09-19",29.29,29.48,29.05,29.09,28.9588,5.641266e6,0.0,1.0
"2017-09-20",29.2,29.266,28.9,29.0,28.8692,5.82629e6,0.0,1.0
"2017-09-21",29.0,29.09,28.704,28.89,28.7597,5.116636e6,0.0,1.0
"2017-09-22",28.86,29.5,28.85,29.47,29.3371,5.962218e6,0.0,1.0
"2017-09-25",29.35,29.88,29.31,29.56,29.4267,6.753564e6,0.0,1.0
"2017-09-26",29.61,30.04,29.51,29.94,29.805,3.744492e6,0.0,1.0
"2017-09-27",30.24,31.185,30.18,30.94,30.8005,1.0530374e7,0.0,1.0
"2017-09-28",30.9,31.43,30.88,31.19,31.0493,7.618946e6,0.0,1.0
"2017-09-29",31.19,31.38,30.92,31.05,30.91,4.829537e6,0.0,1.0
"2017-10-02",31.17,31.49,30.92,31.48,31.338,4.401992e6,0.0,1.0
"2017-10-03",31.46,31.885,31.42,31.72,31.5769,5.859281e6,0.0,1.0
"2017-10-04",31.76,31.79,31.26,31.31,31.1688,4.6367e6,0.0,1.0
"2017-10-05",31.32,31.665,31.16,31.66,31.5172,4.785287e6,0.0,1.0
"2017-10-06",31.46,31.575,31.19,31.31,31.1688,4.66825e6,0.0,1.0
"2017-10-09",31.47,31.69,31.26,31.44,31.2982,2.605631e6,0.0,1.0
"2017-10-10",31.5,31.9,31.5,31.75,31.6068,4.84612e6,0.0,1.0
"2017-10-11",31.72,31.83,31.37,31.42,31.2783,3.393741e6,0.0,1.0
"2017-10-12",31.33,31.33,30.48,30.64,30.5018,6.529666e6,0.0,1.0
"2017-10-13",30.45,31.24,30.38,30.82,30.681,7.805383e6,0.0,1.0
"2017-10-16",30.99,31.62,30.91,31.5,31.3579,1.0537612e7,0.0,1.0
"2017-10-17",31.59,31.595,30.85,30.98,30.8403,4.673408e6,0.0,1.0
"2017-10-18",31.12,31.55,30.99,31.51,31.3679,6.455429e6,0.0,1.0
"2017-10-19",31.2,31.87,30.86,31.71,31.567,7.456421e6,0.0,1.0
"2017-10-20",33.41,34.08,32.845,33.04,32.891,1.3827864e7,0.0,1.0
"2017-10-23",33.26,33.33,32.63,32.68,32.5326,5.601383e6,0.0,1.0
"2017-10-24",32.76,32.86,32.27,32.65,32.5028,4.385529e6,0.0,1.0
"2017-10-25",32.38,32.63,32.0,32.38,32.234,7.23682e6,0.0,1.0
"2017-10-26",32.66,32.97,32.6,32.87,32.7218,4.24996e6,0.0,1.0
"2017-10-27",32.61,32.97,32.43,32.94,32.7914,3.853394e6,0.0,1.0
"2017-10-30",32.78,33.1,32.51,32.6,32.453,3.998065e6,0.0,1.0
"2017-10-31",32.54,32.82,32.43,32.62,32.4729,4.57127e6,0.0,1.0
"2017-11-01",32.71,32.95,32.545,32.83,32.6819,2.914194e6,0.0,1.0
"2017-11-02",32.8,33.24,32.465,33.22,33.0702,5.972708e6,0.0,1.0
"2017-11-03",33.12,33.37,32.9,33.11,33.11,4.239887e6,0.15,1.0
"2017-11-06",33.0,33.08,32.77,32.77,32.77,3.492677e6,0.0,1.0
"2017-11-07",32.82,33.02,32.27,32.36,32.36,3.801687e6,0.0,1.0
"2017-11-08",32.28,32.39,31.79,32.07,32.07,4.130146e6,0.0,1.0
"2017-11-09",31.92,32.21,31.55,32.09,32.09,4.140332e6,0.0,1.0
"2017-11-10",32.13,32.38,32.045,32.07,32.07,2.263171e6,0.0,1.0
"2017-11-13",32.18,32.63,32.11,32.59,32.59,5.18526e6,0.0,1.0
"2017-11-14",32.37,32.66,32.26,32.56,32.56,3.936293e6,0.0,1.0
"2017-11-15",32.08,32.74,31.85,32.53,32.53,6.359855e6,0.0,1.0
"2017-11-16",33.52,33.86,33.19,33.38,33.38,1.1123549e7,0.0,1.0
"2017-11-17",33.4,34.04,33.34,33.86,33.86,8.601235e6,0.0,1.0
"2017-11-20",33.86,34.32,33.82,33.86,33.86,8.231929e6,0.0,1.0
"2017-11-21",33.91,33.99,33.31,33.77,33.77,6.838201e6,0.0,1.0
"2017-11-22",33.9,33.98,33.5,33.67,33.67,4.177322e6,0.0,1.0
"2017-11-24",33.73,33.755,33.42,33.49,33.49,2.372259e6,0.0,1.0
"2017-11-27",33.48,33.5,32.92,33.21,33.21,6.123059e6,0.0,1.0
"2017-11-28",33.22,34.61,33.075,34.49,34.49,8.245176e6,0.0,1.0
"2017-11-29",34.94,35.68,34.885,35.35,35.35,1.1568625e7,0.0,1.0
"2017-11-30",35.5,36.45,35.435,35.89,35.89,1.2016633e7,0.0,1.0
"2017-12-01",35.79,36.065,34.66,35.94,35.94,7.336509e6,0.0,1.0
"2017-12-04",36.57,38.04,36.57,37.45,37.45,1.4111953e7,0.0,1.0
"2017-12-05",37.6,37.93,37.19,37.31,37.31,8.225059e6,0.0,1.0
"2017-12-06",37.1,37.6,37.04,37.39,37.39,5.646387e6,0.0,1.0
"2017-12-07",37.16,37.73,37.09,37.34,37.34,8.090359e6,0.0,1.0
"2017-12-08",37.85,37.85,37.165,37.5,37.5,7.819575e6,0.0,1.0
"2017-12-11",37.44,37.7,37.29,37.59,37.59,5.862685e6,0.0,1.0
"2017-12-12",37.62,37.86,37.36,37.36,37.36,7.174217e6,0.0,1.0
"2017-12-13",37.4,37.54,36.6,36.64,36.64,7.950593e6,0.0,1.0
"2017-12-14",36.94,37.33,36.84,36.99,36.99,5.590527e6,0.0,1.0
"2017-12-15",37.22,37.6,36.88,37.19,37.19,8.840075e6,0.0,1.0
"2017-12-18",37.78,38.965,37.73,38.51,38.51,8.254972e6,0.0,1.0
"2017-12-19",38.76,38.85,38.16,38.18,38.18,6.751127e6,0.0,1.0
"2017-12-20",38.32,38.65,37.92,37.96,37.96,3.231884e6,0.0,1.0
"2017-12-21",38.17,38.77,38.07,38.6,38.6,3.974919e6,0.0,1.0
"2017-12-22",38.6,38.86,38.27,38.77,38.77,3.613751e6,0.0,1.0
"2017-12-26",38.7,38.96,38.55,38.71,38.71,3.121491e6,0.0,1.0
"2017-12-27",38.71,38.82,38.41,38.6,38.6,2.527225e6,0.0,1.0
"2017-12-28",38.8,39.11,38.74,38.97,38.97,3.461816e6,0.0,1.0
"2017-12-29",39.13,39.17,38.6,38.61,38.61,3.48056e6,0.0,1.0
"2018-01-02",38.8,39.0,38.52,38.86,38.86,2.973058e6,0.0,1.0
"2018-01-03",38.87,39.18,38.73,39.12,39.12,3.514352e6,0.0,1.0
"2018-01-04",39.47,39.86,39.37,39.4,39.4,3.237558e6,0.0,1.0
"2018-01-05",39.66,39.79,39.25,39.74,39.74,4.524129e6,0.0,1.0
"2018-01-08",39.61,39.78,39.24,39.26,39.26,4.959565e6,0.0,1.0
"2018-01-09",39.53,39.81,39.3,39.44,39.44,6.593391e6,0.0,1.0
"2018-01-10",39.51,40.03,39.38,39.66,39.66,7.563223e6,0.0,1.0
"2018-01-11",39.77,40.17,39.28,39.76,39.76,5.894732e6,0.0,1.0
"2018-01-12",40.04,40.05,37.66,39.37,39.37,8.532072e6,0.0,1.0
"2018-01-16",39.46,39.58,37.78,37.93,37.93,1.2836305e7,0.0,1.0
"2018-01-17",38.16,38.33,37.791,38.06,38.06,1.072865e7,0.0,1.0
"2018-01-18",38.29,38.29,36.75,37.3,37.3,1.3713367e7,0.0,1.0
"2018-01-19",37.74,38.84,36.85,38.47,38.47,1.1650246e7,0.0,1.0
"2018-01-22",38.18,39.6,38.16,39.52,39.52,1.5121058e7,0.0,1.0
"2018-01-23",39.42,39.94,39.06,39.78,39.78,8.314907e6,0.0,1.0
"2018-01-24",39.89,40.19,39.46,39.74,39.74,7.348392e6,0.0,1.0
"2018-01-25",39.91,40.03,39.47,39.58,39.58,6.386722e6,0.0,1.0
"2018-01-26",39.63,40.235,39.49,40.21,40.21,4.787933e6,0.0,1.0
"2018-01-29",40.11,40.59,40.1,40.16,40.16,5.725842e6,0.0,1.0
"2018-01-30",39.92,40.16,39.6036,39.63,39.63,5.453665e6,0.0,1.0
