"Date","Open","High","Low","Close","Adjusted Close","Volume","Divident Amout","Split Coefficient"
"2016-06-23",23.99,29.61,23.66,28.79,28.79,2.1299009e7,0.0,1.0
"2016-06-24",27.54,28.739,26.05,26.3,26.3,4.670689e6,0.0,1.0
"2016-06-27",27.35,28.19,26.3,27.25,27.25,3.929574e6,0.0,1.0
"2016-06-28",30.4,33.4114,29.57,29.92,29.92,1.0620519e7,0.0,1.0
"2016-06-29",31.98,37.19,31.75,37.08,37.08,1.3782994e7,0.0,1.0
"2016-06-30",39.68,41.89,34.8,36.5,36.5,1.8512567e7,0.0,1.0
"2016-07-01",36.97,37.34,33.65,34.03,34.03,7.005298e6,0.0,1.0
"2016-07-05",34.87,35.43,33.07,34.04,34.04,3.998666e6,0.0,1.0
"2016-07-06",33.41,37.93,33.27,37.93,37.93,5.074073e6,0.0,1.0
"2016-07-07",38.41,38.62,36.0,36.51,36.51,4.066611e6,0.0,1.0
"2016-07-08",37.25,37.4,35.25,35.54,35.54,3.25005e6,0.0,1.0
"2016-07-11",36.3,38.3,35.7901,37.3,37.3,5.734722e6,0.0,1.0
"2016-07-12",37.99,38.94,36.815,38.3,38.3,4.17892e6,0.0,1.0
"2016-07-13",41.29,42.75,40.21,42.25,42.25,8.547881e6,0.0,1.0
"2016-07-14",43.4,44.8,40.8,41.75,41.75,7.230801e6,0.0,1.0
"2016-07-15",42.74,43.75,41.2,43.0,43.0,2.921416e6,0.0,1.0
"2016-07-18",41.25,42.4844,40.15,41.03,41.03,3.75828e6,0.0,1.0
"2016-07-19",40.53,41.0,39.04,39.07,39.07,2.223578e6,0.0,1.0
"2016-07-20",39.5,42.5735,38.51,41.73,41.73,4.511937e6,0.0,1.0
"2016-07-21",41.71,42.55,39.83,40.12,40.12,2.639374e6,0.0,1.0
"2016-07-22",40.32,41.76,40.1,40.81,40.81,1.937967e6,0.0,1.0
"2016-07-25",40.7,41.49,39.5701,40.75,40.75,2.240765e6,0.0,1.0
"2016-07-26",40.55,41.782,39.75,40.39,40.39,2.247899e6,0.0,1.0
"2016-07-27",40.92,43.25,40.77,42.54,42.54,4.813914e6,0.0,1.0
"2016-07-28",42.96,43.7,41.02,42.17,42.17,4.156579e6,0.0,1.0
"2016-07-29",42.75,42.881,40.55,40.63,40.63,4.896012e6,0.0,1.0
"2016-08-01",40.63,41.64,39.11,39.33,39.33,2.661841e6,0.0,1.0
"2016-08-02",39.1,40.25,37.5,37.93,37.93,2.647958e6,0.0,1.0
"2016-08-03",38.1,39.0,37.2,38.55,38.55,1.38277e6,0.0,1.0
"2016-08-04",38.9,41.07,38.9,40.59,40.59,1.659642e6,0.0,1.0
"2016-08-05",40.97,41.72,40.75,41.49,41.49,1.442462e6,0.0,1.0
"2016-08-08",42.7,42.92,40.58,42.5,42.5,3.249979e6,0.0,1.0
"2016-08-09",44.32,45.69,41.35,43.01,43.01,7.377874e6,0.0,1.0
"2016-08-10",43.22,43.95,41.9,43.63,43.63,2.493626e6,0.0,1.0
"2016-08-11",43.45,49.0,43.45,48.71,48.71,8.139415e6,0.0,1.0
"2016-08-12",49.05,53.37,48.6,53.29,53.29,9.286048e6,0.0,1.0
"2016-08-15",56.75,66.3989,55.1332,58.47,58.47,2.2052422e7,0.0,1.0
"2016-08-16",60.57,64.16,59.06,59.34,59.34,1.2272173e7,0.0,1.0
"2016-08-17",60.9,61.5,57.05,58.86,58.86,6.795911e6,0.0,1.0
"2016-08-18",59.14,59.3599,54.15,54.4,54.4,7.445193e6,0.0,1.0
"2016-08-19",52.32,56.47,51.8501,54.88,54.88,6.905469e6,0.0,1.0
"2016-08-22",56.23,59.75,55.34,58.65,58.65,7.201539e6,0.0,1.0
"2016-08-23",60.15,61.35,55.71,56.08,56.08,7.620779e6,0.0,1.0
"2016-08-24",56.08,58.07,53.35,53.6,53.6,7.644738e6,0.0,1.0
"2016-08-25",54.25,55.0999,51.257,51.93,51.93,5.51112e6,0.0,1.0
"2016-08-26",51.93,54.33,49.611,54.25,54.25,7.093711e6,0.0,1.0
"2016-08-29",54.55,56.0,53.2,53.82,53.82,4.455735e6,0.0,1.0
"2016-08-30",53.85,54.93,53.51,53.8,53.8,3.393266e6,0.0,1.0
"2016-08-31",53.99,54.59,52.14,53.62,53.62,2.17787e6,0.0,1.0
"2016-09-01",53.61,56.74,53.6,54.38,54.38,5.95293e6,0.0,1.0
"2016-09-02",54.93,57.74,54.93,57.62,57.62,3.740987e6,0.0,1.0
"2016-09-06",58.24,60.69,57.791,59.18,59.18,7.321377e6,0.0,1.0
"2016-09-07",60.2,60.4,56.31,56.63,56.63,5.303567e6,0.0,1.0
"2016-09-08",57.4,58.45,56.51,57.45,57.45,3.661092e6,0.0,1.0
"2016-09-09",57.0,58.0,55.02,56.0,56.0,4.478684e6,0.0,1.0
"2016-09-12",55.08,57.88,54.58,56.7,56.7,3.497447e6,0.0,1.0
"2016-09-13",55.78,56.75,53.6,53.97,53.97,4.026102e6,0.0,1.0
"2016-09-14",54.97,55.0,52.77,53.12,53.12,2.714084e6,0.0,1.0
"2016-09-15",53.88,54.85,53.26,54.0,54.0,2.291145e6,0.0,1.0
"2016-09-16",54.3,56.99,53.66,56.75,56.75,4.355304e6,0.0,1.0
"2016-09-19",57.54,59.4,56.9,57.28,57.28,4.253407e6,0.0,1.0
"2016-09-20",57.87,58.989,56.6,56.76,56.76,2.233041e6,0.0,1.0
"2016-09-21",57.5,61.85,56.85,61.7,61.7,5.058283e6,0.0,1.0
"2016-09-22",62.45,66.48,62.0301,64.92,64.92,8.998281e6,0.0,1.0
"2016-09-23",64.45,68.4,63.8,64.07,64.07,7.570061e6,0.0,1.0
"2016-09-26",63.0,65.68,62.38,64.24,64.24,3.880331e6,0.0,1.0
"2016-09-27",66.0,68.99,65.56,68.22,68.22,7.97103e6,0.0,1.0
"2016-09-28",70.49,70.96,67.44,68.97,68.97,6.73252e6,0.0,1.0
"2016-09-29",69.13,69.9,68.2,68.72,68.72,3.269871e6,0.0,1.0
"2016-09-30",69.5,69.61,63.01,64.36,64.36,7.817974e6,0.0,1.0
"2016-10-03",62.5,66.64,62.43,65.02,65.02,3.766872e6,0.0,1.0
"2016-10-04",65.26,65.7299,60.26,60.94,60.94,4.149408e6,0.0,1.0
"2016-10-05",62.09,63.14,61.051,61.47,61.47,2.417254e6,0.0,1.0
"2016-10-06",60.72,62.77,60.0715,60.69,60.69,1.921822e6,0.0,1.0
"2016-10-07",61.33,61.98,59.27,60.58,60.58,1.737345e6,0.0,1.0
"2016-10-10",57.63,58.91,51.39,52.02,52.02,8.667866e6,0.0,1.0
"2016-10-11",54.43,54.6,51.341,52.44,52.44,5.416017e6,0.0,1.0
"2016-10-12",53.46,53.59,50.04,50.8,50.8,2.594562e6,0.0,1.0
"2016-10-13",49.87,49.95,47.05,47.24,47.24,9.1544e6,0.0,1.0
"2016-10-14",47.8,49.59,45.68,46.11,46.11,6.71407e6,0.0,1.0
"2016-10-17",45.39,47.218,44.31,44.45,44.45,5.101638e6,0.0,1.0
"2016-10-18",45.89,48.94,44.411,47.77,47.77,6.564995e6,0.0,1.0
"2016-10-19",48.1,48.18,45.5,46.51,46.51,2.96993e6,0.0,1.0
"2016-10-20",45.8,46.949,43.54,44.14,44.14,4.040677e6,0.0,1.0
"2016-10-21",41.0,43.1,40.19,41.06,41.06,1.8570052e7,0.0,1.0
"2016-10-24",42.2,42.8,40.64,40.73,40.73,7.135349e6,0.0,1.0
"2016-10-25",40.73,41.63,38.55,38.6,38.6,7.002501e6,0.0,1.0
"2016-10-26",38.42,40.43,38.25,39.24,39.24,5.316405e6,0.0,1.0
"2016-10-27",39.52,39.75,36.72,37.26,37.26,7.109717e6,0.0,1.0
"2016-10-28",36.79,37.7,34.74,35.42,35.42,7.189312e6,0.0,1.0
"2016-10-31",35.41,36.25,33.75,34.12,34.12,8.314168e6,0.0,1.0
"2016-11-01",35.4,36.79,34.71,35.88,35.88,9.92454e6,0.0,1.0
"2016-11-02",35.73,36.3699,33.45,34.15,34.15,5.155094e6,0.0,1.0
"2016-11-03",33.87,34.55,32.41,32.6,32.6,7.687178e6,0.0,1.0
"2016-11-04",34.16,35.2,31.5,31.57,31.57,1.0045282e7,0.0,1.0
"2016-11-07",32.97,33.1,30.43,30.52,30.52,7.362257e6,0.0,1.0
"2016-11-08",30.6,31.88,29.92,31.41,31.41,6.308243e6,0.0,1.0
"2016-11-09",30.36,33.7,30.3,31.81,31.81,6.409225e6,0.0,1.0
"2016-11-10",33.14,34.0,30.72,31.5,31.5,5.155071e6,0.0,1.0
"2016-11-11",31.08,32.28,31.03,31.56,31.56,2.274922e6,0.0,1.0
"2016-11-14",31.71,32.97,31.21,31.39,31.39,4.079204e6,0.0,1.0
"2016-11-15",31.7,34.85,31.39,34.73,34.73,6.075208e6,0.0,1.0
"2016-11-16",35.39,37.84,35.0,37.05,37.05,1.0980161e7,0.0,1.0
"2016-11-17",37.42,37.44,34.75,35.21,35.21,5.879619e6,0.0,1.0
"2016-11-18",35.41,36.88,34.55,36.88,36.88,4.348977e6,0.0,1.0
"2016-11-21",37.9,38.88,36.51,36.8,36.8,7.352437e6,0.0,1.0
"2016-11-22",37.6,38.2,36.8,37.39,37.39,3.628577e6,0.0,1.0
"2016-11-23",37.09,37.85,35.53,35.68,35.68,5.330232e6,0.0,1.0
"2016-11-25",35.68,35.84,34.8501,35.07,35.07,1.543267e6,0.0,1.0
"2016-11-28",34.81,35.49,33.72,33.85,33.85,3.233506e6,0.0,1.0
"2016-11-29",33.99,34.29,32.66,33.61,33.61,3.402508e6,0.0,1.0
"2016-11-30",33.0,35.24,33.0,33.92,33.92,3.302633e6,0.0,1.0
"2016-12-01",33.66,33.8,31.54,31.87,31.87,3.880679e6,0.0,1.0
"2016-12-02",31.55,31.74,30.31,30.38,30.38,3.552004e6,0.0,1.0
"2016-12-05",30.89,31.67,30.35,30.73,30.73,3.773082e6,0.0,1.0
"2016-12-06",30.81,32.49,30.81,32.14,32.14,3.77151e6,0.0,1.0
"2016-12-07",32.0,32.87,30.98,31.02,31.02,3.026957e6,0.0,1.0
"2016-12-08",31.05,31.7799,30.34,30.6,30.6,4.905457e6,0.0,1.0
"2016-12-09",30.6,30.95,29.14,29.34,29.34,5.737657e6,0.0,1.0
"2016-12-12",29.04,29.5,28.37,29.23,29.23,3.897841e6,0.0,1.0
"2016-12-13",29.0,30.37,29.0,29.27,29.27,2.623843e6,0.0,1.0
"2016-12-14",29.23,29.94,29.0,29.51,29.51,2.254426e6,0.0,1.0
"2016-12-15",29.61,30.21,29.25,29.65,29.65,2.588756e6,0.0,1.0
"2016-12-16",29.9,30.53,28.711,29.25,29.25,3.338648e6,0.0,1.0
"2016-12-19",29.2,29.5,28.71,29.15,29.15,2.934987e6,0.0,1.0
"2016-12-20",29.61,31.49,28.61,29.92,29.92,1.0098421e7,0.0,1.0
"2016-12-21",30.5,34.68,30.2,34.59,34.59,1.1589479e7,0.0,1.0
"2016-12-22",35.07,35.15,31.52,31.71,31.71,1.1640225e7,0.0,1.0
"2016-12-23",32.12,32.6,31.53,32.22,32.22,3.251824e6,0.0,1.0
"2016-12-27",32.7,33.0499,32.05,32.61,32.61,2.792589e6,0.0,1.0
"2016-12-28",32.45,32.75,30.03,30.21,30.21,4.165625e6,0.0,1.0
"2016-12-29",30.02,30.24,28.851,29.27,29.27,3.419961e6,0.0,1.0
"2016-12-30",29.42,29.99,28.65,28.85,28.85,3.014551e6,0.0,1.0
"2017-01-03",29.25,29.45,25.98,26.5,26.5,1.1108366e7,0.0,1.0
"2017-01-04",26.55,27.75,26.21,27.51,27.51,6.047448e6,0.0,1.0
"2017-01-05",28.6,28.75,27.41,28.1,28.1,4.683456e6,0.0,1.0
"2017-01-06",28.06,28.73,27.56,27.63,27.63,3.790378e6,0.0,1.0
"2017-01-09",27.77,28.35,27.24,28.1,28.1,2.619911e6,0.0,1.0
"2017-01-10",29.25,29.7,27.72,27.79,27.79,4.675759e6,0.0,1.0
"2017-01-11",27.45,28.0,27.33,27.94,27.94,2.394353e6,0.0,1.0
"2017-01-12",28.46,28.72,27.5594,27.88,27.88,2.792905e6,0.0,1.0
"2017-01-13",27.85,28.1096,27.41,27.96,27.96,2.694681e6,0.0,1.0
"2017-01-17",27.9,28.0598,27.75,27.85,27.85,2.669061e6,0.0,1.0
"2017-01-18",27.77,27.8322,27.03,27.59,27.59,3.580985e6,0.0,1.0
"2017-01-19",27.73,28.68,27.42,28.56,28.56,4.98402e6,0.0,1.0
"2017-01-20",28.55,29.0,28.0201,28.38,28.38,3.877424e6,0.0,1.0
"2017-01-23",28.38,28.8,28.1505,28.5,28.5,2.907279e6,0.0,1.0
"2017-01-24",28.47,29.44,28.22,28.73,28.73,4.087098e6,0.0,1.0
"2017-01-25",29.19,30.47,28.825,29.05,29.05,5.137206e6,0.0,1.0
"2017-01-26",30.15,30.5,29.35,29.85,29.85,3.812716e6,0.0,1.0
"2017-01-27",29.92,29.9894,28.85,29.44,29.44,2.786627e6,0.0,1.0
"2017-01-30",29.41,29.41,28.28,29.01,29.01,3.392347e6,0.0,1.0
"2017-01-31",28.7,28.94,28.43,28.83,28.83,2.072838e6,0.0,1.0
"2017-02-01",29.74,30.365,29.36,30.05,30.05,3.69753e6,0.0,1.0
"2017-02-02",29.87,30.84,29.62,30.1,30.1,4.029614e6,0.0,1.0
"2017-02-03",30.1,31.6,30.07,31.37,31.37,4.11962e6,0.0,1.0
"2017-02-06",31.5,32.42,31.3,31.82,31.82,6.083289e6,0.0,1.0
"2017-02-07",32.3,32.31,30.83,30.96,30.96,7.408462e6,0.0,1.0
"2017-02-08",31.71,32.69,29.75,31.44,31.44,9.780999e6,0.0,1.0
"2017-02-09",31.44,34.24,30.75,32.81,32.81,9.960612e6,0.0,1.0
"2017-02-10",31.77,33.39,31.58,31.96,31.96,9.469159e6,0.0,1.0
"2017-02-13",32.06,34.95,32.06,34.9,34.9,8.648324e6,0.0,1.0
"2017-02-14",33.86,34.44,32.88,33.65,33.65,7.476603e6,0.0,1.0
"2017-02-15",33.4,33.86,33.11,33.42,33.42,3.408233e6,0.0,1.0
"2017-02-16",33.65,34.28,32.763,33.17,33.17,5.113029e6,0.0,1.0
"2017-02-17",33.17,33.362,32.2,32.35,32.35,4.026794e6,0.0,1.0
"2017-02-21",32.47,32.63,31.396,31.96,31.96,4.40268e6,0.0,1.0
"2017-02-22",31.91,32.445,31.735,32.16,32.16,3.902386e6,0.0,1.0
"2017-02-23",32.31,32.49,31.4,31.67,31.67,2.801703e6,0.0,1.0
"2017-02-24",31.28,32.28,31.01,32.26,32.26,2.329736e6,0.0,1.0
"2017-02-27",32.08,33.33,31.86,32.64,32.64,3.320079e6,0.0,1.0
"2017-02-28",32.16,32.24,31.33,31.72,31.72,4.446167e6,0.0,1.0
"2017-03-01",32.0,32.41,31.67,32.32,32.32,3.378508e6,0.0,1.0
"2017-03-02",32.04,32.66,30.79,31.03,31.03,4.20213e6,0.0,1.0
"2017-03-03",30.74,30.89,29.351,29.81,29.81,4.749519e6,0.0,1.0
"2017-03-06",30.4,31.03,29.83,30.89,30.89,3.488214e6,0.0,1.0
"2017-03-07",30.65,31.33,30.49,30.74,30.74,1.969675e6,0.0,1.0
"2017-03-08",30.81,31.16,30.588,31.08,31.08,1.551946e6,0.0,1.0
"2017-03-09",31.1,31.84,30.85,31.32,31.32,2.345655e6,0.0,1.0
"2017-03-10",31.42,31.71,31.03,31.23,31.23,1.597689e6,0.0,1.0
"2017-03-13",31.15,32.67,31.1,32.07,32.07,2.404441e6,0.0,1.0
"2017-03-14",31.91,31.95,30.79,31.07,31.07,1.664701e6,0.0,1.0
"2017-03-15",31.21,31.39,30.344,31.3,31.3,1.88674e6,0.0,1.0
"2017-03-16",31.39,32.622,31.263,31.41,31.41,2.907855e6,0.0,1.0
"2017-03-17",31.09,31.79,30.51,31.03,31.03,4.484657e6,0.0,1.0
"2017-03-20",31.06,31.49,30.76,31.2,31.2,1.639045e6,0.0,1.0
"2017-03-21",31.12,31.33,29.23,29.6,29.6,3.956623e6,0.0,1.0
"2017-03-22",29.64,29.89,28.97,29.17,29.17,2.343382e6,0.0,1.0
"2017-03-23",29.24,29.5,28.95,29.05,29.05,1.481317e6,0.0,1.0
"2017-03-24",29.1,29.5,28.823,29.19,29.19,1.291465e6,0.0,1.0
"2017-03-27",28.8,29.82,28.36,29.63,29.63,1.597183e6,0.0,1.0
"2017-03-28",29.53,30.06,29.208,29.27,29.27,1.65747e6,0.0,1.0
"2017-03-29",29.25,29.25,28.75,28.78,28.78,2.200243e6,0.0,1.0
"2017-03-30",28.67,28.89,28.12,28.62,28.62,2.244087e6,0.0,1.0
"2017-03-31",28.47,29.26,28.26,28.87,28.87,1.694561e6,0.0,1.0
"2017-04-03",28.76,28.89,28.19,28.69,28.69,1.751393e6,0.0,1.0
"2017-04-04",28.51,28.85,26.95,27.27,27.27,3.758871e6,0.0,1.0
"2017-04-05",27.27,27.72,26.82,26.93,26.93,3.005045e6,0.0,1.0
"2017-04-06",26.94,27.14,26.76,26.93,26.93,1.62641e6,0.0,1.0
"2017-04-07",28.5,28.55,27.71,28.17,28.17,5.267142e6,0.0,1.0
"2017-04-10",28.31,28.87,27.65,28.47,28.47,3.891447e6,0.0,1.0
"2017-04-11",28.42,29.63,28.1,29.35,29.35,3.087793e6,0.0,1.0
"2017-04-12",29.67,30.19,29.2,29.56,29.56,3.010584e6,0.0,1.0
"2017-04-13",29.43,30.64,29.4,30.29,30.29,2.483602e6,0.0,1.0
"2017-04-17",30.33,30.85,29.84,30.8,30.8,1.541519e6,0.0,1.0
"2017-04-18",30.57,31.21,30.228,30.8,30.8,1.565274e6,0.0,1.0
"2017-04-19",31.09,32.25,31.09,31.76,31.76,2.724762e6,0.0,1.0
"2017-04-20",31.72,32.38,31.46,31.63,31.63,2.17906e6,0.0,1.0
"2017-04-21",31.44,31.631,30.4,30.82,30.82,1.305255e6,0.0,1.0
"2017-04-24",31.25,31.25,30.21,30.93,30.93,1.670345e6,0.0,1.0
"2017-04-25",30.87,32.13,30.79,31.93,31.93,2.052452e6,0.0,1.0
"2017-04-26",31.76,32.56,31.65,32.24,32.24,2.596986e6,0.0,1.0
"2017-04-27",32.26,33.29,32.25,32.84,32.84,2.305956e6,0.0,1.0
"2017-04-28",32.8,33.36,32.7,33.05,33.05,2.280711e6,0.0,1.0
"2017-05-01",33.1,34.45,33.031,34.39,34.39,3.836017e6,0.0,1.0
"2017-05-02",34.23,34.45,32.75,33.94,33.94,9.901644e6,0.0,1.0
"2017-05-03",24.6,26.44,24.15,25.01,25.01,2.3789051e7,0.0,1.0
"2017-05-04",25.51,26.02,24.89,24.96,24.96,6.086168e6,0.0,1.0
"2017-05-05",25.01,25.29,23.88,23.97,23.97,7.065334e6,0.0,1.0
"2017-05-08",23.75,24.16,22.8,23.84,23.84,7.400994e6,0.0,1.0
"2017-05-09",23.73,23.84,23.1,23.17,23.17,3.415423e6,0.0,1.0
"2017-05-10",23.18,23.76,22.9,23.45,23.45,2.96717e6,0.0,1.0
"2017-05-11",23.16,23.327,23.0,23.3,23.3,2.12554e6,0.0,1.0
"2017-05-12",24.2,24.689,23.45,24.0,24.0,4.427492e6,0.0,1.0
"2017-05-15",24.26,24.35,23.68,24.3,24.3,2.216777e6,0.0,1.0
"2017-05-16",24.5,25.32,24.46,24.88,24.88,3.596394e6,0.0,1.0
"2017-05-17",24.67,25.16,24.62,24.81,24.81,3.831251e6,0.0,1.0
"2017-05-18",24.75,25.14,24.09,24.37,24.37,2.684526e6,0.0,1.0
"2017-05-19",24.36,25.42,24.15,25.16,25.16,2.900233e6,0.0,1.0
"2017-05-22",25.01,25.5,24.84,24.96,24.96,2.369428e6,0.0,1.0
"2017-05-23",25.17,25.6,24.909,25.56,25.56,2.778622e6,0.0,1.0
"2017-05-24",25.44,26.66,25.42,26.05,26.05,3.242182e6,0.0,1.0
"2017-05-25",25.67,25.9,24.79,25.0,25.0,3.753687e6,0.0,1.0
"2017-05-26",25.06,25.45,24.94,25.01,25.01,2.183533e6,0.0,1.0
"2017-05-30",24.95,25.0,24.368,24.5,24.5,1.695051e6,0.0,1.0
"2017-05-31",24.46,24.5,23.62,24.31,24.31,2.635893e6,0.0,1.0
"2017-06-01",24.39,24.47,23.83,24.15,24.15,2.116894e6,0.0,1.0
"2017-06-02",24.14,25.01,24.1,24.85,24.85,2.031081e6,0.0,1.0
"2017-06-05",24.81,25.49,24.555,24.95,24.95,2.032318e6,0.0,1.0
"2017-06-06",24.94,25.92,24.6,25.54,25.54,2.319935e6,0.0,1.0
"2017-06-07",25.46,25.97,25.16,25.25,25.25,1.633741e6,0.0,1.0
"2017-06-08",25.06,25.54,24.92,25.49,25.49,1.464265e6,0.0,1.0
"2017-06-09",25.41,25.87,24.37,24.64,24.64,2.781975e6,0.0,1.0
"2017-06-12",24.29,24.77,23.954,24.77,24.77,1.890011e6,0.0,1.0
"2017-06-13",24.81,25.88,24.81,25.49,25.49,2.085144e6,0.0,1.0
"2017-06-14",25.4,26.18,25.27,25.71,25.71,2.442869e6,0.0,1.0
"2017-06-15",25.44,26.21,25.33,25.85,25.85,1.549092e6,0.0,1.0
"2017-06-16",25.85,27.0,25.85,26.87,26.87,2.908884e6,0.0,1.0
"2017-06-19",27.47,28.75,27.47,28.37,28.37,3.273585e6,0.0,1.0
"2017-06-20",28.5,28.98,27.11,27.69,27.69,2.9511e6,0.0,1.0
"2017-06-21",27.83,28.37,27.796,28.32,28.32,1.636063e6,0.0,1.0
"2017-06-22",28.18,29.38,28.13,28.75,28.75,2.902568e6,0.0,1.0
"2017-06-23",28.81,29.9,28.81,29.71,29.71,8.606408e6,0.0,1.0
"2017-06-26",29.8,29.89,28.43,28.94,28.94,2.642268e6,0.0,1.0
"2017-06-27",29.15,29.8,28.409,28.6,28.6,2.089804e6,0.0,1.0
"2017-06-28",28.96,29.77,28.74,29.5,29.5,2.911747e6,0.0,1.0
"2017-06-29",29.11,29.66,28.25,29.0,29.0,1.658555e6,0.0,1.0
"2017-06-30",29.0,29.65,28.78,29.11,29.11,1.966048e6,0.0,1.0
"2017-07-03",29.1,29.25,28.68,28.97,28.97,652065.0,0.0,1.0
"2017-07-05",28.95,29.24,28.31,29.07,29.07,1.540136e6,0.0,1.0
"2017-07-06",28.67,28.87,28.09,28.31,28.31,1.111574e6,0.0,1.0
"2017-07-07",28.43,28.82,28.18,28.43,28.43,1.106204e6,0.0,1.0
"2017-07-10",28.35,29.05,28.29,28.75,28.75,785733.0,0.0,1.0
"2017-07-11",29.27,29.63,29.02,29.32,29.32,2.042703e6,0.0,1.0
"2017-07-12",29.68,29.75,29.36,29.46,29.46,1.123783e6,0.0,1.0
"2017-07-13",29.67,30.05,29.17,29.48,29.48,1.452898e6,0.0,1.0
"2017-07-14",29.62,29.68,28.88,29.23,29.23,1.164378e6,0.0,1.0
"2017-07-17",29.18,30.62,29.11,30.45,30.45,1.589951e6,0.0,1.0
"2017-07-18",30.45,31.023,30.02,30.41,30.41,1.956455e6,0.0,1.0
"2017-07-19",30.75,31.76,30.53,31.49,31.49,1.650842e6,0.0,1.0
"2017-07-20",31.58,32.23,30.83,31.06,31.06,2.237185e6,0.0,1.0
"2017-07-21",31.14,31.779,30.48,30.93,30.93,1.604754e6,0.0,1.0
"2017-07-24",31.08,31.24,30.678,30.99,30.99,1.115185e6,0.0,1.0
"2017-07-25",31.04,31.97,31.0,31.4,31.4,1.188667e6,0.0,1.0
"2017-07-26",31.49,31.75,31.28,31.5,31.5,795119.0,0.0,1.0
"2017-07-27",31.51,31.63,29.7,30.15,30.15,1.607865e6,0.0,1.0
"2017-07-28",29.95,30.48,29.772,29.91,29.91,1.277767e6,0.0,1.0
"2017-07-31",30.0,30.35,28.55,29.17,29.17,1.564521e6,0.0,1.0
"2017-08-01",29.31,29.66,28.7,28.99,28.99,1.416242e6,0.0,1.0
"2017-08-02",29.04,29.04,27.93,28.4,28.4,1.41734e6,0.0,1.0
"2017-08-03",28.4,29.21,28.26,28.85,28.85,1.677211e6,0.0,1.0
"2017-08-04",28.99,29.39,28.73,29.21,29.21,1.123871e6,0.0,1.0
"2017-08-07",29.52,30.67,29.5,30.53,30.53,5.18617e6,0.0,1.0
"2017-08-08",34.19,34.74,32.41,33.58,33.58,1.2595311e7,0.0,1.0
"2017-08-09",33.06,33.62,32.93,33.0,33.0,2.023099e6,0.0,1.0
"2017-08-10",32.33,32.4,30.07,30.28,30.28,4.657267e6,0.0,1.0
"2017-08-11",30.2,31.89,29.76,31.38,31.38,3.41599e6,0.0,1.0
"2017-08-14",31.8,32.0,31.06,31.41,31.41,1.776392e6,0.0,1.0
"2017-08-15",31.27,31.49,30.78,31.0,31.0,1.357804e6,0.0,1.0
"2017-08-16",31.06,31.69,31.0,31.06,31.06,1.142795e6,0.0,1.0
"2017-08-17",31.03,31.24,30.25,30.32,30.32,1.429224e6,0.0,1.0
"2017-08-18",30.2,30.5,29.68,29.91,29.91,1.409815e6,0.0,1.0
"2017-08-21",29.83,30.04,28.83,29.21,29.21,1.232733e6,0.0,1.0
"2017-08-22",29.22,29.265,28.21,29.05,29.05,1.803591e6,0.0,1.0
"2017-08-23",28.8,29.2,28.69,28.98,28.98,835035.0,0.0,1.0
"2017-08-24",29.33,29.6,28.95,29.32,29.32,1.435676e6,0.0,1.0
"2017-08-25",29.3,29.45,28.52,28.93,28.93,989678.0,0.0,1.0
"2017-08-28",29.05,29.165,28.44,28.59,28.59,848506.0,0.0,1.0
"2017-08-29",28.32,29.27,28.25,28.99,28.99,1.081266e6,0.0,1.0
"2017-08-30",29.1,29.39,28.852,29.23,29.23,842463.0,0.0,1.0
"2017-08-31",29.25,29.74,28.95,29.28,29.28,1.567542e6,0.0,1.0
"2017-09-01",29.35,29.695,28.8,28.96,28.96,1.226052e6,0.0,1.0
"2017-09-05",28.78,29.43,28.43,29.35,29.35,1.450862e6,0.0,1.0
"2017-09-06",29.26,30.194,29.17,29.88,29.88,1.696163e6,0.0,1.0
"2017-09-07",29.91,30.28,29.5,29.73,29.73,1.175316e6,0.0,1.0
"2017-09-08",29.64,30.28,29.523,29.77,29.77,994536.0,0.0,1.0
"2017-09-11",30.06,30.75,30.027,30.65,30.65,1.303179e6,0.0,1.0
"2017-09-12",30.72,31.04,30.09,30.23,30.23,1.415206e6,0.0,1.0
"2017-09-13",30.29,31.11,30.29,30.62,30.62,1.206762e6,0.0,1.0
"2017-09-14",30.58,31.28,30.53,31.04,31.04,950246.0,0.0,1.0
"2017-09-15",30.94,31.63,30.53,30.88,30.88,3.358079e6,0.0,1.0
"2017-09-18",30.87,31.66,30.85,31.14,31.14,1.357335e6,0.0,1.0
"2017-09-19",31.47,31.542,30.95,31.04,31.04,564425.0,0.0,1.0
"2017-09-20",30.97,30.971,30.315,30.51,30.51,915681.0,0.0,1.0
"2017-09-21",30.58,30.97,30.05,30.5,30.5,911907.0,0.0,1.0
"2017-09-22",30.25,31.16,30.25,30.83,30.83,898307.0,0.0,1.0
"2017-09-25",30.89,30.89,29.06,29.47,29.47,1.708071e6,0.0,1.0
"2017-09-26",29.63,29.9,26.86,27.52,27.52,4.276221e6,0.0,1.0
"2017-09-27",30.03,30.38,28.76,29.14,29.14,4.743103e6,0.0,1.0
"2017-09-28",29.03,29.7,28.6,29.68,29.68,1.162132e6,0.0,1.0
"2017-09-29",29.6,30.0,29.52,29.85,29.85,904170.0,0.0,1.0
"2017-10-02",29.87,30.99,29.85,30.87,30.87,1.486168e6,0.0,1.0
"2017-10-03",31.02,31.76,30.87,31.57,31.57,1.296955e6,0.0,1.0
"2017-10-04",31.63,31.97,31.261,31.37,31.37,1.10948e6,0.0,1.0
"2017-10-05",31.67,32.22,31.61,32.16,32.16,1.358999e6,0.0,1.0
"2017-10-06",31.89,32.85,31.731,32.35,32.35,1.221918e6,0.0,1.0
"2017-10-09",32.35,32.95,32.2,32.23,32.23,813484.0,0.0,1.0
"2017-10-10",32.47,32.88,31.79,32.13,32.13,1.018586e6,0.0,1.0
"2017-10-11",32.13,32.75,31.91,32.67,32.67,1.13947e6,0.0,1.0
"2017-10-12",32.67,32.87,31.98,32.12,32.12,678923.0,0.0,1.0
"2017-10-13",32.21,32.68,31.85,32.58,32.58,835353.0,0.0,1.0
"2017-10-16",32.6,32.78,31.88,31.94,31.94,872298.0,0.0,1.0
"2017-10-17",31.87,32.12,31.63,31.74,31.74,620830.0,0.0,1.0
"2017-10-18",31.9,31.9,31.17,31.61,31.61,893359.0,0.0,1.0
"2017-10-19",31.2,31.797,30.73,31.44,31.44,995702.0,0.0,1.0
"2017-10-20",31.86,33.069,31.47,32.62,32.62,3.086135e6,0.0,1.0
"2017-10-23",32.62,33.06,31.83,31.85,31.85,1.310331e6,0.0,1.0
"2017-10-24",32.17,32.2,31.75,31.9,31.9,1.057734e6,0.0,1.0
"2017-10-25",31.75,32.09,31.22,31.27,31.27,1.524049e6,0.0,1.0
"2017-10-26",31.44,31.77,31.13,31.39,31.39,924630.0,0.0,1.0
"2017-10-27",31.76,32.1,31.29,31.99,31.99,1.212814e6,0.0,1.0
"2017-10-30",31.9,32.48,31.7,31.88,31.88,1.001795e6,0.0,1.0
"2017-10-31",32.0,32.248,31.79,31.95,31.95,998481.0,0.0,1.0
"2017-11-01",32.08,32.199,31.42,31.51,31.51,1.147972e6,0.0,1.0
"2017-11-02",31.51,31.51,29.82,30.34,30.34,2.231059e6,0.0,1.0
"2017-11-03",30.35,30.74,29.63,30.24,30.24,1.7164e6,0.0,1.0
"2017-11-06",30.13,30.42,29.755,29.88,29.88,1.125812e6,0.0,1.0
"2017-11-07",29.8,29.89,28.05,28.38,28.38,2.736757e6,0.0,1.0
"2017-11-08",28.38,28.47,27.16,27.83,27.83,6.177391e6,0.0,1.0
"2017-11-09",28.5,28.5,25.52,25.93,25.93,7.54173e6,0.0,1.0
"2017-11-10",25.84,26.25,25.16,25.55,25.55,3.418433e6,0.0,1.0
"2017-11-13",25.3,26.4,25.21,26.4,26.4,2.629031e6,0.0,1.0
"2017-11-14",26.18,26.249,25.36,25.82,25.82,2.692161e6,0.0,1.0
"2017-11-15",25.29,25.75,25.23,25.29,25.29,1.765262e6,0.0,1.0
"2017-11-16",25.57,26.2,25.38,26.11,26.11,1.811249e6,0.0,1.0
"2017-11-17",26.09,26.38,25.6,25.68,25.68,1.722655e6,0.0,1.0
"2017-11-20",25.68,26.2,25.532,26.07,26.07,1.692957e6,0.0,1.0
"2017-11-21",26.07,26.26,25.75,25.91,25.91,1.790912e6,0.0,1.0
"2017-11-22",25.84,26.2,25.77,26.13,26.13,1.229194e6,0.0,1.0
"2017-11-24",26.26,26.61,26.09,26.29,26.29,859013.0,0.0,1.0
"2017-11-27",26.17,26.57,25.8,25.82,25.82,1.489466e6,0.0,1.0
"2017-11-28",25.85,26.445,25.0,26.42,26.42,1.982047e6,0.0,1.0
"2017-11-29",26.45,26.55,25.4,26.23,26.23,1.926243e6,0.0,1.0
"2017-11-30",26.26,27.18,26.15,26.66,26.66,2.120619e6,0.0,1.0
"2017-12-01",26.68,26.98,25.98,26.07,26.07,2.36781e6,0.0,1.0
"2017-12-04",26.32,26.7458,25.42,25.71,25.71,2.944024e6,0.0,1.0
"2017-12-05",25.9,25.9367,24.945,24.99,24.99,1.642486e6,0.0,1.0
"2017-12-06",25.0,25.1338,23.54,24.07,24.07,4.788518e6,0.0,1.0
"2017-12-07",24.07,25.005,24.07,24.8,24.8,2.213494e6,0.0,1.0
"2017-12-08",25.12,25.2492,24.59,24.74,24.74,1.400167e6,0.0,1.0
"2017-12-11",24.8,25.28,24.8,24.82,24.82,1.32106e6,0.0,1.0
"2017-12-12",24.94,25.43,24.66,25.14,25.14,1.776855e6,0.0,1.0
"2017-12-13",25.26,25.5797,25.14,25.33,25.33,1.060454e6,0.0,1.0
"2017-12-14",25.52,25.55,25.16,25.17,25.17,1.084466e6,0.0,1.0
"2017-12-15",25.17,25.48,25.02,25.38,25.38,1.424108e6,0.0,1.0
"2017-12-18",25.58,25.73,25.32,25.4,25.4,1.39915e6,0.0,1.0
"2017-12-19",25.5,25.54,24.73,25.01,25.01,1.298887e6,0.0,1.0
"2017-12-20",25.01,25.29,24.6601,25.09,25.09,885239.0,0.0,1.0
"2017-12-21",25.07,25.17,24.25,24.33,24.33,1.938693e6,0.0,1.0
"2017-12-22",24.38,24.98,24.26,24.81,24.81,1.470767e6,0.0,1.0
"2017-12-26",24.8,25.03,24.56,24.72,24.72,995143.0,0.0,1.0
"2017-12-27",24.65,24.86,24.36,24.51,24.51,1.238318e6,0.0,1.0
"2017-12-28",24.61,24.87,24.26,24.38,24.38,1.502487e6,0.0,1.0
"2017-12-29",24.41,24.6,23.6,23.6,23.6,2.726676e6,0.0,1.0
"2018-01-02",24.13,25.26,24.1,25.1,25.1,1.942387e6,0.0,1.0
"2018-01-03",25.18,25.92,25.05,25.69,25.69,1.632494e6,0.0,1.0
"2018-01-04",25.95,26.3,25.55,25.68,25.68,1.260767e6,0.0,1.0
"2018-01-05",25.82,25.98,25.585,25.76,25.76,1.023821e6,0.0,1.0
"2018-01-08",25.76,26.25,25.58,26.17,26.17,1.533792e6,0.0,1.0
"2018-01-09",26.32,26.83,25.71,25.75,25.75,1.594969e6,0.0,1.0
"2018-01-10",25.71,25.95,25.52,25.64,25.64,749674.0,0.0,1.0
"2018-01-11",25.76,26.1778,25.71,26.03,26.03,1.192066e6,0.0,1.0
"2018-01-12",26.07,26.2,25.7,26.16,26.16,906122.0,0.0,1.0
"2018-01-16",26.47,26.86,25.16,25.33,25.33,1.791839e6,0.0,1.0
"2018-01-17",25.69,25.69,25.1,25.4,25.4,1.129125e6,0.0,1.0
"2018-01-18",25.39,25.87,25.21,25.68,25.68,890523.0,0.0,1.0
"2018-01-19",25.68,25.9,25.3787,25.71,25.71,1.031126e6,0.0,1.0
"2018-01-22",25.72,26.24,25.59,26.24,26.24,931609.0,0.0,1.0
"2018-01-23",26.29,26.755,26.01,26.63,26.63,1.049976e6,0.0,1.0
"2018-01-24",26.78,27.46,26.3,26.91,26.91,1.921052e6,0.0,1.0
"2018-01-25",27.05,27.14,26.27,26.52,26.52,1.122309e6,0.0,1.0
"2018-01-26",26.68,26.98,26.32,26.53,26.53,1.161517e6,0.0,1.0
"2018-01-29",26.54,26.78,26.26,26.39,26.39,1.012655e6,0.0,1.0
"2018-01-30",26.03,26.34,25.779,26.1,26.1,889660.0,0.0,1.0
