"Date","Open","High","Low","Close","Adjusted Close","Volume","Divident Amout","Split Coefficient"
"2012-03-23",6.0,6.23,5.42,5.5,0.55,5.168404e6,0.0,1.0
"2012-03-26",5.61,5.74,4.7,4.7,0.47,1.041715e6,0.0,1.0
"2012-03-27",4.65,4.99,4.58,4.6,0.46,314786.0,0.0,1.0
"2012-03-28",4.53,4.683,4.45,4.5,0.45,209562.0,0.0,1.0
"2012-03-29",4.46,4.5,4.25,4.35,0.435,181569.0,0.0,1.0
"2012-03-30",4.47,4.54,4.25,4.39,0.439,127194.0,0.0,1.0
"2012-04-02",4.35,4.64,4.35,4.3788,0.4379,197179.0,0.0,1.0
"2012-04-03",4.56,4.68,4.23,4.26,0.426,186597.0,0.0,1.0
"2012-04-04",4.23,4.3,4.12,4.3,0.43,136607.0,0.0,1.0
"2012-04-05",4.25,4.5,4.25,4.35,0.435,51435.0,0.0,1.0
"2012-04-09",4.48,4.6,4.3,4.38,0.438,83918.0,0.0,1.0
"2012-04-10",4.36,4.65,4.36,4.52,0.452,159313.0,0.0,1.0
"2012-04-11",4.55,4.75,4.4501,4.65,0.465,101855.0,0.0,1.0
"2012-04-12",4.61,4.8,4.61,4.65,0.465,132777.0,0.0,1.0
"2012-04-13",4.62,4.84,4.61,4.82,0.482,241646.0,0.0,1.0
"2012-04-16",4.85,5.12,4.82,5.01,0.501,200231.0,0.0,1.0
"2012-04-17",5.04,5.649,5.04,5.44,0.544,281890.0,0.0,1.0
"2012-04-18",5.41,5.9,5.41,5.9,0.59,335190.0,0.0,1.0
"2012-04-19",5.9,5.98,5.77,5.95,0.595,185588.0,0.0,1.0
"2012-04-20",5.93,5.98,5.81,5.96,0.596,107049.0,0.0,1.0
"2012-04-23",5.9,6.0,5.67,6.0,0.6,128158.0,0.0,1.0
"2012-04-24",6.1,6.1,5.9,6.02,0.602,156887.0,0.0,1.0
"2012-04-25",6.05,6.05,5.23,5.25,0.525,328145.0,0.0,1.0
"2012-04-26",5.25,5.63,5.111,5.31,0.531,134533.0,0.0,1.0
"2012-04-27",5.32,5.53,5.25,5.3,0.53,60008.0,0.0,1.0
"2012-04-30",5.27,5.61,5.27,5.4,0.54,93154.0,0.0,1.0
"2012-05-01",5.45,5.59,5.34,5.46,0.546,73091.0,0.0,1.0
"2012-05-02",5.71,5.76,5.58,5.69,0.569,82989.0,0.0,1.0
"2012-05-03",5.71,5.75,5.5,5.56,0.556,50850.0,0.0,1.0
"2012-05-04",5.26,5.73,5.26,5.49,0.549,23533.0,0.0,1.0
"2012-05-07",5.47,5.6,5.3108,5.38,0.538,45865.0,0.0,1.0
"2012-05-08",5.34,5.5,5.22,5.3,0.53,83209.0,0.0,1.0
"2012-05-09",5.22,5.49,5.2,5.37,0.537,31056.0,0.0,1.0
"2012-05-10",5.37,5.58,5.09,5.17,0.517,159749.0,0.0,1.0
"2012-05-11",5.16,5.48,5.1,5.4,0.54,48422.0,0.0,1.0
"2012-05-14",5.46,5.75,5.46,5.65,0.565,171572.0,0.0,1.0
"2012-05-15",5.7,5.82,5.174,5.29,0.529,83213.0,0.0,1.0
"2012-05-16",5.33,5.4,5.01,5.05,0.505,64782.0,0.0,1.0
"2012-05-17",5.05,5.17,5.0,5.11,0.511,64429.0,0.0,1.0
"2012-05-18",5.16,5.3,5.15,5.15,0.515,108157.0,0.0,1.0
"2012-05-21",5.24,5.39,5.0,5.03,0.503,27744.0,0.0,1.0
"2012-05-22",5.03,5.18,4.62,4.86,0.486,51666.0,0.0,1.0
"2012-05-23",4.79,4.86,4.31,4.69,0.469,68276.0,0.0,1.0
"2012-05-24",4.74,4.86,4.74,4.8,0.48,20100.0,0.0,1.0
"2012-05-25",4.81,5.1,4.81,5.0,0.5,29185.0,0.0,1.0
"2012-05-29",5.04,5.14,4.94,5.06,0.506,69636.0,0.0,1.0
"2012-05-30",5.06,5.31,5.0,5.29,0.529,223665.0,0.0,1.0
"2012-05-31",5.29,5.52,5.29,5.5,0.55,90917.0,0.0,1.0
"2012-06-01",5.4,5.54,5.28,5.51,0.551,66842.0,0.0,1.0
"2012-06-04",5.57,5.6,5.371,5.5,0.55,22107.0,0.0,1.0
"2012-06-05",5.5,5.67,5.5,5.62,0.562,48269.0,0.0,1.0
"2012-06-06",5.63,5.88,5.59,5.88,0.588,116211.0,0.0,1.0
"2012-06-07",5.86,6.0,5.6,5.69,0.569,91606.0,0.0,1.0
"2012-06-08",5.63,5.86,5.6,5.73,0.573,30328.0,0.0,1.0
"2012-06-11",5.85,5.89,5.62,5.83,0.583,67294.0,0.0,1.0
"2012-06-12",5.86,5.94,5.74,5.9,0.59,167279.0,0.0,1.0
"2012-06-13",5.9,5.9,5.69,5.74,0.574,63750.0,0.0,1.0
"2012-06-14",5.83,5.9,5.6,5.76,0.576,134408.0,0.0,1.0
"2012-06-15",5.87,5.9,5.81,5.89,0.589,68439.0,0.0,1.0
"2012-06-18",5.98,6.1,5.937,6.0,0.6,69295.0,0.0,1.0
"2012-06-19",6.0,6.38,5.9811,6.14,0.614,215442.0,0.0,1.0
"2012-06-20",6.15,6.15,6.07,6.1,0.61,86764.0,0.0,1.0
"2012-06-21",6.11,6.15,6.0701,6.1,0.61,164310.0,0.0,1.0
"2012-06-22",6.15,6.15,6.05,6.1,0.61,112475.0,0.0,1.0
"2012-06-25",6.1,6.112,6.05,6.105,0.6105,22547.0,0.0,1.0
"2012-06-26",6.11,6.15,6.06,6.15,0.615,30577.0,0.0,1.0
"2012-06-27",6.07,6.1,6.07,6.1,0.61,2630.0,0.0,1.0
"2012-06-28",6.06,6.06,6.05,6.05,0.605,200.0,0.0,1.0
"2012-06-29",6.15,6.15,6.0,6.1,0.61,16821.0,0.0,1.0
"2012-07-02",6.05,6.1,6.0001,6.1,0.61,14005.0,0.0,1.0
"2012-07-03",6.1,6.1,6.06,6.09,0.609,24335.0,0.0,1.0
"2012-07-05",6.1,6.33,6.06,6.19,0.619,90093.0,0.0,1.0
"2012-07-06",6.15,6.175,5.88,6.12,0.612,40038.0,0.0,1.0
"2012-07-09",6.1,6.12,5.88,6.11,0.611,29487.0,0.0,1.0
"2012-07-10",6.1,6.1,5.9,5.97,0.597,28040.0,0.0,1.0
"2012-07-11",6.0,6.0,5.88,6.0,0.6,18352.0,0.0,1.0
"2012-07-12",5.98,6.0,5.87,6.0,0.6,21311.0,0.0,1.0
"2012-07-13",6.0,6.0,5.89,5.95,0.595,12845.0,0.0,1.0
"2012-07-16",5.97,6.0,5.88,5.94,0.594,15422.0,0.0,1.0
"2012-07-17",5.96,5.96,5.85,5.94,0.594,14969.0,0.0,1.0
"2012-07-18",5.91,5.91,5.84,5.84,0.584,2800.0,0.0,1.0
"2012-07-19",5.82,5.84,5.5,5.54,0.554,44138.0,0.0,1.0
"2012-07-20",5.58,5.67,5.55,5.55,0.555,5900.0,0.0,1.0
"2012-07-23",5.55,5.56,5.31,5.38,0.538,23002.0,0.0,1.0
"2012-07-24",5.3613,5.3613,5.09,5.15,0.515,17314.0,0.0,1.0
"2012-07-25",5.21,5.3299,5.1,5.25,0.525,10643.0,0.0,1.0
"2012-07-26",5.25,5.38,5.1702,5.38,0.538,12337.0,0.0,1.0
"2012-07-27",5.4,5.74,5.3714,5.7,0.57,20926.0,0.0,1.0
"2012-07-30",5.72,5.845,5.47,5.57,0.557,19070.0,0.0,1.0
"2012-07-31",5.6,5.6,5.55,5.56,0.556,5315.0,0.0,1.0
"2012-08-01",5.6,5.6,5.42,5.52,0.552,25158.0,0.0,1.0
"2012-08-02",5.49,5.6,5.31,5.51,0.551,33980.0,0.0,1.0
"2012-08-03",5.5,5.6,5.32,5.545,0.5545,9003.0,0.0,1.0
"2012-08-06",5.5,5.5,5.34,5.47,0.547,12200.0,0.0,1.0
"2012-08-07",5.45,5.48,5.18,5.44,0.544,11540.0,0.0,1.0
"2012-08-08",5.47,5.6399,5.38,5.52,0.552,50410.0,0.0,1.0
"2012-08-09",5.54,5.64,5.46,5.46,0.546,40500.0,0.0,1.0
"2012-08-10",5.6,5.66,5.31,5.35,0.535,265875.0,0.0,1.0
"2012-08-13",5.42,5.45,5.4,5.45,0.545,15996.0,0.0,1.0
"2012-08-14",5.44,5.47,5.44,5.45,0.545,2500.0,0.0,1.0
"2012-08-15",5.46,5.46,5.44,5.44,0.544,11250.0,0.0,1.0
"2012-08-16",5.4,5.47,5.38,5.4,0.54,31850.0,0.0,1.0
"2012-08-17",5.36,5.46,5.21,5.39,0.539,10750.0,0.0,1.0
"2012-08-20",5.37,5.37,5.1,5.23,0.523,11584.0,0.0,1.0
"2012-08-21",5.23,5.4,5.13,5.145,0.5145,1150.0,0.0,1.0
"2012-08-22",5.19,5.24,4.76,4.8,0.48,39410.0,0.0,1.0
"2012-08-23",4.84,5.09,4.84,5.0,0.5,27250.0,0.0,1.0
"2012-08-24",4.99,5.0,4.9,5.0,0.5,6600.0,0.0,1.0
"2012-08-27",5.02,5.26,4.9,5.05,0.505,43111.0,0.0,1.0
"2012-08-28",5.09,5.2989,5.09,5.29,0.529,8944.0,0.0,1.0
"2012-08-29",5.3,6.0,5.28,5.77,0.577,30045.0,0.0,1.0
"2012-08-30",5.74,6.02,5.56,5.94,0.594,203870.0,0.0,1.0
"2012-08-31",6.05,6.1,5.78,6.0,0.6,44232.0,0.0,1.0
"2012-09-04",6.0,6.1,5.72,6.0,0.6,99037.0,0.0,1.0
"2012-09-05",6.04,6.2,6.04,6.14,0.614,84990.0,0.0,1.0
"2012-09-06",6.2,6.2,5.9701,6.19,0.619,38811.0,0.0,1.0
"2012-09-07",6.17,6.19,6.03,6.14,0.614,18259.0,0.0,1.0
"2012-09-10",6.18,6.18,6.11,6.14,0.614,3700.0,0.0,1.0
"2012-09-11",6.13,6.2,6.075,6.19,0.619,11000.0,0.0,1.0
"2012-09-12",6.15,6.15,6.03,6.15,0.615,17461.0,0.0,1.0
"2012-09-13",6.15,6.15,6.0744,6.15,0.615,13848.0,0.0,1.0
"2012-09-14",6.15,6.19,6.08,6.16,0.616,14650.0,0.0,1.0
"2012-09-17",6.16,6.16,6.05,6.09,0.609,22400.0,0.0,1.0
"2012-09-18",6.05,6.19,6.05,6.14,0.614,17575.0,0.0,1.0
"2012-09-19",6.15,6.5,6.11,6.49,0.649,115130.0,0.0,1.0
"2012-09-20",6.5,6.55,6.4,6.45,0.645,24001.0,0.0,1.0
"2012-09-21",6.5,6.5,6.3993,6.5,0.65,20342.0,0.0,1.0
"2012-09-24",6.44,7.09,6.37,6.66,0.666,80105.0,0.0,1.0
"2012-09-25",6.67,7.11,6.53,6.9,0.69,51582.0,0.0,1.0
"2012-09-26",6.97,7.505,6.85,7.5,0.75,119850.0,0.0,1.0
"2012-09-27",7.5,7.67,7.29,7.45,0.745,188807.0,0.0,1.0
"2012-09-28",7.39,7.5,7.3505,7.5,0.75,33818.0,0.0,1.0
"2012-10-01",7.5,7.5,7.32,7.39,0.739,43280.0,0.0,1.0
"2012-10-02",7.39,7.42,7.25,7.36,0.736,12144.0,0.0,1.0
"2012-10-03",7.32,7.47,7.19,7.45,0.745,76700.0,0.0,1.0
"2012-10-04",7.42,7.49,7.31,7.48,0.748,19700.0,0.0,1.0
"2012-10-05",7.44,7.49,7.3,7.41,0.741,37502.0,0.0,1.0
"2012-10-08",7.46,7.5,7.4,7.46,0.746,60617.0,0.0,1.0
"2012-10-09",7.48,7.8,7.42,7.79,0.779,96834.0,0.0,1.0
"2012-10-10",7.8,8.17,7.73,8.0,0.8,151083.0,0.0,1.0
"2012-10-11",8.06,8.32,8.0,8.32,0.832,98283.0,0.0,1.0
"2012-10-12",8.3,8.38,8.13,8.36,0.836,76914.0,0.0,1.0
"2012-10-15",8.44,8.769,8.3,8.71,0.871,91900.0,0.0,1.0
"2012-10-16",8.7,9.05,8.6,9.0,0.9,201409.0,0.0,1.0
"2012-10-17",9.11,9.5,9.0,9.43,0.943,239221.0,0.0,1.0
"2012-10-18",9.95,9.95,9.448,9.8,0.98,88383.0,0.0,1.0
"2012-10-19",9.9,9.95,9.5,9.95,0.995,77839.0,0.0,1.0
"2012-10-22",9.99,10.669,9.86,10.5,1.05,172268.0,0.0,1.0
"2012-10-23",10.5,10.53,10.2401,10.48,1.048,94283.0,0.0,1.0
"2012-10-24",10.45,10.45,10.0,10.29,1.029,68457.0,0.0,1.0
"2012-10-25",10.29,10.5,10.15,10.36,1.036,79050.0,0.0,1.0
"2012-10-26",10.25,10.4,9.59,10.0,1.0,87385.0,0.0,1.0
"2012-10-31",10.0,10.1,9.85,10.03,1.003,70979.0,0.0,1.0
"2012-11-01",10.25,10.28,9.97,10.25,1.025,34049.0,0.0,1.0
"2012-11-02",10.3,10.3,10.21,10.25,1.025,27370.0,0.0,1.0
"2012-11-05",10.21,10.46,10.11,10.13,1.013,83265.0,0.0,1.0
"2012-11-06",10.1,10.49,9.9,10.25,1.025,123278.0,0.0,1.0
"2012-11-07",10.13,10.99,10.0,10.97,1.097,113877.0,0.0,1.0
"2012-11-08",10.99,11.5902,10.984,11.55,1.155,293306.0,0.0,1.0
"2012-11-09",11.65,11.99,11.4,11.57,1.157,184334.0,0.0,1.0
"2012-11-12",11.55,11.55,11.04,11.15,1.115,41565.0,0.0,1.0
"2012-11-13",11.0,11.34,11.0,11.33,1.133,39219.0,0.0,1.0
"2012-11-14",11.75,13.96,11.62,12.45,1.245,283146.0,0.0,1.0
"2012-11-15",12.27,12.27,10.49,11.98,1.198,182323.0,0.0,1.0
"2012-11-16",11.68,11.86,11.28,11.41,1.141,113459.0,0.0,1.0
"2012-11-19",11.5,12.12,11.01,12.0637,1.2064,86666.0,0.0,1.0
"2012-11-20",11.73,12.5,11.72,12.46,1.246,154557.0,0.0,1.0
"2012-11-21",12.5,12.5,12.25,12.46,1.246,105731.0,0.0,1.0
"2012-11-23",12.46,12.46,12.2,12.36,1.236,20932.0,0.0,1.0
"2012-11-26",12.5,13.0,12.38,12.97,1.297,252575.0,0.0,1.0
"2012-11-27",12.97,13.2,12.66,13.11,1.311,139211.0,0.0,1.0
"2012-11-28",13.15,13.63,13.1,13.6,1.36,131700.0,0.0,1.0
"2012-11-29",13.75,13.89,13.611,13.76,1.376,106079.0,0.0,1.0
"2012-11-30",13.78,13.85,13.6,13.74,1.374,78620.0,0.0,1.0
"2012-12-03",13.61,14.0,12.41,13.91,1.391,194201.0,0.0,1.0
"2012-12-04",13.84,14.25,12.54,12.93,1.293,262477.0,0.0,1.0
"2012-12-05",12.8,12.9,12.26,12.51,1.251,176571.0,0.0,1.0
"2012-12-06",12.49,12.5,11.75,12.17,1.217,228396.0,0.0,1.0
"2012-12-07",11.83,12.48,11.81,12.19,1.219,103834.0,0.0,1.0
"2012-12-10",12.2,12.33,11.83,12.33,1.233,49808.0,0.0,1.0
"2012-12-11",12.49,12.5,12.205,12.46,1.246,54458.0,0.0,1.0
"2012-12-12",12.5,12.5,12.32,12.35,1.235,22558.0,0.0,1.0
"2012-12-13",12.5,13.5,12.43,13.39,1.339,212897.0,0.0,1.0
"2012-12-14",13.5,14.74,13.5,14.56,1.456,309799.0,0.0,1.0
"2012-12-17",14.5,14.74,13.7,14.42,1.442,139247.0,0.0,1.0
"2012-12-18",14.33,14.74,14.28,14.55,1.455,101476.0,0.0,1.0
"2012-12-19",14.63,16.0,14.63,15.678,1.5678,321610.0,0.0,1.0
"2012-12-20",15.68,15.98,15.22,15.8,1.58,149497.0,0.0,1.0
"2012-12-21",15.51,16.03,15.4,16.03,1.603,104381.0,0.0,1.0
"2012-12-24",16.0,18.0,15.94,17.9,1.79,100213.0,0.0,1.0
"2012-12-26",17.98,19.31,17.4301,17.85,1.785,231983.0,0.0,1.0
"2012-12-27",17.86,18.06,16.51,16.9,1.69,102253.0,0.0,1.0
"2012-12-28",17.5,17.97,17.12,17.79,1.779,72954.0,0.0,1.0
"2012-12-31",17.75,17.99,17.61,17.84,1.784,65288.0,0.0,1.0
"2013-01-02",17.99,18.13,15.65,16.52,1.652,286267.0,0.0,1.0
"2013-01-03",16.55,17.47,16.11,17.37,1.737,110510.0,0.0,1.0
"2013-01-04",17.47,17.53,16.55,16.6,1.66,46057.0,0.0,1.0
"2013-01-07",17.25,18.12,16.66,18.0,1.8,209957.0,0.0,1.0
"2013-01-08",18.12,18.64,17.9301,18.03,1.803,92187.0,0.0,1.0
"2013-01-09",18.15,19.73,18.06,19.71,1.971,268005.0,0.0,1.0
"2013-01-10",19.72,20.8,19.51,20.55,2.055,305392.0,0.0,1.0
"2013-01-11",20.6,20.6,19.65,20.19,2.019,179565.0,0.0,1.0
"2013-01-14",19.9,20.29,18.95,19.81,1.981,248686.0,0.0,1.0
"2013-01-15",19.99,20.14,19.82,19.97,1.997,90366.0,0.0,1.0
"2013-01-16",20.0,20.15,19.6,19.72,1.972,119145.0,0.0,1.0
"2013-01-17",19.99,20.13,19.63,20.01,2.001,71661.0,0.0,1.0
"2013-01-18",20.5,20.5,19.2,19.88,1.988,83745.0,0.0,1.0
"2013-01-22",19.7,20.13,19.51,19.93,1.993,146699.0,0.0,1.0
"2013-01-23",20.05,21.0,19.79,20.84,2.084,183757.0,0.0,1.0
"2013-01-24",20.63,22.81,20.63,22.05,2.205,166274.0,0.0,1.0
"2013-01-25",22.2,22.4198,19.9,19.96,1.996,225065.0,0.0,1.0
"2013-01-28",19.96,20.25,19.3,19.49,1.949,171829.0,0.0,1.0
"2013-01-29",19.5,19.5,17.96,18.28,1.828,194356.0,0.0,1.0
"2013-01-30",18.28,18.84,18.28,18.83,1.883,70206.0,0.0,1.0
"2013-01-31",19.11,19.11,17.45,18.57,1.857,141743.0,0.0,1.0
"2013-02-01",18.55,19.0,18.25,18.98,1.898,126158.0,0.0,1.0
"2013-02-04",18.92,19.04,18.03,18.36,1.836,102962.0,0.0,1.0
"2013-02-05",18.26,18.49,18.1,18.31,1.831,46056.0,0.0,1.0
"2013-02-06",18.43,21.05,18.39,20.56,2.056,434315.0,0.0,1.0
"2013-02-07",21.2,25.54,21.2,25.11,2.511,425870.0,0.0,1.0
"2013-02-08",24.34,25.99,22.36,25.63,2.563,455028.0,0.0,1.0
"2013-02-11",25.43,26.19,24.75,25.25,2.525,219299.0,0.0,1.0
"2013-02-12",25.29,25.29,24.73,25.19,2.519,52159.0,0.0,1.0
"2013-02-13",25.65,25.65,23.32,25.19,2.519,501463.0,0.0,1.0
"2013-02-14",25.17,25.18,24.71,24.95,2.495,84080.0,0.0,1.0
"2013-02-15",24.95,25.18,24.5501,24.9,2.49,75209.0,0.0,1.0
"2013-02-19",24.89,24.89,23.54,24.38,2.438,111926.0,0.0,1.0
"2013-02-20",24.17,24.19,23.32,23.36,2.336,92016.0,0.0,1.0
"2013-02-21",22.9,23.0,21.58,22.65,2.265,248196.0,0.0,1.0
"2013-02-22",22.24,27.22,21.8,24.42,2.442,1.098491e6,0.0,1.0
"2013-02-25",24.4,28.49,24.15,28.45,2.845,785187.0,0.0,1.0
"2013-02-26",27.54,27.54,24.2,25.6,2.56,992301.0,0.0,1.0
"2013-02-27",25.2,26.99,24.611,26.48,2.648,396376.0,0.0,1.0
"2013-02-28",26.8,27.69,25.214,25.88,2.588,444679.0,0.0,1.0
"2013-03-01",26.5,26.79,25.75,25.83,2.583,171019.0,0.0,1.0
"2013-03-04",27.95,27.95,24.26,25.4,2.54,216997.0,0.0,1.0
"2013-03-05",25.4,26.43,24.75,25.24,2.524,209534.0,0.0,1.0
"2013-03-06",25.43,25.5,23.27,23.58,2.358,329992.0,0.0,1.0
"2013-03-07",23.92,26.06,23.7,25.19,2.519,392033.0,0.0,1.0
"2013-03-08",25.17,25.4699,24.2,24.34,2.434,170656.0,0.0,1.0
"2013-03-11",24.87,25.95,24.62,25.75,2.575,276780.0,0.0,1.0
"2013-03-12",25.97,26.5,24.86,25.87,2.587,409198.0,0.0,1.0
"2013-03-13",25.61,26.06,24.37,24.44,2.444,322686.0,0.0,1.0
"2013-03-14",24.7,26.59,24.1,26.36,2.636,2.990485e6,0.0,1.0
"2013-03-15",26.91,28.48,25.72,28.48,2.848,1.195415e6,0.0,1.0
"2013-03-18",26.96,28.49,26.8001,27.12,2.712,616224.0,0.0,1.0
"2013-03-19",27.5,29.4,27.12,28.69,2.869,1.117973e6,0.0,1.0
"2013-03-20",28.64,30.23,28.55,29.3,2.93,568534.0,0.0,1.0
"2013-03-21",29.6,29.6,28.11,28.94,2.894,226320.0,0.0,1.0
"2013-03-22",28.99,29.2799,28.61,28.61,2.861,437916.0,0.0,1.0
"2013-03-25",29.23,29.23,27.35,28.57,2.857,247361.0,0.0,1.0
"2013-03-26",28.31,30.0,27.82,29.84,2.984,596307.0,0.0,1.0
"2013-03-27",29.64,31.64,29.0525,31.12,3.112,628174.0,0.0,1.0
"2013-03-28",31.26,32.3999,30.32,30.37,3.037,851112.0,0.0,1.0
"2013-04-01",30.25,30.779,29.59,29.85,2.985,391888.0,0.0,1.0
"2013-04-02",29.95,30.51,29.22,29.52,2.952,330375.0,0.0,1.0
"2013-04-03",29.65,30.28,28.81,29.65,2.965,447705.0,0.0,1.0
"2013-04-04",31.45,32.3,30.1,30.53,3.053,318711.0,0.0,1.0
"2013-04-05",30.24,31.8,29.83,31.48,3.148,472268.0,0.0,1.0
"2013-04-08",32.48,32.48,30.56,31.01,3.101,501876.0,0.0,1.0
"2013-04-09",31.2,31.57,28.9,29.99,2.999,816405.0,0.0,1.0
"2013-04-10",30.0,30.5,28.02,28.35,2.835,706273.0,0.0,1.0
"2013-04-11",28.72,28.94,27.4,28.45,2.845,386146.0,0.0,1.0
"2013-04-12",28.15,28.32,27.07,27.66,2.766,361190.0,0.0,1.0
"2013-04-15",27.47,27.875,26.67,27.2,2.72,281554.0,0.0,1.0
"2013-04-16",27.35,28.69,27.27,28.25,2.825,399113.0,0.0,1.0
"2013-04-17",28.12,28.39,27.36,27.68,2.768,285479.0,0.0,1.0
"2013-04-18",27.56,28.23,27.47,27.85,2.785,322183.0,0.0,1.0
"2013-04-19",28.15,29.2,27.66,28.64,2.864,394527.0,0.0,1.0
"2013-04-22",29.03,30.1,28.745,29.7,2.97,315458.0,0.0,1.0
"2013-04-23",29.69,30.12,28.8,30.0,3.0,300401.0,0.0,1.0
"2013-04-24",30.13,31.13,29.51,29.86,2.986,282087.0,0.0,1.0
"2013-04-25",29.75,29.85,28.799,29.24,2.924,300733.0,0.0,1.0
"2013-04-26",29.07,29.6,28.52,29.07,2.907,179559.0,0.0,1.0
"2013-04-29",29.38,29.93,28.69,29.81,2.981,324556.0,0.0,1.0
"2013-04-30",29.81,30.84,29.81,30.79,3.079,383197.0,0.0,1.0
"2013-05-01",30.56,31.67,30.56,31.67,3.167,400059.0,0.0,1.0
"2013-05-02",31.75,33.87,31.75,33.63,3.363,701962.0,0.0,1.0
"2013-05-03",33.4,34.49,31.975,32.9,3.29,379497.0,0.0,1.0
"2013-05-06",32.6,33.8,32.6,33.13,3.313,304365.0,0.0,1.0
"2013-05-07",33.32,33.85,32.81,33.79,3.379,290321.0,0.0,1.0
"2013-05-08",33.5,34.17,32.9,34.0,3.4,309504.0,0.0,1.0
"2013-05-09",34.0,35.0,33.55,33.76,3.376,291743.0,0.0,1.0
"2013-05-10",33.95,34.46,30.79,31.77,3.177,936975.0,0.0,1.0
"2013-05-13",31.26,33.15,30.79,31.55,3.155,785364.0,0.0,1.0
"2013-05-14",32.03,34.01,31.25,33.5,3.35,1.235295e6,0.0,1.0
"2013-05-15",37.4,37.75,31.26,31.81,3.181,2.999105e6,0.0,1.0
"2013-05-16",32.3,34.64,31.81,33.18,3.318,923280.0,0.0,1.0
"2013-05-17",33.7,34.4,32.261,33.14,3.314,475642.0,0.0,1.0
"2013-05-20",33.9,36.3,33.9,36.19,3.619,769114.0,0.0,1.0
"2013-05-21",36.18,38.46,36.08,36.56,3.656,664050.0,0.0,1.0
"2013-05-22",36.32,36.5,33.54,34.01,3.401,651027.0,0.0,1.0
"2013-05-23",33.28,34.32,32.59,33.64,3.364,638016.0,0.0,1.0
"2013-05-24",33.66,34.6,33.0,34.0,3.4,521547.0,0.0,1.0
"2013-05-28",33.0,34.1,28.67,29.53,2.953,1.928428e6,0.0,1.0
"2013-05-29",30.2,30.98,28.54,29.52,2.952,1.668923e6,0.0,1.0
"2013-05-30",29.5,30.7355,29.12,29.78,2.978,603027.0,0.0,1.0
"2013-05-31",29.9,31.17,29.51,29.97,2.997,452001.0,0.0,1.0
"2013-06-03",29.82,29.92,27.1,29.31,2.931,780623.0,0.0,1.0
"2013-06-04",29.9,29.9625,28.96,29.13,2.913,450866.0,0.0,1.0
"2013-06-05",29.0,29.46,28.368,28.61,2.861,502300.0,0.0,1.0
"2013-06-06",28.6,29.77,28.6,29.46,2.946,164718.0,0.0,1.0
"2013-06-07",29.21,30.1565,28.91,29.94,2.994,472022.0,0.0,1.0
"2013-06-10",30.65,31.14,29.79,30.96,3.096,341897.0,0.0,1.0
"2013-06-11",30.57,33.99,30.25,32.21,3.221,871848.0,0.0,1.0
"2013-06-12",33.25,33.66,32.02,33.03,3.303,819657.0,0.0,1.0
"2013-06-13",32.52,33.99,32.52,33.56,3.356,364910.0,0.0,1.0
"2013-06-14",33.28,33.47,32.31,32.43,3.243,305614.0,0.0,1.0
"2013-06-17",32.76,33.07,32.2501,32.49,3.249,162377.0,0.0,1.0
"2013-06-18",32.8,33.49,32.66,32.99,3.299,327106.0,0.0,1.0
"2013-06-19",32.49,32.49,28.99,29.0,2.9,1.144644e6,0.0,1.0
"2013-06-20",29.01,29.01,26.12,26.44,2.644,1.300526e6,0.0,1.0
"2013-06-21",26.91,27.88,26.25,26.49,2.649,798741.0,0.0,1.0
"2013-06-24",25.74,25.81,23.26,25.53,2.553,1.202403e6,0.0,1.0
"2013-06-25",25.98,27.3,25.95,26.66,2.666,491213.0,0.0,1.0
"2013-06-26",27.87,27.87,26.65,27.34,2.734,371282.0,0.0,1.0
"2013-06-27",27.79,28.2,27.37,28.17,2.817,392971.0,0.0,1.0
"2013-06-28",28.05,29.59,28.05,29.16,2.916,556450.0,0.0,1.0
"2013-07-01",29.62,30.37,28.89,29.17,2.917,625852.0,0.0,1.0
"2013-07-02",29.0,29.35,27.6901,28.13,2.813,252164.0,0.0,1.0
"2013-07-03",28.09,28.34,28.0,28.2,2.82,92776.0,0.0,1.0
"2013-07-05",28.37,28.55,28.0,28.37,2.837,114115.0,0.0,1.0
"2013-07-08",28.17,29.52,28.17,29.45,2.945,308432.0,0.0,1.0
"2013-07-09",29.9,30.0,29.24,29.95,2.995,324631.0,0.0,1.0
"2013-07-10",30.1,30.13,28.75,29.65,2.965,354006.0,0.0,1.0
"2013-07-11",29.94,30.73,29.65,30.26,3.026,244052.0,0.0,1.0
"2013-07-12",30.42,31.62,30.25,31.04,3.104,343633.0,0.0,1.0
"2013-07-15",32.4,32.7,31.06,32.51,3.251,1.023773e6,0.0,1.0
"2013-07-16",32.83,33.7,32.55,33.08,3.308,635564.0,0.0,1.0
"2013-07-17",33.1,35.8,32.891,35.78,3.578,1.083289e6,0.0,1.0
"2013-07-18",35.18,37.55,34.8438,37.24,3.724,1.146049e6,0.0,1.0
"2013-07-19",36.99,37.3,36.5,37.21,3.721,497823.0,0.0,1.0
"2013-07-22",37.12,38.325,37.02,37.54,3.754,317062.0,0.0,1.0
"2013-07-23",39.09,39.28,38.0,39.18,3.918,441054.0,0.0,1.0
"2013-07-24",42.7,42.7,39.47,42.1,4.21,942949.0,0.0,1.0
"2013-07-25",44.0,44.87,40.91,41.27,4.127,973719.0,0.0,1.0
"2013-07-26",41.28,42.88,40.14,42.19,4.219,504197.0,0.0,1.0
"2013-07-29",42.03,44.0,41.91,42.13,4.213,681872.0,0.0,1.0
"2013-07-30",42.99,43.78,40.6,42.21,4.221,927227.0,0.0,1.0
"2013-07-31",42.0,42.73,41.111,42.12,4.212,249460.0,0.0,1.0
"2013-08-01",43.34,44.98,42.16,44.68,4.468,502885.0,0.0,1.0
"2013-08-02",44.96,44.96,43.88,44.09,4.409,365221.0,0.0,1.0
"2013-08-05",45.0,45.74,43.7,44.87,4.487,678226.0,0.0,1.0
"2013-08-06",44.5,48.27,44.11,47.29,4.729,529219.0,0.0,1.0
"2013-08-07",46.57,46.77,44.2,46.05,4.605,730237.0,0.0,1.0
"2013-08-08",46.93,50.09,46.77,48.76,4.876,929572.0,0.0,1.0
"2013-08-09",48.88,50.105,48.35,49.71,4.971,513403.0,0.0,1.0
"2013-08-12",50.0,50.43,48.54,48.68,4.868,382898.0,0.0,1.0
"2013-08-13",48.5,48.8699,43.25,45.36,4.536,1.933241e6,0.0,1.0
"2013-08-14",44.79,46.09,43.56,45.96,4.596,1.202324e6,0.0,1.0
"2013-08-15",40.12,42.14,38.5,39.56,3.956,2.281009e6,0.0,1.0
"2013-08-16",39.35,40.8,38.71,39.9,3.99,455712.0,0.0,1.0
"2013-08-19",39.11,45.0,39.06,43.21,4.321,917972.0,0.0,1.0
"2013-08-20",41.65,42.43,40.3,41.37,4.137,804715.0,0.0,1.0
"2013-08-21",40.72,41.68,39.5,39.56,3.956,633808.0,0.0,1.0
"2013-08-22",39.23,41.73,38.08,41.18,4.118,751798.0,0.0,1.0
"2013-08-23",41.36,42.35,40.35,40.47,4.047,457495.0,0.0,1.0
"2013-08-26",40.74,40.84,39.16,40.5,4.05,317565.0,0.0,1.0
"2013-08-27",40.38,40.38,39.0,39.19,3.919,372405.0,0.0,1.0
"2013-08-28",38.91,39.2699,38.1499,38.88,3.888,578484.0,0.0,1.0
"2013-08-29",38.48,40.75,38.48,40.5,4.05,346100.0,0.0,1.0
"2013-08-30",41.0,44.05,40.5,43.3,4.33,1.423957e6,0.0,1.0
"2013-09-03",44.09,45.27,42.2,42.42,4.242,1.048823e6,0.0,1.0
"2013-09-04",43.38,43.59,41.2332,42.11,4.211,503297.0,0.0,1.0
"2013-09-05",43.0,43.75,42.67,42.94,4.294,539250.0,0.0,1.0
"2013-09-06",43.09,43.88,42.76,43.8,4.38,671145.0,0.0,1.0
"2013-09-09",43.52,48.4,42.46,47.89,4.789,2.177099e6,0.0,1.0
"2013-09-10",48.77,49.56,46.53,47.93,4.793,1.289648e6,0.0,1.0
"2013-09-11",47.75,49.4199,47.425,49.13,4.913,646215.0,0.0,1.0
"2013-09-12",49.3,50.68,48.45,49.14,4.914,1.363661e6,0.0,1.0
"2013-09-13",49.27,49.5899,46.29,47.32,4.732,938106.0,0.0,1.0
"2013-09-16",48.18,50.5,48.18,48.88,4.888,820760.0,0.0,1.0
"2013-09-17",48.53,49.2099,47.53,49.01,4.901,358186.0,0.0,1.0
"2013-09-18",51.5,57.26,50.9,57.01,5.701,2.515665e6,0.0,1.0
"2013-09-19",57.01,63.75,57.01,60.12,6.012,3.585745e6,0.0,1.0
"2013-09-20",60.85,61.16,58.74,60.0,6.0,876278.0,0.0,1.0
"2013-09-23",59.59,61.11,56.92,58.03,5.803,764735.0,0.0,1.0
"2013-09-24",58.14,58.2025,56.35,57.1,5.71,724914.0,0.0,1.0
"2013-09-25",57.43,58.9,56.5,58.36,5.836,788970.0,0.0,1.0
"2013-09-26",58.58,58.58,57.085,57.97,5.797,641452.0,0.0,1.0
"2013-09-27",58.0,58.49,57.5,57.99,5.799,294347.0,0.0,1.0
"2013-09-30",56.6,57.66,55.8,56.8,5.68,406083.0,0.0,1.0
"2013-10-01",57.55,61.0,56.97,60.85,6.085,470606.0,0.0,1.0
"2013-10-02",60.54,65.96,60.54,65.78,6.578,1.438986e6,0.0,1.0
"2013-10-03",66.66,70.0,65.62,69.22,6.922,2.701668e6,0.0,1.0
"2013-10-04",69.12,69.169,66.17,67.92,6.792,1.935418e6,0.0,1.0
"2013-10-07",67.02,69.5,65.91,68.22,6.822,1.073652e6,0.0,1.0
"2013-10-08",67.78,68.12,61.55,61.98,6.198,1.84926e6,0.0,1.0
"2013-10-09",62.27,63.1,60.25,62.9,6.29,1.057214e6,0.0,1.0
"2013-10-10",63.53,65.3899,63.53,65.03,6.503,1.08404e6,0.0,1.0
"2013-10-11",66.66,71.5,66.09,69.92,6.992,843666.0,0.0,1.0
"2013-10-14",69.0,69.22,66.4,67.93,6.793,991988.0,0.0,1.0
"2013-10-15",68.1,71.8,67.87,68.07,6.807,925541.0,0.0,1.0
"2013-10-16",68.5,71.03,68.5,70.55,7.055,799110.0,0.0,1.0
"2013-10-17",69.0,73.81,68.8,73.49,7.349,790747.0,0.0,1.0
"2013-10-18",75.06,77.2,74.42,76.51,7.651,881025.0,0.0,1.0
"2013-10-21",77.45,77.8,74.76,76.48,7.648,589511.0,0.0,1.0
"2013-10-22",76.4,76.79,70.302,73.58,7.358,792822.0,0.0,1.0
"2013-10-23",72.75,72.8,68.53,69.41,6.941,747573.0,0.0,1.0
"2013-10-24",69.6,73.66,69.02,73.3,7.33,1.112576e6,0.0,1.0
"2013-10-25",74.16,74.44,64.3,66.66,6.666,1.706077e6,0.0,1.0
"2013-10-28",67.09,68.77,60.7,64.15,6.415,1.74522e6,0.0,1.0
"2013-10-29",64.42,70.8,63.68,69.44,6.944,1.07848e6,0.0,1.0
"2013-10-30",70.51,72.66,67.115,67.31,6.731,555912.0,0.0,1.0
"2013-10-31",66.49,69.12,64.54,68.93,6.893,720415.0,0.0,1.0
"2013-11-01",70.24,71.22,69.615,70.8,7.08,420569.0,0.0,1.0
"2013-11-04",72.0,79.66,71.49,79.01,7.901,1.168283e6,0.0,1.0
"2013-11-05",78.95,78.95,75.8,76.32,7.632,626007.0,0.0,1.0
"2013-11-06",77.0,77.22,72.83,73.09,7.309,1.171311e6,0.0,1.0
"2013-11-07",73.27,73.62,67.24,70.71,7.071,1.195471e6,0.0,1.0
"2013-11-08",70.45,74.9,68.03,74.88,7.488,1.062026e6,0.0,1.0
"2013-11-11",74.0,74.702,72.56,73.32,7.332,1.203744e6,0.0,1.0
"2013-11-12",71.88,86.47,70.0,84.48,8.448,2.568149e6,0.0,1.0
"2013-11-13",83.03,89.81,83.0104,86.99,8.699,1.184189e6,0.0,1.0
"2013-11-14",87.45,87.8,81.78,84.35,8.435,1.281385e6,0.0,1.0
"2013-11-15",85.05,88.227,84.13,86.69,8.669,744019.0,0.0,1.0
"2013-11-18",88.3,91.2,85.3,86.45,8.645,1.12716e6,0.0,1.0
"2013-11-19",84.86,84.86,77.285,81.61,8.161,2.002181e6,0.0,1.0
"2013-11-20",81.36,82.3305,76.71,77.28,7.728,1.447117e6,0.0,1.0
"2013-11-21",78.15,81.1,77.38,80.12,8.012,844753.0,0.0,1.0
"2013-11-22",79.43,81.02,78.1,79.75,7.975,467293.0,0.0,1.0
"2013-11-25",80.43,80.43,77.01,78.51,7.851,982489.0,0.0,1.0
"2013-11-26",77.84,81.25,77.26,80.52,8.052,756260.0,0.0,1.0
"2013-11-27",80.7,80.96,78.821,80.69,8.069,589084.0,0.0,1.0
"2013-11-29",80.68,83.47,80.29,83.11,8.311,488439.0,0.0,1.0
"2013-12-02",83.04,84.77,82.69,84.05,8.405,1.022687e6,0.0,1.0
"2013-12-03",84.09,85.59,83.47,85.0,8.5,745764.0,0.0,1.0
"2013-12-04",84.58,85.0,82.08,83.08,8.308,649094.0,0.0,1.0
"2013-12-05",83.0,83.81,80.74,81.64,8.164,678048.0,0.0,1.0
"2013-12-06",82.0,83.78,81.18,82.55,8.255,631840.0,0.0,1.0
"2013-12-09",82.53,83.5,78.57,80.3,8.03,955993.0,0.0,1.0
"2013-12-10",79.84,82.87,71.29,80.46,8.046,4.04948e6,0.0,1.0
"2013-12-11",82.98,82.98,78.2,78.35,7.835,1.009399e6,0.0,1.0
"2013-12-12",78.0,78.74,77.05,77.85,7.785,589031.0,0.0,1.0
"2013-12-13",78.66,81.8,78.1601,80.54,8.054,734646.0,0.0,1.0
"2013-12-16",80.51,81.3,76.8,77.34,7.734,467048.0,0.0,1.0
"2013-12-17",76.64,78.06,73.42,77.29,7.729,301949.0,0.0,1.0
"2013-12-18",78.18,78.49,74.04,75.63,7.563,846805.0,0.0,1.0
"2013-12-19",75.61,81.391,74.57,80.69,8.069,1.22387e6,0.0,1.0
"2013-12-20",79.79,81.3,79.18,80.9,8.09,504613.0,0.0,1.0
"2013-12-23",82.35,85.647,81.79,85.17,8.517,1.404421e6,0.0,1.0
"2013-12-24",85.0,85.9,84.7,85.29,8.529,505557.0,0.0,1.0
"2013-12-26",84.95,85.35,82.5101,83.99,8.399,620522.0,0.0,1.0
"2013-12-27",83.91,85.6,83.56,84.15,8.415,713060.0,0.0,1.0
"2013-12-30",83.34,83.71,80.0,82.21,8.221,375678.0,0.0,1.0
"2013-12-31",83.24,84.9,82.64,83.68,8.368,329731.0,0.0,1.0
"2014-01-02",82.62,88.26,82.62,86.98,8.698,1.176764e6,0.0,1.0
"2014-01-03",87.07,87.95,83.1,85.1,8.51,704202.0,0.0,1.0
"2014-01-06",84.74,86.5,81.61,82.28,8.228,963353.0,0.0,1.0
"2014-01-07",81.05,90.94,80.21,90.51,9.051,1.072926e6,0.0,1.0
"2014-01-08",90.32,94.27,88.8701,92.57,9.257,1.547895e6,0.0,1.0
"2014-01-09",93.0,94.136,87.08,88.42,8.842,1.222852e6,0.0,1.0
"2014-01-10",89.05,89.5799,86.9401,88.52,8.852,472144.0,0.0,1.0
"2014-01-13",90.16,93.08,86.1224,88.32,8.832,817703.0,0.0,1.0
"2014-01-14",89.72,94.89,89.28,93.18,9.318,723039.0,0.0,1.0
"2014-01-15",93.0,97.0,89.89,96.44,9.644,928692.0,0.0,1.0
"2014-01-16",97.77,104.36,97.39,103.81,10.381,1.615752e6,0.0,1.0
"2014-01-17",104.38,104.82,101.27,101.84,10.184,577083.0,0.0,1.0
"2014-01-21",102.76,107.53,101.37,107.31,10.731,1.246169e6,0.0,1.0
"2014-01-22",107.0,108.48,104.0,107.81,10.781,1.068235e6,0.0,1.0
"2014-01-23",101.3,105.21,98.53,102.62,10.262,1.820677e6,0.0,1.0
"2014-01-24",100.0,100.91,93.21,97.64,9.764,2.004077e6,0.0,1.0
"2014-01-27",97.0,98.0,93.7701,95.38,9.538,1.548915e6,0.0,1.0
"2014-01-28",96.1,107.0,96.1,104.73,10.473,1.210417e6,0.0,1.0
"2014-01-29",103.64,109.67,99.0,106.8,10.68,1.470334e6,0.0,1.0
"2014-01-30",104.5,108.28,101.99,105.85,10.585,1.206217e6,0.0,1.0
"2014-01-31",101.13,105.64,100.16,105.09,10.509,562342.0,0.0,1.0
"2014-02-03",104.03,104.97,97.0,98.65,9.865,1.126519e6,0.0,1.0
"2014-02-04",97.88,101.175,97.06,100.0,10.0,537216.0,0.0,1.0
"2014-02-05",99.6,100.2,93.75,98.22,9.822,955970.0,0.0,1.0
"2014-02-06",99.13,101.0,96.9,100.4,10.04,814042.0,0.0,1.0
"2014-02-07",101.1,104.98,100.12,103.5,10.35,758649.0,0.0,1.0
"2014-02-10",104.34,105.0,101.5404,104.14,10.414,532335.0,0.0,1.0
"2014-02-11",103.89,104.5999,101.72,102.98,10.298,513696.0,0.0,1.0
"2014-02-12",103.07,106.39,102.1459,106.15,10.615,500253.0,0.0,1.0
"2014-02-13",105.0,115.48,104.5014,114.56,11.456,1.147651e6,0.0,1.0
"2014-02-14",117.76,122.24,111.52,114.46,11.446,1.22474e6,0.0,1.0
"2014-02-18",115.69,118.47,115.15,115.96,11.596,893853.0,0.0,1.0
"2014-02-19",115.27,115.54,110.68,111.92,11.192,761511.0,0.0,1.0
"2014-02-20",113.06,114.79,110.12,114.05,11.405,518055.0,0.0,1.0
"2014-02-21",114.93,115.0,107.21,110.0,11.0,976843.0,0.0,1.0
"2014-02-24",111.13,114.7,109.5,112.02,11.202,759825.0,0.0,1.0
"2014-02-25",111.61,115.0,108.32,109.64,10.964,916563.0,0.0,1.0
"2014-02-26",110.0,122.6,109.0,116.95,11.695,1.505176e6,0.0,1.0
"2014-02-27",118.15,120.94,115.01,116.57,11.657,673022.0,0.0,1.0
"2014-02-28",117.32,132.88,117.32,131.32,13.132,1.418394e6,0.0,1.0
"2014-03-03",129.79,130.49,121.3,127.76,12.776,2.118327e6,0.0,1.0
"2014-03-04",157.34,182.0,153.161,169.21,16.921,7.334025e6,0.0,1.0
"2014-03-05",165.77,173.85,165.5,171.48,17.148,2.140997e6,0.0,1.0
"2014-03-06",171.0,180.0,170.19,175.99,17.599,1.320929e6,0.0,1.0
"2014-03-07",176.55,177.3665,163.0001,166.55,16.655,1.725173e6,0.0,1.0
"2014-03-10",164.75,165.0,156.663,158.48,15.848,1.328523e6,0.0,1.0
"2014-03-11",150.17,155.97,143.74,143.74,14.374,3.198019e6,0.0,1.0
"2014-03-12",143.18,157.2,142.5,155.19,15.519,4.574742e6,0.0,1.0
"2014-03-13",157.87,167.46,146.4,149.18,14.918,2.473605e6,0.0,1.0
"2014-03-14",146.2,154.31,141.0,150.79,15.079,1.327154e6,0.0,1.0
"2014-03-17",152.16,154.57,147.92,150.61,15.061,818207.0,0.0,1.0
"2014-03-18",152.99,154.19,148.72,151.67,15.167,716159.0,0.0,1.0
"2014-03-19",153.22,155.25,150.55,150.58,15.058,1.369154e6,0.0,1.0
"2014-03-20",150.55,150.66,138.75,140.37,14.037,2.130181e6,0.0,1.0
"2014-03-21",143.43,146.79,139.93,140.17,14.017,919507.0,0.0,1.0
"2014-03-24",143.11,143.9,131.5001,138.19,13.819,1.506192e6,0.0,1.0
"2014-03-25",139.17,144.0,137.7,142.82,14.282,1.104823e6,0.0,1.0
"2014-03-26",141.58,145.5,136.0,137.57,13.757,1.162964e6,0.0,1.0
"2014-03-27",137.24,140.59,131.79,134.3,13.43,1.34334e6,0.0,1.0
"2014-03-28",135.58,144.17,135.33,138.0,13.8,1.286878e6,0.0,1.0
"2014-03-31",145.0,151.33,144.93,149.3,14.93,1.491981e6,0.0,1.0
"2014-04-01",154.61,160.9325,153.62,159.66,15.966,1.7464e6,0.0,1.0
"2014-04-02",161.04,161.99,152.01,154.0,15.4,1.177471e6,0.0,1.0
"2014-04-03",155.5,157.679,142.6,145.54,14.554,1.222903e6,0.0,1.0
"2014-04-04",146.88,147.29,134.34,138.41,13.841,1.703551e6,0.0,1.0
"2014-04-07",135.34,142.4,123.01,128.37,12.837,2.532025e6,0.0,1.0
"2014-04-08",133.14,145.09,129.7,142.64,14.264,1.730997e6,0.0,1.0
"2014-04-09",146.489,150.95,141.2,150.32,15.032,1.126237e6,0.0,1.0
"2014-04-10",149.79,150.32,135.0,138.11,13.811,1.373033e6,0.0,1.0
"2014-04-11",135.0,142.0,132.12,134.9,13.49,1.053919e6,0.0,1.0
"2014-04-14",138.98,141.8,131.0,135.29,13.529,1.05932e6,0.0,1.0
"2014-04-15",134.63,140.23,127.11,140.01,14.001,1.69166e6,0.0,1.0
"2014-04-16",144.99,146.99,136.51,142.53,14.253,1.145792e6,0.0,1.0
"2014-04-17",140.72,149.0,139.03,148.73,14.873,1.368769e6,0.0,1.0
"2014-04-21",150.52,152.48,145.02,149.44,14.944,729143.0,0.0,1.0
"2014-04-22",149.31,156.56,149.31,153.55,15.355,1.059786e6,0.0,1.0
"2014-04-23",152.86,157.26,150.75,156.35,15.635,1.230658e6,0.0,1.0
"2014-04-24",156.2501,157.31,148.11,155.58,15.558,1.072306e6,0.0,1.0
"2014-04-25",151.26,154.45,141.05,142.59,14.259,1.471469e6,0.0,1.0
"2014-04-28",142.5,143.0,131.5,137.41,13.741,1.707007e6,0.0,1.0
"2014-04-29",136.79,143.22,134.61,140.49,14.049,877274.0,0.0,1.0
"2014-04-30",138.14,140.61,130.56,140.19,14.019,1.12863e6,0.0,1.0
"2014-05-01",140.02,151.0,139.2704,148.55,14.855,942270.0,0.0,1.0
"2014-05-02",149.31,155.0,148.775,149.92,14.992,859558.0,0.0,1.0
"2014-05-05",147.03,160.0,145.7,159.29,15.929,1.054339e6,0.0,1.0
"2014-05-06",158.58,158.9993,147.29,147.52,14.752,862676.0,0.0,1.0
"2014-05-07",146.92,147.02,134.7,137.9,13.79,1.985606e6,0.0,1.0
"2014-05-08",136.4,142.05,131.08,131.8,13.18,1.564335e6,0.0,1.0
"2014-05-09",131.0,137.43,130.28,136.68,13.668,1.109768e6,0.0,1.0
"2014-05-12",140.15,146.96,138.87,146.7,14.67,1.135086e6,0.0,1.0
"2014-05-13",146.22,150.29,143.8,146.48,14.648,994605.0,0.0,1.0
"2014-05-14",150.0,154.2159,146.6244,150.0,15.0,2.370812e6,0.0,1.0
"2014-05-15",156.99,164.74,146.25,164.46,16.446,5.085748e6,0.0,1.0
"2014-05-16",163.05,164.22,157.25,159.87,15.987,1.650681e6,0.0,1.0
"2014-05-19",160.76,166.0,160.73,165.18,16.518,1.518913e6,0.0,1.0
"2014-05-20",165.56,172.46,163.03,169.14,16.914,1.515736e6,0.0,1.0
"2014-05-21",168.8,173.6,166.44,172.9,17.29,1.397275e6,0.0,1.0
"2014-05-22",172.35,175.16,166.777,166.83,16.683,1.273047e6,0.0,1.0
"2014-05-23",166.64,167.4693,160.1,167.01,16.701,1.1577e6,0.0,1.0
"2014-05-27",168.36,169.58,162.11,167.73,16.773,829081.0,0.0,1.0
"2014-05-28",166.61,170.4499,165.87,168.55,16.855,620696.0,0.0,1.0
"2014-05-29",167.0,171.83,165.72,168.13,16.813,715687.0,0.0,1.0
"2014-05-30",168.13,169.69,160.7203,162.66,16.266,938394.0,0.0,1.0
"2014-06-02",161.53,165.13,161.5,163.44,16.344,607976.0,0.0,1.0
"2014-06-03",162.79,165.989,161.161,163.77,16.377,424213.0,0.0,1.0
"2014-06-04",162.9,166.78,160.2,165.56,16.556,703768.0,0.0,1.0
"2014-06-05",165.59,179.79,163.51,175.99,17.599,1.678035e6,0.0,1.0
"2014-06-06",174.9,178.87,173.41,177.4,17.74,2.030698e6,0.0,1.0
"2014-06-09",177.77,185.585,174.01,182.0,18.2,1.527509e6,0.0,1.0
"2014-06-10",180.25,186.39,178.78,186.39,18.639,1.214365e6,0.0,1.0
"2014-06-11",182.62,188.6799,179.3529,180.91,18.091,1.767327e6,0.0,1.0
"2014-06-12",180.31,184.77,176.51,179.85,17.985,1.279577e6,0.0,1.0
"2014-06-13",179.2,181.7,175.81,177.0,17.7,814355.0,0.0,1.0
"2014-06-16",175.8,184.3,175.15,183.17,18.317,1.334399e6,0.0,1.0
"2014-06-17",183.0,185.82,182.5,185.13,18.513,1.411465e6,0.0,1.0
"2014-06-18",185.0,189.49,182.6,188.99,18.899,1.239213e6,0.0,1.0
"2014-06-19",188.52,189.22,183.11,184.87,18.487,689517.0,0.0,1.0
"2014-06-20",184.8,186.46,173.83,179.62,17.962,1.602198e6,0.0,1.0
"2014-06-23",177.19,181.79,176.5,180.05,18.005,540687.0,0.0,1.0
"2014-06-24",180.36,182.47,176.63,179.08,17.908,712116.0,0.0,1.0
"2014-06-25",177.05,180.588,175.19,180.33,18.033,765465.0,0.0,1.0
"2014-06-26",182.14,182.14,179.11,181.99,18.199,464804.0,0.0,1.0
"2014-06-27",181.38,189.34,180.77,188.55,18.855,1.086216e6,0.0,1.0
"2014-06-30",188.75,190.98,186.0,187.74,18.774,801918.0,0.0,1.0
"2014-07-01",189.21,195.82,187.51,195.59,19.559,779267.0,0.0,1.0
"2014-07-02",198.75,201.5,194.6,197.17,19.717,1.027269e6,0.0,1.0
"2014-07-03",198.28,200.18,195.11,198.97,19.897,454867.0,0.0,1.0
"2014-07-07",198.01,200.5,194.85,195.53,19.553,751824.0,0.0,1.0
"2014-07-08",194.71,195.525,179.86,182.14,18.214,1.336771e6,0.0,1.0
"2014-07-09",183.14,187.25,181.27,185.9,18.59,882880.0,0.0,1.0
"2014-07-10",178.23,189.0,177.55,187.16,18.716,818139.0,0.0,1.0
"2014-07-11",188.0,191.99,186.51,191.34,19.134,496823.0,0.0,1.0
"2014-07-14",193.2,200.399,193.2,197.46,19.746,971544.0,0.0,1.0
"2014-07-15",198.3,200.3099,192.78,196.91,19.691,806256.0,0.0,1.0
"2014-07-16",198.57,200.3799,196.15,197.86,19.786,551757.0,0.0,1.0
"2014-07-17",195.16,197.782,191.52,192.9,19.29,516075.0,0.0,1.0
"2014-07-18",193.26,199.48,193.02,198.61,19.861,509306.0,0.0,1.0
"2014-07-21",198.63,205.1,196.6,204.2,20.42,969501.0,0.0,1.0
"2014-07-22",205.51,211.46,205.14,211.46,21.146,1.32718e6,0.0,1.0
"2014-07-23",210.14,214.0,208.39,210.66,21.066,734680.0,0.0,1.0
"2014-07-24",211.6,214.718,207.0,213.52,21.352,710103.0,0.0,1.0
"2014-07-25",212.0,215.06,211.0,213.49,21.349,403042.0,0.0,1.0
"2014-07-28",214.01,217.41,210.8,215.48,21.548,656047.0,0.0,1.0
"2014-07-29",216.0,216.26,209.99,211.92,21.192,504989.0,0.0,1.0
"2014-07-30",214.86,215.25,210.2215,211.85,21.185,475598.0,0.0,1.0
"2014-07-31",208.33,209.51,202.37,205.54,20.554,852031.0,0.0,1.0
"2014-08-01",207.16,210.706,204.9,207.93,20.793,930977.0,0.0,1.0
"2014-08-04",209.88,210.979,207.0,207.78,20.778,578790.0,0.0,1.0
"2014-08-05",206.6,208.68,201.65,204.28,20.428,835311.0,0.0,1.0
"2014-08-06",201.0,209.5,198.77,205.53,20.553,856085.0,0.0,1.0
"2014-08-07",208.52,210.2,206.5,208.09,20.809,455910.0,0.0,1.0
"2014-08-08",208.68,209.55,207.38,207.44,20.744,578722.0,0.0,1.0
"2014-08-11",210.0,217.19,209.61,216.49,21.649,1.053035e6,0.0,1.0
"2014-08-12",214.8,223.0,208.58,217.29,21.729,3.397757e6,0.0,1.0
"2014-08-13",221.8,229.49,220.52,229.18,22.918,2.361735e6,0.0,1.0
"2014-08-14",214.8,223.0,208.58,217.29,21.729,3.398129e6,0.0,1.0
"2014-08-15",219.42,227.5,215.25,218.49,21.849,1.816977e6,0.0,1.0
"2014-08-18",222.45,224.8,218.5,221.42,22.142,855164.0,0.0,1.0
"2014-08-19",221.99,222.0,215.0,215.82,21.582,1.052255e6,0.0,1.0
"2014-08-20",215.36,218.98,213.71,215.91,21.591,476833.0,0.0,1.0
"2014-08-21",216.85,218.29,213.79,214.1,21.41,615447.0,0.0,1.0
"2014-08-22",214.13,214.63,210.26,213.24,21.324,668237.0,0.0,1.0
"2014-08-25",214.98,218.75,214.02,218.02,21.802,614547.0,0.0,1.0
"2014-08-26",218.07,219.77,216.32,216.87,21.687,421668.0,0.0,1.0
"2014-08-27",215.05,215.97,211.7701,214.11,21.411,635321.0,0.0,1.0
"2014-08-28",211.24,212.69,207.36,208.96,20.896,979093.0,0.0,1.0
"2014-08-29",210.55,211.6,193.6808,196.63,19.663,2.771698e6,0.0,1.0
"2014-09-02",197.61,207.3,196.02,207.02,20.702,1.73074e6,0.0,1.0
"2014-09-03",210.3,212.649,207.8791,212.38,21.238,1.349183e6,0.0,1.0
"2014-09-04",212.99,214.24,205.01,207.7,20.77,1.09227e6,0.0,1.0
"2014-09-05",208.01,209.29,205.0,205.5,20.55,533949.0,0.0,1.0
"2014-09-08",208.0,215.33,206.35,213.83,21.383,1.121404e6,0.0,1.0
"2014-09-09",214.14,216.85,209.05,210.05,21.005,924950.0,0.0,1.0
"2014-09-10",209.635,209.75,201.5,206.6,20.66,1.229909e6,0.0,1.0
"2014-09-11",203.82,210.17,203.58,209.66,20.966,757217.0,0.0,1.0
"2014-09-12",210.0,210.74,205.11,207.24,20.724,703960.0,0.0,1.0
"2014-09-15",207.0,207.4,191.32,196.57,19.657,1.59753e6,0.0,1.0
"2014-09-16",195.02,201.49,189.2501,198.0,19.8,1.490819e6,0.0,1.0
"2014-09-17",197.88,202.34,197.88,199.67,19.967,740354.0,0.0,1.0
"2014-09-18",200.03,208.4,200.03,206.3,20.63,1.009012e6,0.0,1.0
"2014-09-19",208.49,209.25,201.0,209.0,20.9,1.562161e6,0.0,1.0
"2014-09-22",204.35,204.6499,195.15,200.68,20.068,1.107752e6,0.0,1.0
"2014-09-23",198.69,210.45,197.21,209.19,20.919,1.51738e6,0.0,1.0
"2014-09-24",209.0,212.1,206.8,209.79,20.979,1.005028e6,0.0,1.0
"2014-09-25",209.45,209.81,199.65,199.98,19.998,1.092967e6,0.0,1.0
"2014-09-26",200.55,202.07,196.66,199.02,19.902,877946.0,0.0,1.0
"2014-09-29",196.47,200.8799,193.51,195.96,19.596,965192.0,0.0,1.0
"2014-09-30",197.91,198.77,188.7,189.01,18.901,974824.0,0.0,1.0
"2014-10-01",187.63,188.02,178.0,183.37,18.337,1.489018e6,0.0,1.0
"2014-10-02",182.21,190.19,177.3,187.99,18.799,1.085274e6,0.0,1.0
"2014-10-03",193.5,198.28,192.02,195.51,19.551,962236.0,0.0,1.0
"2014-10-06",198.59,199.42,193.0,194.2,19.42,516225.0,0.0,1.0
"2014-10-07",191.41,193.9628,186.57,186.57,18.657,584323.0,0.0,1.0
"2014-10-08",185.51,193.26,181.001,192.17,19.217,760369.0,0.0,1.0
"2014-10-09",191.19,197.17,188.25,189.45,18.945,865373.0,0.0,1.0
"2014-10-10",188.6,190.0,180.24,180.28,18.028,1.167506e6,0.0,1.0
"2014-10-13",181.29,185.19,169.5,170.63,17.063,1.715687e6,0.0,1.0
"2014-10-14",172.13,181.5,170.1807,176.7,17.67,1.785063e6,0.0,1.0
"2014-10-15",172.09,186.84,171.0401,185.68,18.568,1.414354e6,0.0,1.0
"2014-10-16",181.07,194.93,181.07,189.33,18.933,1.318088e6,0.0,1.0
"2014-10-17",193.5,197.9,189.1738,191.9,19.19,971912.0,0.0,1.0
"2014-10-20",192.0,197.63,191.95,195.99,19.599,651783.0,0.0,1.0
"2014-10-21",198.11,200.0,194.88,200.0,20.0,915613.0,0.0,1.0
"2014-10-22",200.0,205.798,198.0,205.0,20.5,1.382881e6,0.0,1.0
"2014-10-23",206.0,212.87,205.11,210.36,21.036,1.15334e6,0.0,1.0
"2014-10-24",212.0,215.0,208.265,213.59,21.359,858145.0,0.0,1.0
"2014-10-27",212.82,216.37,209.541,210.66,21.066,727680.0,0.0,1.0
"2014-10-28",211.48,218.02,211.01,218.02,21.802,769433.0,0.0,1.0
"2014-10-29",218.02,218.5,210.11,216.24,21.624,822788.0,0.0,1.0
"2014-10-30",216.0,222.82,215.03,219.89,21.989,569993.0,0.0,1.0
"2014-10-31",223.79,229.29,222.72,229.29,22.929,805829.0,0.0,1.0
"2014-11-03",231.7,239.22,228.08,228.6,22.86,1.341835e6,0.0,1.0
"2014-11-04",23.05,23.94,22.8,23.67,23.67,6.394041e6,0.0,10.0
"2014-11-05",24.46,24.62,22.32,22.71,22.71,1.0472692e7,0.0,1.0
"2014-11-06",23.03,23.58,22.84,23.38,23.38,6.345599e6,0.0,1.0
"2014-11-07",23.66,23.87,22.96,23.34,23.34,7.302088e6,0.0,1.0
"2014-11-10",23.75,24.64,23.62,24.51,24.51,9.665596e6,0.0,1.0
"2014-11-11",24.48,24.8,24.05,24.55,24.55,6.64448e6,0.0,1.0
"2014-11-12",24.41,24.65,23.5248,23.88,23.88,6.324787e6,0.0,1.0
"2014-11-13",24.1,24.59,23.88,24.44,24.44,5.047682e6,0.0,1.0
"2014-11-14",24.31,24.7,23.75,24.47,24.47,5.329782e6,0.0,1.0
"2014-11-17",24.48,24.6,23.47,23.99,23.99,7.442049e6,0.0,1.0
"2014-11-18",24.19,24.41,22.8,23.71,23.71,1.323871e7,0.0,1.0
"2014-11-19",21.85,22.81,20.59,22.44,22.44,3.3132048e7,0.0,1.0
"2014-11-20",21.98,22.98,21.6301,22.64,22.64,7.107419e6,0.0,1.0
"2014-11-21",22.99,23.48,22.6,22.68,22.68,8.522713e6,0.0,1.0
"2014-11-24",22.83,23.13,22.55,22.72,22.72,5.227225e6,0.0,1.0
"2014-11-25",22.41,22.5,21.77,21.98,21.98,8.338088e6,0.0,1.0
"2014-11-26",21.88,22.97,21.65,22.94,22.94,5.571259e6,0.0,1.0
"2014-11-28",22.94,23.0,22.65,22.86,22.86,2.724489e6,0.0,1.0
"2014-12-01",22.73,22.73,21.66,22.4,22.4,7.792231e6,0.0,1.0
"2014-12-02",22.17,22.48,21.82,22.17,22.17,5.185008e6,0.0,1.0
"2014-12-03",21.97,22.15,21.46,21.59,21.59,7.514158e6,0.0,1.0
"2014-12-04",21.62,22.17,21.58,21.75,21.75,4.485813e6,0.0,1.0
"2014-12-05",21.76,22.29,21.749,22.21,22.21,5.905555e6,0.0,1.0
"2014-12-08",21.68,21.88,21.22,21.45,21.45,7.265861e6,0.0,1.0
"2014-12-09",20.8,21.73,20.6,21.56,21.56,5.829889e6,0.0,1.0
"2014-12-10",21.13,21.2,20.5401,20.65,20.65,6.401454e6,0.0,1.0
"2014-12-11",20.66,20.76,20.06,20.19,20.19,8.102099e6,0.0,1.0
"2014-12-12",20.05,20.18,19.7,19.7,19.7,9.055727e6,0.0,1.0
"2014-12-15",19.66,20.64,19.66,20.5,20.5,6.083149e6,0.0,1.0
"2014-12-16",20.05,20.63,19.82,19.83,19.83,5.709409e6,0.0,1.0
"2014-12-17",19.98,20.08,19.02,19.05,19.05,1.3016782e7,0.0,1.0
"2014-12-18",19.53,20.63,19.49,20.33,20.33,1.1769028e7,0.0,1.0
"2014-12-19",20.46,21.13,20.4,20.63,20.63,9.577285e6,0.0,1.0
"2014-12-22",20.57,21.0,20.03,20.07,20.07,4.332782e6,0.0,1.0
"2014-12-23",20.0,20.2146,19.4499,19.54,19.54,3.706278e6,0.0,1.0
"2014-12-24",19.47,20.13,19.2601,19.95,19.95,2.622152e6,0.0,1.0
"2014-12-26",20.11,20.12,19.82,19.96,19.96,1.716749e6,0.0,1.0
"2014-12-29",19.97,20.0,19.22,19.28,19.28,3.452305e6,0.0,1.0
"2014-12-30",19.1,19.675,18.81,19.61,19.61,6.505706e6,0.0,1.0
"2014-12-31",19.53,19.74,19.09,19.54,19.54,3.308249e6,0.0,1.0
"2015-01-02",19.26,20.64,19.18,20.5,20.5,9.933975e6,0.0,1.0
"2015-01-05",20.39,21.81,20.38,21.62,21.62,8.602039e6,0.0,1.0
"2015-01-06",21.7,22.29,21.27,21.75,21.75,8.605801e6,0.0,1.0
"2015-01-07",22.1,22.75,22.1,22.16,22.16,7.19717e6,0.0,1.0
"2015-01-08",22.28,22.9,22.11,22.9,22.9,5.316279e6,0.0,1.0
"2015-01-09",22.85,22.96,22.48,22.68,22.68,3.719036e6,0.0,1.0
"2015-01-12",22.73,22.79,21.605,21.7,21.7,4.583277e6,0.0,1.0
"2015-01-13",21.91,22.14,21.2338,21.48,21.48,3.364865e6,0.0,1.0
"2015-01-14",21.3,21.75,21.1001,21.49,21.49,2.907045e6,0.0,1.0
"2015-01-15",21.76,22.04,20.7146,21.05,21.05,5.916816e6,0.0,1.0
"2015-01-16",20.95,21.98,20.72,21.88,21.88,4.087172e6,0.0,1.0
"2015-01-20",22.11,22.4,21.67,22.11,22.11,3.225928e6,0.0,1.0
"2015-01-21",21.98,22.88,21.86,22.17,22.17,4.264653e6,0.0,1.0
"2015-01-22",22.24,22.4,21.78,21.99,21.99,3.679123e6,0.0,1.0
"2015-01-23",22.03,23.11,21.96,22.89,22.89,5.01608e6,0.0,1.0
"2015-01-26",22.98,23.22,22.55,23.07,23.07,2.731898e6,0.0,1.0
"2015-01-27",22.91,23.83,22.81,23.7,23.7,4.647756e6,0.0,1.0
"2015-01-28",23.85,24.05,22.9,22.95,22.95,3.015772e6,0.0,1.0
"2015-01-29",22.5,22.72,21.15,21.97,21.97,1.4383043e7,0.0,1.0
"2015-01-30",21.91,22.77,21.77,22.39,22.39,3.274951e6,0.0,1.0
"2015-02-02",22.45,22.51,21.23,21.7,21.7,4.141159e6,0.0,1.0
"2015-02-03",21.87,22.39,21.62,22.33,22.33,4.056825e6,0.0,1.0
"2015-02-04",22.35,23.38,22.28,23.34,23.34,4.444067e6,0.0,1.0
"2015-02-05",23.45,23.83,22.94,23.14,23.14,3.044822e6,0.0,1.0
"2015-02-06",23.17,23.38,22.81,22.96,22.96,2.410699e6,0.0,1.0
"2015-02-09",22.59,22.64,21.8,22.05,22.05,4.487084e6,0.0,1.0
"2015-02-10",22.44,22.48,20.96,21.42,21.42,1.015673e7,0.0,1.0
"2015-02-11",21.58,21.89,21.38,21.59,21.59,6.075293e6,0.0,1.0
"2015-02-12",21.6,21.86,20.97,21.44,21.44,5.54058e6,0.0,1.0
"2015-02-13",21.65,22.27,21.64,21.8,21.8,6.736357e6,0.0,1.0
"2015-02-17",24.15,25.18,23.94,25.11,25.11,2.066444e7,0.0,1.0
"2015-02-18",25.37,25.96,25.08,25.76,25.76,1.0478536e7,0.0,1.0
"2015-02-19",25.49,25.92,25.18,25.6,25.6,6.619766e6,0.0,1.0
"2015-02-20",25.66,25.72,25.04,25.64,25.64,4.906938e6,0.0,1.0
"2015-02-23",25.48,26.17,25.48,25.65,25.65,4.884222e6,0.0,1.0
"2015-02-24",25.8,25.905,24.92,25.31,25.31,5.244223e6,0.0,1.0
"2015-02-25",25.14,26.2,25.08,25.38,25.38,2.473274e6,0.0,1.0
"2015-02-26",24.99,25.5,24.79,25.37,25.37,6.131941e6,0.0,1.0
"2015-02-27",25.25,25.45,24.26,24.45,24.45,4.800283e6,0.0,1.0
"2015-03-02",24.44,25.03,24.185,24.95,24.95,4.833063e6,0.0,1.0
"2015-03-03",25.07,25.07,24.435,24.65,24.65,2.962844e6,0.0,1.0
"2015-03-04",24.48,24.88,23.98,24.49,24.49,5.191789e6,0.0,1.0
"2015-03-05",24.62,25.4,24.52,25.14,25.14,4.170284e6,0.0,1.0
"2015-03-06",25.3,25.79,25.1,25.39,25.39,5.88466e6,0.0,1.0
"2015-03-09",25.35,25.5,24.985,25.21,25.21,3.282224e6,0.0,1.0
"2015-03-10",24.95,25.32,24.9,25.19,25.19,2.457186e6,0.0,1.0
"2015-03-11",25.21,26.16,25.0,26.13,26.13,1.0381589e7,0.0,1.0
"2015-03-12",26.22,27.06,26.15,26.67,26.67,1.0508099e7,0.0,1.0
"2015-03-13",26.42,26.62,25.06,25.64,25.64,1.0433585e7,0.0,1.0
"2015-03-16",25.16,25.79,24.465,25.35,25.35,1.1039861e7,0.0,1.0
"2015-03-17",25.42,25.9,25.18,25.6,25.6,7.110138e6,0.0,1.0
"2015-03-18",25.64,26.225,25.51,26.18,26.18,4.265664e6,0.0,1.0
"2015-03-19",26.01,27.52,25.8,27.38,27.38,8.485489e6,0.0,1.0
"2015-03-20",27.51,28.8,27.45,28.41,28.41,1.0219446e7,0.0,1.0
"2015-03-23",28.45,28.74,27.96,28.56,28.56,3.691778e6,0.0,1.0
"2015-03-24",28.29,28.945,28.25,28.82,28.82,4.292418e6,0.0,1.0
"2015-03-25",28.69,28.85,27.9,28.37,28.37,5.109901e6,0.0,1.0
"2015-03-26",27.91,28.31,27.5,28.07,28.07,2.992194e6,0.0,1.0
"2015-03-27",28.13,29.03,28.13,28.62,28.62,5.14076e6,0.0,1.0
"2015-03-30",28.84,28.84,28.12,28.72,28.72,3.185916e6,0.0,1.0
"2015-03-31",28.46,29.79,27.92,29.44,29.44,5.375948e6,0.0,1.0
"2015-04-01",29.55,29.975,28.83,29.31,29.31,6.219023e6,0.0,1.0
"2015-04-02",29.42,29.44,28.5,29.11,29.11,6.286185e6,0.0,1.0
"2015-04-06",29.03,29.61,28.71,29.22,29.22,2.568901e6,0.0,1.0
"2015-04-07",29.42,29.612,28.34,28.52,28.52,6.060372e6,0.0,1.0
"2015-04-08",28.62,30.1,28.47,29.66,29.66,9.500212e6,0.0,1.0
"2015-04-09",30.0,30.17,29.33,29.77,29.77,4.711142e6,0.0,1.0
"2015-04-10",29.81,30.12,29.5601,30.0,30.0,3.056881e6,0.0,1.0
"2015-04-13",30.08,30.59,29.71,29.92,29.92,4.981498e6,0.0,1.0
"2015-04-14",29.65,29.83,28.722,28.89,28.89,5.504578e6,0.0,1.0
"2015-04-15",29.11,29.71,29.0,29.36,29.36,4.975087e6,0.0,1.0
"2015-04-16",29.1,29.83,29.1,29.16,29.16,2.708152e6,0.0,1.0
"2015-04-17",28.84,29.36,28.455,28.9,28.9,5.661726e6,0.0,1.0
"2015-04-20",29.06,29.11,28.35,28.58,28.58,4.570543e6,0.0,1.0
"2015-04-21",28.85,30.05,28.72,29.98,29.98,5.312954e6,0.0,1.0
"2015-04-22",30.02,30.13,29.44,29.55,29.55,3.559455e6,0.0,1.0
"2015-04-23",29.27,29.94,29.22,29.87,29.87,2.769145e6,0.0,1.0
"2015-04-24",30.16,30.54,28.71,28.95,28.95,7.293825e6,0.0,1.0
"2015-04-27",29.09,30.72,29.09,29.81,29.81,7.622485e6,0.0,1.0
"2015-04-28",29.88,29.88,28.89,29.21,29.21,3.819638e6,0.0,1.0
"2015-04-29",29.2,29.4,28.43,28.68,28.68,3.740612e6,0.0,1.0
"2015-04-30",28.63,29.27,28.09,28.29,28.29,3.752336e6,0.0,1.0
"2015-05-01",28.3,28.51,27.81,27.97,27.97,4.094605e6,0.0,1.0
"2015-05-04",28.48,29.23,28.06,28.65,28.65,3.107292e6,0.0,1.0
"2015-05-05",28.27,28.421,27.68,27.8,27.8,3.222049e6,0.0,1.0
"2015-05-06",27.66,27.86,26.92,27.02,27.02,6.53882e6,0.0,1.0
"2015-05-07",27.55,27.93,26.85,27.32,27.32,6.879245e6,0.0,1.0
"2015-05-08",28.21,28.505,27.86,27.9,27.9,8.919619e6,0.0,1.0
"2015-05-11",28.27,28.34,27.22,27.32,27.32,6.831124e6,0.0,1.0
"2015-05-12",27.03,27.1,25.5,25.78,25.78,2.1303361e7,0.0,1.0
"2015-05-13",24.85,27.36,24.62,26.66,26.66,2.9338568e7,0.0,1.0
"2015-05-14",25.0,25.91,24.55,25.21,25.21,3.6126547e7,0.0,1.0
"2015-05-15",25.23,26.26,24.99,26.22,26.22,1.3776803e7,0.0,1.0
"2015-05-18",25.98,27.25,25.77,26.59,26.59,1.1742332e7,0.0,1.0
"2015-05-19",26.92,27.26,25.8,25.91,25.91,1.2057927e7,0.0,1.0
"2015-05-20",25.52,26.0,25.01,25.49,25.49,7.938626e6,0.0,1.0
"2015-05-21",25.5,25.59,22.7,24.79,24.79,2.7493877e7,0.0,1.0
"2015-05-22",24.77,26.39,24.7,25.43,25.43,1.1097094e7,0.0,1.0
"2015-05-26",25.43,26.58,25.43,26.57,26.57,8.664868e6,0.0,1.0
"2015-05-27",26.69,26.95,26.37,26.54,26.54,1.0279837e7,0.0,1.0
"2015-05-28",26.09,26.1,25.25,25.38,25.38,9.412064e6,0.0,1.0
"2015-05-29",25.16,25.35,23.739,24.97,24.97,1.2661923e7,0.0,1.0
"2015-06-01",24.97,25.67,24.02,24.3,24.3,7.847611e6,0.0,1.0
"2015-06-02",24.27,24.63,23.75,24.21,24.21,6.798236e6,0.0,1.0
"2015-06-03",24.43,24.7,24.05,24.52,24.52,5.49622e6,0.0,1.0
"2015-06-04",24.14,24.57,23.94,23.97,23.97,6.120727e6,0.0,1.0
"2015-06-05",23.93,24.85,23.93,24.56,24.56,7.92298e6,0.0,1.0
"2015-06-08",24.41,24.84,23.61,23.8,23.8,8.150646e6,0.0,1.0
"2015-06-09",23.63,23.86,23.43,23.62,23.62,5.553247e6,0.0,1.0
"2015-06-10",23.53,24.42,23.44,24.32,24.32,5.252141e6,0.0,1.0
"2015-06-11",24.4,24.5,24.08,24.28,24.28,4.239716e6,0.0,1.0
"2015-06-12",24.23,25.66,24.21,25.35,25.35,6.605571e6,0.0,1.0
"2015-06-15",25.1,25.28,24.77,24.99,24.99,5.076842e6,0.0,1.0
"2015-06-16",24.96,25.78,24.83,25.29,25.29,5.806004e6,0.0,1.0
"2015-06-17",25.66,26.17,25.476,25.93,25.93,1.0584229e7,0.0,1.0
"2015-06-18",25.68,25.87,24.66,24.85,24.85,8.447208e6,0.0,1.0
"2015-06-19",24.7,24.71,22.95,23.0,23.0,1.225564e7,0.0,1.0
"2015-06-22",23.33,24.08,23.125,23.21,23.21,7.836441e6,0.0,1.0
"2015-06-23",23.54,24.15,23.5,23.81,23.81,7.584461e6,0.0,1.0
"2015-06-24",23.74,23.85,22.96,23.13,23.13,5.751957e6,0.0,1.0
"2015-06-25",23.17,23.28,22.61,22.64,22.64,5.950162e6,0.0,1.0
"2015-06-26",22.08,22.29,21.61,21.97,21.97,9.616561e6,0.0,1.0
"2015-06-29",21.42,21.73,21.3,21.54,21.54,9.580546e6,0.0,1.0
"2015-06-30",22.3,22.49,21.92,22.25,22.25,7.613789e6,0.0,1.0
"2015-07-01",22.22,22.65,22.09,22.19,22.19,6.497061e6,0.0,1.0
"2015-07-02",21.99,21.99,20.39,20.43,20.43,1.1426667e7,0.0,1.0
"2015-07-06",19.84,20.81,19.62,20.75,20.75,1.6892467e7,0.0,1.0
"2015-07-07",20.36,20.99,18.3401,20.52,20.52,1.9891006e7,0.0,1.0
"2015-07-08",19.11,21.35,18.94,20.62,20.62,1.5085024e7,0.0,1.0
"2015-07-09",22.74,23.3,21.995,23.11,23.11,2.0550075e7,0.0,1.0
"2015-07-10",23.52,23.56,22.25,22.78,22.78,7.532294e6,0.0,1.0
"2015-07-13",22.98,23.34,22.55,22.97,22.97,4.652859e6,0.0,1.0
"2015-07-14",22.6,23.33,22.6,22.74,22.74,4.358039e6,0.0,1.0
"2015-07-15",22.49,22.56,21.6,21.65,21.65,6.650535e6,0.0,1.0
"2015-07-16",21.91,22.28,21.74,22.06,22.06,3.822188e6,0.0,1.0
"2015-07-17",22.5,22.99,21.56,21.68,21.68,4.613197e6,0.0,1.0
"2015-07-20",21.8,22.22,21.39,21.47,21.47,3.741647e6,0.0,1.0
"2015-07-21",21.4,21.66,20.86,21.47,21.47,6.347437e6,0.0,1.0
"2015-07-22",21.44,21.7699,21.03,21.6,21.6,3.980365e6,0.0,1.0
"2015-07-23",21.64,22.05,21.21,21.23,21.23,3.026232e6,0.0,1.0
"2015-07-24",21.25,21.25,20.08,20.25,20.25,7.436262e6,0.0,1.0
"2015-07-27",19.17,20.05,18.86,19.99,19.99,1.0183751e7,0.0,1.0
"2015-07-28",19.91,20.21,19.41,20.2,20.2,4.600363e6,0.0,1.0
"2015-07-29",20.14,20.56,20.06,20.26,20.26,3.684451e6,0.0,1.0
"2015-07-30",20.28,20.36,19.47,19.7,19.7,7.996263e6,0.0,1.0
"2015-07-31",19.52,19.67,19.24,19.49,19.49,5.503625e6,0.0,1.0
"2015-08-03",19.13,20.14,18.99,20.01,20.01,7.382749e6,0.0,1.0
"2015-08-04",20.1,20.68,20.05,20.57,20.57,6.271096e6,0.0,1.0
"2015-08-05",20.91,22.47,20.85,21.65,21.65,1.2051327e7,0.0,1.0
"2015-08-06",21.75,22.04,21.2,22.0,22.0,1.0838018e7,0.0,1.0
"2015-08-07",21.92,22.19,20.92,21.07,21.07,7.641772e6,0.0,1.0
"2015-08-10",21.03,21.46,20.05,21.0,21.0,1.4319187e7,0.0,1.0
"2015-08-11",19.99,20.0,16.9,18.26,18.26,3.9034469e7,0.0,1.0
"2015-08-12",17.61,19.35,17.32,19.21,19.21,2.2859215e7,0.0,1.0
"2015-08-13",19.35,21.41,19.29,20.94,20.94,1.4658173e7,0.0,1.0
"2015-08-14",20.75,20.85,19.73,20.5,20.5,8.11633e6,0.0,1.0
"2015-08-17",20.36,20.48,19.52,19.81,19.81,5.669976e6,0.0,1.0
"2015-08-18",19.37,19.96,18.99,19.03,19.03,4.793142e6,0.0,1.0
"2015-08-19",19.0,19.47,18.75,19.0,19.0,5.822055e6,0.0,1.0
"2015-08-20",18.28,18.67,17.6501,17.87,17.87,1.1082152e7,0.0,1.0
"2015-08-21",17.28,18.73,17.08,17.83,17.83,1.0839349e7,0.0,1.0
"2015-08-24",14.99,18.49,14.68,17.7,17.7,1.3401978e7,0.0,1.0
"2015-08-25",18.63,19.85,18.21,18.41,18.41,1.1350234e7,0.0,1.0
"2015-08-26",18.1,18.67,17.73,18.63,18.63,1.2663924e7,0.0,1.0
"2015-08-27",19.31,19.91,19.02,19.89,19.89,6.803973e6,0.0,1.0
"2015-08-28",19.76,19.77,18.81,19.03,19.03,8.005991e6,0.0,1.0
"2015-08-31",18.86,18.95,17.97,17.99,17.99,8.519428e6,0.0,1.0
"2015-09-01",17.26,18.27,16.82,17.33,17.33,1.2509854e7,0.0,1.0
"2015-09-02",17.55,17.65,16.97,17.29,17.29,1.2601898e7,0.0,1.0
"2015-09-03",17.44,17.96,17.435,17.78,17.78,8.780704e6,0.0,1.0
"2015-09-04",17.4,17.6,16.215,16.44,16.44,1.2049153e7,0.0,1.0
"2015-09-08",17.06,18.26,16.02,16.06,16.06,1.7107839e7,0.0,1.0
"2015-09-09",16.49,16.92,16.11,16.25,16.25,1.277959e7,0.0,1.0
"2015-09-10",16.07,16.505,15.83,15.91,15.91,8.413985e6,0.0,1.0
"2015-09-11",15.9,16.47,15.38,16.34,16.34,7.78327e6,0.0,1.0
"2015-09-14",16.11,16.2,15.74,15.98,15.98,6.730815e6,0.0,1.0
"2015-09-15",15.78,16.95,15.68,16.48,16.48,8.943973e6,0.0,1.0
"2015-09-16",16.9,17.75,16.8,17.41,17.41,1.413978e7,0.0,1.0
"2015-09-17",17.35,17.95,17.1101,17.56,17.56,1.3046549e7,0.0,1.0
"2015-09-18",17.41,17.59,17.15,17.24,17.24,6.634397e6,0.0,1.0
"2015-09-21",17.36,17.73,17.14,17.24,17.24,5.502801e6,0.0,1.0
"2015-09-22",16.99,17.2,16.67,17.04,17.04,3.512398e6,0.0,1.0
"2015-09-23",16.88,17.19,16.25,16.34,16.34,7.076563e6,0.0,1.0
"2015-09-24",16.42,17.01,16.02,16.79,16.79,4.912746e6,0.0,1.0
"2015-09-25",17.14,17.15,16.54,16.69,16.69,7.051092e6,0.0,1.0
"2015-09-28",16.45,16.607,15.76,15.85,15.85,4.445071e6,0.0,1.0
"2015-09-29",15.9,16.32,15.79,16.21,16.21,8.856084e6,0.0,1.0
"2015-09-30",16.4,17.565,16.39,16.8,16.8,7.326321e6,0.0,1.0
"2015-10-01",16.74,16.93,16.011,16.91,16.91,5.577552e6,0.0,1.0
"2015-10-02",16.53,18.83,16.2,18.15,18.15,1.1825579e7,0.0,1.0
"2015-10-05",18.01,18.54,17.48,18.45,18.45,8.402865e6,0.0,1.0
"2015-10-06",18.485,18.67,17.965,18.56,18.56,8.665352e6,0.0,1.0
"2015-10-07",18.98,19.69,18.57,19.03,19.03,1.0184011e7,0.0,1.0
"2015-10-08",19.07,19.2,18.245,18.63,18.63,5.216536e6,0.0,1.0
"2015-10-09",18.88,18.93,18.03,18.17,18.17,6.500136e6,0.0,1.0
"2015-10-12",18.26,18.72,17.9,18.49,18.49,5.657385e6,0.0,1.0
"2015-10-13",18.43,18.75,18.02,18.1,18.1,5.958077e6,0.0,1.0
"2015-10-14",18.23,18.248,17.0449,17.29,17.29,7.3695e6,0.0,1.0
"2015-10-15",17.53,18.64,17.53,18.39,18.39,6.639732e6,0.0,1.0
"2015-10-16",18.36,18.85,18.12,18.64,18.64,6.767652e6,0.0,1.0
"2015-10-19",18.62,18.735,18.355,18.64,18.64,5.166484e6,0.0,1.0
"2015-10-20",18.75,19.63,18.63,18.79,18.79,6.107259e6,0.0,1.0
"2015-10-21",18.62,18.69,17.945,18.14,18.14,5.049571e6,0.0,1.0
"2015-10-22",18.5,19.405,18.38,19.36,19.36,7.364538e6,0.0,1.0
"2015-10-23",19.89,20.06,19.21,19.53,19.53,7.84192e6,0.0,1.0
"2015-10-26",19.71,20.04,19.44,19.83,19.83,6.449933e6,0.0,1.0
"2015-10-27",20.3,20.8398,20.05,20.35,20.35,9.188425e6,0.0,1.0
"2015-10-28",20.3,20.795,20.14,20.73,20.73,4.68583e6,0.0,1.0
"2015-10-29",20.51,20.62,20.06,20.35,20.35,5.159764e6,0.0,1.0
"2015-10-30",20.44,20.75,20.295,20.52,20.52,3.628138e6,0.0,1.0
"2015-11-02",20.6,20.96,19.91,20.69,20.69,5.133237e6,0.0,1.0
"2015-11-03",20.62,21.83,20.6,21.36,21.36,8.274927e6,0.0,1.0
"2015-11-04",21.93,22.31,21.45,21.81,21.81,8.944753e6,0.0,1.0
"2015-11-05",21.85,21.95,20.77,21.14,21.14,6.055539e6,0.0,1.0
"2015-11-06",21.04,21.93,20.7,21.29,21.29,4.5566e6,0.0,1.0
"2015-11-09",21.25,21.43,20.74,20.89,20.89,5.100646e6,0.0,1.0
"2015-11-10",20.83,20.86,19.39,19.52,19.52,7.654689e6,0.0,1.0
"2015-11-11",19.65,19.68,18.38,19.08,19.08,1.0096749e7,0.0,1.0
"2015-11-12",19.0,19.18,18.55,18.62,18.62,7.756356e6,0.0,1.0
"2015-11-13",13.25,14.18,12.86,13.6,13.6,9.9840092e7,0.0,1.0
"2015-11-16",13.69,13.76,12.015,12.5,12.5,7.1352215e7,0.0,1.0
"2015-11-17",13.29,13.74,12.5,12.53,12.53,4.2925442e7,0.0,1.0
"2015-11-18",13.4,14.5,13.37,14.41,14.41,4.5711124e7,0.0,1.0
"2015-11-19",14.96,15.08,13.97,14.31,14.31,4.8569421e7,0.0,1.0
"2015-11-20",14.62,16.42,14.5,16.35,16.35,3.2801037e7,0.0,1.0
"2015-11-23",15.96,16.89,15.88,16.87,16.87,2.1548035e7,0.0,1.0
"2015-11-24",16.48,17.39,16.37,16.71,16.71,1.6376151e7,0.0,1.0
"2015-11-25",16.48,16.98,16.36,16.54,16.54,8.157465e6,0.0,1.0
"2015-11-27",15.9,16.99,15.69,16.95,16.95,7.542686e6,0.0,1.0
"2015-11-30",17.0,17.0,15.925,16.53,16.53,3.9985374e7,0.0,1.0
"2015-12-01",16.37,16.68,16.13,16.24,16.24,1.0473129e7,0.0,1.0
"2015-12-02",16.22,16.31,15.75,15.98,15.98,7.642285e6,0.0,1.0
"2015-12-03",15.93,16.03,14.64,14.93,14.93,1.3457014e7,0.0,1.0
"2015-12-04",14.93,15.75,14.93,15.62,15.62,1.7463789e7,0.0,1.0
"2015-12-07",15.41,16.28,15.36,16.14,16.14,1.0079117e7,0.0,1.0
"2015-12-08",15.83,16.51,15.72,16.19,16.19,8.886063e6,0.0,1.0
"2015-12-09",16.02,16.42,15.875,15.99,15.99,9.153026e6,0.0,1.0
"2015-12-10",15.98,16.34,15.97,16.17,16.17,6.77962e6,0.0,1.0
"2015-12-11",15.97,16.31,15.9,15.98,15.98,8.751563e6,0.0,1.0
"2015-12-14",15.92,16.74,15.76,16.58,16.58,8.825892e6,0.0,1.0
"2015-12-15",16.64,17.53,16.45,16.85,16.85,8.648685e6,0.0,1.0
"2015-12-16",17.03,17.51,16.69,17.48,17.48,6.453625e6,0.0,1.0
"2015-12-17",16.95,17.2,16.21,16.26,16.26,1.1225926e7,0.0,1.0
"2015-12-18",16.25,16.98,16.24,16.38,16.38,6.727013e6,0.0,1.0
"2015-12-21",16.5,16.68,16.24,16.34,16.34,4.085454e6,0.0,1.0
"2015-12-22",16.42,16.99,16.33,16.5,16.5,4.215907e6,0.0,1.0
"2015-12-23",16.5,16.7,16.41,16.58,16.58,3.050356e6,0.0,1.0
"2015-12-24",16.33,16.64,16.31,16.46,16.46,1.631771e6,0.0,1.0
"2015-12-28",16.34,16.5,15.94,16.0,16.0,3.867948e6,0.0,1.0
"2015-12-29",16.06,16.06,15.32,15.77,15.77,5.802926e6,0.0,1.0
"2015-12-30",15.85,15.85,15.07,15.19,15.19,5.712058e6,0.0,1.0
"2015-12-31",15.1,15.61,15.1,15.27,15.27,8.11842e6,0.0,1.0
"2016-01-04",14.37,14.48,13.96,14.05,14.05,1.4262496e7,0.0,1.0
"2016-01-05",14.15,14.85,14.15,14.53,14.53,2.021985e7,0.0,1.0
"2016-01-06",14.39,15.34,14.15,14.5,14.5,1.1607851e7,0.0,1.0
"2016-01-07",14.07,14.43,13.81,13.99,13.99,1.3516939e7,0.0,1.0
"2016-01-08",14.24,14.43,13.475,13.58,13.58,8.975349e6,0.0,1.0
"2016-01-11",13.5,13.98,13.2,13.4,13.4,1.0315284e7,0.0,1.0
"2016-01-12",13.96,14.5,13.63,14.48,14.48,1.3244185e7,0.0,1.0
"2016-01-13",14.5,14.64,13.83,14.13,14.13,7.850383e6,0.0,1.0
"2016-01-14",14.22,15.13,14.02,14.98,14.98,1.0976361e7,0.0,1.0
"2016-01-15",14.31,14.48,13.86,14.06,14.06,8.083765e6,0.0,1.0
"2016-01-19",14.44,14.61,13.89,14.01,14.01,1.0147964e7,0.0,1.0
"2016-01-20",13.62,14.02,13.18,13.51,13.51,1.2405635e7,0.0,1.0
"2016-01-21",13.5,13.99,13.1301,13.76,13.76,8.385181e6,0.0,1.0
"2016-01-22",14.22,14.5,13.5,13.83,13.83,6.389323e6,0.0,1.0
"2016-01-25",13.81,13.96,13.46,13.62,13.62,4.612455e6,0.0,1.0
"2016-01-26",13.51,13.56,13.075,13.23,13.23,6.909311e6,0.0,1.0
"2016-01-27",13.19,13.36,11.31,12.54,12.54,1.1677821e7,0.0,1.0
"2016-01-28",12.84,13.1,11.7,12.17,12.17,1.3650371e7,0.0,1.0
"2016-01-29",12.48,13.0,12.48,12.84,12.84,1.2964827e7,0.0,1.0
"2016-02-01",12.66,12.66,12.18,12.45,12.45,6.892853e6,0.0,1.0
"2016-02-02",12.15,12.89,12.02,12.42,12.42,6.26406e6,0.0,1.0
"2016-02-03",12.42,12.44,11.69,12.07,12.07,6.37391e6,0.0,1.0
"2016-02-04",12.04,12.48,11.835,12.24,12.24,6.659456e6,0.0,1.0
"2016-02-05",12.1,12.16,11.26,11.3,11.3,1.0581708e7,0.0,1.0
"2016-02-08",11.02,11.08,10.39,11.02,11.02,1.278327e7,0.0,1.0
"2016-02-09",10.76,11.65,10.6399,11.4,11.4,6.173357e6,0.0,1.0
"2016-02-10",11.48,11.71,11.2,11.43,11.43,3.566631e6,0.0,1.0
"2016-02-11",11.0,11.34,10.365,10.65,10.65,9.807264e6,0.0,1.0
"2016-02-12",10.86,11.2,10.61,10.95,10.95,1.0041328e7,0.0,1.0
"2016-02-16",11.7,12.71,11.63,12.36,12.36,1.3413986e7,0.0,1.0
"2016-02-17",12.71,12.9,11.825,12.53,12.53,1.402781e7,0.0,1.0
"2016-02-18",12.66,12.97,12.15,12.16,12.16,8.260842e6,0.0,1.0
"2016-02-19",12.22,12.6,11.98,12.56,12.56,6.084209e6,0.0,1.0
"2016-02-22",12.85,13.51,12.84,12.98,12.98,1.1341123e7,0.0,1.0
"2016-02-23",12.94,12.98,12.21,12.4,12.4,1.3026607e7,0.0,1.0
"2016-02-24",12.2,12.93,12.15,12.69,12.69,2.3807605e7,0.0,1.0
"2016-02-25",11.5,11.6,11.0,11.33,11.33,2.8812892e7,0.0,1.0
"2016-02-26",11.3354,11.63,11.2,11.28,11.28,1.1549852e7,0.0,1.0
"2016-02-29",11.24,11.475,11.01,11.11,11.11,1.2296043e7,0.0,1.0
"2016-03-01",11.38,11.47,11.14,11.32,11.32,1.0230789e7,0.0,1.0
"2016-03-02",11.5,11.53,10.89,11.0,11.0,1.4292057e7,0.0,1.0
"2016-03-03",11.01,11.03,10.66,10.95,10.95,1.7532591e7,0.0,1.0
"2016-03-04",11.08,11.9,11.01,11.54,11.54,1.5123682e7,0.0,1.0
"2016-03-07",11.49,11.79,11.43,11.65,11.65,6.545263e6,0.0,1.0
"2016-03-08",11.38,12.12,11.38,11.92,11.92,1.0462699e7,0.0,1.0
"2016-03-09",12.02,12.055,11.512,11.83,11.83,5.702845e6,0.0,1.0
"2016-03-10",12.02,12.3,11.52,11.75,11.75,8.250732e6,0.0,1.0
"2016-03-11",11.9,12.68,11.9,12.66,12.66,1.0108574e7,0.0,1.0
"2016-03-14",12.67,12.84,12.35,12.49,12.49,9.844335e6,0.0,1.0
"2016-03-15",12.25,12.3419,11.9,12.26,12.26,6.366991e6,0.0,1.0
"2016-03-16",12.2,12.59,12.05,12.56,12.56,5.719997e6,0.0,1.0
"2016-03-17",12.51,12.62,12.21,12.3,12.3,5.75064e6,0.0,1.0
"2016-03-18",12.41,12.51,12.107,12.29,12.29,5.961962e6,0.0,1.0
"2016-03-21",12.27,12.92,12.2,12.86,12.86,1.2816537e7,0.0,1.0
"2016-03-22",12.74,13.41,12.7,12.78,12.78,1.2606665e7,0.0,1.0
"2016-03-23",12.82,12.99,12.2,12.41,12.41,8.334859e6,0.0,1.0
"2016-03-24",12.3,12.66,12.19,12.58,12.58,4.384225e6,0.0,1.0
"2016-03-28",12.5,12.51,12.05,12.13,12.13,4.161934e6,0.0,1.0
"2016-03-29",12.09,12.29,11.97,12.17,12.17,4.314208e6,0.0,1.0
"2016-03-30",12.3,12.725,12.3,12.59,12.59,7.470974e6,0.0,1.0
"2016-03-31",12.49,13.1,12.44,12.88,12.88,6.68967e6,0.0,1.0
"2016-04-01",12.84,13.22,12.62,13.08,13.08,7.217334e6,0.0,1.0
"2016-04-04",13.08,13.3,12.88,12.9,12.9,4.724895e6,0.0,1.0
"2016-04-05",12.82,13.02,12.64,12.89,12.89,3.653754e6,0.0,1.0
"2016-04-06",12.88,13.15,12.7,12.86,12.86,4.579445e6,0.0,1.0
"2016-04-07",12.85,13.24,12.811,12.94,12.94,3.745692e6,0.0,1.0
"2016-04-08",12.97,13.1,12.85,12.95,12.95,2.830643e6,0.0,1.0
"2016-04-11",13.13,13.84,12.96,13.38,13.38,1.0565612e7,0.0,1.0
"2016-04-12",13.43,14.4,13.4,14.29,14.29,1.0235489e7,0.0,1.0
"2016-04-13",14.51,15.03,14.26,14.63,14.63,1.2764765e7,0.0,1.0
"2016-04-14",14.53,14.91,14.39,14.57,14.57,6.470541e6,0.0,1.0
"2016-04-15",14.6,14.84,14.54,14.67,14.67,3.004245e6,0.0,1.0
"2016-04-18",14.83,15.0,14.22,14.57,14.57,6.059408e6,0.0,1.0
"2016-04-19",14.62,14.67,13.91,13.98,13.98,9.178173e6,0.0,1.0
"2016-04-20",14.0,14.3,13.71,14.12,14.12,6.263133e6,0.0,1.0
"2016-04-21",14.16,14.3,13.35,13.45,13.45,7.656626e6,0.0,1.0
"2016-04-22",13.47,13.65,13.17,13.3,13.3,4.906318e6,0.0,1.0
"2016-04-25",13.2,13.34,12.87,13.15,13.15,5.382832e6,0.0,1.0
"2016-04-26",13.21,13.34,12.85,13.33,13.33,5.99062e6,0.0,1.0
"2016-04-27",13.18,13.47,13.02,13.46,13.46,3.294642e6,0.0,1.0
"2016-04-28",13.44,13.97,13.36,13.74,13.74,7.955919e6,0.0,1.0
"2016-04-29",13.76,13.985,13.27,13.64,13.64,7.045087e6,0.0,1.0
"2016-05-02",13.58,13.67,13.075,13.23,13.23,3.972232e6,0.0,1.0
"2016-05-03",13.13,13.25,12.73,13.05,13.05,3.750695e6,0.0,1.0
"2016-05-04",13.02,13.105,12.79,12.92,12.92,4.458428e6,0.0,1.0
"2016-05-05",13.21,13.26,12.7,12.93,12.93,4.463507e6,0.0,1.0
"2016-05-06",12.8,12.91,12.065,12.6,12.6,8.881993e6,0.0,1.0
"2016-05-09",12.49,12.9,12.28,12.63,12.63,6.428835e6,0.0,1.0
"2016-05-10",12.57,12.68,12.24,12.5,12.5,7.583069e6,0.0,1.0
"2016-05-11",12.47,12.82,12.21,12.26,12.26,8.013738e6,0.0,1.0
"2016-05-12",12.36,12.64,12.16,12.17,12.17,4.09357e6,0.0,1.0
"2016-05-13",12.25,12.29,11.805,12.0,12.0,7.389092e6,0.0,1.0
"2016-05-16",12.11,12.755,12.11,12.44,12.44,8.124404e6,0.0,1.0
"2016-05-17",12.52,12.99,12.12,12.31,12.31,1.4054293e7,0.0,1.0
"2016-05-18",10.71,11.16,10.49,10.81,10.81,3.4711031e7,0.0,1.0
"2016-05-19",10.66,10.98,10.42,10.52,10.52,1.4271715e7,0.0,1.0
"2016-05-20",10.54,10.65,10.34,10.49,10.49,1.211116e7,0.0,1.0
"2016-05-23",10.47,10.48,10.21,10.35,10.35,5.274244e6,0.0,1.0
"2016-05-24",10.5,10.97,10.39,10.88,10.88,1.1958305e7,0.0,1.0
"2016-05-25",10.865,11.13,10.7,11.12,11.12,8.882022e6,0.0,1.0
"2016-05-26",11.16,11.29,10.805,10.94,10.94,6.825739e6,0.0,1.0
"2016-05-27",11.06,11.3,10.87,11.3,11.3,7.812622e6,0.0,1.0
"2016-05-31",11.36,11.74,11.26,11.67,11.67,4.0928354e7,0.0,1.0
"2016-06-01",11.61,11.68,11.28,11.36,11.36,7.145742e6,0.0,1.0
"2016-06-02",11.48,11.48,11.09,11.21,11.21,9.342015e6,0.0,1.0
"2016-06-03",11.26,11.31,11.035,11.1,11.1,6.399196e6,0.0,1.0
"2016-06-06",11.17,11.75,11.105,11.75,11.75,6.005246e6,0.0,1.0
"2016-06-07",11.69,12.18,11.69,11.99,11.99,8.866905e6,0.0,1.0
"2016-06-08",12.0,12.02,11.68,11.72,11.72,6.100685e6,0.0,1.0
"2016-06-09",11.78,11.82,11.62,11.75,11.75,4.905895e6,0.0,1.0
"2016-06-10",11.43,11.58,11.33,11.56,11.56,5.613564e6,0.0,1.0
"2016-06-13",11.53,11.84,11.5,11.57,11.57,4.085477e6,0.0,1.0
"2016-06-14",11.59,11.71,11.35,11.43,11.43,5.620176e6,0.0,1.0
"2016-06-15",11.48,11.72,10.91,11.44,11.44,9.42684e6,0.0,1.0
"2016-06-16",11.33,11.35,10.9,11.07,11.07,7.152948e6,0.0,1.0
"2016-06-17",11.12,11.205,10.7,10.89,10.89,7.273326e6,0.0,1.0
"2016-06-20",11.0,11.35,10.97,11.22,11.22,5.380702e6,0.0,1.0
"2016-06-21",11.26,11.55,11.26,11.43,11.43,4.870002e6,0.0,1.0
"2016-06-22",11.41,11.47,11.19,11.35,11.35,5.725873e6,0.0,1.0
"2016-06-23",11.4,11.45,11.31,11.38,11.38,5.133498e6,0.0,1.0
"2016-06-24",10.75,11.23,10.62,11.02,11.02,8.347071e6,0.0,1.0
"2016-06-27",10.88,10.88,10.3,10.42,10.42,1.0450331e7,0.0,1.0
"2016-06-28",10.63,10.87,10.61,10.72,10.72,7.725097e6,0.0,1.0
"2016-06-29",10.82,10.945,10.735,10.8,10.8,8.333758e6,0.0,1.0
"2016-06-30",10.83,11.4,10.76,11.17,11.17,5.825804e6,0.0,1.0
"2016-07-01",11.28,11.445,11.01,11.22,11.22,4.315592e6,0.0,1.0
"2016-07-05",11.21,11.35,10.97,11.33,11.33,8.646777e6,0.0,1.0
"2016-07-06",11.26,11.5,11.02,11.46,11.46,5.189642e6,0.0,1.0
"2016-07-07",11.48,12.035,11.48,11.81,11.81,1.0268088e7,0.0,1.0
"2016-07-08",11.89,12.36,11.89,12.25,12.25,7.530314e6,0.0,1.0
"2016-07-11",12.25,12.88,12.23,12.74,12.74,8.210765e6,0.0,1.0
"2016-07-12",12.86,13.12,12.66,12.74,12.74,7.59508e6,0.0,1.0
"2016-07-13",12.77,12.8,12.55,12.58,12.58,4.190933e6,0.0,1.0
"2016-07-14",12.73,12.94,12.66,12.88,12.88,4.018372e6,0.0,1.0
"2016-07-15",12.9,12.985,12.6,12.62,12.62,2.25275e6,0.0,1.0
"2016-07-18",12.62,12.93,12.47,12.9,12.9,2.85148e6,0.0,1.0
"2016-07-19",12.81,13.28,12.68,13.2,13.2,5.024196e6,0.0,1.0
"2016-07-20",13.32,13.82,13.26,13.63,13.63,9.617637e6,0.0,1.0
"2016-07-21",13.75,13.905,13.545,13.69,13.69,1.1319512e7,0.0,1.0
"2016-07-22",13.66,13.83,13.51,13.51,13.51,3.239587e6,0.0,1.0
"2016-07-25",13.55,13.58,13.37,13.39,13.39,3.399258e6,0.0,1.0
"2016-07-26",13.28,14.06,13.21,14.01,14.01,6.636141e6,0.0,1.0
"2016-07-27",13.96,14.11,13.71,14.02,14.02,5.700884e6,0.0,1.0
"2016-07-28",13.92,14.3,13.83,14.25,14.25,6.470627e6,0.0,1.0
"2016-07-29",14.03,14.47,14.02,14.23,14.23,7.845441e6,0.0,1.0
"2016-08-01",14.29,14.47,14.16,14.33,14.33,8.447031e6,0.0,1.0
"2016-08-02",14.28,14.29,13.47,13.91,13.91,6.069865e6,0.0,1.0
"2016-08-03",13.66,13.95,13.66,13.9,13.9,4.578991e6,0.0,1.0
"2016-08-04",13.87,14.005,13.66,13.87,13.87,4.653038e6,0.0,1.0
"2016-08-05",13.91,14.315,13.81,14.26,14.26,4.444784e6,0.0,1.0
"2016-08-08",14.25,14.44,13.85,14.07,14.07,5.274143e6,0.0,1.0
"2016-08-09",14.1,14.49,14.1,14.41,14.41,4.263808e6,0.0,1.0
"2016-08-10",14.6,14.95,14.49,14.56,14.56,5.748242e6,0.0,1.0
"2016-08-11",14.82,15.0,14.57,14.93,14.93,7.819754e6,0.0,1.0
"2016-08-12",14.94,15.85,14.92,15.52,15.52,1.3920502e7,0.0,1.0
"2016-08-15",15.8,16.54,15.57,16.01,16.01,2.0540406e7,0.0,1.0
"2016-08-16",17.31,17.41,15.61,16.07,16.07,2.8279438e7,0.0,1.0
"2016-08-17",15.66,16.25,15.35,16.25,16.25,1.0203807e7,0.0,1.0
"2016-08-18",16.32,16.4399,15.81,15.88,15.88,7.965881e6,0.0,1.0
"2016-08-19",15.88,16.17,15.86,15.98,15.98,6.171186e6,0.0,1.0
"2016-08-22",15.87,15.99,15.46,15.5,15.5,5.358843e6,0.0,1.0
"2016-08-23",15.68,15.79,15.43,15.44,15.44,5.74879e6,0.0,1.0
"2016-08-24",15.24,15.41,14.67,14.74,14.74,9.958503e6,0.0,1.0
"2016-08-25",14.58,15.06,14.57,14.8,14.8,3.385181e6,0.0,1.0
"2016-08-26",14.8,15.05,14.58,14.8,14.8,5.781165e6,0.0,1.0
"2016-08-29",14.77,14.895,14.41,14.47,14.47,5.280839e6,0.0,1.0
"2016-08-30",14.61,14.9,14.48,14.71,14.71,7.104755e6,0.0,1.0
"2016-08-31",14.6,14.62,14.02,14.16,14.16,9.367528e6,0.0,1.0
"2016-09-01",14.23,14.349,14.065,14.21,14.21,5.233226e6,0.0,1.0
"2016-09-02",14.4,14.43,14.095,14.12,14.12,7.314394e6,0.0,1.0
"2016-09-06",14.34,14.98,14.19,14.21,14.21,1.3708136e7,0.0,1.0
"2016-09-07",14.27,14.41,13.87,13.9,13.9,4.86011e6,0.0,1.0
"2016-09-08",13.9,14.05,13.72,13.78,13.78,4.820993e6,0.0,1.0
"2016-09-09",13.63,13.78,13.16,13.43,13.43,8.529893e6,0.0,1.0
"2016-09-12",13.36,13.81,13.1,13.54,13.54,6.599139e6,0.0,1.0
"2016-09-13",13.37,14.0,13.37,13.68,13.68,5.645684e6,0.0,1.0
"2016-09-14",13.73,13.84,13.4,13.48,13.48,3.630362e6,0.0,1.0
"2016-09-15",13.61,14.26,13.4989,14.22,14.22,8.335244e6,0.0,1.0
"2016-09-16",14.16,14.28,13.64,13.68,13.68,7.021017e6,0.0,1.0
"2016-09-19",13.79,13.92,13.435,13.46,13.46,4.594466e6,0.0,1.0
"2016-09-20",13.55,13.76,13.31,13.73,13.73,4.836788e6,0.0,1.0
"2016-09-21",13.8,13.99,13.76,13.96,13.96,3.208843e6,0.0,1.0
"2016-09-22",14.01,15.46,13.99,15.35,15.35,1.8017606e7,0.0,1.0
"2016-09-23",15.27,15.48,15.07,15.25,15.25,6.623169e6,0.0,1.0
"2016-09-26",15.05,15.06,14.66,14.85,14.85,4.370209e6,0.0,1.0
"2016-09-27",14.94,15.385,14.87,15.18,15.18,4.942932e6,0.0,1.0
"2016-09-28",15.17,15.18,14.78,14.95,14.95,3.604087e6,0.0,1.0
"2016-09-29",14.87,15.07,14.66,14.85,14.85,4.816476e6,0.0,1.0
"2016-09-30",14.92,15.11,14.505,14.67,14.67,7.241154e6,0.0,1.0
"2016-10-03",14.62,15.15,14.56,15.11,15.11,6.345961e6,0.0,1.0
"2016-10-04",15.12,15.96,15.03,15.92,15.92,1.1163532e7,0.0,1.0
"2016-10-05",15.86,16.24,15.595,15.69,15.69,8.899336e6,0.0,1.0
"2016-10-06",15.74,16.07,15.28,15.39,15.39,4.707979e6,0.0,1.0
"2016-10-07",15.33,15.66,15.07,15.23,15.23,2.754992e6,0.0,1.0
"2016-10-10",15.28,16.01,15.28,15.84,15.84,7.01535e6,0.0,1.0
"2016-10-11",15.67,15.67,14.63,14.86,14.86,8.471128e6,0.0,1.0
"2016-10-12",14.89,15.18,14.79,15.0,15.0,5.151291e6,0.0,1.0
"2016-10-13",14.77,14.77,13.95,14.31,14.31,7.076229e6,0.0,1.0
"2016-10-14",14.51,14.65,14.175,14.33,14.33,5.560035e6,0.0,1.0
"2016-10-17",14.23,14.435,14.09,14.17,14.17,2.547651e6,0.0,1.0
"2016-10-18",14.41,14.47,13.96,14.25,14.25,5.059533e6,0.0,1.0
"2016-10-19",14.38,14.5,14.24,14.36,14.36,2.869616e6,0.0,1.0
"2016-10-20",14.27,14.27,13.8,13.84,13.84,6.086541e6,0.0,1.0
"2016-10-21",13.86,13.86,13.43,13.59,13.59,7.138006e6,0.0,1.0
"2016-10-24",13.735,13.93,13.485,13.56,13.56,6.325637e6,0.0,1.0
"2016-10-25",13.6,13.81,13.52,13.61,13.61,5.06577e6,0.0,1.0
"2016-10-26",13.64,14.35,13.53,13.9,13.9,7.141587e6,0.0,1.0
"2016-10-27",13.91,13.98,13.58,13.66,13.66,3.541022e6,0.0,1.0
"2016-10-28",13.56,13.66,13.31,13.58,13.58,5.095222e6,0.0,1.0
"2016-10-31",13.63,13.95,13.435,13.67,13.67,4.846356e6,0.0,1.0
"2016-11-01",13.74,13.8,13.32,13.44,13.44,3.337744e6,0.0,1.0
"2016-11-02",13.47,13.565,12.82,12.84,12.84,7.185843e6,0.0,1.0
"2016-11-03",12.82,13.065,12.59,12.83,12.83,4.753763e6,0.0,1.0
"2016-11-04",12.79,13.06,12.7,12.82,12.82,4.74599e6,0.0,1.0
"2016-11-07",13.24,13.31,13.05,13.18,13.18,2.702879e6,0.0,1.0
"2016-11-08",13.13,13.26,12.825,13.17,13.17,3.545668e6,0.0,1.0
"2016-11-09",12.85,13.03,12.71,12.92,12.92,5.958151e6,0.0,1.0
"2016-11-10",13.27,13.57,12.48,12.9,12.9,9.819003e6,0.0,1.0
"2016-11-11",12.96,13.64,12.38,13.54,13.54,8.947843e6,0.0,1.0
"2016-11-14",13.54,13.58,12.89,13.3,13.3,4.606499e6,0.0,1.0
"2016-11-15",13.44,13.83,13.14,13.39,13.39,6.576157e6,0.0,1.0
"2016-11-16",13.31,13.93,13.26,13.74,13.74,5.143114e6,0.0,1.0
"2016-11-17",13.77,14.0,13.6,13.79,13.79,7.587512e6,0.0,1.0
"2016-11-18",13.89,14.0,13.64,13.67,13.67,6.722936e6,0.0,1.0
"2016-11-21",13.71,14.355,13.28,14.17,14.17,1.6281029e7,0.0,1.0
"2016-11-22",12.88,13.03,11.835,12.07,12.07,2.8724573e7,0.0,1.0
"2016-11-23",12.11,12.7,12.07,12.38,12.38,7.807852e6,0.0,1.0
"2016-11-25",12.5,12.5,11.98,12.07,12.07,3.415076e6,0.0,1.0
"2016-11-28",12.05,12.05,11.49,11.5,11.5,1.1734789e7,0.0,1.0
"2016-11-29",11.51,11.51,10.61,11.46,11.46,2.1257454e7,0.0,1.0
"2016-11-30",11.55,11.63,11.1,11.22,11.22,1.0457972e7,0.0,1.0
"2016-12-01",11.25,11.57,11.0,11.47,11.47,1.2778744e7,0.0,1.0
"2016-12-02",11.28,11.45,11.05,11.44,11.44,7.462045e6,0.0,1.0
"2016-12-05",11.48,11.86,11.38,11.8,11.8,6.904185e6,0.0,1.0
"2016-12-06",11.8,11.95,11.49,11.58,11.58,4.212682e6,0.0,1.0
"2016-12-07",11.64,11.78,11.34,11.71,11.71,4.190438e6,0.0,1.0
"2016-12-08",11.75,11.975,11.67,11.91,11.91,2.667129e6,0.0,1.0
"2016-12-09",11.95,12.105,11.88,11.97,11.97,3.026918e6,0.0,1.0
"2016-12-12",11.89,11.93,11.54,11.69,11.69,8.264672e6,0.0,1.0
"2016-12-13",11.72,12.005,11.51,11.96,11.96,6.628508e6,0.0,1.0
"2016-12-14",11.85,11.87,11.64,11.71,11.71,5.464519e6,0.0,1.0
"2016-12-15",11.51,11.64,11.19,11.2,11.2,4.467429e6,0.0,1.0
"2016-12-16",11.2698,11.38,11.07,11.16,11.16,4.690739e6,0.0,1.0
"2016-12-19",11.19,11.3,11.1,11.15,11.15,2.078693e6,0.0,1.0
"2016-12-20",11.15,11.26,10.84,11.12,11.12,3.921113e6,0.0,1.0
"2016-12-21",11.08,11.43,11.06,11.37,11.37,2.595545e6,0.0,1.0
"2016-12-22",11.33,11.37,11.15,11.21,11.21,2.804645e6,0.0,1.0
"2016-12-23",11.14,11.22,11.055,11.11,11.11,1.922258e6,0.0,1.0
"2016-12-27",11.16,11.44,11.13,11.33,11.33,3.371002e6,0.0,1.0
"2016-12-28",11.34,11.34,10.92,11.11,11.11,3.395194e6,0.0,1.0
"2016-12-29",11.12,11.14,10.95,11.07,11.07,4.13353e6,0.0,1.0
"2016-12-30",11.07,11.255,10.865,11.01,11.01,3.215081e6,0.0,1.0
"2017-01-03",11.1,11.3,11.0,11.23,11.23,7.014485e6,0.0,1.0
"2017-01-04",11.3,11.33,11.095,11.22,11.22,5.00486e6,0.0,1.0
"2017-01-05",11.28,11.51,11.25,11.4,11.4,6.210808e6,0.0,1.0
"2017-01-06",11.46,11.76,11.41,11.69,11.69,4.299773e6,0.0,1.0
"2017-01-09",11.71,11.78,11.39,11.64,11.64,3.048868e6,0.0,1.0
"2017-01-10",11.7,11.77,11.54,11.56,11.56,7.825249e6,0.0,1.0
"2017-01-11",11.43,11.48,10.985,11.21,11.21,5.60258e6,0.0,1.0
"2017-01-12",11.24,11.24,10.825,11.0,11.0,3.671143e6,0.0,1.0
"2017-01-13",11.14,11.16,10.97,11.05,11.05,2.952833e6,0.0,1.0
"2017-01-17",11.06,11.16,10.93,10.94,10.94,3.958779e6,0.0,1.0
"2017-01-18",10.98,11.02,10.55,10.79,10.79,5.536814e6,0.0,1.0
"2017-01-19",10.84,11.0,10.76,10.92,10.92,4.292278e6,0.0,1.0
"2017-01-20",10.95,10.98,10.54,10.58,10.58,4.296779e6,0.0,1.0
"2017-01-23",10.58,10.8,10.5,10.75,10.75,4.172241e6,0.0,1.0
"2017-01-24",10.95,11.155,10.91,10.92,10.92,5.593993e6,0.0,1.0
"2017-01-25",11.06,11.19,10.97,11.13,11.13,5.881697e6,0.0,1.0
"2017-01-26",11.17,11.2,10.68,10.89,10.89,8.969933e6,0.0,1.0
"2017-01-27",10.885,10.99,10.76,10.91,10.91,3.866021e6,0.0,1.0
"2017-01-30",10.83,11.2,10.775,11.06,11.06,3.743542e6,0.0,1.0
"2017-01-31",10.96,11.37,10.93,11.32,11.32,6.512795e6,0.0,1.0
"2017-02-01",11.41,11.67,11.31,11.49,11.49,4.265613e6,0.0,1.0
"2017-02-02",11.48,11.76,11.4,11.49,11.49,3.385759e6,0.0,1.0
"2017-02-03",11.55,11.68,11.38,11.53,11.53,2.543044e6,0.0,1.0
"2017-02-06",11.43,11.58,11.39,11.5,11.5,2.102675e6,0.0,1.0
"2017-02-07",11.53,11.56,11.47,11.5,11.5,2.458494e6,0.0,1.0
"2017-02-08",11.53,11.94,11.45,11.86,11.86,3.448352e6,0.0,1.0
"2017-02-09",11.86,12.26,11.82,12.1,12.1,6.740737e6,0.0,1.0
"2017-02-10",12.2,12.62,12.14,12.48,12.48,5.999271e6,0.0,1.0
"2017-02-13",12.5,12.68,12.0,12.29,12.29,4.535703e6,0.0,1.0
"2017-02-14",12.29,12.53,12.1,12.43,12.43,5.714027e6,0.0,1.0
"2017-02-15",12.45,12.68,12.44,12.58,12.58,4.683917e6,0.0,1.0
"2017-02-16",12.58,12.61,12.14,12.29,12.29,7.25539e6,0.0,1.0
"2017-02-17",12.25,12.44,12.01,12.16,12.16,4.951707e6,0.0,1.0
"2017-02-21",13.0,13.33,12.84,13.03,13.03,2.0016967e7,0.0,1.0
"2017-02-22",13.03,13.41,12.84,13.41,13.41,6.684346e6,0.0,1.0
"2017-02-23",13.47,13.8,13.3,13.37,13.37,1.142889e7,0.0,1.0
"2017-02-24",13.22,13.23,12.86,13.04,13.04,5.807395e6,0.0,1.0
"2017-02-27",13.0,13.19,12.87,13.08,13.08,7.011039e6,0.0,1.0
"2017-02-28",13.07,13.12,12.92,13.01,13.01,8.35423e6,0.0,1.0
"2017-03-01",13.1,13.13,12.85,12.99,12.99,4.177693e6,0.0,1.0
"2017-03-02",12.94,13.2,12.89,13.15,13.15,5.041766e6,0.0,1.0
"2017-03-03",13.13,13.16,12.9,12.92,12.92,7.065736e6,0.0,1.0
"2017-03-06",12.9,13.12,12.8,13.0,13.0,4.966356e6,0.0,1.0
"2017-03-07",13.0,13.05,12.89,13.01,13.01,5.456839e6,0.0,1.0
"2017-03-08",13.01,13.49,12.99,13.19,13.19,7.406634e6,0.0,1.0
"2017-03-09",13.18,13.23,12.76,12.77,12.77,7.823046e6,0.0,1.0
"2017-03-10",12.81,13.06,12.76,13.02,13.02,5.228107e6,0.0,1.0
"2017-03-13",13.09,13.43,13.02,13.36,13.36,4.876546e6,0.0,1.0
"2017-03-14",13.32,13.48,13.16,13.46,13.46,5.360588e6,0.0,1.0
"2017-03-15",13.4,13.77,13.21,13.7,13.7,6.46934e6,0.0,1.0
"2017-03-16",13.78,14.42,13.74,14.38,14.38,9.81073e6,0.0,1.0
"2017-03-17",14.28,14.29,13.99,14.1,14.1,4.624753e6,0.0,1.0
"2017-03-20",14.03,14.31,14.02,14.27,14.27,3.524881e6,0.0,1.0
"2017-03-21",14.33,14.5,13.54,13.54,13.54,8.994243e6,0.0,1.0
"2017-03-22",13.49,13.81,13.4,13.77,13.77,5.239488e6,0.0,1.0
"2017-03-23",13.95,14.02,13.76,13.8,13.8,7.031762e6,0.0,1.0
"2017-03-24",13.82,14.01,13.65,13.8,13.8,4.15422e6,0.0,1.0
"2017-03-27",13.55,13.92,13.5,13.87,13.87,2.381569e6,0.0,1.0
"2017-03-28",13.83,14.05,13.83,13.98,13.98,3.176386e6,0.0,1.0
"2017-03-29",13.98,14.05,13.75,13.79,13.79,3.153611e6,0.0,1.0
"2017-03-30",13.63,13.7,13.23,13.42,13.42,4.80639e6,0.0,1.0
"2017-03-31",13.4,13.41,13.12,13.34,13.34,3.937883e6,0.0,1.0
"2017-04-03",13.38,13.51,13.12,13.37,13.37,3.713782e6,0.0,1.0
"2017-04-04",13.3,13.36,12.55,12.86,12.86,9.344781e6,0.0,1.0
"2017-04-05",12.97,13.01,12.68,12.73,12.73,5.762962e6,0.0,1.0
"2017-04-06",12.8,13.6,12.8,13.49,13.49,7.061107e6,0.0,1.0
"2017-04-07",13.44,13.46,13.18,13.3,13.3,2.200006e6,0.0,1.0
"2017-04-10",13.31,13.54,13.19,13.33,13.33,3.156289e6,0.0,1.0
"2017-04-11",13.35,13.58,13.16,13.31,13.31,2.642901e6,0.0,1.0
"2017-04-12",13.34,13.43,13.2,13.29,13.29,2.27256e6,0.0,1.0
"2017-04-13",13.32,13.47,13.15,13.15,13.15,2.468609e6,0.0,1.0
"2017-04-17",13.23,13.52,13.09,13.51,13.51,2.60275e6,0.0,1.0
"2017-04-18",13.61,13.61,13.15,13.42,13.42,1.859222e6,0.0,1.0
"2017-04-19",13.48,13.59,13.3,13.42,13.42,2.672991e6,0.0,1.0
"2017-04-20",13.54,13.66,13.41,13.47,13.47,2.616727e6,0.0,1.0
"2017-04-21",13.48,13.88,13.44,13.8,13.8,3.06663e6,0.0,1.0
"2017-04-24",13.96,14.03,13.78,13.96,13.96,4.659346e6,0.0,1.0
"2017-04-25",14.07,14.3,14.04,14.12,14.12,3.52735e6,0.0,1.0
"2017-04-26",14.14,14.14,13.71,13.8,13.8,2.319949e6,0.0,1.0
"2017-04-27",13.87,13.99,13.75,13.91,13.91,1.814951e6,0.0,1.0
"2017-04-28",13.93,13.95,13.6,13.87,13.87,1.804879e6,0.0,1.0
"2017-05-01",13.87,14.08,13.83,13.99,13.99,1.374745e6,0.0,1.0
"2017-05-02",14.05,14.1,13.7,13.86,13.86,3.862605e6,0.0,1.0
"2017-05-03",13.83,13.93,13.73,13.85,13.85,1.917592e6,0.0,1.0
"2017-05-04",13.84,13.86,13.64,13.78,13.78,1.463226e6,0.0,1.0
"2017-05-05",13.83,13.83,13.66,13.78,13.78,1.981832e6,0.0,1.0
"2017-05-08",13.78,13.81,13.59,13.66,13.66,3.015638e6,0.0,1.0
"2017-05-09",13.75,14.33,13.63,14.23,14.23,7.517697e6,0.0,1.0
"2017-05-10",14.24,14.51,14.1,14.48,14.48,4.419054e6,0.0,1.0
"2017-05-11",14.35,14.48,14.03,14.46,14.46,3.953312e6,0.0,1.0
"2017-05-12",14.46,14.92,14.41,14.91,14.91,7.451745e6,0.0,1.0
"2017-05-15",14.96,15.49,14.74,14.78,14.78,1.0030876e7,0.0,1.0
"2017-05-16",15.12,15.45,13.63,13.76,13.76,168281.0,0.0,1.0
"2017-05-17",13.9,14.09,13.57,13.82,13.82,6.410266e6,0.0,1.0
"2017-05-18",13.67,13.67,13.1,13.18,13.18,8.33605e6,0.0,1.0
"2017-05-19",13.3,13.59,13.05,13.38,13.38,7.157877e6,0.0,1.0
"2017-05-22",13.42,13.68,13.4,13.54,13.54,4.106188e6,0.0,1.0
"2017-05-23",13.57,13.59,13.12,13.18,13.18,7.638836e6,0.0,1.0
"2017-05-24",13.2,13.23,12.88,13.05,13.05,4.884053e6,0.0,1.0
"2017-05-25",13.18,13.25,13.03,13.15,13.15,2.126004e6,0.0,1.0
"2017-05-26",13.19,13.19,12.82,12.87,12.87,2.938081e6,0.0,1.0
"2017-05-30",12.88,13.0,12.44,12.49,12.49,4.951171e6,0.0,1.0
"2017-05-31",12.53,12.61,12.22,12.37,12.37,5.297288e6,0.0,1.0
"2017-06-01",12.46,13.29,12.37,13.16,13.16,7.57729e6,0.0,1.0
"2017-06-02",14.3,14.35,13.32,13.43,13.43,1.1011537e7,0.0,1.0
"2017-06-05",13.23,13.23,12.6,13.0,13.0,5.152402e6,0.0,1.0
"2017-06-06",12.89,13.01,12.71,12.71,12.71,4.23632e6,0.0,1.0
"2017-06-07",12.85,13.45,12.66,13.34,13.34,6.638419e6,0.0,1.0
"2017-06-08",13.67,13.72,12.85,12.91,12.91,7.527008e6,0.0,1.0
"2017-06-09",12.9,12.97,12.46,12.61,12.61,1.2103546e7,0.0,1.0
"2017-06-12",12.38,12.63,12.24,12.28,12.28,8.816713e6,0.0,1.0
"2017-06-13",12.28,12.45,12.03,12.1,12.1,4.879827e6,0.0,1.0
"2017-06-14",12.1,12.18,11.7,11.98,11.98,7.265071e6,0.0,1.0
"2017-06-15",11.81,11.89,11.63,11.79,11.79,4.708123e6,0.0,1.0
"2017-06-16",11.83,12.01,11.74,11.79,11.79,4.198777e6,0.0,1.0
"2017-06-19",11.81,12.19,11.71,11.89,11.89,4.897738e6,0.0,1.0
"2017-06-20",11.89,11.9,11.54,11.58,11.58,3.897708e6,0.0,1.0
"2017-06-21",11.67,11.84,11.62,11.73,11.73,6.269093e6,0.0,1.0
"2017-06-22",11.56,11.78,11.35,11.7,11.7,5.895796e6,0.0,1.0
"2017-06-23",11.57,12.03,11.46,11.87,11.87,7.88003e6,0.0,1.0
"2017-06-26",11.97,12.05,11.65,11.77,11.77,5.66128e6,0.0,1.0
"2017-06-27",11.64,11.85,11.5,11.57,11.57,3.650861e6,0.0,1.0
"2017-06-28",11.67,11.82,11.57,11.63,11.63,3.226556e6,0.0,1.0
"2017-06-29",11.72,11.72,11.41,11.53,11.53,4.886219e6,0.0,1.0
"2017-06-30",11.3,11.3,10.5,10.55,10.55,1.5878358e7,0.0,1.0
"2017-07-03",10.41,10.42,9.96,10.23,10.23,1.6060066e7,0.0,1.0
"2017-07-05",10.36,10.48,10.27,10.32,10.32,5.994434e6,0.0,1.0
"2017-07-06",10.4,10.48,9.99,10.05,10.05,9.595079e6,0.0,1.0
"2017-07-07",10.04,10.1,9.98,10.05,10.05,8.16685e6,0.0,1.0
"2017-07-10",10.06,10.18,9.94,10.06,10.06,4.01669e6,0.0,1.0
"2017-07-11",10.09,10.3,10.0,10.26,10.26,7.438922e6,0.0,1.0
"2017-07-12",10.36,10.64,10.34,10.61,10.61,7.96649e6,0.0,1.0
"2017-07-13",10.67,11.63,10.65,11.33,11.33,1.4850849e7,0.0,1.0
"2017-07-14",11.44,11.64,11.13,11.25,11.25,4.24428e6,0.0,1.0
"2017-07-17",11.22,11.22,11.01,11.05,11.05,3.358205e6,0.0,1.0
"2017-07-18",11.1,11.62,11.04,11.49,11.49,9.359836e6,0.0,1.0
"2017-07-19",12.16,12.45,11.76,11.93,11.93,1.6266472e7,0.0,1.0
"2017-07-20",11.93,12.09,11.77,11.94,11.94,5.105478e6,0.0,1.0
"2017-07-21",11.94,12.12,11.84,12.02,12.02,3.686681e6,0.0,1.0
"2017-07-24",12.01,12.05,11.6,11.77,11.77,6.258973e6,0.0,1.0
"2017-07-25",11.76,11.87,11.67,11.72,11.72,4.082058e6,0.0,1.0
"2017-07-26",11.74,12.09,11.5,12.0,12.0,8.417947e6,0.0,1.0
"2017-07-27",12.15,12.5,11.88,12.14,12.14,9.628891e6,0.0,1.0
"2017-07-28",12.17,12.32,11.99,12.31,12.31,3.562866e6,0.0,1.0
"2017-07-31",12.35,12.44,12.19,12.3,12.3,4.721951e6,0.0,1.0
"2017-08-01",12.4,12.4,12.03,12.25,12.25,5.545305e6,0.0,1.0
"2017-08-02",12.28,12.3,11.68,11.93,11.93,4.419311e6,0.0,1.0
"2017-08-03",11.9,11.9,11.57,11.67,11.67,6.34709e6,0.0,1.0
"2017-08-04",11.73,11.84,11.5,11.83,11.83,4.177035e6,0.0,1.0
"2017-08-07",11.86,12.32,11.8,12.22,12.22,4.785404e6,0.0,1.0
"2017-08-08",12.2,12.26,12.04,12.11,12.11,5.274171e6,0.0,1.0
"2017-08-09",12.1,12.1,11.61,11.73,11.73,7.872e6,0.0,1.0
"2017-08-10",11.78,11.86,11.3,11.34,11.34,4.677678e6,0.0,1.0
"2017-08-11",11.04,11.45,11.04,11.44,11.44,3.589442e6,0.0,1.0
"2017-08-14",11.5,11.5,11.16,11.21,11.21,4.537775e6,0.0,1.0
"2017-08-15",11.47,11.47,11.05,11.17,11.17,4.113657e6,0.0,1.0
"2017-08-16",11.26,11.41,10.96,11.1,11.1,5.972393e6,0.0,1.0
"2017-08-17",10.06,10.91,10.0,10.2,10.2,3.1828625e7,0.0,1.0
"2017-08-18",10.01,10.1,9.84,9.86,9.86,1.9038259e7,0.0,1.0
"2017-08-21",9.86,9.87,9.14,9.27,9.27,2.6125018e7,0.0,1.0
"2017-08-22",9.36,9.42,9.21,9.34,9.34,1.9659216e7,0.0,1.0
"2017-08-23",9.31,9.31,9.13,9.19,9.19,1.7507465e7,0.0,1.0
"2017-08-24",9.2,9.38,9.17,9.2,9.2,1.1395946e7,0.0,1.0
"2017-08-25",9.13,9.3,9.0,9.0,9.0,7.845941e6,0.0,1.0
"2017-08-28",9.1,9.12,8.72,8.88,8.88,9.736499e6,0.0,1.0
"2017-08-29",8.76,9.12,8.76,9.04,9.04,8.964558e6,0.0,1.0
"2017-08-30",9.14,9.35,9.1,9.27,9.27,7.879755e6,0.0,1.0
"2017-08-31",9.28,9.53,9.14,9.31,9.31,7.454507e6,0.0,1.0
"2017-09-01",9.4,9.41,9.07,9.12,9.12,7.41425e6,0.0,1.0
"2017-09-05",9.01,9.14,8.92,9.07,9.07,5.098676e6,0.0,1.0
"2017-09-06",9.07,9.16,8.99,9.12,9.12,3.774614e6,0.0,1.0
"2017-09-07",9.15,9.39,9.15,9.25,9.25,5.64394e6,0.0,1.0
"2017-09-08",9.2,9.31,9.16,9.21,9.21,5.637643e6,0.0,1.0
"2017-09-11",9.33,9.59,9.33,9.46,9.46,6.885086e6,0.0,1.0
"2017-09-12",9.53,10.08,9.53,9.82,9.82,1.0363014e7,0.0,1.0
"2017-09-13",9.82,10.05,9.69,9.89,9.89,8.267837e6,0.0,1.0
"2017-09-14",9.84,9.98,9.72,9.88,9.88,6.354519e6,0.0,1.0
"2017-09-15",9.91,10.09,9.8,10.03,10.03,1.1145293e7,0.0,1.0
"2017-09-18",10.05,10.13,10.01,10.11,10.11,1.2118361e7,0.0,1.0
"2017-09-19",10.1,10.13,9.77,9.85,9.85,4.771332e6,0.0,1.0
"2017-09-20",9.73,9.73,9.41,9.55,9.55,7.154658e6,0.0,1.0
"2017-09-21",9.53,9.55,9.12,9.32,9.32,1.7100057e7,0.0,1.0
"2017-09-22",9.34,9.41,9.22,9.35,9.35,5.567337e6,0.0,1.0
"2017-09-25",9.31,9.33,8.95,9.01,9.01,7.210835e6,0.0,1.0
"2017-09-26",9.15,9.19,8.98,9.01,9.01,6.92021e6,0.0,1.0
"2017-09-27",9.13,9.31,9.12,9.17,9.17,3.494402e6,0.0,1.0
"2017-09-28",9.19,9.45,9.14,9.2,9.2,4.64304e6,0.0,1.0
"2017-09-29",9.21,9.22,8.75,8.79,8.79,1.2152894e7,0.0,1.0
"2017-10-02",8.9,8.92,8.63,8.71,8.71,8.747358e6,0.0,1.0
"2017-10-03",8.75,8.81,8.69,8.74,8.74,8.149311e6,0.0,1.0
"2017-10-04",8.75,8.82,8.68,8.7,8.7,5.167882e6,0.0,1.0
"2017-10-05",8.72,8.8,8.51,8.53,8.53,1.1998215e7,0.0,1.0
"2017-10-06",8.5,8.54,8.29,8.35,8.35,6.663993e6,0.0,1.0
"2017-10-09",8.36,8.43,8.12,8.16,8.16,8.587243e6,0.0,1.0
"2017-10-10",8.18,8.38,8.14,8.28,8.28,2.5232978e7,0.0,1.0
"2017-10-11",8.28,8.48,8.15,8.15,8.15,8.847062e6,0.0,1.0
"2017-10-12",8.15,8.27,7.87,7.9,7.9,1.1931169e7,0.0,1.0
"2017-10-13",7.9,8.09,7.8,7.88,7.88,1.3106781e7,0.0,1.0
"2017-10-16",7.9,8.37,7.9,8.34,8.34,7.409685e6,0.0,1.0
"2017-10-17",8.42,8.59,8.31,8.35,8.35,8.437334e6,0.0,1.0
"2017-10-18",8.43,8.485,8.35,8.4,8.4,4.638435e6,0.0,1.0
"2017-10-19",8.38,8.43,8.11,8.13,8.13,5.600427e6,0.0,1.0
"2017-10-20",8.29,8.6,8.25,8.25,8.25,6.642323e6,0.0,1.0
"2017-10-23",8.28,8.29,8.02,8.03,8.03,5.481818e6,0.0,1.0
"2017-10-24",8.06,8.12,8.0,8.04,8.04,2.978293e6,0.0,1.0
"2017-10-25",8.11,8.16,7.87,7.97,7.97,3.559718e6,0.0,1.0
"2017-10-26",7.97,8.47,7.86,8.35,8.35,1.2323691e7,0.0,1.0
"2017-10-27",8.32,8.35,7.98,8.2,8.2,4.157292e6,0.0,1.0
"2017-10-30",8.09,8.13,7.79,7.87,7.87,6.909556e6,0.0,1.0
"2017-10-31",7.92,8.05,7.88,7.9,7.9,2.844995e6,0.0,1.0
"2017-11-01",8.01,8.34,8.01,8.24,8.24,5.254087e6,0.0,1.0
"2017-11-02",8.19,8.49,8.15,8.29,8.29,5.889923e6,0.0,1.0
"2017-11-03",8.22,8.52,8.2,8.33,8.33,4.990694e6,0.0,1.0
"2017-11-06",8.38,8.47,8.31,8.36,8.36,2.09034e6,0.0,1.0
"2017-11-07",8.38,8.4,8.13,8.29,8.29,2.145744e6,0.0,1.0
"2017-11-08",8.22,8.52,8.19,8.44,8.44,2.892625e6,0.0,1.0
"2017-11-09",8.4,8.49,8.22,8.47,8.47,2.314996e6,0.0,1.0
"2017-11-10",8.47,8.47,8.2,8.21,8.21,2.546021e6,0.0,1.0
"2017-11-13",8.2,8.37,8.18,8.23,8.23,2.26134e6,0.0,1.0
"2017-11-14",8.24,8.28,8.05,8.11,8.11,2.990483e6,0.0,1.0
"2017-11-15",8.0,8.5,7.91,8.37,8.37,4.7597e6,0.0,1.0
"2017-11-16",8.48,8.91,8.48,8.88,8.88,1.0063007e7,0.0,1.0
"2017-11-17",9.5,10.25,9.43,9.78,9.78,2.0501942e7,0.0,1.0
"2017-11-20",9.93,9.99,9.07,9.25,9.25,9.208519e6,0.0,1.0
"2017-11-21",8.55,8.59,7.9,8.22,8.22,2.2652619e7,0.0,1.0
"2017-11-22",8.41,8.85,8.37,8.44,8.44,1.367307e7,0.0,1.0
"2017-11-24",8.33,8.43,8.1,8.14,8.14,4.333494e6,0.0,1.0
"2017-11-27",8.1,8.185,7.95,8.02,8.02,8.980155e6,0.0,1.0
"2017-11-28",8.04,8.07,7.92,8.0,8.0,6.224991e6,0.0,1.0
"2017-11-29",8.06,8.2,7.965,8.01,8.01,6.733195e6,0.0,1.0
"2017-11-30",8.03,8.23,7.99,8.23,8.23,6.247217e6,0.0,1.0
"2017-12-01",8.17,8.66,8.15,8.41,8.41,6.203691e6,0.0,1.0
"2017-12-04",8.47,8.79,8.45,8.5,8.5,7.419918e6,0.0,1.0
"2017-12-05",8.43,8.44,8.17,8.27,8.27,6.605284e6,0.0,1.0
"2017-12-06",8.18,8.41,8.09,8.19,8.19,5.442271e6,0.0,1.0
"2017-12-07",8.2,8.37,8.19,8.23,8.23,4.405373e6,0.0,1.0
"2017-12-08",8.28,8.48,8.23,8.46,8.46,6.438129e6,0.0,1.0
"2017-12-11",8.47,8.53,8.42,8.46,8.46,6.625531e6,0.0,1.0
"2017-12-12",8.54,8.58,8.14,8.18,8.18,4.477982e6,0.0,1.0
"2017-12-13",8.2,8.43,8.18,8.42,8.42,7.909426e6,0.0,1.0
"2017-12-14",8.48,8.75,8.3,8.36,8.36,7.031889e6,0.0,1.0
"2017-12-15",8.45,8.57,8.37,8.44,8.44,8.512113e6,0.0,1.0
"2017-12-18",12.59,12.6,11.56,11.75,11.75,8.0129221e7,0.0,1.0
"2017-12-19",11.82,12.19,11.78,12.01,12.01,2.0117662e7,0.0,1.0
"2017-12-20",11.98,12.1,11.86,12.02,12.02,1.3815303e7,0.0,1.0
"2017-12-21",12.05,12.19,12.01,12.08,12.08,7.646262e6,0.0,1.0
"2017-12-22",11.955,12.26,11.95,12.21,12.21,6.579762e6,0.0,1.0
"2017-12-26",12.2,12.29,12.105,12.2,12.2,6.092325e6,0.0,1.0
"2017-12-27",12.1,12.48,11.96,11.99,11.99,1.0078349e7,0.0,1.0
"2017-12-28",12.0,12.2,11.89,11.91,11.91,5.513375e6,0.0,1.0
"2017-12-29",11.93,11.93,11.68,11.72,11.72,3.893357e6,0.0,1.0
"2018-01-02",11.8,12.82,11.73,12.5,12.5,1.090952e7,0.0,1.0
"2018-01-03",12.75,12.78,12.12,12.2,12.2,7.65777e6,0.0,1.0
"2018-01-04",12.28,12.445,11.81,12.01,12.01,8.943719e6,0.0,1.0
"2018-01-05",12.28,12.4,12.07,12.37,12.37,9.559215e6,0.0,1.0
"2018-01-08",12.7,13.69,12.7,13.58,13.58,2.0781759e7,0.0,1.0
"2018-01-09",13.46,13.72,13.12,13.23,13.23,2.2454447e7,0.0,1.0
"2018-01-10",13.54,13.55,13.05,13.09,13.09,9.298494e6,0.0,1.0
"2018-01-11",13.16,13.8,13.1,13.62,13.62,1.4894856e7,0.0,1.0
"2018-01-12",13.78,14.57,13.77,14.51,14.51,2.8206399e7,0.0,1.0
"2018-01-16",15.29,16.47,15.18,16.04,16.04,3.5502085e7,0.0,1.0
"2018-01-17",15.98,16.1,15.06,15.14,15.14,1.6279646e7,0.0,1.0
"2018-01-18",15.95,15.95,15.21,15.67,15.67,1.039285e7,0.0,1.0
"2018-01-19",15.8,16.14,15.72,15.93,15.93,1.4862568e7,0.0,1.0
"2018-01-22",16.07,16.12,15.71,16.0,16.0,9.443599e6,0.0,1.0
"2018-01-23",16.22,16.22,15.61,15.99,15.99,1.1136031e7,0.0,1.0
"2018-01-24",16.07,16.84,15.75,16.44,16.44,1.0603605e7,0.0,1.0
"2018-01-25",16.44,16.85,16.25,16.83,16.83,7.74011e6,0.0,1.0
"2018-01-26",17.11,17.75,17.11,17.65,17.65,1.5343738e7,0.0,1.0
"2018-01-29",17.5,17.54,16.84,17.28,17.28,1.1797678e7,0.0,1.0
"2018-01-30",16.8,16.98,16.14,16.72,16.72,7.015723e6,0.0,1.0
