"high","close","adjHigh","adjOpen","adjLow","divCash","adjVolume","date","low","splitFactor","volume","open","adjClose"
"64.53","63.43","64.1743596809","63.9555721537","62.8914691806","0.0","6185100","2017-08-03","63.24","1.0","6185100","64.31","63.080422045"
"64.16","64.11","63.8063988397","63.1997606962","63.1699260334","0.0","4015500","2017-08-04","63.52","1.0","4015500","63.55","63.7566744017"
"63.9","63.41","63.5478317621","63.179870921","62.8914691806","0.0","3168900","2017-08-14","63.24","1.0","3168900","63.53","63.0605322698"
"64.74","64.54","64.3832023205","64.2340290065","63.9157926033","0.0","2676500","2017-08-25","64.27","1.0","2676500","64.59","64.1843045685"
"67.3","67.18","66.929093546","66.2926207397","65.2981319797","0.0","7204419","2017-09-01","65.66","1.0","7204419","66.66","66.8097548949"
"67.17","64.98","66.7998100073","66.6506366933","64.6218796229","0.0","10832692","2017-09-05","64.98","1.0","10832692","67.02","64.6218796229"
"65.33","64.87","64.9699506889","64.8406671501","63.6572255257","0.0","9965743","2017-09-06","64.01","1.0","9965743","65.2","64.5124858593"
"64.95","64.68","64.5920449601","64.2439738941","63.8660681653","0.0","6321024","2017-09-07","64.22","1.0","6321024","64.6","64.3235329949"
"65.2","64.85","64.8406671501","64.5423205221","64.2837534445","0.0","8099999","2017-09-08","64.64","1.0","8099999","64.9","64.4925960841"
"67.16","66.85","66.7898651197","64.8903915881","64.8406671501","0.0","11567033","2017-09-11","65.2","1.0","11567033","65.25","66.4815736041"
"69.25","68.52","68.868346628","67.82413343","67.426337926","0.0","14419059","2017-09-12","67.8","1.0","14419059","68.2","68.1423698332"
"69.6","69.5","69.216417694","68.520275562","67.9136374184","0.0","8734377","2017-09-13","68.29","1.0","8734377","68.9","69.116968818"
"70.3","70.02","69.912559826","69.216417694","68.8385119652","0.0","11262962","2017-09-14","69.22","1.0","11262962","69.6","69.6341029732"
"70.7","69.86","70.3103553299","69.8727802756","69.116968818","0.0","32382148","2017-09-15","69.5","1.0","32382148","70.26","69.4749847716"
"70.37","69.77","69.9821740392","69.614213198","69.2363074692","0.0","7193103","2017-09-18","69.62","1.0","7193103","70.0","69.3854807832"
"70.11","70.05","69.7236069616","69.6341029732","69.2561972444","0.0","6676368","2017-09-19","69.64","1.0","6676368","70.02","69.663937636"
"70.5","70.41","70.111457578","69.8926700508","69.2760870196","0.0","6639388","2017-09-20","69.66","1.0","6639388","70.28","70.0219535896"
"70.5","70.32","70.111457578","70.0219535896","69.713662074","0.0","4450108","2017-09-21","70.1","1.0","4450108","70.41","69.9324496012"
"70.23","69.96","69.8429456128","69.7534416244","69.2959767948","0.0","4013074","2017-09-22","69.68","1.0","4013074","70.14","69.5744336476"
"70.38","70.34","69.9921189268","69.6838274112","68.8285670776","0.0","6366314","2017-09-25","69.21","1.0","6366314","70.07","69.9523393764"
"70.48","69.35","70.0915678028","69.8727802756","68.9479057288","0.0","5231424","2017-09-26","69.33","1.0","5231424","70.26","68.967795504"
"69.52","68.8","69.1368585932","69.1368585932","67.8937476432","0.0","6594167","2017-09-27","68.27","1.0","6594167","69.52","68.420826686"
"69.07","69.06","68.6893386512","68.0628107324","67.3965032632","0.0","7868752","2017-09-28","67.77","1.0","7868752","68.44","68.6793937636"
"69.41","69.23","69.0274648296","68.619724438","68.1920942712","0.0","5635752","2017-09-29","68.57","1.0","5635752","69.0","68.8484568528"
"70.42","70.42","70.0318984772","69.017519942","68.768897752","0.0","5973290","2017-10-02","69.15","1.0","5973290","69.4","70.0318984772"
"70.62","70.36","70.2307962292","70.0219535896","69.514764322","0.0","6609275","2017-10-03","69.9","1.0","6609275","70.41","69.9722291516"
"70.91","70.45","70.5191979695","70.1910166788","70.0517882524","0.0","5999176","2017-10-04","70.44","1.0","5999176","70.58","70.06173314"
"71.0","70.97","70.6087019579","70.4296939811","69.8528905004","0.0","5478167","2017-10-05","70.24","1.0","5478167","70.82","70.5788672951"
"71.23","71.22","70.8374343727","70.4098042059","70.2307962292","0.0","3916285","2017-10-06","70.62","1.0","3916285","70.8","70.8274894851"
"71.88","71.68","71.4838520667","70.8075997099","70.6087019579","0.0","5278815","2017-10-09","71.0","1.0","5278815","71.2","71.2849543147"
"71.75","71.57","71.3545685279","71.1656156635","70.7678201595","0.0","4828995","2017-10-10","71.16","1.0","4828995","71.56","71.1755605511"
"71.63","71.62","71.2352298767","71.1059463379","70.5291428571","0.0","4969383","2017-10-11","70.92","1.0","4969383","71.5","71.2252849891"
"71.63","71.4","71.2352298767","71.1059463379","70.8175445975","0.0","4464653","2017-10-12","71.21","1.0","4464653","71.5","71.0064974619"
"71.7","71.43","71.3048440899","71.1357810007","70.7578752719","0.0","5135077","2017-10-13","71.15","1.0","5135077","71.53","71.0363321247"
"71.81","70.93","71.4142378535","71.4042929659","70.4197490935","0.0","4264175","2017-10-16","70.81","1.0","4264175","71.8","70.5390877447"
"70.94","70.88","70.5490326323","70.4098042059","70.1412922408","0.0","5580414","2017-10-17","70.53","1.0","5580414","70.8","70.4893633067"
"70.97","70.78","70.5788672951","70.4694735315","70.1711269036","0.0","4755211","2017-10-18","70.56","1.0","4755211","70.86","70.3899144307"
"71.08","70.89","70.6882610587","70.260630892","69.9026149384","0.0","5846213","2017-10-19","70.29","1.0","5846213","70.65","70.4993081943"
"71.39","71.18","70.9965525743","70.8075997099","70.6087019579","0.0","7323008","2017-10-20","71.0","1.0","7323008","71.2","70.7877099347"
"72.18","71.55","71.7821986947","71.5534662799","71.0064974619","0.0","11089734","2017-10-23","71.4","1.0","11089734","71.95","71.1556707759"
"72.12","71.86","71.7225293691","71.4440725163","71.2153401015","0.0","10221914","2017-10-24","71.61","1.0","10221914","71.84","71.4639622915"
"72.1","71.09","71.7026395939","71.4639622915","70.5390877447","0.0","6556254","2017-10-25","70.93","1.0","6556254","71.86","70.6982059463"
"73.85","73.05","73.4429949239","71.9313720087","71.6330253807","0.0","16680416","2017-10-26","72.03","1.0","16680416","72.33","72.6474039159"
"73.1","72.54","72.6971283539","72.5976794779","71.8319231327","0.0","8373245","2017-10-27","72.23","1.0","8373245","73.0","72.1402146483"
"72.61","71.68","72.2098288615","71.9214271211","71.1258361131","0.0","5736786","2017-10-30","71.52","1.0","5736786","72.32","71.2849543147"
"72.47","72.31","72.0706004351","71.5136867295","71.2053952139","0.0","5925916","2017-10-31","71.6","1.0","5925916","71.91","71.9114822335"
"73.58","73.32","73.1744829587","72.7070732415","71.9214271211","0.0","7785670","2017-11-01","72.32","1.0","7785670","73.11","72.9159158811"
"73.2","72.04","72.7965772299","71.6230804931","71.1656156635","0.0","10239822","2017-11-02","71.56","1.0","10239822","72.02","71.6429702683"
"72.27","71.16","71.8717026831","71.6926947063","70.4694735315","0.0","8505147","2017-11-03","70.86","1.0","8505147","72.09","70.7678201595"
"71.73","70.24","71.3346787527","71.0064974619","69.7434967368","0.0","8919535","2017-11-06","70.13","1.0","8919535","71.4","69.8528905004"
"71.15","71.14","70.7578752719","70.4993081943","69.9324496012","0.0","6654903","2017-11-07","70.32","1.0","6654903","70.89","70.7479303843"
"71.5","70.81","71.1059463379","70.9169934735","70.3203002175","0.0","6091437","2017-11-08","70.71","1.0","6091437","71.31","70.4197490935"
"70.54","70.23","70.1512371284","70.111457578","69.6241580856","0.0","4528620","2017-11-09","70.01","1.0","4528620","70.5","69.8429456128"
"70.49","69.97","70.1015126904","69.8429456128","69.3556461204","0.0","7118712","2017-11-10","69.74","1.0","7118712","70.23","69.5843785352"
"70.65","70.46","70.260630892","69.0572994924","68.9280159536","0.0","6105426","2017-11-13","69.31","1.0","6105426","69.44","70.0716780276"
"69.93","68.57","69.93","69.8","68.33","0.38","8126127","2017-11-14","68.33","1.0","8126127","69.8","68.57"
"69.14","68.97","69.14","68.22","68.0","0.0","13546227","2017-11-15","68.0","1.0","13546227","68.22","68.97"
"70.77","70.68","70.77","69.36","69.07","0.0","9589996","2017-11-16","69.07","1.0","9589996","69.36","70.68"
"71.21","70.74","71.21","70.65","70.5","0.0","8734674","2017-11-17","70.5","1.0","8734674","70.65","70.74"
"71.27","70.85","71.27","70.66","70.54","0.0","5521435","2017-11-20","70.54","1.0","5521435","70.66","70.85"
"71.78","71.26","71.78","71.4","71.1","0.0","8085686","2017-11-21","71.1","1.0","8085686","71.4","71.26"
"71.38","70.6","71.38","71.35","70.6","0.0","6352993","2017-11-22","70.6","1.0","6352993","71.35","70.6"
"71.39","71.16","71.39","70.6","70.53","0.0","2636225","2017-11-24","70.53","1.0","2636225","70.6","71.16"
"71.05","70.13","71.05","71.03","70.02","0.0","6720193","2017-11-27","70.02","1.0","6720193","71.03","70.13"
"71.2","71.09","71.2","70.3","70.13","0.0","8231453","2017-11-28","70.13","1.0","8231453","70.3","71.09"
"71.93","71.78","71.93","71.17","70.87","0.0","6437722","2017-11-29","70.87","1.0","6437722","71.17","71.78"
"72.83","71.96","72.83","71.82","71.4396","0.0","8947524","2017-11-30","71.4396","1.0","8947524","71.82","71.96"
"72.61","71.01","72.61","72.32","70.67","0.0","7635467","2017-12-01","70.67","1.0","7635467","72.32","71.01"
"72.9875","72.13","72.9875","71.72","71.5","0.0","8552310","2017-12-04","71.5","1.0","8552310","71.72","72.13"
"73.2","71.54","73.2","72.94","71.5","0.0","8641962","2017-12-05","71.5","1.0","8641962","72.94","71.54"
"71.79","71.08","71.79","71.66","70.95","0.0","5717782","2017-12-06","70.95","1.0","5717782","71.66","71.08"
"71.5","71.37","71.5","71.0","70.8499","0.0","6160392","2017-12-07","70.8499","1.0","6160392","71.0","71.37"
"71.52","70.73","71.52","71.21","70.32","0.0","8511037","2017-12-08","70.32","1.0","8511037","71.21","70.73"
"71.41","70.81","71.41","70.78","70.68","0.0","6603957","2017-12-11","70.68","1.0","6603957","70.78","70.81"
"71.15","70.79","71.15","70.91","70.665","0.0","9228604","2017-12-12","70.665","1.0","9228604","70.91","70.79"
"71.05","70.56","71.05","70.68","70.42","0.0","9666650","2017-12-13","70.42","1.0","9666650","70.68","70.56"
"70.93","70.32","70.93","70.61","70.07","0.0","7042053","2017-12-14","70.07","1.0","7042053","70.61","70.32"
"70.44","70.0","70.44","70.045","69.86","0.0","14783747","2017-12-15","69.86","1.0","14783747","70.045","70.0"
"71.69","71.39","71.69","70.4","70.24","0.0","6718420","2017-12-18","70.24","1.0","6718420","70.4","71.39"
"71.745","71.42","71.745","71.41","71.22","0.0","5109184","2017-12-19","71.22","1.0","5109184","71.41","71.42"
"72.06","71.27","72.06","71.67","71.24","0.0","5817729","2017-12-20","71.24","1.0","5817729","71.67","71.27"
"71.8","71.64","71.8","71.74","71.01","0.0","7166441","2017-12-21","71.01","1.0","7166441","71.74","71.64"
"72.35","72.11","72.35","71.99","71.76","0.0","4370788","2017-12-22","71.76","1.0","4370788","71.99","72.11"
"72.17","71.44","72.17","72.11","71.31","0.0","3093544","2017-12-26","71.31","1.0","3093544","72.11","71.44"
"71.75","71.44","71.75","71.65","71.29","0.0","4097522","2017-12-27","71.29","1.0","4097522","71.65","71.44"
"71.63","71.51","71.63","71.38","70.89","0.0","4269915","2017-12-28","70.89","1.0","4269915","71.38","71.51"
"71.85","71.22","71.85","71.81","71.22","0.0","4708711","2017-12-29","71.22","1.0","4708711","71.81","71.22"
"72.19","71.9","72.19","71.57","71.4","0.0","7407279","2018-01-02","71.4","1.0","7407279","71.57","71.9"
"73.14","73.05","73.14","72.01","71.69","0.0","7884048","2018-01-03","71.69","1.0","7884048","72.01","73.05"
"74.735","74.45","74.735","73.17","73.14","0.0","9431983","2018-01-04","73.14","1.0","9431983","73.17","74.45"
"75.54","75.42","75.54","74.5","74.49","0.0","8874760","2018-01-05","74.49","1.0","8874760","74.5","75.42"
"75.49","75.16","75.49","75.34","74.47","0.0","5808534","2018-01-08","74.47","1.0","5808534","75.34","75.16"
"76.34","75.34","76.34","74.94","74.66","0.0","7549584","2018-01-09","74.66","1.0","7549584","74.94","75.34"
"75.37","74.2","75.37","75.0","73.9","0.0","7126620","2018-01-10","73.9","1.0","7126620","75.0","74.2"
"75.23","75.22","75.23","74.4","74.21","0.0","5935423","2018-01-11","74.21","1.0","5935423","74.4","75.22"
"75.6268","75.41","75.6268","75.57","74.99","0.0","4809786","2018-01-12","74.99","1.0","4809786","75.57","75.41"
"76.3505","74.95","76.3505","75.76","74.34","0.0","6478582","2018-01-16","74.34","1.0","6478582","75.76","74.95"
"76.35","75.77","76.35","75.97","75.09","0.0","7685511","2018-01-17","75.09","1.0","7685511","75.97","75.77"
"76.65","76.03","76.65","75.57","75.12","0.0","9902301","2018-01-18","75.12","1.0","9902301","75.57","76.03"
"76.49","76.01","76.49","76.49","75.76","0.0","8157916","2018-01-19","75.76","1.0","8157916","76.49","76.01"
"76.18","76.18","76.18","75.79","75.29","0.0","6064341","2018-01-22","75.29","1.0","6064341","75.79","76.18"
"76.37","76.14","76.37","75.86","75.6057","0.0","5568764","2018-01-23","75.6057","1.0","5568764","75.86","76.14"
"77.08","76.01","77.08","76.28","75.61","0.0","9178822","2018-01-24","75.61","1.0","9178822","76.28","76.01"
"76.97","76.65","76.97","76.33","76.21","0.0","6424666","2018-01-25","76.21","1.0","6424666","76.33","76.65"
"77.02","77.02","77.02","76.57","75.26","0.0","5963096","2018-01-26","75.26","1.0","5963096","76.57","77.02"
"77.06","75.87","77.06","77.02","75.83","0.0","5652076","2018-01-29","75.83","1.0","5652076","77.02","75.87"
"75.98","75.13","75.98","75.49","74.92","0.0","7448651","2018-01-30","74.92","1.0","7448651","75.49","75.13"
"76.05","75.58","76.05","75.38","74.79","0.0","10046915","2018-01-31","74.79","1.0","10046915","75.38","75.58"
"76.0","73.5","76.0","74.68","73.43","0.0","13247352","2018-02-01","73.43","1.0","13247352","74.68","73.5"
"73.29","70.89","73.29","73.06","70.64","0.0","12705438","2018-02-02","70.64","1.0","12705438","73.06","70.89"
