"high","close","adjHigh","adjOpen","adjLow","divCash","adjVolume","date","low","splitFactor","volume","open","adjClose"
"26.05","24.48","26.05","24.0","23.5","0.0","217109769","2017-03-02","23.5","1.0","217109769","24.0","24.48"
"29.44","27.09","29.44","26.39","26.06","0.0","148227379","2017-03-03","26.06","1.0","148227379","26.39","27.09"
"28.25","23.77","28.25","28.17","23.77","0.0","72938848","2017-03-06","23.77","1.0","72938848","28.17","23.77"
"22.5","21.44","22.5","22.21","20.64","0.0","71899652","2017-03-07","20.64","1.0","71899652","22.21","21.44"
"23.43","22.81","23.43","22.03","21.31","0.0","49834423","2017-03-08","21.31","1.0","49834423","22.03","22.81"
"23.68","22.71","23.68","23.17","22.51","0.0","25803174","2017-03-09","22.51","1.0","25803174","23.17","22.71"
"23.4","22.07","23.4","23.36","22.0","0.0","18337600","2017-03-10","22.0","1.0","18337600","23.36","22.07"
"22.15","21.09","22.15","22.05","20.96","0.0","20605862","2017-03-13","20.96","1.0","20605862","22.05","21.09"
"20.98","20.58","20.98","20.9","20.15","0.0","20033167","2017-03-14","20.15","1.0","20033167","20.9","20.58"
"21.4","20.77","21.4","20.08","20.05","0.0","24985920","2017-03-15","20.05","1.0","24985920","20.08","20.77"
"20.69","19.89","20.69","20.65","19.75","0.0","25630157","2017-03-16","19.75","1.0","25630157","20.65","19.89"
"19.85","19.54","19.85","19.8","18.9","0.0","34251973","2017-03-17","18.9","1.0","34251973","19.8","19.54"
"20.43","19.93","20.43","19.94","19.72","0.0","21016038","2017-03-20","19.72","1.0","21016038","19.94","19.93"
"20.54","20.38","20.54","20.04","19.55","0.0","20080142","2017-03-21","19.55","1.0","20080142","20.04","20.38"
"22.25","21.82","22.25","20.65","20.52","0.0","47599301","2017-03-22","20.52","1.0","47599301","20.65","21.82"
"23.3","23.13","23.3","22.69","22.22","0.0","40645418","2017-03-23","22.22","1.0","40645418","22.69","23.13"
"23.1","22.74","23.1","23.05","22.34","0.0","17263232","2017-03-24","22.34","1.0","17263232","23.05","22.74"
"24.4","23.83","24.4","23.09","22.6","0.0","48398210","2017-03-27","22.6","1.0","48398210","23.09","23.83"
"23.36","22.21","23.36","23.31","22.17","0.0","49889866","2017-03-28","22.17","1.0","49889866","23.31","22.21"
"22.71","22.55","22.71","21.77","21.33","0.0","31475593","2017-03-29","21.33","1.0","31475593","21.77","22.55"
"22.85","22.23","22.85","22.55","22.0","0.0","17094311","2017-03-30","22.0","1.0","17094311","22.55","22.23"
"22.62","22.53","22.62","22.05","22.0","0.0","15087074","2017-03-31","22.0","1.0","15087074","22.05","22.53"
"22.9","22.35","22.9","22.7","22.11","0.0","12521294","2017-04-03","22.11","1.0","12521294","22.7","22.35"
"22.67","22.14","22.67","22.21","21.88","0.0","16313506","2017-04-04","21.88","1.0","16313506","22.21","22.14"
"22.22","20.7","22.22","22.15","20.67","0.0","26099307","2017-04-05","20.67","1.0","26099307","22.15","20.7"
"20.76","20.57","20.76","20.76","20.03","0.0","21933897","2017-04-06","20.03","1.0","21933897","20.76","20.57"
"21.08","20.82","21.08","20.68","20.6","0.0","10574747","2017-04-07","20.6","1.0","10574747","20.68","20.82"
"21.27","20.97","21.27","21.09","20.7","0.0","8629845","2017-04-10","20.7","1.0","8629845","21.09","20.97"
"21.2","20.7","21.2","21.01","20.34","0.0","13310727","2017-04-11","20.34","1.0","13310727","21.01","20.7"
"20.83","20.22","20.83","20.7","20.18","0.0","9362568","2017-04-12","20.18","1.0","9362568","20.7","20.22"
"20.37","20.19","20.37","20.2","19.81","0.0","13600361","2017-04-13","19.81","1.0","13600361","20.2","20.19"
"20.21","19.94","20.21","20.09","19.8","0.0","11714666","2017-04-17","19.8","1.0","11714666","20.09","19.94"
"20.89","20.55","20.89","19.83","19.73","0.0","15974661","2017-04-18","19.73","1.0","15974661","19.83","20.55"
"20.91","20.62","20.91","20.5","20.41","0.0","8737757","2017-04-19","20.41","1.0","8737757","20.5","20.62"
"21.26","21.15","21.26","20.63","20.62","0.0","10025578","2017-04-20","20.62","1.0","10025578","20.63","21.15"
"21.49","20.93","21.49","21.37","20.71","0.0","7742074","2017-04-21","20.71","1.0","7742074","21.37","20.93"
"21.3","21.2","21.3","21.2","21.01","0.0","5928215","2017-04-24","21.01","1.0","5928215","21.2","21.2"
"21.4","21.34","21.4","21.08","20.56","0.0","9588043","2017-04-25","20.56","1.0","9588043","21.08","21.34"
"21.65","21.58","21.65","21.25","21.08","0.0","10141339","2017-04-26","21.08","1.0","10141339","21.25","21.58"
"22.12","22.01","22.12","21.58","21.58","0.0","10764391","2017-04-27","21.58","1.0","10764391","21.58","22.01"
"22.59","22.55","22.59","22.05","22.01","0.0","9031607","2017-04-28","22.01","1.0","9031607","22.05","22.55"
"22.84","22.21","22.84","22.66","22.11","0.0","7959265","2017-05-01","22.11","1.0","7959265","22.66","22.21"
"22.37","21.99","22.37","22.37","21.75","0.0","8135878","2017-05-02","21.75","1.0","8135878","22.37","21.99"
"22.21","21.82","22.21","21.8","21.633","0.0","7074347","2017-05-03","21.633","1.0","7074347","21.8","21.82"
"23.22","22.59","23.22","22.18","21.9","0.0","18997904","2017-05-04","21.9","1.0","18997904","22.18","22.59"
"23.25","23.19","23.25","23.08","22.51","0.0","12833904","2017-05-05","22.51","1.0","12833904","23.08","23.19"
"23.57","22.46","23.57","23.17","22.225","0.0","18088030","2017-05-08","22.225","1.0","18088030","23.17","22.46"
"23.44","23.32","23.44","22.7","22.675","0.0","17934983","2017-05-09","22.675","1.0","17934983","22.7","23.32"
"23.32","22.98","23.32","23.11","22.87","0.0","47513215","2017-05-10","22.87","1.0","47513215","23.11","22.98"
"18.9","18.05","18.9","17.96","17.59","0.0","131859462","2017-05-11","17.59","1.0","131859462","17.96","18.05"
"19.48","19.14","19.48","18.44","18.16","0.0","68971017","2017-05-12","18.16","1.0","68971017","18.44","19.14"
"20.95","20.74","20.95","19.57","19.49","0.0","69830020","2017-05-15","19.49","1.0","69830020","19.57","20.74"
"20.88","20.78","20.88","20.54","20.15","0.0","41017368","2017-05-16","20.15","1.0","41017368","20.54","20.78"
"20.59","19.9","20.59","20.56","19.69","0.0","29254481","2017-05-17","19.69","1.0","29254481","20.56","19.9"
"20.58","20.27","20.58","19.86","19.86","0.0","16005035","2017-05-18","19.86","1.0","16005035","19.86","20.27"
"20.64","20.0","20.64","20.42","19.93","0.0","18960743","2017-05-19","19.93","1.0","18960743","20.42","20.0"
"20.34","20.08","20.34","20.14","20.01","0.0","9151936","2017-05-22","20.01","1.0","9151936","20.14","20.08"
"20.3","20.03","20.3","20.14","19.9","0.0","8239193","2017-05-23","19.9","1.0","8239193","20.14","20.03"
"20.62","20.53","20.62","20.2","20.0","0.0","13810427","2017-05-24","20.0","1.0","13810427","20.2","20.53"
"21.94","21.93","21.94","20.16","20.11","0.0","24325952","2017-05-25","20.11","1.0","24325952","20.16","21.93"
"21.7","21.22","21.7","21.66","21.07","0.0","13374035","2017-05-26","21.07","1.0","13374035","21.66","21.22"
"21.58","21.45","21.58","21.3","21.01","0.0","9509369","2017-05-30","21.01","1.0","9509369","21.3","21.45"
"21.75","21.21","21.75","21.5","21.094","0.0","9507158","2017-05-31","21.094","1.0","9507158","21.5","21.21"
"21.45","21.34","21.45","21.32","21.19","0.0","7146544","2017-06-01","21.19","1.0","7146544","21.32","21.34"
"21.45","21.09","21.45","21.34","21.0","0.0","9595392","2017-06-02","21.0","1.0","9595392","21.34","21.09"
"20.89","20.21","20.89","20.52","20.14","0.0","15225105","2017-06-05","20.14","1.0","15225105","20.52","20.21"
"20.44","20.36","20.44","20.22","20.13","0.0","6666421","2017-06-06","20.13","1.0","6666421","20.22","20.36"
"20.489","19.56","20.489","20.37","19.45","0.0","16976983","2017-06-07","19.45","1.0","16976983","20.37","19.56"
"19.4","18.85","19.4","19.4","18.18","0.0","32644868","2017-06-08","18.18","1.0","32644868","19.4","18.85"
"18.46","18.08","18.46","18.41","17.88","0.0","31118878","2017-06-09","17.88","1.0","31118878","18.41","18.08"
"18.2","18.2","18.2","18.05","17.56","0.0","16172929","2017-06-12","17.56","1.0","16172929","18.05","18.2"
"18.58","18.1","18.58","18.38","18.08","0.0","11899206","2017-06-13","18.08","1.0","11899206","18.38","18.1"
"18.29","17.88","18.29","18.25","17.76","0.0","9455240","2017-06-14","17.76","1.0","9455240","18.25","17.88"
"17.75","17.0","17.75","17.72","17.0","0.0","22971179","2017-06-15","17.0","1.0","22971179","17.72","17.0"
"17.88","17.54","17.88","17.14","17.0","0.0","18955724","2017-06-16","17.0","1.0","18955724","17.14","17.54"
"18.34","17.88","18.34","17.85","17.03","0.0","28862728","2017-06-19","17.03","1.0","28862728","17.85","17.88"
"17.89","17.31","17.89","17.82","17.23","0.0","13960967","2017-06-20","17.23","1.0","13960967","17.82","17.31"
"17.43","17.27","17.43","17.27","17.13","0.0","8711473","2017-06-21","17.13","1.0","8711473","17.27","17.27"
"17.8","17.64","17.8","17.45","17.21","0.0","9873476","2017-06-22","17.21","1.0","9873476","17.45","17.64"
"17.82","17.54","17.82","17.82","17.47","0.0","7083637","2017-06-23","17.47","1.0","7083637","17.82","17.54"
"17.73","17.29","17.73","17.7","17.23","0.0","9873280","2017-06-26","17.23","1.0","9873280","17.7","17.29"
"17.48","17.34","17.48","17.21","17.2","0.0","7718562","2017-06-27","17.2","1.0","7718562","17.21","17.34"
"17.78","17.76","17.78","17.34","17.33","0.0","10456962","2017-06-28","17.33","1.0","10456962","17.34","17.76"
"18.13","17.89","18.13","17.69","17.67","0.0","12193935","2017-06-29","17.67","1.0","12193935","17.69","17.89"
"18.08","17.77","18.08","18.03","17.62","0.0","5993751","2017-06-30","17.62","1.0","5993751","18.03","17.77"
"17.92","17.59","17.92","17.91","17.45","0.0","3285663","2017-07-03","17.45","1.0","3285663","17.91","17.59"
"17.59","17.32","17.59","17.57","17.22","0.0","6042612","2017-07-05","17.22","1.0","6042612","17.57","17.32"
"17.38","17.31","17.38","17.25","17.235","0.0","6191798","2017-07-06","17.235","1.0","6191798","17.25","17.31"
"17.38","17.18","17.38","17.33","17.15","0.0","4546654","2017-07-07","17.15","1.0","4546654","17.33","17.18"
"17.21","16.99","17.21","17.16","16.95","0.0","8566640","2017-07-10","16.95","1.0","8566640","17.16","16.99"
"16.36","15.47","16.36","16.33","15.44","0.0","41936333","2017-07-11","15.44","1.0","41936333","16.33","15.47"
"15.75","15.24","15.75","15.54","15.21","0.0","19528366","2017-07-12","15.21","1.0","19528366","15.54","15.24"
"15.97","15.69","15.97","15.78","15.56","0.0","21598350","2017-07-13","15.56","1.0","21598350","15.78","15.69"
"15.59","15.27","15.59","15.44","15.265","0.0","14645605","2017-07-14","15.265","1.0","14645605","15.44","15.27"
"15.43","15.13","15.43","15.3","15.12","0.0","13289636","2017-07-17","15.12","1.0","13289636","15.3","15.13"
"15.25","14.73","15.25","15.17","14.63","0.0","19933981","2017-07-18","14.63","1.0","19933981","15.17","14.73"
"15.24","14.97","15.24","14.86","14.8","0.0","14394582","2017-07-19","14.8","1.0","14394582","14.86","14.97"
"15.14","14.89","15.14","15.05","14.72","0.0","11870198","2017-07-20","14.72","1.0","11870198","15.05","14.89"
"14.84","14.48","14.84","14.8","14.34","0.0","14252724","2017-07-21","14.34","1.0","14252724","14.8","14.48"
"14.48","14.08","14.48","14.45","14.02","0.0","14763826","2017-07-24","14.02","1.0","14763826","14.45","14.08"
"14.11","13.89","14.11","14.06","13.65","0.0","15148893","2017-07-25","13.65","1.0","15148893","14.06","13.89"
"13.82","13.4","13.82","13.74","13.4","0.0","21614399","2017-07-26","13.4","1.0","21614399","13.74","13.4"
"14.1","14.0","14.1","13.15","13.14","0.0","27167855","2017-07-27","13.14","1.0","27167855","13.15","14.0"
"14.03","13.81","14.03","13.9","13.5","0.0","16735539","2017-07-28","13.5","1.0","16735539","13.9","13.81"
"13.98","13.67","13.98","13.42","13.1","0.0","48964556","2017-07-31","13.1","1.0","48964556","13.42","13.67"
"13.775","13.1","13.775","13.77","13.07","0.0","27629924","2017-08-01","13.07","1.0","27629924","13.77","13.1"
"13.25","12.65","13.25","13.22","12.52","0.0","25294742","2017-08-02","12.52","1.0","25294742","13.22","12.65"
"13.15","12.93","13.15","12.65","11.905","0.0","61533506","2017-08-03","11.905","1.0","61533506","12.65","12.93"
"13.7","13.52","13.7","13.17","12.83","0.0","53080707","2017-08-04","12.83","1.0","53080707","13.17","13.52"
"14.06","13.39","14.06","13.86","13.24","0.0","34037655","2017-08-07","13.24","1.0","34037655","13.86","13.39"
"13.29","13.02","13.29","13.28","12.82","0.0","30037638","2017-08-08","12.82","1.0","30037638","13.28","13.02"
"13.65","13.56","13.65","12.96","12.78","0.0","26831893","2017-08-09","12.78","1.0","26831893","12.96","13.56"
"13.962","13.77","13.962","13.58","13.26","0.0","57716499","2017-08-10","13.26","1.0","57716499","13.58","13.77"
"12.34","11.83","12.34","12.0","11.77","0.0","83853248","2017-08-11","11.77","1.0","83853248","12.0","11.83"
"13.14","12.6","13.14","11.49","11.28","0.0","84794870","2017-08-14","11.28","1.0","84794870","11.49","12.6"
"13.3","12.74","13.3","13.05","12.66","0.0","43528305","2017-08-15","12.66","1.0","43528305","13.05","12.74"
"13.25","13.12","13.25","12.5","12.48","0.0","33264924","2017-08-16","12.48","1.0","33264924","12.5","13.12"
"13.5","13.35","13.5","12.95","12.95","0.0","36194310","2017-08-17","12.95","1.0","36194310","12.95","13.35"
"14.25","14.01","14.25","13.3","13.26","0.0","46204708","2017-08-18","13.26","1.0","46204708","13.3","14.01"
"14.59","13.58","14.59","14.27","13.35","0.0","44263525","2017-08-21","13.35","1.0","44263525","14.27","13.58"
"14.56","14.53","14.56","13.85","13.81","0.0","38183027","2017-08-22","13.81","1.0","38183027","13.85","14.53"
"15.13","15.09","15.13","14.55","14.38","0.0","65743141","2017-08-23","14.38","1.0","65743141","14.55","15.09"
"15.34","14.53","15.34","15.24","14.43","0.0","30674563","2017-08-24","14.43","1.0","30674563","15.24","14.53"
"14.85","14.78","14.85","14.62","14.45","0.0","23066766","2017-08-25","14.45","1.0","23066766","14.62","14.78"
"15.26","15.19","15.26","14.8","14.77","0.0","28018988","2017-08-28","14.77","1.0","28018988","14.8","15.19"
"15.31","14.99","15.31","15.05","14.88","0.0","20725594","2017-08-29","14.88","1.0","20725594","15.05","14.99"
"15.11","14.96","15.11","14.92","14.76","0.0","22479225","2017-08-30","14.76","1.0","22479225","14.92","14.96"
"15.05","14.51","15.05","14.98","14.51","0.0","23084722","2017-08-31","14.51","1.0","23084722","14.98","14.51"
"14.5","14.27","14.5","14.5","14.01","0.0","26055749","2017-09-01","14.01","1.0","26055749","14.5","14.27"
"14.57","14.49","14.57","14.28","14.08","0.0","21105835","2017-09-05","14.08","1.0","21105835","14.28","14.49"
"14.54","14.5","14.54","14.42","14.17","0.0","23117196","2017-09-06","14.17","1.0","23117196","14.42","14.5"
"15.58","15.15","15.58","14.43","14.4","0.0","45555411","2017-09-07","14.4","1.0","45555411","14.43","15.15"
"15.8","15.34","15.8","15.17","15.1","0.0","36557311","2017-09-08","15.1","1.0","36557311","15.17","15.34"
"15.57","15.27","15.57","15.25","14.889","0.0","32789106","2017-09-11","14.889","1.0","32789106","15.25","15.27"
"15.75","15.13","15.75","15.25","15.01","0.0","48940495","2017-09-12","15.01","1.0","48940495","15.25","15.13"
"15.33","15.03","15.33","15.2","14.855","0.0","24125666","2017-09-13","14.855","1.0","24125666","15.2","15.03"
"15.18","14.91","15.18","14.95","14.82","0.0","16333746","2017-09-14","14.82","1.0","16333746","14.95","14.91"
"15.31","15.25","15.31","14.99","14.93","0.0","34101415","2017-09-15","14.93","1.0","34101415","14.99","15.25"
"15.33","14.92","15.33","15.32","14.81","0.0","20935098","2017-09-18","14.81","1.0","20935098","15.32","14.92"
"14.9","14.72","14.9","14.9","14.46","0.0","23447127","2017-09-19","14.46","1.0","23447127","14.9","14.72"
"14.7","14.16","14.7","14.68","14.05","0.0","24848997","2017-09-20","14.05","1.0","24848997","14.68","14.16"
"14.11","13.77","14.11","13.99","13.51","0.0","25231686","2017-09-21","13.51","1.0","25231686","13.99","13.77"
"13.92","13.7","13.92","13.72","13.62","0.0","12302255","2017-09-22","13.62","1.0","12302255","13.72","13.7"
"13.51","13.22","13.51","13.5","13.07","0.0","18437421","2017-09-25","13.07","1.0","18437421","13.5","13.22"
"13.98","13.91","13.98","13.33","13.3","0.0","20062261","2017-09-26","13.3","1.0","20062261","13.33","13.91"
"14.25","14.12","14.25","14.0","13.825","0.0","16667613","2017-09-27","13.825","1.0","16667613","14.0","14.12"
"14.59","14.45","14.59","14.2","13.97","0.0","17561111","2017-09-28","13.97","1.0","17561111","14.2","14.45"
"14.7","14.54","14.7","14.43","14.3","0.0","20577391","2017-09-29","14.3","1.0","20577391","14.43","14.54"
"15.04","14.88","15.04","14.6","14.405","0.0","21212148","2017-10-02","14.405","1.0","21212148","14.6","14.88"
"15.1","14.64","15.1","14.87","14.59","0.0","16717528","2017-10-03","14.59","1.0","16717528","14.87","14.64"
"14.9","14.53","14.9","14.84","14.35","0.0","15687480","2017-10-04","14.35","1.0","15687480","14.84","14.53"
"14.56","14.48","14.56","14.3","14.1","0.0","13162735","2017-10-05","14.1","1.0","13162735","14.3","14.48"
"14.84","14.79","14.84","14.38","14.32","0.0","11941136","2017-10-06","14.32","1.0","11941136","14.38","14.79"
"14.92","14.71","14.92","14.81","14.67","0.0","9180238","2017-10-09","14.67","1.0","9180238","14.81","14.71"
"14.87","14.34","14.87","14.71","14.32","0.0","13769678","2017-10-10","14.32","1.0","13769678","14.71","14.34"
"15.98","15.98","15.98","14.64","14.465","0.0","40908094","2017-10-11","14.465","1.0","40908094","14.64","15.98"
"16.86","16.55","16.86","16.07","15.82","0.0","63193078","2017-10-12","15.82","1.0","63193078","16.07","16.55"
"16.88","16.5","16.88","16.48","16.22","0.0","24489434","2017-10-13","16.22","1.0","24489434","16.48","16.5"
"16.73","16.07","16.73","16.68","15.91","0.0","20868588","2017-10-16","15.91","1.0","20868588","16.68","16.07"
"16.61","16.09","16.61","16.29","16.05","0.0","15084874","2017-10-17","16.05","1.0","15084874","16.29","16.09"
"16.349","15.75","16.349","16.3","15.69","0.0","18322424","2017-10-18","15.69","1.0","18322424","16.3","15.75"
"15.59","15.25","15.59","15.47","15.18","0.0","19244600","2017-10-19","15.18","1.0","19244600","15.47","15.25"
"15.57","15.56","15.57","15.39","15.21","0.0","12876979","2017-10-20","15.21","1.0","12876979","15.39","15.56"
"15.69","14.97","15.69","15.58","14.89","0.0","19582909","2017-10-23","14.89","1.0","19582909","15.58","14.97"
"15.08","14.59","15.08","14.87","14.58","0.0","15448258","2017-10-24","14.58","1.0","15448258","14.87","14.59"
"14.93","14.16","14.93","14.7","13.96","0.0","20595482","2017-10-25","13.96","1.0","20595482","14.7","14.16"
"14.76","14.39","14.76","14.35","14.11","0.0","17056855","2017-10-26","14.11","1.0","17056855","14.35","14.39"
"15.48","15.44","15.48","14.27","14.22","0.0","23751275","2017-10-27","14.22","1.0","23751275","14.27","15.44"
"16.27","15.68","16.27","15.13","15.05","0.0","23643824","2017-10-30","15.05","1.0","23643824","15.13","15.68"
"15.73","15.34","15.73","15.65","15.17","0.0","13008916","2017-10-31","15.17","1.0","13008916","15.65","15.34"
"15.52","14.51","15.52","15.45","14.39","0.0","20443841","2017-11-01","14.39","1.0","20443841","15.45","14.51"
"14.87","14.55","14.87","14.45","14.4","0.0","11806405","2017-11-02","14.4","1.0","11806405","14.45","14.55"
"15.28","15.27","15.28","14.64","14.6","0.0","12784357","2017-11-03","14.6","1.0","12784357","14.64","15.27"
"15.29","14.83","15.29","15.19","14.8","0.0","17736885","2017-11-06","14.8","1.0","17736885","15.19","14.83"
"15.53","15.12","15.53","14.87","14.73","0.0","40978251","2017-11-07","14.73","1.0","40978251","14.87","15.12"
"14.09","12.91","14.09","13.47","12.1","0.0","162744709","2017-11-08","12.1","1.0","162744709","13.47","12.91"
"12.74","12.38","12.74","12.64","12.23","0.0","51605923","2017-11-09","12.23","1.0","51605923","12.64","12.38"
"12.84","12.76","12.84","12.5","12.31","0.0","32141043","2017-11-10","12.31","1.0","32141043","12.5","12.76"
"12.95","12.4","12.95","12.83","12.35","0.0","19219556","2017-11-13","12.35","1.0","19219556","12.83","12.4"
"12.7","12.57","12.7","12.41","12.25","0.0","13958895","2017-11-14","12.25","1.0","13958895","12.41","12.57"
"12.75","12.46","12.75","12.32","12.17","0.0","14406838","2017-11-15","12.17","1.0","14406838","12.32","12.46"
"12.68","12.56","12.68","12.5","12.38","0.0","15692482","2017-11-16","12.38","1.0","15692482","12.5","12.56"
"13.01","12.99","13.01","12.6","12.51","0.0","17551664","2017-11-17","12.51","1.0","17551664","12.6","12.99"
"13.11","12.41","13.11","13.1","12.29","0.0","30676066","2017-11-20","12.29","1.0","30676066","13.1","12.41"
"12.59","12.34","12.59","12.52","12.32","0.0","19010319","2017-11-21","12.32","1.0","19010319","12.52","12.34"
"12.64","12.62","12.64","12.35","12.35","0.0","14022076","2017-11-22","12.35","1.0","14022076","12.35","12.62"
"13.02","12.97","13.02","12.67","12.67","0.0","12772779","2017-11-24","12.67","1.0","12772779","12.67","12.97"
"13.38","13.06","13.38","12.87","12.86","0.0","19341806","2017-11-27","12.86","1.0","19341806","12.87","13.06"
"13.74","13.61","13.74","13.37","13.02","0.0","23774060","2017-11-28","13.02","1.0","23774060","13.37","13.61"
"13.99","13.7","13.99","13.54","13.2507","0.0","30098478","2017-11-29","13.2507","1.0","30098478","13.54","13.7"
"14.0","13.78","14.0","13.41","13.36","0.0","26854988","2017-11-30","13.36","1.0","26854988","13.41","13.78"
"13.9","13.87","13.9","13.67","13.41","0.0","19266925","2017-12-01","13.41","1.0","19266925","13.67","13.87"
"14.0","13.57","14.0","13.95","13.085","0.0","28799237","2017-12-04","13.085","1.0","28799237","13.95","13.57"
"15.1","14.94","15.1","14.4","14.02","0.0","51515768","2017-12-05","14.02","1.0","51515768","14.4","14.94"
"15.05","14.6","15.05","14.58","14.36","0.0","25883088","2017-12-06","14.36","1.0","25883088","14.58","14.6"
"14.77","14.7","14.77","14.65","14.28","0.0","16367100","2017-12-07","14.28","1.0","16367100","14.65","14.7"
"15.14","15.07","15.14","14.64","14.59","0.0","20226087","2017-12-08","14.59","1.0","20226087","14.64","15.07"
"16.305","16.22","16.305","15.14","15.07","0.0","34900125","2017-12-11","15.07","1.0","34900125","15.14","16.22"
"16.12","15.93","16.12","16.0","15.53","0.0","22254326","2017-12-12","15.53","1.0","22254326","16.0","15.93"
"16.18","15.96","16.18","15.8","15.79","0.0","14183714","2017-12-13","15.79","1.0","14183714","15.8","15.96"
"16.45","16.04","16.45","15.96","15.76","0.0","24942473","2017-12-14","15.76","1.0","24942473","15.96","16.04"
"16.04","15.75","16.04","16.0","15.63","0.0","19450444","2017-12-15","15.63","1.0","19450444","16.0","15.75"
"16.37","16.1","16.37","15.97","15.9339","0.0","20227811","2017-12-18","15.9339","1.0","20227811","15.97","16.1"
"16.04","15.77","16.04","15.91","15.65","0.0","12419194","2017-12-19","15.65","1.0","12419194","15.91","15.77"
"15.89","15.5","15.89","15.73","15.47","0.0","10167284","2017-12-20","15.47","1.0","10167284","15.73","15.5"
"15.68","15.37","15.68","15.34","15.2","0.0","12107131","2017-12-21","15.2","1.0","12107131","15.34","15.37"
"15.38","15.15","15.38","15.05","14.92","0.0","12087059","2017-12-22","14.92","1.0","12087059","15.05","15.15"
"15.1301","15.01","15.1301","15.02","14.84","0.0","6755329","2017-12-26","14.84","1.0","6755329","15.02","15.01"
"15.05","14.84","15.05","14.83","14.83","0.0","6726173","2017-12-27","14.83","1.0","6726173","14.83","14.84"
"15.0647","14.85","15.0647","14.82","14.77","0.0","8072901","2017-12-28","14.77","1.0","8072901","14.82","14.85"
"14.89","14.61","14.89","14.84","14.55","0.0","9518403","2017-12-29","14.55","1.0","9518403","14.84","14.61"
"15.01","14.95","15.01","14.69","14.61","0.0","9970989","2018-01-02","14.61","1.0","9970989","14.69","14.95"
"15.38","15.31","15.38","15.0","14.72","0.0","15921429","2018-01-03","14.72","1.0","15921429","15.0","15.31"
"15.0","14.59","15.0","14.76","14.274","0.0","27231995","2018-01-04","14.274","1.0","27231995","14.76","14.59"
"14.75","14.5","14.75","14.51","14.38","0.0","18828045","2018-01-05","14.38","1.0","18828045","14.51","14.5"
"14.28","14.06","14.28","14.21","13.58","0.0","27033592","2018-01-08","13.58","1.0","27033592","14.21","14.06"
"14.28","14.1","14.28","14.15","14.01","0.0","14929119","2018-01-09","14.01","1.0","14929119","14.15","14.1"
"14.67","14.65","14.67","14.07","13.921","0.0","14725775","2018-01-10","13.921","1.0","14725775","14.07","14.65"
"14.93","14.6","14.93","14.58","14.48","0.0","12497491","2018-01-11","14.48","1.0","12497491","14.58","14.6"
"14.32","14.11","14.32","14.17","13.92","0.0","21011262","2018-01-12","13.92","1.0","21011262","14.17","14.11"
"14.11","13.5","14.11","14.11","13.4","0.0","26654386","2018-01-16","13.4","1.0","26654386","14.11","13.5"
"13.82","13.52","13.82","13.61","13.35","0.0","14576964","2018-01-17","13.35","1.0","14576964","13.61","13.52"
"14.02","14.01","14.02","13.66","13.62","0.0","16316872","2018-01-18","13.62","1.0","16316872","13.66","14.01"
"14.24","14.04","14.24","14.01","13.82","0.0","16123860","2018-01-19","13.82","1.0","16123860","14.01","14.04"
"14.2","14.17","14.2","13.92","13.67","0.0","12479737","2018-01-22","13.67","1.0","12479737","13.92","14.17"
"14.67","14.25","14.67","14.19","14.13","0.0","13418836","2018-01-23","14.13","1.0","13418836","14.19","14.25"
"14.77","14.44","14.77","14.31","14.28","0.0","11979574","2018-01-24","14.28","1.0","11979574","14.31","14.44"
"14.3","13.71","14.3","14.28","13.7","0.0","23551647","2018-01-25","13.7","1.0","23551647","14.28","13.71"
"13.79","13.56","13.79","13.75","13.43","0.0","17366168","2018-01-26","13.43","1.0","17366168","13.75","13.56"
"13.67","13.47","13.67","13.54","13.3707","0.0","13584217","2018-01-29","13.3707","1.0","13584217","13.54","13.47"
"13.4","13.26","13.4","13.3","13.15","0.0","12413611","2018-01-30","13.15","1.0","12413611","13.3","13.26"
"13.62","13.52","13.62","13.31","13.26","0.0","13587041","2018-01-31","13.26","1.0","13587041","13.31","13.52"
"13.9999","13.92","13.9999","13.43","13.4","0.0","13306049","2018-02-01","13.4","1.0","13306049","13.43","13.92"
"13.89","13.71","13.89","13.59","13.51","0.0","18104538","2018-02-02","13.51","1.0","18104538","13.59","13.71"
